<?xml version="1.0" encoding="UTF-8" standalone="no"?>
<!-- Created with Inkscape (http://www.inkscape.org/) -->

<svg
   xmlns:dc="http://purl.org/dc/elements/1.1/"
   xmlns:cc="http://creativecommons.org/ns#"
   xmlns:rdf="http://www.w3.org/1999/02/22-rdf-syntax-ns#"
   xmlns:svg="http://www.w3.org/2000/svg"
   xmlns="http://www.w3.org/2000/svg"
   xmlns:xlink="http://www.w3.org/1999/xlink"
   xmlns:sodipodi="http://sodipodi.sourceforge.net/DTD/sodipodi-0.dtd"
   xmlns:inkscape="http://www.inkscape.org/namespaces/inkscape"
   id="svg2"
   version="1.1"
   inkscape:version="0.92.2 (5c3e80d, 2017-08-06)"
   width="2481"
   height="3503"
   sodipodi:docname="Pepper-and-Carrot_by-David-Revoy_E17P07.svg"
   inkscape:export-filename="E:\Users\jamesmichael\Downloads\Compressed\eps\peppercarrot_ep17_translation-master\peppercarrot_ep17_translation-master\ph\Pepper-and-Carrot_by-David-Revoy_E17P07.png"
   inkscape:export-xdpi="98.181801"
   inkscape:export-ydpi="98.181801">
  <metadata
     id="metadata8">
    <rdf:RDF>
      <cc:Work
         rdf:about="">
        <dc:format>image/svg+xml</dc:format>
        <dc:type
           rdf:resource="http://purl.org/dc/dcmitype/StillImage" />
        <dc:title />
      </cc:Work>
    </rdf:RDF>
  </metadata>
  <defs
     id="defs6">
    <filter
       style="color-interpolation-filters:sRGB;"
       inkscape:label="Drop Shadow"
       id="filter5522">
      <feFlood
         flood-opacity="1"
         flood-color="rgb(0,0,0)"
         result="flood"
         id="feFlood5524" />
      <feComposite
         in="flood"
         in2="SourceGraphic"
         operator="in"
         result="composite1"
         id="feComposite5526" />
      <feGaussianBlur
         in="composite1"
         stdDeviation="1"
         result="blur"
         id="feGaussianBlur5528" />
      <feOffset
         dx="2.5"
         dy="2.5"
         result="offset"
         id="feOffset5530" />
      <feComposite
         in="SourceGraphic"
         in2="offset"
         operator="over"
         result="composite2"
         id="feComposite5532" />
    </filter>
    <filter
       style="color-interpolation-filters:sRGB;"
       inkscape:label="Drop Shadow"
       id="filter5534">
      <feFlood
         flood-opacity="1"
         flood-color="rgb(0,0,0)"
         result="flood"
         id="feFlood5536" />
      <feComposite
         in="flood"
         in2="SourceGraphic"
         operator="in"
         result="composite1"
         id="feComposite5538" />
      <feGaussianBlur
         in="composite1"
         stdDeviation="1"
         result="blur"
         id="feGaussianBlur5540" />
      <feOffset
         dx="2.5"
         dy="2.5"
         result="offset"
         id="feOffset5542" />
      <feComposite
         in="SourceGraphic"
         in2="offset"
         operator="over"
         result="composite2"
         id="feComposite5544" />
    </filter>
    <filter
       style="color-interpolation-filters:sRGB;"
       inkscape:label="Drop Shadow"
       id="filter5546">
      <feFlood
         flood-opacity="1"
         flood-color="rgb(0,0,0)"
         result="flood"
         id="feFlood5548" />
      <feComposite
         in="flood"
         in2="SourceGraphic"
         operator="in"
         result="composite1"
         id="feComposite5550" />
      <feGaussianBlur
         in="composite1"
         stdDeviation="1"
         result="blur"
         id="feGaussianBlur5552" />
      <feOffset
         dx="2.5"
         dy="2.5"
         result="offset"
         id="feOffset5554" />
      <feComposite
         in="SourceGraphic"
         in2="offset"
         operator="over"
         result="composite2"
         id="feComposite5556" />
    </filter>
    <filter
       style="color-interpolation-filters:sRGB;"
       inkscape:label="Drop Shadow"
       id="filter5558">
      <feFlood
         flood-opacity="1"
         flood-color="rgb(0,0,0)"
         result="flood"
         id="feFlood5560" />
      <feComposite
         in="flood"
         in2="SourceGraphic"
         operator="in"
         result="composite1"
         id="feComposite5562" />
      <feGaussianBlur
         in="composite1"
         stdDeviation="1"
         result="blur"
         id="feGaussianBlur5564" />
      <feOffset
         dx="2.5"
         dy="2.5"
         result="offset"
         id="feOffset5566" />
      <feComposite
         in="SourceGraphic"
         in2="offset"
         operator="over"
         result="composite2"
         id="feComposite5568" />
    </filter>
  </defs>
  <sodipodi:namedview
     pagecolor="#ffffff"
     bordercolor="#666666"
     borderopacity="1"
     objecttolerance="10"
     gridtolerance="10"
     guidetolerance="10"
     inkscape:pageopacity="0"
     inkscape:pageshadow="2"
     inkscape:window-width="1366"
     inkscape:window-height="705"
     id="namedview4"
     showgrid="false"
     inkscape:zoom="0.34782609"
     inkscape:cx="1143.2828"
     inkscape:cy="464.22481"
     inkscape:window-x="-8"
     inkscape:window-y="-8"
     inkscape:window-maximized="1"
     inkscape:current-layer="layer3" />
  <g
     inkscape:groupmode="layer"
     id="layer2"
     inkscape:label="artwork"
     sodipodi:insensitive="true">
    <image
       sodipodi:absref="E:\Users\jamesmichael\Downloads\Compressed\eps\peppercarrot_ep17_translation-master\peppercarrot_ep17_translation-master\ph\../gfx_Pepper-and-Carrot_by-David-Revoy_E17P07.png"
       xlink:href="../gfx_Pepper-and-Carrot_by-David-Revoy_E17P07.png"
       y="0"
       x="0"
       id="image10"
       height="3503"
       width="2481" />
  </g>
  <g
     inkscape:groupmode="layer"
     id="layer3"
     inkscape:label="speechbubbles"
     style="opacity:1">
    <path
       style="color:#000000;display:inline;overflow:visible;visibility:visible;fill:#ffffff;fill-opacity:1;fill-rule:nonzero;stroke:none;stroke-width:0.93159747px;marker:none;enable-background:accumulate"
       d="m 1309.8861,252.39283 c 26.7813,-47.05288 223.67,-69.06199 267.4187,12.93224 49.4137,92.61148 14.1069,290.74328 -24.9608,332.20868 -36.9293,39.19581 -134.955,66.61211 -183.3237,27.04896 -48.3689,-39.56313 -85.9753,-93.03772 -88.1402,-211.16507 -0.8838,-48.21246 2.2247,-113.9719 29.006,-161.02481 z"
       id="path4040"
       inkscape:connector-curvature="0"
       sodipodi:nodetypes="zssssz" />
    <path
       style="color:#000000;display:inline;overflow:visible;visibility:visible;fill:#ffffff;fill-opacity:1;fill-rule:nonzero;stroke:none;stroke-width:1.27124858px;marker:none;enable-background:accumulate"
       d="m 1573.4925,573.42811 c -6.2634,26.17726 -12.4776,53.64925 -28.3789,71.9678 -4.6424,5.05977 -9.8414,9.80007 -16.1053,12.2129 -7.3998,0.56218 -15.3359,-5.97858 -20.3112,-13.97158 -7.7501,-11.14363 -12.7471,-25.55958 -23.3869,-33.58978 -7.8167,-5.65233 -15.1612,-2.22642 -21.687,-0.0965 -16.4511,5.86204 -31.6963,14.72906 -49.5969,17.06174 -19.6463,4.29114 -9.5832,-39.83264 -31.6367,-49.03709 -8.7129,-3.80607 134.4648,-79.36983 43.7037,-56.56348 -18.1607,-21.94816 -42.7149,13.44835 -37.3908,-10.98706 4.7719,-14.7832 -63.4388,-2.05419 -49.1756,9.21204 7.5759,5.83229 11.9045,15.96142 13.627,25.22755 5.7741,17.17576 15.0058,26.14621 29.2357,33.11095 11.7142,5.95914 23.927,7.82564 34.8511,6.01331 16.4972,2.56009 28.2295,-8.49888 41.1161,-15.06902 5.9504,-2.88104 14.6679,-1.32206 21.9599,0.005 10.6848,4.82459 19.4387,13.14399 24.1673,24.65665 5.1089,11.80211 10.5026,25.84889 21.0737,32.98904 7.0264,5.99238 10.0518,2.61225 15.0882,-0.0113 14.676,-11.36768 26.2032,-26.54954 31.9325,-46.89372 0.4086,-2.02804 0.664,-4.12832 0.9145,-6.23644 z"
       id="path4496-6"
       inkscape:connector-curvature="0"
       sodipodi:nodetypes="cccccccccccccccccccccc" />
    <path
       style="fill:#ffffff;stroke:none;stroke-width:1.0866468"
       d="m 745.84962,466.49592 c 20.30995,-143.43889 74.91313,-130.27469 116.44256,-137.36923 52.54148,-8.60031 130.70176,-0.37512 156.11272,68.53179 40.5027,119.87714 -17.5554,188.08584 -58.0427,216.61958 -64.68738,40.12098 -131.38661,21.62262 -195.46833,-21.34925 -11.91077,-10.49937 -25.42424,-77.2038 -19.04425,-126.43289 z"
       id="path3100"
       inkscape:connector-curvature="0"
       sodipodi:nodetypes="cccccc" />
    <path
       style="color:#000000;display:inline;overflow:visible;visibility:visible;fill:#ffffff;fill-opacity:1;fill-rule:nonzero;stroke:none;stroke-width:1.26523817px;marker:none;enable-background:accumulate"
       d="m 744.6212,601.09072 c 62.14532,52.54616 90.41803,17.47931 101.98459,-102.65595 11.48796,-119.31881 42.62521,-10.58039 42.62521,-10.58039 0,0 -10.34632,264.52863 -144.6098,113.23634 z"
       id="path3984"
       inkscape:connector-curvature="0"
       sodipodi:nodetypes="cscc" />
    <text
       xml:space="preserve"
       style="font-style:normal;font-variant:normal;font-weight:normal;font-stretch:normal;line-height:0%;font-family:Arial;-inkscape-font-specification:Arial;text-align:center;letter-spacing:0px;word-spacing:0px;text-anchor:middle;display:inline;opacity:0.85500004;fill:#ffffff;fill-opacity:1;stroke:#ffffff;filter:url(#filter5558)"
       x="1240.6473"
       y="3388.5505"
       id="text4229"><tspan
         sodipodi:role="line"
         x="1240.6473"
         y="3388.5505"
         style="font-style:normal;font-variant:normal;font-weight:normal;font-stretch:normal;font-size:27.5px;line-height:1.25;font-family:Lavi;-inkscape-font-specification:Lavi;fill:#ffffff;stroke:#ffffff"
         id="tspan4169">License : Creative Commons Attribution 4.0, Software: Krita, Gmic, Inkscape on Ubuntu</tspan></text>
    <text
       xml:space="preserve"
       style="color:#000000;font-style:normal;font-variant:normal;font-weight:normal;font-stretch:normal;line-height:0%;font-family:Lavi;-inkscape-font-specification:Lavi;text-indent:0;text-align:center;text-decoration:none;text-decoration-line:none;letter-spacing:0px;word-spacing:0px;text-transform:none;writing-mode:lr-tb;direction:ltr;baseline-shift:baseline;text-anchor:middle;display:inline;overflow:visible;visibility:visible;opacity:0.85500004;fill:#ffffff;fill-opacity:1;fill-rule:nonzero;stroke:#ffffff;filter:url(#filter5546);enable-background:accumulate"
       x="1242.353"
       y="3350.7795"
       id="text4246-42-4"><tspan
         sodipodi:role="line"
         style="color:#000000;font-style:normal;font-variant:normal;font-weight:normal;font-stretch:normal;font-size:27.5px;line-height:125%;font-family:Lavi;-inkscape-font-specification:Lavi;text-indent:0;text-align:center;text-decoration:none;text-decoration-line:none;letter-spacing:0px;word-spacing:0px;text-transform:none;writing-mode:lr-tb;direction:ltr;baseline-shift:baseline;text-anchor:middle;display:inline;overflow:visible;visibility:visible;fill:#ffffff;fill-opacity:1;fill-rule:nonzero;stroke:#ffffff;enable-background:accumulate"
         x="1242.353"
         y="3350.7795"
         id="tspan4252-9-9">Based on the Hereva universe created by David Revoy with contributions by Craig Maloney. Corrections by Willem Sonke, Moini, Hali, CGand and Alex Gryson.</tspan></text>
    <text
       xml:space="preserve"
       style="font-style:normal;font-variant:normal;font-weight:normal;font-stretch:normal;line-height:0%;font-family:Lavi;-inkscape-font-specification:Lavi;text-align:center;letter-spacing:0px;word-spacing:0px;text-anchor:middle;opacity:1;fill:#ffffff;fill-opacity:1;stroke:#ffffff;stroke-width:3.82200003;stroke-miterlimit:4;stroke-dasharray:none;stroke-opacity:1;filter:url(#filter5534)"
       x="2028.7821"
       y="2443.6147"
       id="text4213"
       transform="matrix(0.75304346,0,-0.11971288,1.3279446,0,27.158278)"><tspan
         sodipodi:role="line"
         id="tspan4215"
         x="2028.7821"
         y="2443.6147"
         style="font-size:63.55184174px;line-height:1.25;fill:#ffffff;stroke:#ffffff;stroke-width:3.82200003;stroke-miterlimit:4;stroke-dasharray:none">- Waks -</tspan></text>
    <text
       xml:space="preserve"
       style="font-style:normal;font-variant:normal;font-weight:normal;font-stretch:normal;line-height:0%;font-family:Lavi;-inkscape-font-specification:Lavi;text-align:center;letter-spacing:0px;word-spacing:0px;text-anchor:middle;fill:#ffffff;fill-opacity:1;stroke:#ffffff;filter:url(#filter5522)"
       x="1240.0964"
       y="3314.6868"
       id="text4246-42"><tspan
         sodipodi:role="line"
         style="font-size:36.73472214px;line-height:1.25;fill:#ffffff;stroke:#ffffff"
         x="1240.0964"
         y="3314.6868"
         id="tspan4252-9">06/2016 - www.peppercarrot.com - Art &amp; Scenario : David Revoy - English Translation : Abes Paolo</tspan></text>
    <text
       xml:space="preserve"
       style="font-style:normal;font-weight:normal;font-size:40px;line-height:1.25;font-family:Lavi;letter-spacing:0px;word-spacing:0px;fill:#000000;fill-opacity:1;stroke:none;-inkscape-font-specification:Lavi;font-stretch:normal;font-variant:normal;"
       x="908.72058"
       y="721.94904"
       id="text4808"><tspan
         sodipodi:role="line"
         id="tspan4806"
         x="908.72058"
         y="758.44226" /></text>
    <flowRoot
       xml:space="preserve"
       id="flowRoot4810"
       style="fill:black;fill-opacity:1;stroke:none;font-family:Lavi;font-style:normal;font-weight:normal;font-size:40px;line-height:1.25;letter-spacing:0px;word-spacing:0px;-inkscape-font-specification:Lavi;font-stretch:normal;font-variant:normal;"><flowRegion
         id="flowRegion4812"
         style="-inkscape-font-specification:Lavi;font-family:Lavi;font-weight:normal;font-style:normal;font-stretch:normal;font-variant:normal;"><rect
           id="rect4814"
           width="211.42493"
           height="256.14941"
           x="957.51099"
           y="616.23657"
           style="-inkscape-font-specification:Lavi;font-family:Lavi;font-weight:normal;font-style:normal;font-stretch:normal;font-variant:normal;" /></flowRegion><flowPara
         id="flowPara4816" /></flowRoot>    <text
       xml:space="preserve"
       style="font-style:normal;font-weight:normal;font-size:40px;line-height:1.25;font-family:sans-serif;letter-spacing:0px;word-spacing:0px;fill:#000000;fill-opacity:1;stroke:none"
       x="1022.5648"
       y="677.22455"
       id="text4820"><tspan
         sodipodi:role="line"
         x="1022.5648"
         y="713.71777"
         id="tspan4826" /></text>
    <flowRoot
       xml:space="preserve"
       id="flowRoot4832"
       style="fill:black;fill-opacity:1;stroke:none;font-family:sans-serif;font-style:normal;font-weight:normal;font-size:40px;line-height:1.25;letter-spacing:0px;word-spacing:0px"><flowRegion
         id="flowRegion4834"><rect
           id="rect4836"
           width="2.032932"
           height="77.251411"
           x="1026.6306"
           y="677.22455" /></flowRegion><flowPara
         id="flowPara4838" /></flowRoot>    <flowRoot
       xml:space="preserve"
       id="flowRoot4840"
       style="fill:black;fill-opacity:1;stroke:none;font-family:sans-serif;font-style:normal;font-weight:normal;font-size:40px;line-height:1.25;letter-spacing:0px;word-spacing:0px"><flowRegion
         id="flowRegion4842"><rect
           id="rect4844"
           width="270.37994"
           height="272.41287"
           x="857.89728"
           y="683.32336" /></flowRegion><flowPara
         id="flowPara4846" /></flowRoot>    <flowRoot
       xml:space="preserve"
       id="flowRoot4857"
       style="font-style:normal;font-variant:normal;font-weight:normal;font-stretch:normal;font-size:40px;line-height:1.25;font-family:Lavi;-inkscape-font-specification:Lavi;text-align:center;letter-spacing:0px;word-spacing:0px;text-anchor:middle;fill:#000000;fill-opacity:1;stroke:none"
       transform="translate(404.55347,-388.29)"><flowRegion
         id="flowRegion4859"
         style="font-style:normal;font-variant:normal;font-weight:normal;font-stretch:normal;font-family:Lavi;-inkscape-font-specification:Lavi;text-align:center;text-anchor:middle"><rect
           id="rect4861"
           width="321.20322"
           height="372.02655"
           x="870.09491"
           y="628.4342"
           style="font-style:normal;font-variant:normal;font-weight:normal;font-stretch:normal;font-family:Lavi;-inkscape-font-specification:Lavi;text-align:center;text-anchor:middle" /></flowRegion><flowPara
         id="flowPara4863">...</flowPara><flowPara
         id="flowPara4873">tapos andito </flowPara><flowPara
         id="flowPara4871">ka kamo... </flowPara><flowPara
         id="flowPara4865">kasi wala </flowPara><flowPara
         id="flowPara4867">silang naituro sayong kahit </flowPara><flowPara
         id="flowPara4822">na ano?</flowPara><flowPara
         id="flowPara4869" /></flowRoot>  </g>
  <g
     inkscape:groupmode="layer"
     id="layer1"
     inkscape:label="txt">
    <text
       xml:space="preserve"
       style="font-style:normal;font-variant:normal;font-weight:normal;font-stretch:normal;line-height:0%;font-family:Lavi;-inkscape-font-specification:Lavi;text-align:center;letter-spacing:0px;word-spacing:0px;text-anchor:middle;fill:#000000;fill-opacity:1;stroke:none"
       x="884.41058"
       y="431.02173"
       id="text4246-0"><tspan
         sodipodi:role="line"
         style="font-size:45px;line-height:1.25"
         x="892.32074"
         y="431.02173"
         id="tspan3485">yun ang </tspan><tspan
         sodipodi:role="line"
         style="font-size:45px;line-height:1.25"
         x="884.41058"
         y="487.27173"
         id="tspan4802">buong</tspan><tspan
         sodipodi:role="line"
         style="font-size:45px;line-height:1.25"
         x="884.41058"
         y="543.52173"
         id="tspan4804"> kwento.</tspan></text>
    <path
       style="color:#000000;display:inline;overflow:visible;visibility:visible;fill:#ffffff;fill-opacity:1;fill-rule:nonzero;stroke:none;stroke-width:1.27383363px;marker:none;enable-background:accumulate"
       d="M 186.95581,239.4698 C 185.45677,210.78666 212.20527,69.566183 303.8817,78.844593 417.6722,90.361123 413.31239,206.96227 412.56284,245.20648 c -0.74956,38.24402 -23.23523,97.52243 -36.72673,107.08348 -13.49144,9.56106 -48.71912,32.50736 -71.20494,24.85878 -22.48565,-7.64898 -86.9723,-15.47075 -100.46381,-49.89058 -13.49142,-34.41961 -15.71251,-80.13959 -17.21155,-87.78836 z"
       id="path3365"
       inkscape:connector-curvature="0"
       sodipodi:nodetypes="csssssc" />
    <text
       xml:space="preserve"
       style="font-style:normal;font-variant:normal;font-weight:normal;font-stretch:normal;line-height:0%;font-family:Lavi;-inkscape-font-specification:Lavi;text-align:center;letter-spacing:0px;word-spacing:0px;text-anchor:middle;fill:#000000;fill-opacity:1;stroke:none"
       x="290.99957"
       y="217.91924"
       id="text4246-0-7"><tspan
         sodipodi:role="line"
         style="font-size:45px;line-height:1.25"
         x="298.90973"
         y="217.91924"
         id="tspan3481">...so, ayun </tspan><tspan
         sodipodi:role="line"
         style="font-size:45px;line-height:1.25"
         x="290.99957"
         y="274.16922"
         id="tspan4798">na nga.</tspan></text>
    <g
       aria-label="♥"
       transform="matrix(1.0329575,-0.02668972,0,0.96809403,0,0)"
       style="font-style:normal;font-weight:normal;font-size:404.78762817px;line-height:1.25;font-family:sans-serif;letter-spacing:0px;word-spacing:0px;fill:#000000;fill-opacity:1;stroke:none;stroke-width:10.11969185"
       id="text4877">
      <path
         d="m 843.44907,2590.3482 c -14.83126,-1.2589 -24.12403,-2.1959 -27.87805,-2.8113 -6.13295,-0.976 -11.30121,-2.3929 -15.50507,-4.2507 -4.20639,-1.9733 -7.92694,-4.5866 -11.16149,-7.8401 -13.9204,-15.6469 -9.37197,-36.3193 -1.33439,-44.8586 20.50569,-22.5079 35.97419,-6.6604 36.1916,-25.498 1.68112,-18.7633 11.14335,-36.7791 28.10571,-38.1774 7.83589,-0.5846 14.53018,1.9155 20.08287,7.5006 4.85182,4.8802 8.79101,11.3257 11.81748,19.3368 2.97261,7.9567 5.48671,20.0806 7.5422,36.3713 10.39298,50.2085 -7.23019,57.681 -47.86086,60.2274 z"
         style="fill:#ffffff;stroke-width:5.99112368"
         id="path4879"
         inkscape:connector-curvature="0"
         sodipodi:nodetypes="cccccccsccc" />
      <path
         sodipodi:nodetypes="cccccccscccc"
         inkscape:connector-curvature="0"
         id="path4891"
         style="fill:#ffffff;stroke-width:1.83608162"
         d="m 1361.5513,2960.6216 c 0.5346,-4.6198 0.9151,-7.5216 1.1416,-8.7052 0.3609,-1.9323 0.8477,-3.5895 1.4598,-4.9714 0.6481,-1.3884 1.4878,-2.6583 2.5192,-3.8098 4.9443,-5.0347 11.2477,-4.6352 13.79,-2.577 6.7079,5.2161 1.6866,10.7364 7.4697,9.8933 5.7457,-0.3896 11.1842,1.6487 11.4444,6.7952 0.1014,2.3806 -0.7333,4.5591 -2.504,6.5357 -1.5472,1.7271 -3.566,3.2494 -6.0565,4.5667 -2.4733,1.298 -6.2218,2.6565 -11.2454,4.0752 -15.5234,5.6201 -13.3585,11.0444 -18.0191,-11.8026 z" />
      <path
         style="color:#000000;font-style:normal;font-variant:normal;font-weight:normal;font-stretch:normal;font-size:medium;line-height:1.25;font-family:sans-serif;font-variant-ligatures:normal;font-variant-position:normal;font-variant-caps:normal;font-variant-numeric:normal;font-variant-alternates:normal;font-feature-settings:normal;text-indent:0;text-align:start;text-decoration:none;text-decoration-line:none;text-decoration-style:solid;text-decoration-color:#000000;letter-spacing:0px;word-spacing:0px;text-transform:none;writing-mode:lr-tb;direction:ltr;text-orientation:mixed;dominant-baseline:auto;baseline-shift:baseline;text-anchor:start;white-space:normal;shape-padding:0;clip-rule:nonzero;display:inline;overflow:visible;visibility:visible;opacity:1;isolation:auto;mix-blend-mode:normal;color-interpolation:sRGB;color-interpolation-filters:linearRGB;solid-color:#000000;solid-opacity:1;vector-effect:none;fill:#ffffff;fill-opacity:1;fill-rule:nonzero;stroke:none;stroke-width:9.12415886;stroke-linecap:butt;stroke-linejoin:miter;stroke-miterlimit:4;stroke-dasharray:none;stroke-dashoffset:0;stroke-opacity:1;color-rendering:auto;image-rendering:auto;shape-rendering:auto;text-rendering:auto;enable-background:accumulate"
         d="m 1431.3041,2969.9201 c -4.8325,0.2374 -10.8855,1.4246 -17.3942,3.1043 -17.3565,4.4793 -38.4497,12.5308 -53.7237,18.4934 -7.2755,4.2905 -17.3578,9.5206 -2.5607,6.4222 14.8159,-5.7836 34.5784,-13.205 48.7676,-16.8669 7.0946,-1.831 12.6708,-2.7041 16.0349,-2.3222 3.3642,0.382 4.8854,1.8686 3.37,5.5957 2.7049,1.798 6.8297,1.3638 15.3417,-5.9667 2.0588,-5.0633 -0.1934,-7.7691 -5.4379,-8.3646 -1.3111,-0.1489 -2.7869,-0.1744 -4.3977,-0.095 z"
         id="path4893"
         inkscape:connector-curvature="0"
         sodipodi:nodetypes="cccccccccc" />
      <path
         style="color:#000000;font-style:normal;font-variant:normal;font-weight:normal;font-stretch:normal;font-size:medium;line-height:1.25;font-family:sans-serif;font-variant-ligatures:normal;font-variant-position:normal;font-variant-caps:normal;font-variant-numeric:normal;font-variant-alternates:normal;font-feature-settings:normal;text-indent:0;text-align:start;text-decoration:none;text-decoration-line:none;text-decoration-style:solid;text-decoration-color:#000000;letter-spacing:0px;word-spacing:0px;text-transform:none;writing-mode:lr-tb;direction:ltr;text-orientation:mixed;dominant-baseline:auto;baseline-shift:baseline;text-anchor:start;white-space:normal;shape-padding:0;clip-rule:nonzero;display:inline;overflow:visible;visibility:visible;opacity:1;isolation:auto;mix-blend-mode:normal;color-interpolation:sRGB;color-interpolation-filters:linearRGB;solid-color:#000000;solid-opacity:1;vector-effect:none;fill:#ffffff;fill-opacity:1;fill-rule:nonzero;stroke:none;stroke-width:12.30313301;stroke-linecap:butt;stroke-linejoin:miter;stroke-miterlimit:4;stroke-dasharray:none;stroke-dashoffset:0;stroke-opacity:1;color-rendering:auto;image-rendering:auto;shape-rendering:auto;text-rendering:auto;enable-background:accumulate"
         d="m 659.0293,2570.1585 c -0.36229,5.3317 0.61488,9.6987 13.04688,5.8151 5.96467,-4.0166 11.25685,-6.1034 15.85937,-7.0486 4.60252,-0.9452 8.76432,-0.9275 13.92383,-0.1054 10.31902,1.6443 29.29713,7.7735 45.12318,14.542 31.65211,13.537 69.37723,30.7802 132.90221,25.2833 11.89159,-4.3017 0.28919,-6.2144 -2.97852,-8.9746 -20.87568,9.9822 -73.73177,3.0052 -105.21582,-10.46 -15.74202,-6.7326 -45.64904,-25.2815 -61.32411,-27.7793 -24.63572,-3.3425 -36.7198,-0.978 -51.33702,8.7275 z"
         id="path4895"
         inkscape:connector-curvature="0"
         sodipodi:nodetypes="cccccccccc" />
      <path
         sodipodi:nodetypes="ccc"
         inkscape:connector-curvature="0"
         id="path4909"
         d="m 927.11661,2587.7668 c 0.42575,9.8107 -0.72258,17.7405 -15.33225,9.5848 -16.88993,-4.9143 11.87704,-44.2316 15.33225,-9.5848 z"
         style="color:#000000;font-style:normal;font-variant:normal;font-weight:normal;font-stretch:normal;font-size:medium;line-height:1.25;font-family:sans-serif;font-variant-ligatures:normal;font-variant-position:normal;font-variant-caps:normal;font-variant-numeric:normal;font-variant-alternates:normal;font-feature-settings:normal;text-indent:0;text-align:start;text-decoration:none;text-decoration-line:none;text-decoration-style:solid;text-decoration-color:#000000;letter-spacing:0px;word-spacing:0px;text-transform:none;writing-mode:lr-tb;direction:ltr;text-orientation:mixed;dominant-baseline:auto;baseline-shift:baseline;text-anchor:start;white-space:normal;shape-padding:0;clip-rule:nonzero;display:inline;overflow:visible;visibility:visible;opacity:1;isolation:auto;mix-blend-mode:normal;color-interpolation:sRGB;color-interpolation-filters:linearRGB;solid-color:#000000;solid-opacity:1;vector-effect:none;fill:#ffffff;fill-opacity:1;fill-rule:nonzero;stroke:none;stroke-width:18.06403732;stroke-linecap:butt;stroke-linejoin:miter;stroke-miterlimit:4;stroke-dasharray:none;stroke-dashoffset:0;stroke-opacity:1;color-rendering:auto;image-rendering:auto;shape-rendering:auto;text-rendering:auto;enable-background:accumulate" />
    </g>
  </g>
</svg>
