<?xml version="1.0" encoding="UTF-8" standalone="no"?>
<svg
   xmlns:dc="http://purl.org/dc/elements/1.1/"
   xmlns:cc="http://creativecommons.org/ns#"
   xmlns:rdf="http://www.w3.org/1999/02/22-rdf-syntax-ns#"
   xmlns:svg="http://www.w3.org/2000/svg"
   xmlns="http://www.w3.org/2000/svg"
   xmlns:xlink="http://www.w3.org/1999/xlink"
   xmlns:sodipodi="http://sodipodi.sourceforge.net/DTD/sodipodi-0.dtd"
   xmlns:inkscape="http://www.inkscape.org/namespaces/inkscape"
   sodipodi:docname="E34P08.svg"
   height="3503"
   width="2481"
   inkscape:version="1.0.2 (1.0.2+r75+1)"
   version="1.1"
   id="svg2">
  <metadata
     id="metadata8">
    <rdf:RDF>
      <cc:Work
         rdf:about="">
        <dc:format>image/svg+xml</dc:format>
        <dc:type
           rdf:resource="http://purl.org/dc/dcmitype/StillImage" />
        <dc:title />
      </cc:Work>
    </rdf:RDF>
  </metadata>
  <defs
     id="defs6" />
  <sodipodi:namedview
     borderlayer="true"
     inkscape:snap-global="false"
     inkscape:document-rotation="0"
     inkscape:current-layer="layer3"
     inkscape:window-maximized="1"
     inkscape:window-y="24"
     inkscape:window-x="0"
     inkscape:cy="2687.0773"
     inkscape:cx="1107.8147"
     inkscape:zoom="0.60835002"
     showgrid="false"
     id="namedview4"
     inkscape:window-height="1390"
     inkscape:window-width="2560"
     inkscape:pageshadow="2"
     inkscape:pageopacity="0"
     guidetolerance="10"
     gridtolerance="10"
     objecttolerance="10"
     borderopacity="1"
     bordercolor="#666666"
     pagecolor="#ffffff" />
  <g
     sodipodi:insensitive="true"
     inkscape:label="artwork"
     id="layer2"
     inkscape:groupmode="layer">
    <image
       sodipodi:absref="/home/deevad/peppercarrot/webcomics/new-ep34_The-Knighting-of-Shichimi/lang/gfx_Pepper-and-Carrot_by-David-Revoy_E34P08.png"
       xlink:href="../gfx_Pepper-and-Carrot_by-David-Revoy_E34P08.png"
       width="2481"
       height="3503"
       id="image10"
       x="0"
       y="0" />
  </g>
  <g
     style="display:inline"
     inkscape:label="speechbubbles"
     id="layer3"
     inkscape:groupmode="layer">
    <path
       sodipodi:nodetypes="cccc"
       inkscape:connector-curvature="0"
       id="path3984-7"
       d="m 1858.8745,2602.7661 c 24.645,-31.5484 88.5186,-58.8546 134.0691,-29.1667 47.5832,1.2392 31.3766,-27.3129 31.3766,-27.3129 -2.2798,-13.3723 -128.0086,-31.4485 -165.4457,56.4796 z"
       style="color:#000000;display:inline;overflow:visible;visibility:visible;fill:#ffffff;fill-opacity:1;fill-rule:nonzero;stroke:none;stroke-width:0.770224px;marker:none;enable-background:accumulate" />
    <path
       sodipodi:nodetypes="csssc"
       inkscape:connector-curvature="0"
       id="path3280-8-3"
       d="m 2139.5807,2621.5127 c -39.732,1.3571 -80.0519,12.1288 -112.5385,35.864 -52.0268,39.4894 -77.6571,111.1111 -62.1474,174.9315 7.5004,34.7258 29.3504,66.6165 60.4817,83.8481 30.274,17.1278 64.9382,24.0812 99.0946,27.9709 50.4803,5.2413 102.0181,-0.9357 150.1128,-17.1287 27.1188,-9.7274 49.3649,-31.8275 59.8113,-58.8177 10.3673,-25.8551 12.2721,-54.1555 12.3085,-81.756 -0.8573,-42.316 -15.4633,-84.2846 -41.0767,-117.8275 -12.0666,-15.8031 -29.4552,-27.3242 -48.6879,-32.0597 -22.5825,-5.5319 -45.6993,-8.3271 -68.6603,-11.7299 -16.1452,-2.0834 -32.4067,-3.5349 -48.6981,-3.295 z"
       style="display:inline;fill:#ffffff;stroke:none;stroke-width:1.31614" />
    <path
       sodipodi:nodetypes="cccscsc"
       inkscape:connector-curvature="0"
       id="path3970-3"
       d="m 2152.1088,2472.571 c -41.7584,-0.9701 -84.0784,3.662 -123.2497,17.4105 -14.7151,5.29 -29.2257,12.7608 -38.8403,24.7234 -12.0315,15.1252 -17.9022,34.0355 -18.41,52.7878 -0.1046,18.5638 7.1715,37.6624 21.8731,50.5903 11.7363,10.1785 26.957,15.6751 41.7542,20.7364 27.1244,9.1294 55.5564,14.2904 84.0868,17.5432 18.9775,2.1752 38.0323,3.74 57.1042,4.8757 16.8858,0.6093 33.7178,-1.6169 50.1146,-5.1354 23.7549,-4.5131 47.7514,-10.3879 68.4689,-22.4672 14.7362,-8.7345 27.1907,-21.7633 32.0384,-37.6643 6.5761,-20.4107 1.5862,-43.6413 -12.6138,-60.4231 -11.8436,-15.4162 -25.9168,-29.9854 -43.9326,-39.2111 -15.1977,-7.5829 -32.0986,-11.3046 -48.7019,-15.0934 -22.8853,-4.9277 -46.2523,-7.7894 -69.6919,-8.6728 z"
       style="color:#000000;display:inline;overflow:visible;visibility:visible;fill:#ffffff;fill-opacity:1;fill-rule:nonzero;stroke:none;stroke-width:0.728515px;marker:none;enable-background:accumulate" />
    <path
       sodipodi:nodetypes="cccccccccccccccccccc"
       inkscape:connector-curvature="0"
       id="path1096"
       d="m 149.97784,2639.0252 c 39.86193,27.8955 32.52231,40.0735 -23.67073,35.9837 89.58912,42.8351 52.60569,49.2464 -4.1167,49.9774 38.07751,15.6456 80.20982,30.956 -7.20414,56.9743 50.65722,4.2183 94.79578,10.1746 8.23329,50.977 44.91072,-1.6758 74.04332,-18.7567 19.8773,36.7827 73.51489,-24.9458 140.64956,-17.0906 102.59359,45.1802 36.95129,-18.3388 97.70046,-64.815 76.15825,-13.9936 16.9296,-16.2306 38.47559,-22.3733 77.18751,8.9959 -7.54878,-22.6233 -30.29283,-58.4779 38.07913,-14.9932 -20.6692,-34.0251 -0.84903,-68.3859 68.1897,-17.9249 -10.28467,-25.6552 -78.5565,-35.3843 5.91036,-61.0395 -58.18262,-2.5587 -40.13526,-19.9247 -3.08744,-40.9814 -69.28068,-11.6374 -35.0024,-25.7279 6.17499,-39.982 -42.91247,-5.4331 -76.01888,-14.5828 -8.2334,-61.972 -74.61274,19.6735 -53.02033,-13.6004 -49.40008,-36.9833 -34.43236,18.5673 -73.37075,47.7106 -76.15836,-7.9964 -46.18982,69.1143 -63.67863,16.2752 -89.5375,-0.9995 -26.8957,82.2398 -87.8655,6.4455 -104.97483,0.9995 34.89138,33.6606 40.98338,48.9014 -36.02094,10.9951 z"
       style="display:inline;fill:#ffffff;fill-rule:evenodd;stroke:none;stroke-width:1.19769px;stroke-linecap:butt;stroke-linejoin:miter;stroke-opacity:1" />
    <path
       sodipodi:nodetypes="cccccccccc"
       id="path1313"
       d="m 276.69249,2637.35 c 22.24357,147.5922 76.16994,294.7462 66.72409,442.7767 39.32721,-7.5351 57.02691,-43.538 110.60404,61.3044 36.13567,-50.5432 43.46402,-9.9468 54.08883,20.3938 25.92501,-21.2619 53.62712,-17.4156 81.20022,-15.3921 -24.07084,-2.6294 -42.56765,-23.176 -74.42406,-0.7793 -0.99204,-50.5675 -24.7242,-64.2967 -53.19608,-40.6932 -22.25284,-65.4923 -46.37098,-77.5206 -92.38131,-54.9383 1.82968,-175.1557 -47.49605,-279.4592 -67.44658,-422.2765 z"
       style="fill:#ffffff;fill-rule:evenodd;stroke:none;stroke-width:1px;stroke-linecap:butt;stroke-linejoin:miter;stroke-opacity:1" />
    <path
       sodipodi:nodetypes="cssssscsc"
       inkscape:connector-curvature="0"
       id="path4546-6-0"
       d="m 137.94543,2952.2227 c 2.57481,-42.4765 8.37968,-76.1738 40.31649,-94.8593 31.93682,-18.6853 90.00534,-22.3584 163.67617,-15.008 39.46208,3.9372 95.53388,9.6703 126.98199,27.4197 31.4482,17.7488 38.27248,47.5133 34.95875,109.7344 -3.31371,62.2209 -14.9026,95.3659 -51.27921,110.7925 -36.37663,15.4267 -97.54109,13.1348 -110.85534,14.7045 -34.81312,-4.9421 -101.93998,2.0672 -144.61363,-11.013 -42.67375,-13.0801 -60.89408,-46.2498 -59.18522,-141.7708 z"
       style="color:#000000;display:inline;overflow:visible;visibility:visible;fill:#ffffff;fill-opacity:1;fill-rule:nonzero;stroke:none;stroke-width:1.31433px;marker:none;enable-background:accumulate" />
    <path
       sodipodi:nodetypes="ccccccccccccccccccccccccc"
       inkscape:connector-curvature="0"
       id="path1309"
       d="m 217.08242,2649.8057 c 36.90709,-50.2257 39.2881,-5.139 58.31878,36.2923 18.49928,-30.6102 5.37016,-37.0801 47.77595,2.3088 8.80076,-60.6152 28.70148,-43.015 52.77387,-10.9502 -8.33465,-42.6242 -8.81213,-62.5771 28.15389,-25.9228 9.37569,-48.4233 28.08772,-13.1777 54.29681,10.3696 -6.36522,-54.7029 -9.43727,-54.5433 44.24189,-44.9322 -37.30857,-48.1984 12.34553,-26.491 50.27471,-20.7394 -56.92936,-37.391 -36.38571,-30.7833 20.1101,-27.6509 -70.09485,-30.9514 -74.25014,-26.6667 -8.04407,-63.9433 -98.70585,11.1753 -89.4022,9.8366 -24.13193,-55.302 -39.18092,5.5174 -140.98295,82.943 -78.42873,13.8262 -53.48141,18.2513 -77.40978,39.2565 -49.37466,-20.9763 l -19.66776,-1.0234 c -20.37926,21.8995 -44.11621,56.4771 -47.59527,11.6299 -29.76644,33.519 -28.07601,39.1189 -42.23077,-3.4564 -19.66696,57.8645 -22.71029,13.0651 -34.18713,-24.1945 -25.83448,34.7634 -26.07555,74.5428 -42.23077,19.0097 -11.24706,56.5135 -34.0037,16.4098 -66.36284,-10.3684 10.09255,61.5083 12.97253,60.8806 -36.19797,22.4662 18.43992,56.1578 -0.12592,44.3678 -52.285671,41.4758 62.451481,49.6039 42.560661,48.1051 -20.110112,82.9544 35.01382,5.5208 97.345683,-28.793 64.351853,17.2813 77.3397,-28.1852 15.08709,45.1113 -4.02196,82.953 69.10198,-57.7667 97.75391,-104.5155 104.57179,-31.1074 z"
       style="fill:#ffffff;fill-rule:evenodd;stroke:none;stroke-width:1.49986px;stroke-linecap:butt;stroke-linejoin:miter;stroke-opacity:1" />
    <path
       sodipodi:nodetypes="csssc"
       inkscape:connector-curvature="0"
       id="path3280-5"
       d="M 2026.1367 1895.8066 C 1994.8416 1896.625 1963.6517 1899.6815 1932.5851 1903.4006 C 1902.0435 1907.6794 1871.3076 1915.302 1844.7092 1931.4394 C 1817.043 1947.9809 1795.032 1973.8944 1783.6701 2004.1045 C 1771.71 2035.27 1769.979 2069.9743 1777.0664 2102.4806 C 1782.2502 2125.5094 1793.2944 2147.2972 1809.5078 2164.5277 C 1829.9035 2186.7359 1855.392 2203.8776 1882.6535 2216.5266 C 1908.9451 2228.7045 1937.1476 2236.2746 1965.681 2240.9511 C 1984.4394 2244.0979 2003.2761 2246.8446 2022.1882 2248.8844 C 2050.3622 2251.746 2078.8946 2251.8709 2106.9713 2247.908 C 2147.6908 2243.1527 2188.1208 2234.9726 2227.0269 2221.9409 C 2257.9583 2210.612 2286.4668 2191.8325 2307.4864 2166.2983 C 2327.2922 2143.1747 2342.8414 2115.8117 2349.5116 2085.9345 C 2353.8365 2060.0604 2347.5909 2033.613 2337.3639 2009.851 C 2325.23 1981.9232 2303.4883 1958.532 2277.072 1943.5296 C 2243.6953 1923.2268 2205.4691 1912.7824 2167.3719 1905.6164 C 2121.4408 1897.1693 2074.582 1895.3852 2027.9761 1895.768 C 2027.3629 1895.7809 2026.7498 1895.7938 2026.1367 1895.8066 z "
       style="display:inline;fill:#ffffff;stroke:none;stroke-width:0.955124" />
    <path
       sodipodi:nodetypes="ccccsccc"
       inkscape:connector-curvature="0"
       id="path5074-8"
       d="m 624.95128,1840.0661 c 47.24511,-27.3875 115.83444,-55.1086 154.24551,3.9472 23.5574,-4.8627 69.71482,-40.1263 115.42935,17.7336 -47.53609,-35.9834 -78.50267,-15.4767 -118.07887,4.9225 -18.59072,-41.5285 -83.01307,-49.4207 -140.96132,7.1368 -57.94866,56.5566 -38.62415,45.003 -38.62415,45.003 l 10.52452,-62.5977 z"
       style="color:#000000;display:inline;overflow:visible;visibility:visible;fill:#ffffff;fill-opacity:1;fill-rule:nonzero;stroke:none;stroke-width:0.869755px;marker:none;enable-background:accumulate" />
    <path
       sodipodi:nodetypes="csssc"
       inkscape:connector-curvature="0"
       id="path3280-5-9"
       d="m 478.24948,1821.3801 c -31.25838,0.5635 -63.19827,2.6232 -92.53489,12.8189 -38.63145,13.9723 -67.95816,45.5424 -76.24691,81.3126 -5.94682,23.6348 -5.39465,48.8341 3.71668,71.8034 8.73381,21.2486 27.54168,38.8465 50.59287,48.8243 11.5941,5.2112 24.2466,8.2482 36.99367,10.3986 21.11532,3.8579 42.44886,6.8927 63.91325,8.7928 47.96692,3.8748 97.81426,0.2822 142.20823,-17.0314 15.03122,-5.9136 29.71285,-13.4123 40.78117,-24.2669 15.22553,-15.9834 21.95303,-36.5813 26.00236,-56.7071 4.93145,-26.295 1.71376,-54.5208 -13.57631,-77.9359 -15.74682,-23.6338 -43.30444,-40.1656 -73.20458,-47.3101 -30.03106,-7.7328 -61.49091,-9.616 -92.61317,-10.744 -5.34396,-0.076 -10.68907,-0.058 -16.03237,0.045 z"
       style="display:inline;fill:#ffffff;stroke:none;stroke-width:0.98522" />
    <path
       sodipodi:nodetypes="cssssc"
       inkscape:connector-curvature="0"
       id="path4546-7"
       d="m 1501.321,277.80868 c 6.9942,-110.36371 81.9534,-190.410858 340.0157,-170.57238 138.2325,10.62639 295.1433,17.3599 286.4999,179.02919 -8.6436,161.66901 -234.1137,158.31783 -280.6152,162.26347 -46.5009,3.94591 -265.6688,-13.16969 -308.5968,-68.00052 -26.8723,-34.32241 -37.7281,-68.54575 -37.3036,-102.71976 z"
       style="color:#000000;display:inline;overflow:visible;visibility:visible;fill:#ffffff;fill-opacity:1;fill-rule:nonzero;stroke:none;stroke-width:1.35134px;marker:none;enable-background:accumulate" />
    <path
       sodipodi:nodetypes="cccsc"
       id="path1237"
       d="m 1583.1971,228.38894 -0.065,25.78758 C 1064.4433,130.64867 897.1794,416.85146 793.5913,670.33743 810.89342,604.71047 848.83107,539.01086 867.11504,495.25305 921.33848,365.48369 1120.9039,126.81475 1583.1971,228.38894 Z"
       style="fill:#ffffff;fill-rule:evenodd;stroke:none;stroke-width:1px;stroke-linecap:butt;stroke-linejoin:miter;stroke-opacity:1" />
    <path
       sodipodi:nodetypes="cccccccscccccccccccc"
       inkscape:connector-curvature="0"
       id="path4582"
       d="m 792.00008,200.22561 c 33.7121,12.97476 64.18552,21.04152 53.82517,-32.7734 59.67262,73.06177 51.11263,23.02436 60.55332,5.4622 35.47754,51.61057 66.00304,44.25569 92.51203,-10.9244 14.9859,79.59467 46.3453,41.03052 74.0097,29.1319 -0.067,22.38327 -36.304,58.75533 63.962,16.82898 -23.3402,20.21595 -61.89,54.06155 8.0172,33.79483 -11.3289,5.35959 9.1441,9.60416 0.9908,12.75937 -36.4893,14.12075 -43.292,45.94822 12.0303,57.21953 -39.0932,12.56052 -47.9639,43.98583 -1.9312,80.13352 -58.4566,-24.94281 -49.6253,8.03409 -38.8085,23.94457 -57.4032,-32.71188 -65.4347,-19.61526 -60.5532,5.4622 -18.3198,-22.87975 -39.2236,-32.45983 -79.58358,6.55438 9.02795,-23.43417 -34.88368,-22.77173 -75.40616,14.31454 21.33941,-35.68177 -8.79121,-40.48012 -42.33642,-17.95604 -8.84776,-37.9175 -42.07125,-18.66554 -77.37369,5.46231 28.81487,-37.0083 30.90291,-67.92573 -25.23053,-85.57523 54.398,-21.17144 44.4926,-38.24845 23.54851,-54.62242 20.69208,-15.39734 34.18357,-32.16999 -20.18444,-61.90552 31.78763,4.6228 65.63406,10.58278 31.95869,-27.31132 z"
       style="fill:#ffffff;fill-rule:evenodd;stroke:none;stroke-width:1.07745px;stroke-linecap:butt;stroke-linejoin:miter;stroke-opacity:1" />
    <path
       sodipodi:nodetypes="cccccccccccccccc"
       id="path1213"
       d="m 186.64099,269.10219 c 14.16793,-17.9695 21.6656,-57.67395 -26.96962,-49.84375 39.28832,-24.22773 26.02054,-46.39487 -3.9116,-60.30611 73.97307,21.84758 73.30597,-3.1264 61.65626,-34.98976 47.54155,45.23929 40.41961,-2.73478 35.84699,-20.87523 10.75548,16.73933 13.0223,42.92164 49.60085,2.10678 -0.32028,30.13252 -6.17118,65.92523 62.1714,25.78584 -22.50387,36.76194 -23.29348,63.59943 42.00483,60.23151 -28.38205,11.84018 -67.58994,23.8538 -13.96314,34.38016 -34.61657,-0.92979 -57.61576,1.55757 -42.76886,15.17701 -14.37392,-2.5435 -33.83306,-9.95842 -3.30801,30.50934 -20.80242,-14.97453 -46.52652,-38.26005 -39.11492,-5.59088 -18.23798,-14.68676 -19.40407,6.8976 -15.2404,39.80566 -12.94537,-38.21825 -26.75878,-42.54053 -41.59034,-7.10557 6.55708,-27.98121 3.27152,-63.65454 -44.38626,-25.35425 -12.90735,-2.90399 -11.03497,-2.74842 -20.02718,-3.93075 z"
       style="fill:#ffffff;fill-rule:evenodd;stroke:none;stroke-width:1.14149px;stroke-linecap:butt;stroke-linejoin:miter;stroke-opacity:1" />
    <path
       sodipodi:nodetypes="cccc"
       id="path1217"
       d="M 223.92681,451.40352 C 191.03014,380.78428 162.95416,309.9462 234.75229,234.57441 l -10.34265,-15.32374 c -90.31546,91.35161 -49.21656,162.34365 -0.48283,232.15285 z"
       style="fill:#ffffff;fill-rule:evenodd;stroke:none;stroke-width:1.28731px;stroke-linecap:butt;stroke-linejoin:miter;stroke-opacity:1" />
    <path
       sodipodi:nodetypes="cccccc"
       id="path1284"
       d="m 1643.7985,1929.1739 c 96.8015,-46.6867 120.9988,-40.2821 80.5755,28.3512 65.4725,-1.176 123.2483,3.9962 149.8904,34.8462 l 15.5883,-26.0596 c -31.2138,-18.9598 -72.3678,-35.221 -134.1445,-30.1606 20.9177,-34.9284 13.3859,-99.1339 -111.9097,-6.9772 z"
       style="fill:#ffffff;fill-rule:evenodd;stroke:none;stroke-width:1.08499px;stroke-linecap:butt;stroke-linejoin:miter;stroke-opacity:1" />
  </g>
  <g
     inkscape:label="txt"
     id="layer1"
     inkscape:groupmode="layer">
    <text
       transform="matrix(0.93887237,0,-0.13753791,1.0651075,0,0)"
       id="text4246-3-2-2-6-3-7-9-3-3-56-9-3-20"
       y="221.56798"
       x="316.34204"
       style="font-style:normal;font-variant:normal;font-weight:normal;font-stretch:normal;font-size:81.3623px;line-height:1.25;font-family:Lavi;-inkscape-font-specification:Lavi;text-align:center;letter-spacing:0px;word-spacing:0px;text-anchor:middle;fill:#000000;fill-opacity:1;stroke:none;stroke-width:1.408;stroke-miterlimit:4;stroke-dasharray:none"
       xml:space="preserve"><tspan
         id="tspan334"
         y="221.56798"
         x="316.34204"
         sodipodi:role="line"
         style="font-style:normal;font-variant:normal;font-weight:normal;font-stretch:normal;font-size:81.3623px;font-family:Lavi;-inkscape-font-specification:Lavi;stroke:#000000;stroke-width:1.408;stroke-miterlimit:4;stroke-dasharray:none;stroke-opacity:1">?!!</tspan></text>
    <text
       transform="scale(0.97385247,1.0268496)"
       id="text4246-3-2-2-6-3-7-9-3-3-56-9-3-20-3"
       y="277.9678"
       x="980.52393"
       style="font-style:normal;font-variant:normal;font-weight:normal;font-stretch:normal;font-size:55.0875px;line-height:1.25;font-family:Lavi;-inkscape-font-specification:Lavi;text-align:center;letter-spacing:0px;word-spacing:0px;text-anchor:middle;fill:#000000;fill-opacity:1;stroke:none;stroke-width:1.22417"
       xml:space="preserve"><tspan
         id="tspan888"
         y="277.9678"
         x="980.52393"
         sodipodi:role="line"
         style="font-size:55.0875px;stroke-width:1.22417">Ma cible, </tspan><tspan
         id="tspan68"
         y="346.82718"
         x="980.52393"
         sodipodi:role="line"
         style="font-size:55.0875px;stroke-width:1.22417">c'était <tspan
   id="tspan70"
   style="font-style:normal;font-variant:normal;font-weight:bold;font-stretch:normal;font-family:Lavi;-inkscape-font-specification:'Lavi Bold'">elle</tspan> !</tspan></text>
    <text
       id="text4246-3-2-2-6-3-7-9-3-3-56-9-3-20-3-7"
       y="210.50026"
       x="1829.2006"
       style="font-style:normal;font-variant:normal;font-weight:normal;font-stretch:normal;font-size:48.8015px;line-height:1.25;font-family:Lavi;-inkscape-font-specification:Lavi;text-align:center;letter-spacing:0px;word-spacing:0px;text-anchor:middle;fill:#000000;fill-opacity:1;stroke:none;stroke-width:1.08448"
       xml:space="preserve"><tspan
         id="tspan914"
         y="210.50026"
         x="1829.2006"
         sodipodi:role="line"
         style="font-size:48.8015px;stroke-width:1.08448">J'ai simplement annulé </tspan><tspan
         id="tspan98"
         y="271.50214"
         x="1829.2006"
         sodipodi:role="line"
         style="font-size:48.8015px;stroke-width:1.08448">son <tspan
   id="tspan104"
   style="font-style:italic;font-variant:normal;font-weight:normal;font-stretch:normal;font-family:Lavi;-inkscape-font-specification:'Lavi Italic'">Sort de Jouvence</tspan>, qui </tspan><tspan
         id="tspan100"
         y="332.504"
         x="1829.2006"
         sodipodi:role="line"
         style="font-size:48.8015px;stroke-width:1.08448">lui donne une apparence </tspan><tspan
         id="tspan102"
         y="393.50589"
         x="1829.2006"
         sodipodi:role="line"
         style="font-size:48.8015px;stroke-width:1.08448">plus jeune.</tspan></text>
    <text
       id="text4246-3-2-2-6-3-7-9-3-3-56-9-3-20-5"
       y="1891.157"
       x="491.57349"
       style="font-style:normal;font-variant:normal;font-weight:normal;font-stretch:normal;font-size:45px;line-height:1.25;font-family:Lavi;-inkscape-font-specification:Lavi;text-align:center;letter-spacing:0px;word-spacing:0px;text-anchor:middle;fill:#000000;fill-opacity:1;stroke:none"
       xml:space="preserve"><tspan
         id="tspan924"
         y="1891.157"
         x="491.57349"
         sodipodi:role="line"
         style="font-size:45px">Je l'ai </tspan><tspan
         id="tspan111"
         y="1947.407"
         x="491.57349"
         sodipodi:role="line"
         style="font-size:45px">remarqué dès </tspan><tspan
         id="tspan113"
         y="2003.657"
         x="491.57349"
         sodipodi:role="line"
         style="font-size:45px">mon arrivée.</tspan></text>
    <text
       id="text4246-3-2-2-6-3-7-9-3-3-56-9-3-20-5-9"
       y="1984.6521"
       x="2066.0312"
       style="font-style:normal;font-variant:normal;font-weight:normal;font-stretch:normal;font-size:45px;line-height:1.25;font-family:Lavi;-inkscape-font-specification:Lavi;text-align:center;letter-spacing:0px;word-spacing:0px;text-anchor:middle;fill:#000000;fill-opacity:1;stroke:none"
       xml:space="preserve"><tspan
         id="tspan948"
         y="1984.6521"
         x="2066.0312"
         sodipodi:role="line"
         style="font-size:45px">Et ça, ce n'est qu'un </tspan><tspan
         id="tspan132"
         y="2040.9021"
         x="2066.0312"
         sodipodi:role="line"
         style="font-size:45px">aperçu de ce que tu </tspan><tspan
         id="tspan134"
         y="2097.1521"
         x="2066.0312"
         sodipodi:role="line"
         style="font-size:45px">mérites pour avoir forcé </tspan><tspan
         id="tspan136"
         y="2153.4021"
         x="2066.0312"
         sodipodi:role="line"
         style="font-size:45px">Shichimi à se battre </tspan><tspan
         id="tspan138"
         y="2209.6521"
         x="2073.9414"
         sodipodi:role="line"
         style="font-size:45px">contre moi ! </tspan></text>
    <text
       transform="scale(0.860916,1.1615535)"
       id="text4246-3-2-2-6-3-7-9-3-3-56-9-3-20-5-9-0"
       y="2215.2615"
       x="371.23419"
       style="font-style:normal;font-variant:normal;font-weight:normal;font-stretch:normal;font-size:60px;line-height:1.25;font-family:Lavi;-inkscape-font-specification:Lavi;text-align:center;letter-spacing:2px;word-spacing:0px;text-anchor:middle;fill:#000000;fill-opacity:1;stroke:none;stroke-width:1.32287"
       xml:space="preserve"><tspan
         id="tspan992-6"
         y="2215.2615"
         x="372.23419"
         sodipodi:role="line"
         style="font-style:normal;font-variant:normal;font-weight:bold;font-stretch:normal;font-size:60px;font-family:Lavi;-inkscape-font-specification:'Lavi Bold';stroke-width:1.32287">INSOLENTE !</tspan></text>
    <text
       id="text4246-3-2-2-6-3-7-9-3-3-56-9-3-20-5-2"
       y="2751.8735"
       x="330.97919"
       style="font-style:normal;font-variant:normal;font-weight:normal;font-stretch:normal;font-size:58px;line-height:1.25;font-family:Lavi;-inkscape-font-specification:Lavi;text-align:center;letter-spacing:0px;word-spacing:0px;text-anchor:middle;fill:#000000;fill-opacity:1;stroke:none;stroke-width:1.30553"
       xml:space="preserve"><tspan
         id="tspan1085"
         y="2751.8735"
         x="330.97919"
         sodipodi:role="line"
         style="font-size:58px;stroke-width:1.30553">Comment </tspan><tspan
         id="tspan143"
         y="2824.3735"
         x="330.97919"
         sodipodi:role="line"
         style="font-size:58px;stroke-width:1.30553"><tspan
   id="tspan145"
   style="font-style:normal;font-variant:normal;font-weight:bold;font-stretch:normal;font-family:Lavi;-inkscape-font-specification:'Lavi Bold'">oses</tspan>-tu,</tspan></text>
    <text
       id="text4246-3-2-2-6-3-7-9-3-3-56-9-3-20-5-2-7"
       y="2934.1201"
       x="320.56845"
       style="font-style:normal;font-variant:normal;font-weight:normal;font-stretch:normal;font-size:50px;line-height:1.25;font-family:Lavi;-inkscape-font-specification:Lavi;text-align:center;letter-spacing:0px;word-spacing:0px;text-anchor:middle;fill:#000000;fill-opacity:1;stroke:none;stroke-width:1.30553"
       xml:space="preserve"><tspan
         id="tspan959"
         y="2934.1201"
         x="320.56845"
         sodipodi:role="line"
         style="font-size:50px;stroke-width:1.30553">et devant </tspan><tspan
         id="tspan152"
         y="2996.6201"
         x="320.56845"
         sodipodi:role="line"
         style="font-size:50px;stroke-width:1.30553">toute mon </tspan><tspan
         id="tspan158"
         y="3059.1201"
         x="320.56845"
         sodipodi:role="line"
         style="font-size:50px;stroke-width:1.30553">école !</tspan></text>
    <text
       id="text4246-3-2-2-6-3-7-9-3-3-56-9-3-20-5-9-02"
       y="2544.0259"
       x="2149.2981"
       style="font-style:normal;font-variant:normal;font-weight:normal;font-stretch:normal;font-size:45px;line-height:1.25;font-family:Lavi;-inkscape-font-specification:Lavi;text-align:center;letter-spacing:0px;word-spacing:0px;text-anchor:middle;fill:#000000;fill-opacity:1;stroke:none"
       xml:space="preserve"><tspan
         id="tspan1175"
         y="2544.0259"
         x="2149.2981"
         sodipodi:role="line"
         style="font-size:45px">Estime-toi </tspan><tspan
         id="tspan168"
         y="2600.2759"
         x="2149.2981"
         sodipodi:role="line"
         style="font-size:45px">heureuse !</tspan></text>
    <text
       id="text4246-3-2-2-6-3-7-9-3-3-56-9-3-20-5-9-02-2"
       y="2731.9202"
       x="2166.4646"
       style="font-style:normal;font-variant:normal;font-weight:normal;font-stretch:normal;font-size:45px;line-height:1.25;font-family:Lavi;-inkscape-font-specification:Lavi;text-align:center;letter-spacing:0px;word-spacing:0px;text-anchor:middle;fill:#000000;fill-opacity:1;stroke:none"
       xml:space="preserve"><tspan
         id="tspan85"
         y="2731.9202"
         x="2166.4646"
         sodipodi:role="line"
         style="font-size:45px">Si j'avais plus</tspan><tspan
         y="2788.1702"
         x="2166.4646"
         sodipodi:role="line"
         style="font-size:45px"
         id="tspan78">de Réa, j'aurais </tspan><tspan
         y="2844.4202"
         x="2166.4646"
         sodipodi:role="line"
         style="font-size:45px"
         id="tspan86">été bien plus </tspan><tspan
         y="2900.6702"
         x="2166.4646"
         sodipodi:role="line"
         style="font-size:45px"
         id="tspan90">loin !</tspan></text>
    <text
       id="text164"
       y="2535.75"
       x="2147.625"
       style="font-size:29.3333px;line-height:1.25;font-family:Sword;-inkscape-font-specification:Sword;text-align:center;letter-spacing:0px;word-spacing:0px;writing-mode:lr-tb;text-anchor:middle"
       xml:space="preserve"><tspan
         y="2535.75"
         x="2147.625"
         id="tspan162"
         sodipodi:role="line" /><tspan
         id="tspan166"
         y="2572.4165"
         x="2147.625"
         sodipodi:role="line" /></text>
  </g>
</svg>
