<?xml version="1.0" encoding="UTF-8" standalone="no"?>
<!-- Created with Inkscape (http://www.inkscape.org/) -->

<svg
   id="svg2"
   version="1.1"
   inkscape:version="1.1.1 (3bf5ae0d25, 2021-09-20, custom)"
   width="2481"
   height="3503"
   sodipodi:docname="E36P06.svg"
   xmlns:inkscape="http://www.inkscape.org/namespaces/inkscape"
   xmlns:sodipodi="http://sodipodi.sourceforge.net/DTD/sodipodi-0.dtd"
   xmlns:xlink="http://www.w3.org/1999/xlink"
   xmlns="http://www.w3.org/2000/svg"
   xmlns:svg="http://www.w3.org/2000/svg"
   xmlns:rdf="http://www.w3.org/1999/02/22-rdf-syntax-ns#"
   xmlns:cc="http://creativecommons.org/ns#"
   xmlns:dc="http://purl.org/dc/elements/1.1/">
  <metadata
     id="metadata8">
    <rdf:RDF>
      <cc:Work
         rdf:about="">
        <dc:format>image/svg+xml</dc:format>
        <dc:type
           rdf:resource="http://purl.org/dc/dcmitype/StillImage" />
        <dc:title />
      </cc:Work>
    </rdf:RDF>
  </metadata>
  <defs
     id="defs6" />
  <sodipodi:namedview
     pagecolor="#1e1e1e"
     bordercolor="#111111"
     borderopacity="1"
     objecttolerance="10"
     gridtolerance="10"
     guidetolerance="10"
     inkscape:pageopacity="0"
     inkscape:pageshadow="2"
     inkscape:window-width="1888"
     inkscape:window-height="1146"
     id="namedview4"
     showgrid="false"
     inkscape:zoom="0.32526913"
     inkscape:cx="1174.4121"
     inkscape:cy="2165.8987"
     inkscape:window-x="32"
     inkscape:window-y="0"
     inkscape:window-maximized="1"
     inkscape:current-layer="layer1"
     inkscape:pagecheckerboard="0"
     inkscape:snap-global="false" />
  <g
     inkscape:groupmode="layer"
     id="layer2"
     inkscape:label="artwork"
     sodipodi:insensitive="true">
    <image
       xlink:href="../gfx_Pepper-and-Carrot_by-David-Revoy_E36P06.png"
       y="0"
       x="0"
       id="image10"
       height="3503"
       width="2481" />
  </g>
  <g
     inkscape:groupmode="layer"
     id="layer3"
     inkscape:label="speechbubbles"
     style="display:inline">
    <path
       style="color:#000000;display:inline;overflow:visible;visibility:visible;fill:#ffffff;fill-opacity:1;fill-rule:nonzero;stroke:none;stroke-width:0.825943px;marker:none;enable-background:accumulate"
       d="m 577.39062,1890.3496 c 13.55459,4.6614 27.39899,10.6876 36.98583,21.7461 6.87829,8.625 7.56098,20.6709 4.66066,30.9708 -1.44275,5.9611 -3.11819,12.8374 0.29351,18.4496 3.25292,4.4413 8.97247,5.7004 13.65335,8.0759 1.68146,0.5503 3.16657,2.0604 4.93205,2.0447 3.65441,-0.7862 8.30688,-4.5636 7.78517,-7.7805 0.4108,-14.3571 1.10006,-28.425 -3.6806,-42.3235 -4.09402,-10.8462 -16.4336,-19.4968 -27.02744,-23.2608 -13.09899,-5.2184 -27.0995,-7.7878 -41.09862,-9.0336 1.16537,0.3704 2.33073,0.7409 3.49609,1.1113 z"
       id="path4064-5-5"
       inkscape:connector-curvature="0"
       sodipodi:nodetypes="ccszccccccc" />
    <path
       style="color:#000000;display:inline;overflow:visible;visibility:visible;fill:#ffffff;fill-opacity:1;fill-rule:nonzero;stroke:none;stroke-width:1.36609px;marker:none;enable-background:accumulate"
       d="m 460.05011,2065.9711 c -0.0394,-37.3433 29.63412,-72.8613 72.59799,-94.4911 32.1085,-16.3962 72.48244,-25.1836 112.34797,-22.9471 44.04564,1.3719 88.28205,9.853 124.79146,27.4394 31.92295,15.1532 58.35427,37.833 65.54556,64.7652 8.24162,29.232 -10.21829,59.8463 -41.29176,79.5352 -19.23662,12.4038 -43.44621,20.7471 -69.07349,24.4628 -55.80023,8.4696 -114.44838,8.1351 -169.87366,-1.5858 -47.928,-12.1532 -83.66753,-42.9508 -95.04407,-77.1786 z"
       id="path3365-8"
       inkscape:connector-curvature="0"
       sodipodi:nodetypes="cssccsc" />
    <path
       style="color:#000000;display:inline;overflow:visible;visibility:visible;fill:#ffffff;fill-opacity:1;fill-rule:nonzero;stroke:none;stroke-width:1.48514px;marker:none;enable-background:accumulate"
       d="m 1893.0469,1570.3017 c -56.6883,6.1761 -126.1336,-1.1979 -166.2258,47.4363 -39.7269,55.411 -32.9822,137.28 9.439,189.1728 44.5465,39.7481 109.4242,35.4544 165.4807,40.9499 61.9844,1.4706 126.7501,0.2417 185.1236,-21.9167 51.481,-29.1242 63.9132,-94.6813 52.9865,-148.1498 -4.2933,-49.6514 -42.1481,-95.1973 -94.242,-98.7057 -50.377,-8.0424 -101.7833,-5.726 -152.562,-8.7868 z"
       id="path3525-1"
       inkscape:connector-curvature="0"
       sodipodi:nodetypes="ccccc" />
    <path
       style="color:#000000;display:inline;overflow:visible;visibility:visible;fill:#ffffff;fill-opacity:1;fill-rule:nonzero;stroke:none;stroke-width:0.844663px;marker:none;enable-background:accumulate"
       d="m 1973.1118,1889.6755 c -18.1752,-11.0216 -34.1079,-35.6909 -38.6041,-62.1813 -3.212,-15.891 -4.9491,-32.3534 -3.0603,-47.1809 2.5292,-4.9506 8.5452,-3.2093 12.36,1.2176 6.174,5.2735 12.9392,8.5628 18.8573,14.6149 3.5725,5.1778 3.8133,12.417 2.6585,17.788 -1.1636,10.2097 -2.5765,21.1708 0.8478,32.3369 4.2315,15.7365 13.9898,28.6271 24.2515,37.2817 12.3531,10.7595 26.1526,15.1864 39.0912,15.7949 0.045,0.4487 -1.409,0.4203 -1.8941,0.6592 -17.1414,4.2654 -36.4098,1.3261 -54.5078,-10.331 z"
       id="path4064-5"
       inkscape:connector-curvature="0"
       sodipodi:nodetypes="ccszc" />
    <path
       style="fill:#ffffff;stroke:none;stroke-width:1.28088"
       d="m 435.99913,2285.4071 c -62.40024,0.6877 -125.28512,0.4394 -186.87312,9.5033 -22.61821,3.3398 -45.42419,7.9348 -65.396,17.2721 -15.42563,7.2144 -28.42552,17.8304 -36.15058,30.6872 -10.49486,17.3725 -12.20197,37.55 -7.32069,56.2626 6.16929,23.4488 23.68271,45.282 49.35665,58.2684 19.73921,10.151 43.12962,15.0757 66.45274,16.3422 43.91827,3.699 87.93857,6.619 132.02251,8.752 30.77267,1.5268 61.55583,3.0185 92.37046,3.8862 63.4974,1.1658 127.11146,-2.303 189.86912,-9.9884 23.06128,-3.2687 46.30447,-9.3606 64.36911,-21.5797 16.86657,-11.4043 26.95607,-27.9829 31.29474,-44.9869 3.92437,-14.5345 4.99495,-29.5745 3.09284,-44.3605 -2.16078,-13.5693 -8.72906,-27.0265 -20.86351,-36.9788 -13.47687,-11.722 -31.76694,-19.6529 -51.19236,-23.2383 -20.69861,-4.5181 -42.07267,-6.5266 -63.18901,-9.401 -65.44925,-7.7379 -131.70315,-10.691 -197.8429,-10.4404 z"
       id="path3100-2"
       inkscape:connector-curvature="0" />
    <path
       style="fill:#ffffff;stroke:none;stroke-width:1.214"
       d="m 432.20675,2397.3781 c -59.83347,1.5256 -120.50556,1.7038 -178.71818,16.0122 -23.66969,5.9772 -47.305,17.2405 -61.2167,37.0373 -18.87442,28.8198 -16.56039,67.2213 0.83955,96.4763 15.71648,26.7188 45.96988,44.6815 77.77807,47.581 41.98684,4.5762 84.14752,7.3875 126.334,9.1939 21.82292,0.8945 43.62845,2.2816 65.45292,3.0641 55.39414,1.3035 110.81745,-2.492 165.51917,-10.1794 23.23249,-3.4124 47.07048,-9.5619 65.19297,-24.3833 12.65449,-10.0701 20.68583,-24.4181 24.85119,-39.47 5.88843,-20.6619 5.98067,-42.5693 2.84064,-63.7362 -3.05036,-16.8913 -11.40246,-34.3821 -27.58348,-43.3714 -17.33435,-9.7295 -37.83317,-10.8943 -57.08642,-14.6018 -67.43587,-11.0814 -135.95476,-14.9439 -204.20373,-13.6227 z"
       id="path3100-2-1"
       inkscape:connector-curvature="0" />
    <path
       style="fill:#ffffff;stroke:none;stroke-width:1.41093"
       d="m 537.18997,2549.8463 c -85.32728,3.2557 -175.05728,-0.022 -254.35624,30.8316 -41.34347,18.7498 -59.61807,60.2161 -55.39089,98.0957 2.11185,49.6041 42.06189,102.4889 104.30503,108.7634 63.23772,6.6848 127.04052,9.9193 190.71463,12.4244 83.58223,2.0134 169.0768,-0.3719 249.423,-21.4517 40.79416,-13.7635 63.79178,-49.8269 66.41637,-85.4257 8.65372,-44.6192 -9.62325,-97.2272 -60.71575,-118.4303 -45.04303,-15.4717 -94.83144,-16.9512 -142.65768,-21.8202 -32.50116,-2.2685 -65.12783,-3.2354 -97.73847,-2.9872 z"
       id="path3100-2-1-9"
       inkscape:connector-curvature="0" />
    <path
       style="fill:#ffffff;fill-rule:evenodd;stroke:none;stroke-width:1px;stroke-linecap:butt;stroke-linejoin:miter;stroke-opacity:1"
       d="m 565.35803,2748.8183 c 0,0 15.49435,31.1557 18.76123,47.2541 3.26688,16.0984 -2.23396,98.2886 -54.0297,124.672 60.58129,-13.8373 97.25045,-97.2182 74.9118,-174.2445 -8.13467,-28.0492 -39.64333,2.3184 -39.64333,2.3184 z"
       id="path1357"
       inkscape:connector-curvature="0"
       sodipodi:nodetypes="cscsc" />
    <path
       style="color:#000000;display:inline;overflow:visible;visibility:visible;fill:#ffffff;fill-opacity:1;fill-rule:nonzero;stroke:none;stroke-width:0.840294px;marker:none;enable-background:accumulate"
       d="m 1160.6482,1613.416 c -17.8739,0.665 -36.1728,4.8405 -52.1457,17.7518 -13.6918,11.7343 -23.2264,32.595 -28.0988,55.0672 -3.4119,14.3929 -5.3784,30.6636 -1.8825,45.4728 4.3148,18.412 15.1416,31.7974 27.0239,37.9765 19.072,11.2748 39.7858,12.4073 59.9799,13.4689 21.8903,0.8833 43.8436,1.6213 65.6929,-1.086 11.9069,-1.7873 23.966,-6.7791 33.6302,-17.9635 7.9486,-8.7548 14.4506,-21.8232 15.5494,-37.0517 1.595,-17.9924 -1.5275,-36.2294 -6.4883,-52.4672 -6.7425,-21.0264 -18.7384,-38.1831 -33.2229,-46.1168 -18.4433,-10.962 -38.4463,-12.5985 -57.9893,-14.3303 -7.3418,-0.5894 -14.6964,-0.9884 -22.0488,-0.7217 z"
       id="path4546-6-89"
       inkscape:connector-curvature="0"
       sodipodi:nodetypes="cssssc" />
    <path
       style="color:#000000;display:inline;overflow:visible;visibility:visible;fill:#ffffff;fill-opacity:1;fill-rule:nonzero;stroke:none;stroke-width:1px;marker:none;enable-background:accumulate"
       d="m 1191.4693,1723.1631 c 34.2678,49.2543 68.9523,97.6924 121.3421,87.479 -53.9312,29.956 -129.2913,-39.4416 -157.7344,-79.0515 -24.1583,-33.6427 36.3923,-8.4275 36.3923,-8.4275 z"
       id="path4480-3"
       inkscape:connector-curvature="0"
       sodipodi:nodetypes="ccsc" />
    <path
       style="color:#000000;display:inline;overflow:visible;visibility:visible;fill:#ffffff;fill-opacity:1;fill-rule:nonzero;stroke:none;stroke-width:0.95977px;marker:none;enable-background:accumulate"
       d="m 926.821,2384.7386 c 1.0541,-41.5238 55.68419,-72.0916 205.335,-64.8041 80.161,3.9043 171.0095,6.3303 170.3913,67.1567 -0.6184,60.8263 -130.9903,59.7186 -157.753,61.2348 -26.7623,1.5161 -167.34902,-4.3702 -193.63802,-24.9684 -16.45634,-12.8943 -23.65532,-25.7617 -24.33528,-38.619 z"
       id="path4546-6-89-3"
       inkscape:connector-curvature="0"
       sodipodi:nodetypes="cssssc" />
    <path
       style="fill:#ffffff;stroke:none;stroke-width:0.833221"
       d="m 1192.2592,2424.7256 c 149.6806,5.7739 205.4439,16.7826 214.6103,133.4027 12.6876,161.4024 -114.2054,169.4559 -289.8069,161.9445 -189.46267,-8.1043 -192.81866,-103.1918 -189.27783,-180.7614 6.10963,-133.8593 110.97463,-117.2685 264.47443,-114.5858 z"
       id="path3280-8-0"
       inkscape:connector-curvature="0"
       sodipodi:nodetypes="csssc" />
    <path
       style="color:#000000;display:inline;overflow:visible;visibility:visible;fill:#ffffff;fill-opacity:1;fill-rule:nonzero;stroke:none;stroke-width:1px;marker:none;enable-background:accumulate"
       d="m 1204.5538,2683.0596 c -14.7937,34.7302 -29.7284,103.9977 49.732,149.2666 -38.7431,-11.0789 -115.7589,-45.8618 -84.4037,-150.4179 9.0983,-30.339 16.322,-15.8945 23.6557,-14.9665 7.3338,0.9279 11.016,16.1178 11.016,16.1178 z"
       id="path4064-3"
       inkscape:connector-curvature="0"
       sodipodi:nodetypes="ccszc" />
    <path
       style="color:#000000;display:inline;overflow:visible;visibility:visible;fill:#ffffff;fill-opacity:1;fill-rule:nonzero;stroke:none;stroke-width:0.762912px;marker:none;enable-background:accumulate"
       d="m 1665.8655,2304.8762 c 29.6071,-39.6682 80.2449,-42.2159 123.2963,-42.2394 40.5322,1.0129 82.877,3.7125 120.0954,22.7913 23.9838,12.2041 40.1977,44.8101 26.7448,72.1033 -16.5947,23.4202 -46.6602,23.0482 -70.8186,29.5615 -47.6673,7.4345 -95.9063,0.6211 -143.3517,-5.5691 -21.6325,-4.6029 -48.2533,-9.8591 -57.104,-35.6353 -5.0249,-12.5917 -7.2857,-29.5328 1.1378,-41.0123 z"
       id="path3533-6"
       inkscape:connector-curvature="0" />
    <path
       style="fill:#ffffff;fill-rule:evenodd;stroke:none;stroke-width:1.38581px;stroke-linecap:butt;stroke-linejoin:miter;stroke-opacity:1"
       d="m 1854.546,2372.7244 c 38.9505,26.0497 41.6227,92.7882 26.6214,123.6319 14.1425,-16.2403 51.5149,-98.8625 -6.7766,-150.4117 -47.9683,-42.42 -26.0826,20.6575 -26.0826,20.6575 z"
       id="path4248"
       inkscape:connector-curvature="0"
       sodipodi:nodetypes="ccscc" />
    <path
       style="display:inline;fill:#ffffff;stroke:none;stroke-width:1.05194"
       d="m 2043.1486,2367.6599 c 0.7175,-44.3595 27.191,-84.2461 147.4581,-77.1267 120.2672,7.1193 159.7617,11.8987 160.0077,72.3809 0.2574,63.2975 -59.5488,78.1849 -150.58,80.635 -93.8431,2.5256 -156.5144,-23.1978 -156.8858,-75.8892 z"
       id="path3280-64"
       inkscape:connector-curvature="0"
       sodipodi:nodetypes="csssc" />
    <path
       style="color:#000000;display:inline;overflow:visible;visibility:visible;fill:#ffffff;fill-opacity:1;fill-rule:nonzero;stroke:none;stroke-width:1.00876px;marker:none;enable-background:accumulate"
       d="m 2225.6941,2499.207 c 29.3281,-35.4419 42.8909,-48.473 14.1537,-86.3903 -28.7372,-37.9162 -14.1521,-48.0944 -14.1521,-48.0944 l 30.5785,11.3041 c 0,0 63.9999,68.3303 -30.5801,123.1806 z"
       id="path3072-56"
       inkscape:connector-curvature="0"
       sodipodi:nodetypes="ccccc" />
    <path
       style="color:#000000;display:inline;overflow:visible;visibility:visible;fill:#ffffff;fill-opacity:1;fill-rule:nonzero;stroke:none;stroke-width:0.719299px;marker:none;enable-background:accumulate"
       d="m 2128.8746,2857.9175 c 16.7613,-9.9895 136.3147,-19.5563 170.2493,6.1257 28.3247,21.4363 26.5072,63.4313 0.5658,79.2151 -26.4284,16.0793 -127.1439,10.4002 -166.0708,2.6999 -36.6568,-7.2509 -35.9935,-24.7778 -34.9936,-55.3282 0.4081,-12.4682 13.4881,-22.7237 30.2493,-32.7125 z"
       id="path4040-4-5-3-6"
       inkscape:connector-curvature="0"
       sodipodi:nodetypes="zssssz" />
    <path
       style="color:#000000;display:inline;overflow:visible;visibility:visible;fill:#ffffff;fill-opacity:1;fill-rule:nonzero;stroke:none;stroke-width:0.724067px;marker:none;enable-background:accumulate"
       d="m 2212.3408,2932.3987 c -22.9986,0.5758 -46.1566,2.7182 -68.4453,9.9457 -13.1818,3.6959 -27.0198,5.9656 -38.8872,14.3289 -9.9289,6.8575 -18.8875,15.7918 -26.3501,26.2363 -4.5112,7.1031 -6.5745,16.1216 -6.5178,24.9939 -0.8293,14.128 1.0646,29.1819 8.1556,40.8418 7.2459,11.9128 18.4755,19.2355 29.9288,23.7213 29.549,12.8436 61.2385,15.9371 92.4254,16.5203 25.7491,0.2551 51.7907,0.2922 77.0582,-6.4717 10.2881,-2.7989 20.4717,-6.549 29.9681,-12.1233 14.9894,-10.1847 24.3641,-30.3077 25.3692,-50.7846 1.155,-18.0668 -3.6074,-37.1966 -14.5429,-50.0019 -8.8762,-9.9143 -20.7052,-14.4983 -32.1648,-18.1758 -19.9859,-6.1378 -39.58,-14.511 -60.0856,-17.8996 -5.2714,-0.8521 -10.594,-1.2138 -15.9116,-1.1313 z"
       id="path4040-4-5-3"
       inkscape:connector-curvature="0"
       sodipodi:nodetypes="zssssz" />
    <path
       style="display:inline;fill:#ffffff;fill-rule:evenodd;stroke:none;stroke-width:1px;stroke-linecap:butt;stroke-linejoin:miter;stroke-opacity:1"
       d="m 2233.8905,2901.4843 c -59.0902,-10.6562 16.1202,-61.0715 -1.0396,-83.0609 -8.296,-10.6309 -45.3019,13.7249 -85.4552,-27.1328 44.274,25.5713 73.4492,-3.2499 94.1628,5.6982 39.3401,16.9937 6.1746,61.0235 5.4438,70.8494 -0.9776,13.1415 -13.1118,33.6461 -13.1118,33.6461 z"
       id="path4186-80"
       inkscape:connector-curvature="0"
       sodipodi:nodetypes="cscssc" />
  </g>
  <g
     inkscape:groupmode="layer"
     id="layer1"
     inkscape:label="txt"
     style="display:inline">
    <text
       id="text4246-4-2-7"
       y="2032.4965"
       x="651.32275"
       style="font-style:normal;font-variant:normal;font-weight:normal;font-stretch:normal;line-height:0%;font-family:Lavi;-inkscape-font-specification:Lavi;text-align:center;letter-spacing:0px;word-spacing:0px;text-anchor:middle;fill:#000000;fill-opacity:1;stroke:none"
       xml:space="preserve"><tspan
         y="2032.4965"
         x="651.32275"
         style="font-size:45px;line-height:1.25"
         sodipodi:role="line"
         id="tspan1138">Skoraj bi</tspan><tspan
         y="2088.7466"
         x="651.32275"
         style="font-size:45px;line-height:1.25"
         sodipodi:role="line"
         id="tspan3082">nama uspelo...</tspan></text>
    <text
       id="text4246-4-2-7-3-2"
       y="1683.913"
       x="1183.2744"
       style="font-style:normal;font-variant:normal;font-weight:normal;font-stretch:normal;line-height:0%;font-family:Lavi;-inkscape-font-specification:Lavi;text-align:center;letter-spacing:0px;word-spacing:0px;text-anchor:middle;fill:#000000;fill-opacity:1;stroke:none"
       xml:space="preserve"><tspan
         y="1683.913"
         x="1183.2744"
         style="font-size:45px;line-height:1.25"
         sodipodi:role="line"
         id="tspan103302">Ja,</tspan><tspan
         y="1740.163"
         x="1183.2744"
         style="font-size:45px;line-height:1.25"
         sodipodi:role="line"
         id="tspan11289">skoraj.</tspan></text>
    <text
       id="text4246-4-2-7-3"
       y="1635.2104"
       x="1922.4059"
       style="font-style:normal;font-variant:normal;font-weight:normal;font-stretch:normal;line-height:0%;font-family:Lavi;-inkscape-font-specification:Lavi;text-align:center;letter-spacing:0px;word-spacing:0px;text-anchor:middle;fill:#000000;fill-opacity:1;stroke:none"
       xml:space="preserve"><tspan
         y="1635.2104"
         x="1922.4059"
         style="font-size:45px;line-height:1.25"
         sodipodi:role="line"
         id="tspan26099">Mimogrede, </tspan><tspan
         y="1691.4604"
         x="1922.4059"
         style="font-size:45px;line-height:1.25"
         sodipodi:role="line"
         id="tspan1713">ali slučajno veš</tspan><tspan
         y="1747.7104"
         x="1922.4059"
         style="font-size:45px;line-height:1.25"
         sodipodi:role="line"
         id="tspan97978">zakaj se me hoče</tspan><tspan
         y="1803.9604"
         x="1922.4059"
         style="font-size:45px;line-height:1.25"
         sodipodi:role="line"
         id="tspan97980">Wasabi znebiti?</tspan></text>
    <text
       id="text4246-4-2-7-3-6-7"
       y="2361.3188"
       x="447.10815"
       style="font-style:normal;font-variant:normal;font-weight:normal;font-stretch:normal;line-height:0%;font-family:Lavi;-inkscape-font-specification:Lavi;text-align:center;letter-spacing:0px;word-spacing:0px;text-anchor:middle;fill:#000000;fill-opacity:1;stroke:none"
       xml:space="preserve"><tspan
         y="2361.3188"
         x="447.10815"
         style="font-size:45px;line-height:1.25;fill:#000000"
         sodipodi:role="line"
         id="tspan2369">Strah ima pred Chaosah</tspan><tspan
         y="2417.5688"
         x="447.10815"
         style="font-size:45px;line-height:1.25;fill:#000000"
         sodipodi:role="line"
         id="tspan17487">čarovnicami, Pepper...</tspan></text>
    <text
       id="text4246-4-2-7-3-6-7-6"
       y="2502.8074"
       x="459.18756"
       style="font-style:normal;font-variant:normal;font-weight:normal;font-stretch:normal;line-height:0%;font-family:Lavi;-inkscape-font-specification:Lavi;text-align:center;letter-spacing:0px;word-spacing:0px;text-anchor:middle;fill:#000000;fill-opacity:1;stroke:none"
       xml:space="preserve"><tspan
         y="2502.8074"
         x="459.18756"
         style="font-size:45px;line-height:1.25;fill:#000000"
         sodipodi:role="line"
         id="tspan3312">Še posebej pred tvojimi </tspan><tspan
         y="2559.0574"
         x="459.18756"
         style="font-size:45px;line-height:1.25;fill:#000000"
         sodipodi:role="line"
         id="tspan3317"><tspan
   style="font-style:normal;font-variant:normal;font-weight:bold;font-stretch:normal;font-family:Lavi;-inkscape-font-specification:'Lavi Bold'"
   id="tspan3319">verižnimi reakcijami</tspan>.</tspan></text>
    <text
       id="text4246-4-2-7-3-6-7-6-6"
       y="2645.3159"
       x="530.37292"
       style="font-style:normal;font-variant:normal;font-weight:normal;font-stretch:normal;line-height:0%;font-family:Lavi;-inkscape-font-specification:Lavi;text-align:center;letter-spacing:0px;word-spacing:0px;text-anchor:middle;fill:#000000;fill-opacity:1;stroke:none"
       xml:space="preserve"><tspan
         y="2645.3159"
         x="530.37292"
         style="font-size:45px;line-height:1.25;fill:#000000"
         sodipodi:role="line"
         id="tspan5532">Verjame da predstavljajo</tspan><tspan
         y="2701.5659"
         x="530.37292"
         style="font-size:45px;line-height:1.25;fill:#000000"
         sodipodi:role="line"
         id="tspan36368">veliko nevarnost</tspan><tspan
         y="2757.8159"
         x="530.37292"
         style="font-size:45px;line-height:1.25;fill:#000000"
         sodipodi:role="line"
         id="tspan40734">njenim načrtom.</tspan></text>
    <text
       id="text4246-4-2-7-3-6-7-6-6-4"
       y="2394.4653"
       x="1119.1504"
       style="font-style:normal;font-variant:normal;font-weight:normal;font-stretch:normal;line-height:0%;font-family:Lavi;-inkscape-font-specification:Lavi;text-align:center;letter-spacing:0px;word-spacing:0px;text-anchor:middle;fill:#000000;fill-opacity:1;stroke:none"
       xml:space="preserve"><tspan
         y="2394.4653"
         x="1119.1504"
         style="font-size:45px;line-height:1.25;fill:#000000"
         sodipodi:role="line"
         id="tspan83621-1-4">Ah, to, pfff...</tspan></text>
    <text
       id="text4246-4-2-7-3-6-7-6-6-4-5"
       y="2499.3613"
       x="1164.5809"
       style="font-style:normal;font-variant:normal;font-weight:normal;font-stretch:normal;line-height:0%;font-family:Lavi;-inkscape-font-specification:Lavi;text-align:center;letter-spacing:0px;word-spacing:0px;text-anchor:middle;fill:#000000;fill-opacity:1;stroke:none"
       xml:space="preserve"><tspan
         y="2499.3613"
         x="1164.5809"
         style="font-size:45px;line-height:1.25;fill:#000000"
         sodipodi:role="line"
         id="tspan8117">Ni razloga da se</tspan><tspan
         y="2555.6113"
         x="1164.5809"
         style="font-size:45px;line-height:1.25;fill:#000000"
         sodipodi:role="line"
         id="tspan85610">zaradi tega razburja;</tspan><tspan
         y="2611.8613"
         x="1164.5809"
         style="font-size:45px;line-height:1.25;fill:#000000"
         sodipodi:role="line"
         id="tspan88922">nikoli mi še ni uspelo</tspan><tspan
         y="2668.1113"
         x="1164.5809"
         style="font-size:45px;line-height:1.25;fill:#000000"
         sodipodi:role="line"
         id="tspan90952">nobene sprožit.</tspan></text>
    <text
       id="text4246-4-2-7-3-6-7-6-6-4-5-1"
       y="2338.7527"
       x="1802.5892"
       style="font-style:normal;font-variant:normal;font-weight:normal;font-stretch:normal;line-height:0%;font-family:Lavi;-inkscape-font-specification:Lavi;text-align:center;letter-spacing:0px;word-spacing:0px;text-anchor:middle;fill:#000000;fill-opacity:1;stroke:none"
       xml:space="preserve"><tspan
         y="2338.7527"
         x="1802.5892"
         style="font-size:45px;line-height:1.25;fill:#000000"
         sodipodi:role="line"
         id="tspan186800-2">Res ne?</tspan></text>
    <text
       id="text4246-4-2-7-3-6-7-6-6-4-5-1-6"
       y="2351.8303"
       x="2202.064"
       style="font-style:normal;font-variant:normal;font-weight:normal;font-stretch:normal;font-size:39px;line-height:0%;font-family:Lavi;-inkscape-font-specification:Lavi;text-align:center;letter-spacing:0px;word-spacing:0px;text-anchor:middle;fill:#000000;fill-opacity:1;stroke:none"
       xml:space="preserve"><tspan
         y="2351.8303"
         x="2202.064"
         style="font-size:39px;line-height:1.25;fill:#000000"
         sodipodi:role="line"
         id="tspan201029">Ja, res ne,</tspan><tspan
         y="2400.5803"
         x="2202.064"
         style="font-size:39px;line-height:1.25;fill:#000000"
         sodipodi:role="line"
         id="tspan94771">ha ha ha!</tspan></text>
    <text
       id="text4246-4-2-7-3-6-7-6-6-4-5-1-6-5"
       y="2911.1982"
       x="2205.9717"
       style="font-style:normal;font-variant:normal;font-weight:normal;font-stretch:normal;font-size:42.5063px;line-height:0%;font-family:Lavi;-inkscape-font-specification:Lavi;text-align:center;letter-spacing:0px;word-spacing:0px;text-anchor:middle;fill:#000000;fill-opacity:1;stroke:none;stroke-width:1.0899"
       xml:space="preserve"><tspan
         y="2911.1982"
         x="2205.9717"
         style="font-size:42.5063px;line-height:1.25;fill:#000000;stroke-width:1.0899"
         sodipodi:role="line"
         id="tspan201029-4">Hee-hee!</tspan></text>
    <text
       id="text4246-4-2-7-3-6-7-6-6-4-5-1-6-5-7"
       y="2994.4778"
       x="2207.3274"
       style="font-style:normal;font-variant:normal;font-weight:normal;font-stretch:normal;font-size:39px;line-height:0%;font-family:Lavi;-inkscape-font-specification:Lavi;text-align:center;letter-spacing:0px;word-spacing:0px;text-anchor:middle;fill:#000000;fill-opacity:1;stroke:none"
       xml:space="preserve"><tspan
         y="2994.4778"
         x="2207.3274"
         style="font-size:39px;line-height:1.25;fill:#000000"
         sodipodi:role="line"
         id="tspan104571">Tako je </tspan><tspan
         y="3043.2278"
         x="2207.3274"
         style="font-size:39px;line-height:1.25;fill:#000000"
         sodipodi:role="line"
         id="tspan10937">paranična...</tspan></text>
  </g>
</svg>
