<?xml version="1.0" encoding="UTF-8" standalone="no"?>
<!-- Created with Inkscape (http://www.inkscape.org/) -->

<svg
   xmlns:dc="http://purl.org/dc/elements/1.1/"
   xmlns:cc="http://creativecommons.org/ns#"
   xmlns:rdf="http://www.w3.org/1999/02/22-rdf-syntax-ns#"
   xmlns:svg="http://www.w3.org/2000/svg"
   xmlns="http://www.w3.org/2000/svg"
   xmlns:xlink="http://www.w3.org/1999/xlink"
   xmlns:sodipodi="http://sodipodi.sourceforge.net/DTD/sodipodi-0.dtd"
   xmlns:inkscape="http://www.inkscape.org/namespaces/inkscape"
   id="svg2"
   version="1.1"
   inkscape:version="0.92.3 (2405546, 2018-03-11)"
   width="2481"
   height="3503"
   sodipodi:docname="E26P06.svg">
  <metadata
     id="metadata8">
    <rdf:RDF>
      <cc:Work
         rdf:about="">
        <dc:format>image/svg+xml</dc:format>
        <dc:type
           rdf:resource="http://purl.org/dc/dcmitype/StillImage" />
        <dc:title />
      </cc:Work>
    </rdf:RDF>
  </metadata>
  <defs
     id="defs6" />
  <sodipodi:namedview
     pagecolor="#ffffff"
     bordercolor="#666666"
     borderopacity="1"
     objecttolerance="10"
     gridtolerance="10"
     guidetolerance="10"
     inkscape:pageopacity="0"
     inkscape:pageshadow="2"
     inkscape:window-width="1920"
     inkscape:window-height="1033"
     id="namedview4"
     showgrid="false"
     inkscape:zoom="0.28124564"
     inkscape:cx="3437.6859"
     inkscape:cy="1391.0325"
     inkscape:window-x="0"
     inkscape:window-y="47"
     inkscape:window-maximized="0"
     inkscape:current-layer="layer1"
     inkscape:snap-global="false" />
  <g
     inkscape:groupmode="layer"
     id="layer2"
     inkscape:label="artwork"
     sodipodi:insensitive="true">
    <image
       sodipodi:absref="C:\Users\ruden\Desktop\ep26_Books-Are-Great_lang-pack\lang\ru\../gfx_Pepper-and-Carrot_by-David-Revoy_E26P06.png"
       xlink:href="../gfx_Pepper-and-Carrot_by-David-Revoy_E26P06.png"
       y="0"
       x="0"
       id="image10"
       height="3503"
       width="2481" />
  </g>
  <g
     inkscape:groupmode="layer"
     id="layer3"
     inkscape:label="speechbubbles">
    <path
       style="color:#000000;display:inline;overflow:visible;visibility:visible;fill:#ffffff;fill-opacity:1;fill-rule:nonzero;stroke:none;stroke-width:0.82552934px;marker:none;enable-background:accumulate"
       d="m 1515.1232,2298.0454 c -14.2301,-4.7267 -55.2616,-42.1671 -4.9383,-40.2115 -37.0365,-15.7539 -32.1132,-47.1069 -1.6773,-65.4181 -39.9213,3.7425 -69.5463,-4.0716 -48.976,-36.4311 -59.0502,20.7231 -81.9854,6.2689 -69.7137,-39.183 -27.2021,37.5055 -53.2938,30.5055 -60.0152,-13.3689 -6.13,32.7023 -20.3066,38.9003 -59.3139,-2.2752 -2.8714,11.9993 -13.1979,80.327 -97.3099,69.4306 31.8762,22.8717 52.1252,37.5123 -2.1186,47.1877 27.6447,10.2891 45.2741,24.2276 2.189,46.3712 27.917,6.9937 72.083,4.9437 18.4501,47.2957 35.3597,-20.017 94.3434,-5.5539 68.9205,26.7336 69.2901,-36.2791 82.6168,-26.6054 93.0793,-0.6108 25.7633,-38.0632 62.996,-33.7519 84.6522,-11.6256 -10.5278,-33.7315 44.9544,-27.909 76.7718,-27.8946 z"
       id="path3549-3-78"
       inkscape:connector-curvature="0"
       sodipodi:nodetypes="ccccccccccccccc" />
    <path
       style="color:#000000;display:inline;overflow:visible;visibility:visible;fill:#ffffff;fill-opacity:1;fill-rule:nonzero;stroke:none;stroke-width:1.01871407px;marker:none;enable-background:accumulate"
       d="m 1402.8571,2333.9593 c 8.6108,49.7588 2.9002,118.1574 -78.6529,106.2078 -25.201,28.7471 -47.7946,47.6765 -113.2114,34.184 49.8699,1.0663 77.1319,-3.8454 110.8215,-49.0964 42.563,0.7758 70.1242,-36.0119 48.4083,-95.037 -21.7161,-59.0252 -20.5388,-41.7552 -20.5388,-41.7552 l 47.376,28.0049 z"
       id="path5074"
       inkscape:connector-curvature="0"
       sodipodi:nodetypes="ccccsccc" />
    <path
       style="color:#000000;display:inline;overflow:visible;visibility:visible;fill:#ffffff;fill-opacity:1;fill-rule:nonzero;stroke:none;stroke-width:0.95005703px;marker:none;enable-background:accumulate"
       d="m 1058.6737,1960.4536 c 15.782,-36.4134 160.7054,-62.5941 207.5271,12.4461 46.8216,75.0403 22.8108,153.6514 -4.0542,182.3029 -26.8649,28.6517 -140.9808,36.721 -177.8443,22.1299 -33.1498,-13.1212 -48.0831,-46.0191 -49.9177,-121.1868 -0.7488,-30.679 8.5069,-59.2787 24.2891,-95.6921 z"
       id="path4040"
       inkscape:connector-curvature="0"
       sodipodi:nodetypes="zssssz" />
  </g>
  <g
     inkscape:groupmode="layer"
     id="layer1"
     inkscape:label="txt">
    <path
       style="color:#000000;display:inline;overflow:visible;visibility:visible;fill:#ffffff;fill-opacity:1;fill-rule:nonzero;stroke:none;stroke-width:1px;marker:none;enable-background:accumulate"
       d="m 1740.3605,637.95688 c 17.4053,17.1181 35.3748,35.0294 57.0685,48.7241 6.1988,3.8199 12.7078,7.5251 19.009,9.9498 6.3746,1.4498 9.8735,-1.4122 10.2479,-5.6132 1.1947,-5.7353 -1.4145,-13.9047 3.6212,-17.285 3.8153,-2.3306 11.4822,0.8814 17.8675,3.1704 16.3272,6.0748 33.0627,13.8279 48.9378,17.9363 18.2324,5.5799 37.1007,10.4081 51.0148,8.0016 5.4182,-1.0555 10.3442,-3.0194 11.8487,-7.4624 -11.8529,-30.14705 -41.315,-28.57407 -60.2412,-23.1796 -6.8911,1.9398 -18.3474,-1.96756 -28.217,-4.71516 -12.4299,-0.8743 -25.0467,-6.21694 -38.7607,-12.19864 -6.261,-2.6676 -12.8949,-5.2059 -18.2978,-5.4716 -6.5707,1.3916 -9.2612,7.0734 -7.7874,13.4873 1.2952,6.5363 4.2551,10.27689 -1.1401,13.11709 -3.0033,2.6585 -7.7221,-0.63503 -13.1082,-3.00783 -17.4337,-9.2145 -34.1552,-18.02906 -48.3937,-31.46116 -1.2852,-1.3148 -2.4776,-2.6514 -3.6693,-3.992 z"
       id="path4496"
       inkscape:connector-curvature="0"
       sodipodi:nodetypes="cccccccccccccccccc"
       inkscape:transform-center-x="22.684309"
       inkscape:transform-center-y="9.4517954" />
    <path
       style="color:#000000;display:inline;overflow:visible;visibility:visible;fill:#ffffff;fill-opacity:1;fill-rule:nonzero;stroke:none;stroke-width:0.84162462px;marker:none;enable-background:accumulate"
       d="m 1866.1452,682.21912 c -3.3532,-36.09273 31.4019,-53.47964 101.915,-53.15731 70.513,0.32233 121.2217,-1.06812 135.1273,54.54926 5.2591,45.89008 -64.0431,55.95106 -125.2001,54.94894 -61.1569,-1.00211 -114.5955,-9.66529 -111.8422,-56.34089 z"
       id="path3565"
       inkscape:connector-curvature="0"
       sodipodi:nodetypes="cscsc" />
    <text
       xml:space="preserve"
       style="font-style:normal;font-variant:normal;font-weight:normal;font-stretch:normal;line-height:0%;font-family:Lavi;-inkscape-font-specification:Lavi;text-align:center;letter-spacing:0px;word-spacing:0px;text-anchor:middle;fill:#000000;fill-opacity:1;stroke:none"
       x="1981.5024"
       y="655.12402"
       id="text4246-5-3"><tspan
         sodipodi:role="line"
         style="font-size:45px;line-height:1.25"
         x="1981.5024"
         y="658.24121"
         id="tspan917" /></text>
    <path
       style="color:#000000;display:inline;overflow:visible;visibility:visible;fill:#ffffff;fill-opacity:1;fill-rule:nonzero;stroke:none;stroke-width:1.50382614px;marker:none;enable-background:accumulate"
       d="m 917.47421,1029.7762 c 0,0 60.6469,11.021 70.27329,16.9555 9.6264,5.9344 -64.64891,103.7675 -206.82049,193.0191 146.4033,-81.1884 278.69889,-156.842 298.91449,-154.2986 -8.6637,16.9553 -39.9065,47.6441 -39.9065,47.6441 0,0 92.2094,-44.8238 101.8359,-43.9759 -2.8879,7.6298 3.8507,22.8898 3.8507,22.8898 l 43.8483,-9.9699 -47.7495,43.8426 c 0,0 147.1986,-50.6441 154.0738,-48.2849 7.8153,2.3592 -5.7757,49.171 -5.7757,49.171 l 43.8941,-34.7205 -2.5003,17.765 32.73,-28.8244 10.589,16.1077 22.8327,-17.8234 0.2708,18.6713 36.5806,-24.5856 12.5143,2.5434 31.7674,38.9976 11.9236,-19.9649 14.0678,-29.2451 56.7963,32.2546 3.8504,-4.2389 -5.4109,-34.226 28.5145,24.0527 -2.6371,-25.4135 26.7033,5.9146 20.512,12.4611 27.6204,17.2111 -6.3054,-35.4032 34.9339,18.2252 -8.4129,-32.8407 37.5432,13.5645 11.5517,8.4776 2.8878,-15.2598 12.5145,-0.8479 23.1034,5.9346 30.6681,5.7692 29.0437,6.1983 -53.9359,-43.3352 -13.4768,-11.8688 49.0949,-11.8689 11.5,-108.50431 -22.1281,-47.79742 -818.33992,3.29452 -112.85677,10.49659 99.85033,89.40223 -40.77238,9.02411 42.35651,12.7167 -41.39381,19.49878 25.99137,13.5643 z"
       id="path3931"
       inkscape:connector-curvature="0"
       sodipodi:nodetypes="ccccccccccccccccccccccccccccccccccccccccccccccccccccc" />
    <text
       xml:space="preserve"
       style="font-style:normal;font-variant:normal;font-weight:normal;font-stretch:normal;font-size:23.13890648px;line-height:0%;font-family:Lavi;-inkscape-font-specification:Lavi;text-align:center;letter-spacing:0px;word-spacing:0px;text-anchor:middle;fill:#000000;fill-opacity:1;stroke:none;stroke-width:1.92824221"
       x="1625.3549"
       y="1017.8533"
       id="text4246-1"
       transform="matrix(0.97391078,0,-0.20538452,1.0267881,0,0)"><tspan
         sodipodi:role="line"
         style="font-style:normal;font-variant:normal;font-weight:bold;font-stretch:normal;font-size:86.77090454px;line-height:1.25;font-family:Lavi;-inkscape-font-specification:'Lavi Bold';stroke-width:1.92824221"
         x="1625.3549"
         y="1023.864"
         id="tspan1013" /></text>
    <text
       xml:space="preserve"
       style="font-style:normal;font-variant:normal;font-weight:normal;font-stretch:normal;font-size:18.67560768px;line-height:0%;font-family:Lavi;-inkscape-font-specification:Lavi;text-align:center;letter-spacing:0px;word-spacing:0px;text-anchor:middle;fill:#000000;fill-opacity:1;stroke:none;stroke-width:1.92493451;stroke-miterlimit:4;stroke-dasharray:none;stroke-dashoffset:0"
       x="2273.8328"
       y="1599.2814"
       id="text4246-1-3"
       transform="matrix(0.72588626,-0.17326363,0.24142568,1.3199998,0,0)"><tspan
         sodipodi:role="line"
         style="font-style:normal;font-variant:normal;font-weight:bold;font-stretch:normal;font-size:70.03353882px;line-height:1.25;font-family:Lavi;-inkscape-font-specification:'Lavi Bold';stroke:#000000;stroke-width:1.92493451;stroke-linecap:square;stroke-miterlimit:4;stroke-dasharray:none;stroke-dashoffset:0;stroke-opacity:1;paint-order:normal"
         x="2273.8328"
         y="1604.1327"
         id="tspan1013-6" /></text>
    <text
       xml:space="preserve"
       style="font-style:normal;font-variant:normal;font-weight:normal;font-stretch:normal;line-height:0%;font-family:Lavi;-inkscape-font-specification:Lavi;text-align:center;letter-spacing:0px;word-spacing:0px;text-anchor:middle;fill:#000000;fill-opacity:1;stroke:none"
       x="1159.5453"
       y="1974.3055"
       id="text4246-5"><tspan
         sodipodi:role="line"
         style="font-size:45px;line-height:1.25"
         x="1159.5453"
         y="1977.4227"
         id="tspan980" /></text>
    <text
       xml:space="preserve"
       style="font-style:normal;font-variant:normal;font-weight:normal;font-stretch:normal;line-height:0%;font-family:Lavi;-inkscape-font-specification:Lavi;text-align:center;letter-spacing:0px;word-spacing:0px;text-anchor:middle;display:inline;opacity:1;fill:#241c1c;fill-opacity:1;stroke:#000000;stroke-width:0;stroke-miterlimit:4;stroke-dasharray:none;stroke-opacity:1"
       x="2414.1099"
       y="3323.9915"
       id="text4213"
       transform="matrix(0.95719015,0,-0.32603671,1.0447245,0,0)"><tspan
         sodipodi:role="line"
         id="tspan3562"
         x="2414.1099"
         y="3323.9915"
         style="font-style:normal;font-variant:normal;font-weight:bold;font-stretch:normal;font-size:72.18077087px;line-height:1.25;font-family:Lavi;-inkscape-font-specification:'Lavi Bold';fill:#000000;fill-opacity:1;stroke:none;stroke-width:0;stroke-miterlimit:4;stroke-dasharray:none">- КОНЕЦ -</tspan></text>
    <flowRoot
       xml:space="preserve"
       id="flowRoot62"
       style="font-style:normal;font-variant:normal;font-weight:normal;font-stretch:normal;font-size:96px;line-height:1.25;font-family:Neucha;-inkscape-font-specification:'Neucha, Normal';font-variant-ligatures:normal;font-variant-caps:normal;font-variant-numeric:normal;font-feature-settings:normal;text-align:center;letter-spacing:0px;word-spacing:0px;writing-mode:lr-tb;text-anchor:middle;fill:#000000;fill-opacity:1;stroke:none"
       transform="translate(1.777805,34.667204)"><flowRegion
         id="flowRegion64"
         style="font-size:96px"><rect
           id="rect66"
           width="337.78299"
           height="195.55856"
           x="1864.9178"
           y="1547.4142"
           style="font-size:96px" /></flowRegion><flowPara
         id="flowPara68"
         style="font-style:normal;font-variant:normal;font-weight:normal;font-stretch:normal;font-size:153.33332825px;font-family:Neucha;-inkscape-font-specification:'Neucha, Normal';font-variant-ligatures:normal;font-variant-caps:normal;font-variant-numeric:normal;font-feature-settings:normal;text-align:center;writing-mode:lr-tb;text-anchor:middle">Плюх!</flowPara></flowRoot>    <flowRoot
       xml:space="preserve"
       id="flowRoot70"
       style="fill:black;fill-opacity:1;stroke:none;font-family:Neucha;font-style:normal;font-weight:normal;font-size:45px;line-height:1.25;letter-spacing:0px;word-spacing:0px;-inkscape-font-specification:'Neucha, Normal';font-stretch:normal;font-variant:normal;text-anchor:middle;text-align:center;writing-mode:lr;font-variant-ligatures:normal;font-variant-caps:normal;font-variant-numeric:normal;font-feature-settings:normal"><flowRegion
         id="flowRegion72"><rect
           id="rect74"
           width="0"
           height="65.778801"
           x="2190.2561"
           y="1538.5251" /></flowRegion><flowPara
         id="flowPara76" /></flowRoot>    <flowRoot
       xml:space="preserve"
       id="flowRoot78"
       style="fill:black;fill-opacity:1;stroke:none;font-family:Neucha;font-style:normal;font-weight:normal;font-size:45px;line-height:1.25;letter-spacing:0px;word-spacing:0px;-inkscape-font-specification:'Neucha, Normal';font-stretch:normal;font-variant:normal;text-anchor:middle;text-align:center;writing-mode:lr;font-variant-ligatures:normal;font-variant-caps:normal;font-variant-numeric:normal;font-feature-settings:normal"><flowRegion
         id="flowRegion80"><rect
           id="rect82"
           width="275.55981"
           height="225.78128"
           x="1011.5712"
           y="1933.1979" /></flowRegion><flowPara
         id="flowPara84" /></flowRoot>    <text
       xml:space="preserve"
       style="font-style:normal;font-variant:normal;font-weight:normal;font-stretch:normal;font-size:45px;line-height:1.25;font-family:Neucha;-inkscape-font-specification:'Neucha, Normal';font-variant-ligatures:normal;font-variant-caps:normal;font-variant-numeric:normal;font-feature-settings:normal;text-align:center;letter-spacing:0px;word-spacing:0px;writing-mode:lr-tb;text-anchor:middle;fill:#000000;fill-opacity:1;stroke:none"
       x="1189.3518"
       y="2084.3113"
       id="text88"><tspan
         sodipodi:role="line"
         id="tspan86"
         x="1189.3518"
         y="2122.7583" /></text>
    <flowRoot
       xml:space="preserve"
       id="flowRoot90"
       style="font-style:normal;font-variant:normal;font-weight:normal;font-stretch:normal;font-size:46.66666794px;line-height:1.25;font-family:Neucha;-inkscape-font-specification:'Neucha, Normal';font-variant-ligatures:normal;font-variant-caps:normal;font-variant-numeric:normal;font-feature-settings:normal;text-align:center;letter-spacing:0px;word-spacing:0px;writing-mode:lr-tb;text-anchor:middle;fill:#000000;fill-opacity:1;stroke:none"
       transform="translate(1.7778053)"><flowRegion
         id="flowRegion92"><rect
           id="rect94"
           width="266.67081"
           height="240.00372"
           x="1022.2381"
           y="1940.3091" /></flowRegion><flowPara
         id="flowPara96"
         style="font-size:46.66666794px">Ан нет,</flowPara><flowPara
         id="flowPara244"
         style="font-size:46.66666794px">и правда в любой ситуации...</flowPara></flowRoot>    <flowRoot
       xml:space="preserve"
       id="flowRoot98"
       style="font-style:normal;font-variant:normal;font-weight:normal;font-stretch:normal;font-size:46.66666794px;line-height:1.25;font-family:Neucha;-inkscape-font-specification:'Neucha, Normal';font-variant-ligatures:normal;font-variant-caps:normal;font-variant-numeric:normal;font-feature-settings:normal;text-align:center;letter-spacing:0px;word-spacing:0px;writing-mode:lr-tb;text-anchor:middle;fill:#000000;fill-opacity:1;stroke:none"
       transform="translate(-28.444885,-12.444637)"><flowRegion
         id="flowRegion100"><rect
           id="rect102"
           width="385.78375"
           height="160.00249"
           x="1171.5737"
           y="2183.8684" /></flowRegion><flowPara
         id="flowPara104">...книги</flowPara><flowPara
         id="flowPara106">великолепны!</flowPara></flowRoot>    <flowRoot
       xml:space="preserve"
       id="flowRoot108"
       style="fill:black;fill-opacity:1;stroke:none;font-family:Neucha;font-style:normal;font-weight:normal;font-size:45px;line-height:1.25;letter-spacing:0px;word-spacing:0px;-inkscape-font-specification:'Neucha, Normal';font-stretch:normal;font-variant:normal;text-anchor:middle;text-align:center;writing-mode:lr;font-variant-ligatures:normal;font-variant-caps:normal;font-variant-numeric:normal;font-feature-settings:normal"><flowRegion
         id="flowRegion110"><rect
           id="rect112"
           width="216.89226"
           height="96.001488"
           x="1879.1403"
           y="638.95563" /></flowRegion><flowPara
         id="flowPara114" /></flowRoot>    <text
       xml:space="preserve"
       style="font-style:normal;font-variant:normal;font-weight:normal;font-stretch:normal;font-size:45px;line-height:1.25;font-family:Neucha;-inkscape-font-specification:'Neucha, Normal';font-variant-ligatures:normal;font-variant-caps:normal;font-variant-numeric:normal;font-feature-settings:normal;text-align:center;letter-spacing:0px;word-spacing:0px;writing-mode:lr-tb;text-anchor:middle;fill:#000000;fill-opacity:1;stroke:none"
       x="2042.6982"
       y="697.62317"
       id="text118"><tspan
         sodipodi:role="line"
         id="tspan116"
         x="2042.6982"
         y="736.07025" /></text>
    <flowRoot
       xml:space="preserve"
       id="flowRoot122"
       style="fill:black;fill-opacity:1;stroke:none;font-family:Neucha;font-style:normal;font-weight:normal;font-size:45px;line-height:1.25;letter-spacing:0px;word-spacing:0px;-inkscape-font-specification:'Neucha, Normal';font-stretch:normal;font-variant:normal;text-anchor:middle;text-align:center;writing-mode:lr;font-variant-ligatures:normal;font-variant-caps:normal;font-variant-numeric:normal;font-feature-settings:normal"><flowRegion
         id="flowRegion124"><rect
           id="rect126"
           width="222.22566"
           height="104.89052"
           x="1864.9178"
           y="635.39996" /></flowRegion><flowPara
         id="flowPara128" /></flowRoot>    <flowRoot
       xml:space="preserve"
       id="flowRoot143"
       style="font-style:normal;font-variant:normal;font-weight:normal;font-stretch:normal;font-size:46.66666794px;line-height:1.25;font-family:Neucha;-inkscape-font-specification:'Neucha, Normal';font-variant-ligatures:normal;font-variant-caps:normal;font-variant-numeric:normal;font-feature-settings:normal;text-align:center;letter-spacing:0px;word-spacing:0px;writing-mode:lr-tb;text-anchor:middle;fill:#000000;fill-opacity:1;stroke:none"
       transform="translate(16.88915,20.444761)"><flowRegion
         id="flowRegion145"
         style="font-size:40px"><rect
           id="rect147"
           width="332.44968"
           height="138.66884"
           x="1800.9167"
           y="633.62219"
           style="font-size:40px" /></flowRegion><flowPara
         style="font-size:46.66666794px"
         id="flowPara151">...хотя, если...</flowPara></flowRoot>    <flowRoot
       xml:space="preserve"
       id="flowRoot153"
       style="fill:black;fill-opacity:1;stroke:none;font-family:Neucha;font-style:normal;font-weight:normal;font-size:45px;line-height:1.25;letter-spacing:0px;word-spacing:0px;-inkscape-font-specification:'Neucha, Normal';font-stretch:normal;font-variant:normal;text-anchor:middle;text-align:center;writing-mode:lr;font-variant-ligatures:normal;font-variant-caps:normal;font-variant-numeric:normal;font-feature-settings:normal"><flowRegion
         id="flowRegion155"><rect
           id="rect157"
           width="801.79022"
           height="204.44762"
           x="1018.6824"
           y="884.29272" /></flowRegion><flowPara
         id="flowPara159" /></flowRoot>    <flowRoot
       xml:space="preserve"
       id="flowRoot161"
       style="font-style:normal;font-variant:normal;font-weight:normal;font-stretch:normal;font-size:193.33332825px;line-height:1.25;font-family:Neucha;-inkscape-font-specification:'Neucha, Normal';font-variant-ligatures:normal;font-variant-caps:normal;font-variant-numeric:normal;font-feature-settings:normal;text-align:center;letter-spacing:0px;word-spacing:0px;writing-mode:lr-tb;text-anchor:middle;fill:#000000;fill-opacity:1;stroke:none"
       transform="translate(-7.1112213,-21.333664)"><flowRegion
         id="flowRegion163"><rect
           id="rect165"
           width="947.82709"
           height="337.4364"
           x="990.23755"
           y="884.29272" /></flowRegion><flowPara
         id="flowPara167"><flowSpan
           style="font-size:86.66666412px"
           id="flowSpan169">к</flowSpan><flowSpan
           style="font-size:100px"
           id="flowSpan173">и</flowSpan><flowSpan
           style="font-size:113.33333588px"
           id="flowSpan175">й</flowSpan><flowSpan
           style="font-size:126.66666412px"
           id="flowSpan177">а</flowSpan><flowSpan
           style="font-size:140px"
           id="flowSpan179">а</flowSpan><flowSpan
           style="font-size:153.33332825px"
           id="flowSpan181">а</flowSpan><flowSpan
           style="font-size:166.66667175px"
           id="flowSpan183">а<flowSpan
   style="font-size:180px"
   id="flowSpan96">а</flowSpan>!!!</flowSpan><flowSpan
           style="font-size:113.33333588px"
           id="flowSpan185">        </flowSpan></flowPara></flowRoot>    <flowRoot
       xml:space="preserve"
       id="flowRoot187"
       style="fill:black;fill-opacity:1;stroke:none;font-family:Neucha;font-style:normal;font-weight:normal;font-size:45px;line-height:1.25;letter-spacing:0px;word-spacing:0px;-inkscape-font-specification:'Neucha, Normal';font-stretch:normal;font-variant:normal;text-anchor:middle;text-align:center;writing-mode:lr;font-variant-ligatures:normal;font-variant-caps:normal;font-variant-numeric:normal;font-feature-settings:normal"><flowRegion
         id="flowRegion189"><rect
           id="rect191"
           width="117.33515"
           height="58.667576"
           x="871.12463"
           y="827.40295" /></flowRegion><flowPara
         id="flowPara193" /></flowRoot>    <flowRoot
       xml:space="preserve"
       id="flowRoot195"
       style="fill:black;fill-opacity:1;stroke:none;font-family:Neucha;font-style:normal;font-weight:normal;font-size:45px;line-height:1.25;letter-spacing:0px;word-spacing:0px;-inkscape-font-specification:'Neucha, Normal';font-stretch:normal;font-variant:normal;text-anchor:middle;text-align:center;writing-mode:lr;font-variant-ligatures:normal;font-variant-caps:normal;font-variant-numeric:normal;font-feature-settings:normal"><flowRegion
         id="flowRegion197"><rect
           id="rect199"
           width="926.23657"
           height="263.1152"
           x="977.79291"
           y="891.40393" /></flowRegion><flowPara
         id="flowPara201" /></flowRoot>    <flowRoot
       xml:space="preserve"
       id="flowRoot213"
       style="fill:black;fill-opacity:1;stroke:none;font-family:Neucha;font-style:normal;font-weight:normal;font-size:45px;line-height:1.25;letter-spacing:0px;word-spacing:0px;-inkscape-font-specification:'Neucha, Normal';font-stretch:normal;font-variant:normal;text-anchor:middle;text-align:center;writing-mode:lr;font-variant-ligatures:normal;font-variant-caps:normal;font-variant-numeric:normal;font-feature-settings:normal"><flowRegion
         id="flowRegion215"><rect
           id="rect217"
           width="37.333912"
           height="58.667576"
           x="1699.5819"
           y="918.07104" /></flowRegion><flowPara
         id="flowPara219" /></flowRoot>    <flowRoot
       xml:space="preserve"
       id="flowRoot234"
       style="fill:black;fill-opacity:1;stroke:none;font-family:Neucha;font-style:normal;font-weight:normal;font-size:45px;line-height:1.25;letter-spacing:0px;word-spacing:0px;-inkscape-font-specification:'Neucha, Normal';font-stretch:normal;font-variant:normal;text-anchor:middle;text-align:center;writing-mode:lr;font-variant-ligatures:normal;font-variant-caps:normal;font-variant-numeric:normal;font-feature-settings:normal"><flowRegion
         id="flowRegion236"><rect
           id="rect238"
           width="128.00198"
           height="78.223434"
           x="1944.9191"
           y="656.73364" /></flowRegion><flowPara
         id="flowPara240" /></flowRoot>  </g>
</svg>
