<?xml version="1.0" encoding="UTF-8" standalone="no"?>
<!-- Created with Inkscape (http://www.inkscape.org/) -->

<svg
   xmlns:dc="http://purl.org/dc/elements/1.1/"
   xmlns:cc="http://creativecommons.org/ns#"
   xmlns:rdf="http://www.w3.org/1999/02/22-rdf-syntax-ns#"
   xmlns:svg="http://www.w3.org/2000/svg"
   xmlns="http://www.w3.org/2000/svg"
   xmlns:xlink="http://www.w3.org/1999/xlink"
   xmlns:sodipodi="http://sodipodi.sourceforge.net/DTD/sodipodi-0.dtd"
   xmlns:inkscape="http://www.inkscape.org/namespaces/inkscape"
   id="svg2"
   version="1.1"
   inkscape:version="0.92.2 (5c3e80d, 2017-08-06)"
   width="2481"
   height="3503"
   sodipodi:docname="Pepper-and-Carrot_by-David-Revoy_E18P06.svg"
   inkscape:export-filename="E:\Users\jamesmichael\Downloads\Compressed\eps\peppercarrot_ep18_translation-master\peppercarrot_ep18_translation-master\ph\Pepper-and-Carrot_by-David-Revoy_E18P06.png"
   inkscape:export-xdpi="98.181801"
   inkscape:export-ydpi="98.181801">
  <metadata
     id="metadata8">
    <rdf:RDF>
      <cc:Work
         rdf:about="">
        <dc:format>image/svg+xml</dc:format>
        <dc:type
           rdf:resource="http://purl.org/dc/dcmitype/StillImage" />
        <dc:title />
      </cc:Work>
    </rdf:RDF>
  </metadata>
  <defs
     id="defs6">
    <filter
       style="color-interpolation-filters:sRGB"
       id="filter4375-4-1-1-1-9"
       inkscape:label="deevad outline effect">
      <feFlood
         id="feFlood4377-7-9-0-8-1"
         flood-opacity="1"
         flood-color="rgb(178,127,100)"
         result="flood" />
      <feComposite
         id="feComposite4379-3-8-8-2-77"
         in2="SourceGraphic"
         in="flood"
         operator="in"
         result="composite1" />
      <feMorphology
         id="feMorphology4393-1-0-49-8-9"
         operator="dilate"
         radius="4"
         result="result3" />
      <feComposite
         id="feComposite4385-9-5-7-0-8"
         in2="result3"
         in="SourceGraphic"
         operator="over"
         result="composite2" />
    </filter>
    <filter
       style="color-interpolation-filters:sRGB"
       id="filter4375-4-1-1-1-9-3"
       inkscape:label="deevad outline effect">
      <feFlood
         id="feFlood4377-7-9-0-8-1-6"
         flood-opacity="1"
         flood-color="rgb(178,127,100)"
         result="flood" />
      <feComposite
         id="feComposite4379-3-8-8-2-77-7"
         in2="SourceGraphic"
         in="flood"
         operator="in"
         result="composite1" />
      <feMorphology
         id="feMorphology4393-1-0-49-8-9-5"
         operator="dilate"
         radius="4"
         result="result3" />
      <feComposite
         id="feComposite4385-9-5-7-0-8-3"
         in2="result3"
         in="SourceGraphic"
         operator="over"
         result="composite2" />
    </filter>
    <filter
       style="color-interpolation-filters:sRGB"
       id="filter4375-4-1-1-1-9-3-9"
       inkscape:label="deevad outline effect">
      <feFlood
         id="feFlood4377-7-9-0-8-1-6-2"
         flood-opacity="1"
         flood-color="rgb(178,127,100)"
         result="flood" />
      <feComposite
         id="feComposite4379-3-8-8-2-77-7-8"
         in2="SourceGraphic"
         in="flood"
         operator="in"
         result="composite1" />
      <feMorphology
         id="feMorphology4393-1-0-49-8-9-5-1"
         operator="dilate"
         radius="4"
         result="result3" />
      <feComposite
         id="feComposite4385-9-5-7-0-8-3-3"
         in2="result3"
         in="SourceGraphic"
         operator="over"
         result="composite2" />
    </filter>
    <filter
       style="color-interpolation-filters:sRGB"
       id="filter4375-4-1-1-1-9-3-0"
       inkscape:label="deevad outline effect">
      <feFlood
         id="feFlood4377-7-9-0-8-1-6-8"
         flood-opacity="1"
         flood-color="rgb(178,127,100)"
         result="flood" />
      <feComposite
         id="feComposite4379-3-8-8-2-77-7-7"
         in2="SourceGraphic"
         in="flood"
         operator="in"
         result="composite1" />
      <feMorphology
         id="feMorphology4393-1-0-49-8-9-5-5"
         operator="dilate"
         radius="4"
         result="result3" />
      <feComposite
         id="feComposite4385-9-5-7-0-8-3-0"
         in2="result3"
         in="SourceGraphic"
         operator="over"
         result="composite2" />
    </filter>
    <filter
       inkscape:collect="always"
       style="color-interpolation-filters:sRGB"
       id="filter4896"
       x="-0.062015365"
       width="1.1240307"
       y="-0.029722645"
       height="1.0594453">
      <feGaussianBlur
         inkscape:collect="always"
         stdDeviation="1.3923437"
         id="feGaussianBlur4898" />
    </filter>
    <filter
       inkscape:collect="always"
       style="color-interpolation-filters:sRGB"
       id="filter4908"
       x="-0.031225484"
       width="1.062451"
       y="-0.028867075"
       height="1.0577341">
      <feGaussianBlur
         inkscape:collect="always"
         stdDeviation="0.98760263"
         id="feGaussianBlur4910" />
    </filter>
  </defs>
  <sodipodi:namedview
     pagecolor="#ffffff"
     bordercolor="#666666"
     borderopacity="1"
     objecttolerance="10"
     gridtolerance="10"
     guidetolerance="10"
     inkscape:pageopacity="0"
     inkscape:pageshadow="2"
     inkscape:window-width="1366"
     inkscape:window-height="705"
     id="namedview4"
     showgrid="false"
     inkscape:zoom="0.28889523"
     inkscape:cx="1270.5841"
     inkscape:cy="1470.9962"
     inkscape:window-x="-8"
     inkscape:window-y="-8"
     inkscape:window-maximized="1"
     inkscape:current-layer="layer6" />
  <g
     inkscape:groupmode="layer"
     id="layer2"
     inkscape:label="artwork"
     sodipodi:insensitive="true">
    <image
       sodipodi:absref="E:\Users\jamesmichael\Downloads\Compressed\eps\peppercarrot_ep18_translation-master\peppercarrot_ep18_translation-master\ph\../gfx_Pepper-and-Carrot_by-David-Revoy_E18P06.png"
       xlink:href="../gfx_Pepper-and-Carrot_by-David-Revoy_E18P06.png"
       width="2481"
       height="3503"
       id="image10"
       x="0"
       y="0" />
  </g>
  <g
     inkscape:groupmode="layer"
     id="layer4"
     inkscape:label="translatornotes"
     sodipodi:insensitive="true" />
  <g
     inkscape:groupmode="layer"
     id="layer3"
     inkscape:label="speechbubbles" />
  <g
     inkscape:groupmode="layer"
     id="layer1"
     inkscape:label="txt">
    <g
       inkscape:groupmode="layer"
       id="layer7"
       inkscape:label="frame02">
      <text
         xml:space="preserve"
         style="font-style:normal;font-variant:normal;font-weight:normal;font-stretch:normal;line-height:0%;font-family:Lavi;-inkscape-font-specification:Lavi;letter-spacing:0px;word-spacing:0px;opacity:1;fill:#000000;fill-opacity:1;stroke:none;stroke-width:0.99236238;stroke-miterlimit:4;stroke-dasharray:none;stroke-opacity:1;filter:url(#filter4375-4-1-1-1-9)"
         x="787.65729"
         y="1584.5073"
         id="text4580"
         transform="matrix(0.75013504,-0.49244974,0.05929022,0.96395374,362.22027,-696.60665)"><tspan
           sodipodi:role="line"
           id="tspan4582"
           x="787.65729"
           y="1584.5073"
           style="font-size:70px;line-height:1.25;fill:#ffffff;stroke:none"><tspan
             style="font-size:80.40014648px;stroke:none"
             id="tspan4617">swiiip !</tspan></tspan></text>
    </g>
    <g
       inkscape:groupmode="layer"
       id="layer6"
       inkscape:label="frame03">
      <text
         xml:space="preserve"
         style="font-style:normal;font-variant:normal;font-weight:normal;font-stretch:normal;line-height:0%;font-family:Lavi;-inkscape-font-specification:Lavi;letter-spacing:0px;word-spacing:0px;opacity:1;fill:#000000;fill-opacity:1;stroke:none;stroke-width:0.99236238;stroke-miterlimit:4;stroke-dasharray:none;stroke-opacity:1;filter:url(#filter4375-4-1-1-1-9-3)"
         x="787.65729"
         y="1584.5073"
         id="text4580-5"
         transform="matrix(1.0887217,-1.1969596,0.47139325,1.4811464,-636.36638,353.66154)"><tspan
           sodipodi:role="line"
           id="tspan4582-6"
           x="787.65729"
           y="1584.5073"
           style="font-size:70px;line-height:1.25;fill:#ffffff;stroke:none">?<tspan
   style="font-size:80.40014648px;stroke:none"
   id="tspan4617-2" /></tspan></text>
      <text
         xml:space="preserve"
         style="font-style:normal;font-variant:normal;font-weight:normal;font-stretch:normal;line-height:0%;font-family:Lavi;-inkscape-font-specification:Lavi;letter-spacing:0px;word-spacing:0px;opacity:1;fill:#000000;fill-opacity:1;stroke:none;stroke-width:0.99236238;stroke-miterlimit:4;stroke-dasharray:none;stroke-opacity:1;filter:url(#filter4375-4-1-1-1-9-3-9)"
         x="787.65729"
         y="1584.5073"
         id="text4580-5-0"
         transform="matrix(0.64003188,-0.70366221,0.27712015,0.87072843,963.12795,129.89806)"><tspan
           sodipodi:role="line"
           id="tspan4582-6-0"
           x="787.65729"
           y="1584.5073"
           style="font-size:70px;line-height:1.25;fill:#ffffff;stroke:none"><tspan
             style="font-size:80.40014648px;stroke:none"
             id="tspan4617-2-2">Plock !</tspan></tspan></text>
      <text
         xml:space="preserve"
         style="font-style:normal;font-variant:normal;font-weight:normal;font-stretch:normal;line-height:0%;font-family:Lavi;-inkscape-font-specification:Lavi;letter-spacing:0px;word-spacing:0px;opacity:1;fill:#000000;fill-opacity:1;stroke:none;stroke-width:0.99236238;stroke-miterlimit:4;stroke-dasharray:none;stroke-opacity:1;filter:url(#filter4375-4-1-1-1-9-3-0)"
         x="787.65729"
         y="1584.5073"
         id="text4580-5-8"
         transform="matrix(1.5553392,-0.44603501,-0.37748505,1.5078167,1232.6296,-417.89543)"><tspan
           sodipodi:role="line"
           id="tspan4582-6-00"
           x="787.65729"
           y="1584.5073"
           style="font-size:70px;line-height:1.25;fill:#ffffff;stroke:none">?<tspan
   style="font-size:80.40014648px;stroke:none"
   id="tspan4617-2-7" /></tspan></text>
      <path
         style="opacity:0.53500001;fill:#c83737;stroke:none;stroke-width:0.62284493px;stroke-linecap:butt;stroke-linejoin:miter;stroke-opacity:1;filter:url(#filter4908)"
         d="m 1902.0405,2688.432 c 0,0 12.3277,-44.6194 35.7385,-22.0945 23.411,22.525 -20.1532,82.446 -20.1532,82.446 -20.9093,-6.2066 -55.9708,-35.2569 -51.1434,-53.6318 5.8118,-22.1218 31.6025,-20.3218 35.5581,-6.7197 z"
         id="path4843"
         inkscape:connector-curvature="0"
         sodipodi:nodetypes="cscsc"
         transform="rotate(-39.194852,1916.0677,2686.5005)" />
      <path
         style="opacity:0.53500001;fill:#c83737;stroke:none;stroke-width:0.62284493px;stroke-linecap:butt;stroke-linejoin:miter;stroke-opacity:1;filter:url(#filter4896)"
         d="m 1921.8638,2657.5888 c 0,0 -8.366,-42.7198 -22.148,-72.1391 -25.8081,-55.0905 28.232,-32.6689 47.0295,-10.8078 -25.2684,-2.294 -39.2554,9.2717 -37.9598,14.8038 0.8035,3.4308 1.7476,7.0326 2.7903,10.7228 0.4866,-25.3144 31.1682,-8.6073 29.9984,-10.3462 -1.2729,-1.8922 -31.8294,8.0431 -27.9221,17.4009 8.2919,27.1703 20.3289,56.2323 20.3289,56.2323 -27.6055,-14.8961 -9.9831,-0.2947 -12.1172,-5.8667 z"
         id="path4843-9"
         inkscape:connector-curvature="0"
         sodipodi:nodetypes="cscscsccc"
         inkscape:transform-center-x="7.7708302"
         inkscape:transform-center-y="-59.944889" />
    </g>
    <g
       inkscape:groupmode="layer"
       id="layer5"
       inkscape:label="frame05">
      <text
         xml:space="preserve"
         style="font-style:normal;font-variant:normal;font-weight:normal;font-stretch:normal;font-size:18.32277107px;line-height:0%;font-family:Lavi;-inkscape-font-specification:Lavi;text-align:center;letter-spacing:0px;word-spacing:0px;text-anchor:middle;fill:#b27f64;fill-opacity:1;stroke:none;stroke-width:1.52689767"
         x="-10.239651"
         y="3202.6682"
         id="text4246"
         transform="rotate(-14.966207)"><tspan
           sodipodi:role="line"
           style="font-size:68.71039581px;line-height:1.25;fill:#b27f64;fill-opacity:1;stroke-width:1.52689767"
           x="1.8383524"
           y="3202.6682"
           id="tspan4252">Hee </tspan><tspan
           sodipodi:role="line"
           style="font-size:68.71039581px;line-height:1.25;fill:#b27f64;fill-opacity:1;stroke-width:1.52689767"
           x="1.8383524"
           y="3288.5562"
           id="tspan4845"> hee </tspan><tspan
           sodipodi:role="line"
           style="font-size:68.71039581px;line-height:1.25;fill:#b27f64;fill-opacity:1;stroke-width:1.52689767"
           x="-10.239651"
           y="3374.4441"
           id="tspan4847">   hee!</tspan></text>
    </g>
  </g>
</svg>
