<?xml version="1.0" encoding="UTF-8" standalone="no"?>
<svg
   xmlns:dc="http://purl.org/dc/elements/1.1/"
   xmlns:cc="http://creativecommons.org/ns#"
   xmlns:rdf="http://www.w3.org/1999/02/22-rdf-syntax-ns#"
   xmlns:svg="http://www.w3.org/2000/svg"
   xmlns="http://www.w3.org/2000/svg"
   xmlns:xlink="http://www.w3.org/1999/xlink"
   xmlns:sodipodi="http://sodipodi.sourceforge.net/DTD/sodipodi-0.dtd"
   xmlns:inkscape="http://www.inkscape.org/namespaces/inkscape"
   id="svg2"
   version="1.1"
   inkscape:version="0.48.5 r10040"
   width="2481"
   height="3503"
   sodipodi:docname="E34P04.svg">
  <metadata
     id="metadata8">
    <rdf:RDF>
      <cc:Work
         rdf:about="">
        <dc:format>image/svg+xml</dc:format>
        <dc:type
           rdf:resource="http://purl.org/dc/dcmitype/StillImage" />
        <dc:title />
      </cc:Work>
    </rdf:RDF>
  </metadata>
  <defs
     id="defs6">
    <filter
       style="color-interpolation-filters:sRGB"
       id="filter4375-4-1-1-1-9-5-8-8-5-5-3-8"
       inkscape:label="soundFX1">
      <feFlood
         id="feFlood4377-7-9-0-8-1-7-3-1-2-7-6-7"
         flood-opacity="1"
         flood-color="rgb(255,255,255)"
         result="flood" />
      <feComposite
         id="feComposite4379-3-8-8-2-77-4-1-0-6-4-7-9"
         in2="SourceGraphic"
         in="flood"
         operator="in"
         result="composite1"
         baseFrequency="0.053999999999999999 0.053999999999999999" />
      <feMorphology
         id="feMorphology4393-1-0-49-8-9-3-0-1-9-9-5-2"
         operator="dilate"
         radius="2.9756367599225957"
         result="result3" />
      <feComposite
         id="feComposite4385-9-5-7-0-8-8-7-5-4-9-3-0"
         in2="result3"
         in="SourceGraphic"
         operator="over"
         result="fbSourceGraphic" />
      <feColorMatrix
         result="fbSourceGraphicAlpha"
         in="fbSourceGraphic"
         values="0 0 0 -1 0 0 0 0 -1 0 0 0 0 -1 0 0 0 0 1 0"
         id="feColorMatrix4544-9-4-4-5-2" />
      <feTurbulence
         id="feTurbulence4546-3-6-5-6-3"
         type="fractalNoise"
         numOctaves="5"
         seed="174"
         baseFrequency="0.053999999999999999 0.054054054054054057"
         result="turbulence" />
      <feDisplacementMap
         id="feDisplacementMap4548-8-0-9-2-7"
         in2="turbulence"
         in="fbSourceGraphic"
         scale="6.6"
         yChannelSelector="G"
         xChannelSelector="R"
         result="fbSourceGraphic" />
      <feColorMatrix
         result="fbSourceGraphicAlpha"
         in="fbSourceGraphic"
         values="0 0 0 -1 0 0 0 0 -1 0 0 0 0 -1 0 0 0 0 1 0"
         id="feColorMatrix4670-7-7-3-9-5" />
      <feFlood
         id="feFlood4672-4-4-5-1-9"
         flood-opacity="1"
         flood-color="rgb(255,255,255)"
         result="flood"
         in="fbSourceGraphic" />
      <feComposite
         id="feComposite4674-8-3-7-2-22"
         in2="fbSourceGraphic"
         in="flood"
         operator="in"
         result="composite1" />
      <feGaussianBlur
         id="feGaussianBlur4676-3-7-08-7-8"
         in="composite1"
         stdDeviation="0"
         result="blur" />
      <feOffset
         id="feOffset4678-6-9-1-0-9"
         dx="-6.3258232761971414"
         dy="6"
         result="offset" />
      <feComposite
         id="feComposite4680-4-0-9-9-7"
         in2="offset"
         in="fbSourceGraphic"
         operator="over"
         result="composite2" />
    </filter>
  </defs>
  <sodipodi:namedview
     pagecolor="#ffffff"
     bordercolor="#666666"
     borderopacity="1"
     objecttolerance="10"
     gridtolerance="10"
     guidetolerance="10"
     inkscape:pageopacity="0"
     inkscape:pageshadow="2"
     inkscape:window-width="1276"
     inkscape:window-height="676"
     id="namedview4"
     showgrid="false"
     inkscape:zoom="0.4128773"
     inkscape:cx="1523.8428"
     inkscape:cy="722.33555"
     inkscape:window-x="192"
     inkscape:window-y="0"
     inkscape:window-maximized="0"
     inkscape:current-layer="layer3"
     inkscape:document-rotation="0"
     borderlayer="true" />
  <g
     inkscape:groupmode="layer"
     id="layer2"
     inkscape:label="artwork"
     sodipodi:insensitive="true">
    <image
       sodipodi:absref="/Users/su_huynh/Downloads/lang 6/vi/../gfx_Pepper-and-Carrot_by-David-Revoy_E34P04.png"
       xlink:href="../gfx_Pepper-and-Carrot_by-David-Revoy_E34P04.png"
       width="2481"
       height="3503"
       id="image10"
       x="0"
       y="0" />
  </g>
  <g
     inkscape:groupmode="layer"
     id="layer3"
     inkscape:label="speechbubbles"
     style="display:inline">
    <path
       style="color:#000000;fill:#ffffff;fill-opacity:1;fill-rule:nonzero;stroke:none;stroke-width:0.86599302px;marker:none;visibility:visible;display:inline;overflow:visible;enable-background:accumulate"
       d="m 948.38189,220.47812 c -23.97683,0.12402 -48.43615,2.91304 -70.14668,11.24362 -16.19558,6.38447 -28.28266,18.44633 -33.11499,32.06297 -4.77239,11.84813 -5.23575,25.19838 1.41217,36.67224 6.76644,11.00618 20.2848,18.7739 34.97047,22.36242 30.63596,8.7553 63.43495,11.92337 95.91286,12.1373 25.83288,-0.31748 52.06288,-5.42555 73.63938,-16.82561 10.5684,-5.77374 18.805,-14.33846 21.9936,-24.17886 5.705,-15.85157 1.2921,-33.61403 -11.0839,-46.87352 -8.0518,-8.42568 -19.6923,-14.66001 -32.6128,-17.55508 -13.9853,-3.56587 -28.5647,-5.3833 -43.06082,-7.14785 -12.56233,-1.3039 -25.23625,-1.95312 -37.90929,-1.89763 z"
       id="path4040-4-5-3-5"
       inkscape:connector-curvature="0"
       sodipodi:nodetypes="zssssz" />
    <path
       style="color:#000000;fill:#ffffff;fill-opacity:1;fill-rule:nonzero;stroke:none;stroke-width:1.17340004px;marker:none;visibility:visible;display:inline;overflow:visible;enable-background:accumulate"
       d="m 958.29746,309.20508 c -29.84941,0.4536 -60.17456,5.15721 -87.88225,19.83339 -21.31545,12.28212 -39.87566,33.57133 -49.26344,60.92936 -5.05404,14.58957 -8.72463,29.95032 -11.03451,45.59544 -2.43724,17.44048 -3.06345,35.61673 0.25465,52.94237 6.17616,29.84216 24.41897,55.12437 47.31149,65.97152 21.43819,11.79425 44.31331,18.84144 67.28619,23.95938 42.84078,8.71878 86.84111,7.64801 129.51861,-2.02118 19.5459,-4.73721 39.0385,-11.44714 56.7059,-23.23338 17.3212,-13.0828 29.2515,-36.66176 31.5298,-61.921 3.2764,-27.2088 -1.3959,-54.97186 -9.4193,-80.24831 -7.9009,-24.54287 -19.9652,-47.57774 -36.8805,-63.67113 -17.3921,-15.44071 -38.3487,-22.24003 -58.7608,-28.34121 -26.002,-7.41799 -52.74149,-10.15376 -79.36584,-9.79525 z"
       id="path4040-4-5-3"
       inkscape:connector-curvature="0"
       sodipodi:nodetypes="zssssz" />
    <path
       style="color:#000000;display:inline;overflow:visible;visibility:visible;fill:#ffffff;fill-opacity:1;fill-rule:nonzero;stroke:none;stroke-width:1px;marker:none;enable-background:accumulate"
       d="m 907.21667,619.60054 c 72.99905,-2.53565 65.7638,-63.19299 71.48587,-78.47444 l 37.78086,7.15422 c 0,0 -26.16471,95.6219 -109.26673,71.32022 z"
       id="path3072-5-5"
       inkscape:connector-curvature="0"
       sodipodi:nodetypes="cccc" />
    <path
       style="fill:#ffffff;fill-rule:evenodd;stroke:none;display:inline"
       d="M 1729.4941,1533.8343 C 1466.0322,1345.1695 991.8915,1335.3565 723.36876,1364.1963 l -8.73311,23.8296 c 289.95695,-44.5653 790.14605,6.8513 1014.85845,145.8084 z"
       id="path1094"
       inkscape:connector-curvature="0"
       sodipodi:nodetypes="cccc" />
    <path
       style="color:#000000;fill:#ffffff;fill-opacity:1;fill-rule:nonzero;stroke:none;stroke-width:1.48320997px;marker:none;visibility:visible;display:inline;overflow:visible;enable-background:accumulate"
       d="m 1206.5228,1266.2938 c -32.2074,-0.413 -64.8034,5.2155 -94.516,21.147 -18.8669,10.1932 -36.1751,26.1924 -47.8905,47.9041 -13.9498,25.6578 -17.7883,60.5634 -8.4933,90.1247 9.0789,28.8684 26.8213,52.5226 47.721,67.9418 17.3768,12.594 37.2443,17.9267 56.8604,19.9819 25.7149,2.9905 51.5692,2.1231 77.1908,-0.8479 13.4835,-1.5675 26.9525,-3.4286 40.334,-5.9783 20.6943,-4.6104 40.9591,-15.1117 56.5697,-33.2953 14.5184,-16.4958 26.3405,-37.7197 31.2984,-62.0981 4.1866,-22.1678 -0.3559,-46.8517 -11.9032,-64.5203 -17.7714,-30.2111 -42.9342,-52.9811 -70.7375,-65.1389 -24.5724,-10.91 -50.6452,-14.9138 -76.4338,-15.2207 z"
       id="path3365-3"
       inkscape:connector-curvature="0"
       sodipodi:nodetypes="cssccc" />
    <path
       style="fill:#ffffff;fill-rule:evenodd;stroke:none"
       d="m 507.04824,1243.8145 c -40.16841,0.6543 -80.39444,-0.192 -120.49733,3.2406 -22.27696,2.892 -44.74135,5.8327 -66.27439,13.8536 -22.16226,10.3147 -43.51188,25.1184 -59.70451,46.9224 -12.89478,18.2131 -22.02847,41.1694 -23.71449,65.5357 -0.67976,17.6569 4.55802,34.6676 11.11083,50.0142 9.87089,23.5119 24.67575,44.3198 43.62029,56.9157 16.2983,11.016 34.70064,15.8005 52.85798,19.3834 20.9744,3.913 42.18205,5.3103 63.34341,6.6347 62.80828,3.0697 125.68156,-1.6906 188.1832,-9.271 24.77553,-3.4542 49.69231,-7.6113 73.49326,-17.1805 17.83916,-8.0597 34.52739,-21.9415 45.07666,-41.887 8.59369,-16.6907 13.34075,-35.8369 17.64786,-54.7572 2.25633,-14.5026 -1.44562,-29.1663 -6.15436,-42.3192 -6.10785,-17.1948 -14.32027,-33.3051 -24.52841,-47.1858 -7.10956,-9.1992 -15.99372,-16.0242 -25.46875,-20.7851 -14.38544,-7.7546 -29.4591,-13.3101 -44.56205,-18.431 -23.27035,-7.3609 -47.32255,-10.671 -71.31976,-10.344 -17.70102,-0.4167 -35.40617,-0.3382 -53.10944,-0.3395 z"
       id="path1079"
       inkscape:connector-curvature="0" />
    <path
       id="path5050-5"
       style="color:#000000;display:inline;overflow:visible;visibility:visible;fill:#ffffff;fill-opacity:1;fill-rule:nonzero;stroke:none;stroke-width:1.10542px;marker:none;enable-background:accumulate"
       d="m 1055.3066,2327.9473 c -6.7695,3.1849 -13.5391,6.3698 -20.3086,9.5547 -5.4515,8.7234 -8.4665,18.631 -12.08,28.1855 0.2877,8.9888 4.778,17.1081 7.4112,25.5492 4.8043,13.3509 10.142,27.6669 6.8338,42.0256 -3.4158,16.5674 -11.898,31.5008 -16.4345,47.7397 -0.956,12.8214 5.6959,25.4955 16.2957,32.604 7.6345,5.5383 17.8577,10.6572 22.2668,17.4448 4.4091,6.7876 3.9198,12.9565 3.0275,20.0069 -0.8923,7.0504 -6.8233,13.4216 -10.106,20.1773 -2.5543,5.2297 -6.5724,10.2065 -4.8898,16.3644 0.5485,8.6419 3.5528,16.9498 8.2569,24.18 1.9155,5.167 7.5375,11.5732 1.5157,15.9953 -3.2977,3.3341 -6.6403,6.6236 -10.0035,9.8933 6.6199,-4.2691 13.2848,-8.7213 18.4668,-14.7364 2.2175,-7.1316 -0.2102,-14.5787 -3.3587,-21.0008 -3.3881,-9.4513 -0.8017,-19.8562 4.2602,-28.1901 5.6073,-9.9289 13.8919,-19.3951 13.8982,-31.4245 0.5595,-12.2965 -5.2038,-24.6049 -15.0512,-32.0084 -6.3523,-5.6552 -13.9693,-10.3956 -18.4457,-17.7889 -5.2096,-11.3685 -1.3783,-24.1347 3.0069,-35.0894 5.3982,-14.2627 13.5704,-28.4586 12.1858,-44.2358 -1.3898,-17.7099 -13.4465,-33.5966 -10.8255,-51.7808 1.5634,-10.2967 5.5548,-20.0386 7.2382,-30.3113 -0.044,-1.6098 -1.4268,-3.3809 -3.1602,-3.1543 z"
       sodipodi:nodetypes="ccccccczzcccccccccccccccc" />
    <path
       id="path1086-2"
       style="display:inline;fill:#ffffff;fill-rule:evenodd;stroke:none;stroke-width:1.72192px;stroke-linecap:butt;stroke-linejoin:miter;stroke-opacity:1"
       d="m 968.52539,2363.0723 c -22.02567,2.3993 -42.9367,11.9252 -65.37749,11.1624 -16.18587,0.1948 -33.41905,-2.7657 -48.45991,4.8989 -11.69774,5.9409 -23.98595,13.1092 -30.54868,24.9297 -7.1783,14.6309 -9.42933,33.2554 -0.06,47.4886 12.69963,19.447 35.60229,32.0196 58.92582,31.5866 19.8,-0.1718 39.64459,1.511 58.915,6.2112 15.36564,3.3626 31.52358,4.9332 46.85028,0.4325 14.86789,-3.7853 30.18129,-8.24 45.64979,-5.6117 19.4811,2.5819 38.9845,8.2141 58.7798,5.0635 24.3993,-3.2266 48.1161,-12.9757 73.0864,-10.5826 14.7273,0.9179 30.9318,1.7773 43.4694,-7.4963 20.5461,-13.9626 28.1306,-44.2056 16.4589,-66.1215 -8.9062,-13.2893 -24.7771,-19.4603 -39.4636,-24.0281 -22.2311,-6.5424 -46.054,-1.2459 -68.201,-8.3529 -13.7654,-4.057 -27.9683,-7.7389 -42.4521,-6.2963 -25.8629,1.5271 -52.108,7.0026 -77.78251,0.8254 -9.82791,-1.9551 -19.71035,-4.2197 -29.79012,-4.1094 z" />
    <path
       id="path1086"
       style="fill:#ffffff;fill-rule:evenodd;stroke:none;display:inline"
       d="m 921.31249,2287.7817 c 11.56729,-13.0131 30.91512,-20.4085 50.02698,-25.1206 19.74276,-4.8304 40.50523,-6.7484 61.18333,-6.9132 19.1187,-0.3452 38.8913,-1.505 57.3146,3.2629 8.908,2.5751 17.1191,6.3476 25.449,9.8373 11.1253,5.0191 22.7391,11.2049 27.1899,20.9226 2.9026,6.2472 0.7154,12.8861 0.7444,19.3176 -0.5274,9.8612 -1.2115,20.7155 -10.0559,28.5913 -8.5661,8.1476 -22.2104,11.2975 -34.7736,14.2544 -20.7546,4.4306 -42.0532,7.4298 -63.4975,9.0531 -13.8077,1.0974 -27.926,2.1776 -41.61424,-0.2271 -16.41551,-2.6873 -31.16567,-9.3127 -44.83592,-16.513 -11.0118,-6.1764 -21.9345,-13.394 -27.35665,-23.2141 -3.24977,-7.1043 -2.61305,-14.833 -1.91869,-22.2214 0.46597,-3.7008 1.14546,-7.3899 2.14429,-11.0298 z"
       inkscape:connector-curvature="0" />
    <path
       style="color:#000000;display:inline;overflow:visible;visibility:visible;fill:#ffffff;fill-opacity:1;fill-rule:nonzero;stroke:none;stroke-width:1.00142px;marker:none;enable-background:accumulate"
       d="m 1551.4802,2844.6354 c -29.2718,23.6335 -49.9774,61.4772 -38.0228,102.9845 11.9549,41.5072 -6.8025,41.4052 -6.8025,41.4052 l -37.425,-15.5296 c 0,0 -6.4717,-90.5725 82.2503,-128.8601 z"
       id="path3072-6"
       inkscape:connector-curvature="0"
       sodipodi:nodetypes="csccc" />
    <path
       style="fill:#ffffff;stroke:none;display:inline"
       d="m 1486.5787,3077.6523 c -33.5772,0.9001 -67.3916,11.3813 -95.8793,33.2317 -22.3607,17.8081 -39.4156,46.0222 -44.6521,77.9529 -3.1052,20.9128 0.14,42.1603 3.6807,62.6716 4.5964,26.1165 16.6108,50.3029 33.8463,67.1115 11.804,11.5593 25.6547,19.7838 39.995,25.6701 18.0649,7.3084 37.1558,10.1999 56.147,10.6472 31.3588,1.5421 62.7562,0.7037 94.1147,-0.3787 26.7132,-1.5308 53.792,-5.7304 78.6218,-18.329 25.7069,-13.2365 48.0197,-37.2188 59.968,-67.9473 10.9597,-28.2871 12.6603,-62.112 2.9256,-91.2486 -8.5551,-24.4187 -24.8511,-43.7725 -43.1497,-57.8602 -17.7971,-13.69 -38.1386,-21.8688 -58.7974,-26.4939 -22.7951,-5.4593 -45.9087,-8.6222 -68.9691,-11.9267 -19.2171,-2.3158 -38.54,-3.341 -57.8515,-3.1006 z"
       id="path3280-5"
       inkscape:connector-curvature="0"
       sodipodi:nodetypes="csssc" />
    <path
       style="fill:#ffffff;stroke:none;stroke-width:0.537872"
       d="m 1470.7417,2945.821 c -27.6456,0.7627 -55.7553,4.4621 -81.6555,16.8262 -14.5637,6.9863 -28.9011,15.7702 -40.2568,28.8622 -7.0768,8.1612 -12.4535,18.3666 -15.2003,29.5805 -3.896,15.2366 -4.1478,31.6274 -1.3595,47.0788 2.2661,11.4388 7.8677,22.1752 16.3927,28.4682 11.4323,9.1964 24.8726,14.0387 38.1246,18.2861 26.7225,7.5136 54.4331,7.1987 81.7815,7.8184 31.3765,0.5193 62.8409,0.9394 94.138,-2.788 18.1426,-2.2634 36.6866,-4.3842 53.7202,-12.7856 10.7467,-5.4119 20.3534,-14.5779 26.0178,-26.7809 10.7551,-22.2987 9.6769,-52.2261 -3.9859,-72.2254 -11.0835,-16.4958 -27.051,-27.0984 -43.2512,-35.2183 -28.9043,-14.7719 -59.9836,-23.5403 -91.4712,-26.2604 -10.9705,-0.9954 -21.9873,-1.1823 -32.9944,-0.8618 z"
       id="path3280-8-0"
       inkscape:connector-curvature="0"
       sodipodi:nodetypes="csssc" />
  </g>
  <g
     inkscape:groupmode="layer"
     id="layer1"
     inkscape:label="txt">
    <text
       xml:space="preserve"
       style="font-size:45px;font-style:normal;font-variant:normal;font-weight:normal;font-stretch:normal;text-align:center;line-height:1.25000000000000000;letter-spacing:0px;word-spacing:0px;text-anchor:middle;fill:#000000;fill-opacity:1;stroke:none;font-family:ComicSpice;-inkscape-font-specification:ComicSpice"
       x="961.93353"
       y="286.39328"
       id="text4246-3-2-2-6-3-7-9-3"><tspan
         style="font-size:45px;-inkscape-font-specification:ComicSpice;font-family:ComicSpice;font-weight:normal;font-style:normal;font-stretch:normal;font-variant:normal"
         sodipodi:role="line"
         x="961.93353"
         y="286.39328"
         id="tspan850">Dạ, bề hạ.</tspan></text>
    <text
       xml:space="preserve"
       style="font-size:45px;font-style:normal;font-variant:normal;font-weight:normal;font-stretch:normal;text-align:center;line-height:1.25000000000000000;letter-spacing:0px;word-spacing:0px;text-anchor:middle;fill:#000000;fill-opacity:1;stroke:none;font-family:ComicSpice;-inkscape-font-specification:ComicSpice"
       x="974.72052"
       y="392.77206"
       id="text4246-3-2-2-6-3-7-9-3-3"><tspan
         style="font-size:45px;-inkscape-font-specification:ComicSpice;font-family:ComicSpice;font-weight:normal;font-style:normal;font-stretch:normal;font-variant:normal"
         sodipodi:role="line"
         x="974.72052"
         y="392.77206"
         id="tspan884">Tên nó là</tspan><tspan
         style="font-size:45px;-inkscape-font-specification:ComicSpice;font-family:ComicSpice;font-weight:normal;font-style:normal;font-stretch:normal;font-variant:normal"
         sodipodi:role="line"
         x="974.72052"
         y="449.30609"
         id="tspan7565">Hạt Tiêu của</tspan><tspan
         style="font-size:45px;-inkscape-font-specification:ComicSpice;font-family:ComicSpice;font-weight:normal;font-style:normal;font-stretch:normal;font-variant:normal"
         sodipodi:role="line"
         x="974.72052"
         y="508.23468"
         id="tspan7571">Trường Châu Sa.</tspan></text>
    <text
       xml:space="preserve"
       style="font-size:45px;font-style:normal;font-variant:normal;font-weight:normal;font-stretch:normal;text-align:center;line-height:1.25;letter-spacing:0px;word-spacing:0px;text-anchor:middle;fill:#000000;fill-opacity:1;stroke:none;font-family:ComicSpice;-inkscape-font-specification:ComicSpice"
       x="481.4118"
       y="1339.2773"
       id="text4246-3-2-2-6-3-7-9-3-3-3"><tspan
         style="font-size:45px;font-style:normal;font-variant:normal;font-weight:normal;font-stretch:normal;font-family:ComicSpice;-inkscape-font-specification:ComicSpice"
         sodipodi:role="line"
         x="481.4118"
         y="1339.2773"
         id="tspan7589">Nó đến đây làm ô nhiễm</tspan><tspan
         style="font-size:45px;font-style:normal;font-variant:normal;font-weight:normal;font-stretch:normal;font-family:ComicSpice;-inkscape-font-specification:ComicSpice"
         sodipodi:role="line"
         x="481.4118"
         y="1395.5273"
         id="tspan7595">môi trường thiêng liêng</tspan><tspan
         style="font-size:45px;font-style:normal;font-variant:normal;font-weight:normal;font-stretch:normal;font-family:ComicSpice;-inkscape-font-specification:ComicSpice"
         sodipodi:role="line"
         x="481.4118"
         y="1451.7773"
         id="tspan7597">của trường chúng tôi.</tspan></text>
    <text
       xml:space="preserve"
       style="font-size:45px;font-style:normal;font-variant:normal;font-weight:normal;font-stretch:normal;text-align:center;line-height:1.25000000000000000;letter-spacing:0px;word-spacing:0px;text-anchor:middle;fill:#000000;fill-opacity:1;stroke:none;font-family:ComicSpice;-inkscape-font-specification:ComicSpice"
       x="1213.6232"
       y="1350.9166"
       id="text4246-3-2-2-6-3-7-9-3-3-3-9"><tspan
         style="font-size:45px;-inkscape-font-specification:ComicSpice;font-family:ComicSpice;font-weight:normal;font-style:normal;font-stretch:normal;font-variant:normal"
         sodipodi:role="line"
         x="1213.6232"
         y="1350.9166"
         id="tspan1031">Đuổi nó ra</tspan><tspan
         style="font-size:45px;-inkscape-font-specification:ComicSpice;font-family:ComicSpice;font-weight:normal;font-style:normal;font-stretch:normal;font-variant:normal"
         sodipodi:role="line"
         x="1213.6232"
         y="1409.8452"
         id="tspan7578">khỏi đây</tspan><tspan
         style="font-size:45px;-inkscape-font-specification:ComicSpice;font-family:ComicSpice;font-weight:normal;font-style:normal;font-stretch:normal;font-variant:normal"
         sodipodi:role="line"
         x="1213.6232"
         y="1468.7738"
         id="tspan7580">ngay lập tức.</tspan></text>
    <text
       xml:space="preserve"
       style="font-size:45px;font-style:normal;font-variant:normal;font-weight:normal;font-stretch:normal;text-align:center;line-height:1.25000000000000000;letter-spacing:0px;word-spacing:0px;text-anchor:middle;fill:#000000;fill-opacity:1;stroke:none;font-family:ComicSpice;-inkscape-font-specification:ComicSpice"
       x="1028.5508"
       y="2444.2068"
       id="text4246-3-2-2-6-3-7-9-3-3-3-9-0"><tspan
         style="font-size:45px;-inkscape-font-specification:ComicSpice;font-family:ComicSpice;font-weight:normal;font-style:normal;font-stretch:normal;font-variant:normal"
         sodipodi:role="line"
         x="1028.5508"
         y="2444.2068"
         id="tspan1031-6">Sư Phụ Cải Ngựa...</tspan></text>
    <text
       xml:space="preserve"
       style="font-size:45px;font-style:normal;font-variant:normal;font-weight:normal;font-stretch:normal;text-align:center;line-height:1.25000000000000000;letter-spacing:0px;word-spacing:0px;text-anchor:middle;fill:#000000;fill-opacity:1;stroke:none;font-family:ComicSpice;-inkscape-font-specification:ComicSpice"
       x="1041.905"
       y="2320.762"
       id="text4246-3-2-2-6-3-7-9-3-3-3-9-0-0"><tspan
         style="font-size:45px;-inkscape-font-specification:ComicSpice;font-family:ComicSpice;font-weight:normal;font-style:normal;font-stretch:normal;font-variant:normal"
         sodipodi:role="line"
         x="1041.905"
         y="2320.762"
         id="tspan1031-6-6">Nhưng...</tspan></text>
    <text
       xml:space="preserve"
       style="font-size:45px;font-style:normal;font-variant:normal;font-weight:normal;font-stretch:normal;text-align:center;line-height:1.25000000000000000;letter-spacing:0px;word-spacing:0px;text-anchor:middle;fill:#000000;fill-opacity:1;stroke:none;font-family:ComicSpice;-inkscape-font-specification:ComicSpice"
       x="1484.9069"
       y="3012.7952"
       id="text4246-3-2-2-6-3-7-9-3-3-3-9-0-6"><tspan
         style="font-size:45px;-inkscape-font-specification:ComicSpice;font-family:ComicSpice;font-weight:normal;font-style:normal;font-stretch:normal;font-variant:normal"
         sodipodi:role="line"
         x="1484.9069"
         y="3012.7952"
         id="tspan1199">Con có</tspan><tspan
         style="font-size:45px;-inkscape-font-specification:ComicSpice;font-family:ComicSpice;font-weight:normal;font-style:normal;font-stretch:normal;font-variant:normal"
         sodipodi:role="line"
         x="1484.9069"
         y="3069.3291"
         id="tspan7601">phản ý không?</tspan></text>
    <text
       xml:space="preserve"
       style="font-size:45px;font-style:normal;font-variant:normal;font-weight:normal;font-stretch:normal;text-align:center;line-height:1.25000000000000000;letter-spacing:0px;word-spacing:0px;text-anchor:middle;fill:#000000;fill-opacity:1;stroke:none;font-family:ComicSpice;-inkscape-font-specification:ComicSpice"
       x="1525.0747"
       y="3176.1375"
       id="text4246-3-2-2-6-3-7-9-3-3-3-9-0-6-8"><tspan
         style="font-size:45px;-inkscape-font-specification:ComicSpice;font-family:ComicSpice;font-weight:normal;font-style:normal;font-stretch:normal;font-variant:normal"
         sodipodi:role="line"
         x="1525.0747"
         y="3176.1375"
         id="tspan1233">Hoặc con muốn bị</tspan><tspan
         style="font-size:45px;-inkscape-font-specification:ComicSpice;font-family:ComicSpice;font-weight:normal;font-style:normal;font-stretch:normal;font-variant:normal"
         sodipodi:role="line"
         x="1525.0747"
         y="3235.0659"
         id="tspan7607">đày ải từ trường</tspan><tspan
         style="font-size:45px;-inkscape-font-specification:ComicSpice;font-family:ComicSpice;font-weight:normal;font-style:normal;font-stretch:normal;font-variant:normal"
         sodipodi:role="line"
         x="1525.0747"
         y="3293.9946"
         id="tspan7609">của chúng tôi?</tspan></text>
    <text
       xml:space="preserve"
       style="font-style:normal;font-variant:normal;font-weight:normal;font-stretch:normal;font-size:105.817px;line-height:1.25;font-family:Lavi;-inkscape-font-specification:Lavi;letter-spacing:0px;word-spacing:0px;fill:#000000;fill-opacity:1;stroke:#030303;stroke-width:0.716208;stroke-miterlimit:4;stroke-dasharray:none;stroke-opacity:1;filter:url(#filter4375-4-1-1-1-9-5-8-8-5-5-3-8)"
       x="787.65729"
       y="1584.5073"
       id="text4580-6-0-0-0-9-3-36"
       transform="matrix(0.78722097,-0.19942868,-0.30990333,0.91892591,1994.5561,1995.3356)"><tspan
         style="font-size:195.17px;fill:#000000;fill-opacity:1;stroke:#030303;stroke-width:0.716208;stroke-miterlimit:4;stroke-dasharray:none;stroke-opacity:1"
         sodipodi:role="line"
         id="tspan876-6-1"
         x="787.65729"
         y="1584.5073">!<tspan
   style="font-size:173.821px;fill:#000000;stroke:#030303;stroke-opacity:1"
   id="tspan1317">!</tspan><tspan
   id="tspan1322"
   style="font-size:152.472px;fill:#000000;stroke:#030303;stroke-opacity:1">!</tspan></tspan></text>
  </g>
</svg>
