<?xml version="1.0" encoding="UTF-8" standalone="no"?>
<!-- Created with Inkscape (http://www.inkscape.org/) -->

<svg
   xmlns:dc="http://purl.org/dc/elements/1.1/"
   xmlns:cc="http://creativecommons.org/ns#"
   xmlns:rdf="http://www.w3.org/1999/02/22-rdf-syntax-ns#"
   xmlns:svg="http://www.w3.org/2000/svg"
   xmlns="http://www.w3.org/2000/svg"
   xmlns:xlink="http://www.w3.org/1999/xlink"
   xmlns:sodipodi="http://sodipodi.sourceforge.net/DTD/sodipodi-0.dtd"
   xmlns:inkscape="http://www.inkscape.org/namespaces/inkscape"
   id="svg2"
   version="1.1"
   inkscape:version="0.92.3 (2405546, 2018-03-11)"
   width="2481"
   height="663"
   sodipodi:docname="E03P00.svg">
  <sodipodi:namedview
     pagecolor="#ffffff"
     bordercolor="#666666"
     inkscape:pageopacity="0"
     inkscape:pageshadow="2"
     inkscape:window-width="1813"
     inkscape:window-height="955"
     id="namedview70"
     showgrid="false"
     inkscape:zoom="0.46"
     inkscape:cx="821.63449"
     inkscape:cy="182.50545"
     inkscape:current-layer="layer2"
     inkscape:window-x="0"
     inkscape:window-y="28"
     inkscape:window-maximized="0" />
  <metadata
     id="metadata8">
    <rdf:RDF>
      <cc:Work
         rdf:about="">
        <dc:format>image/svg+xml</dc:format>
        <dc:type
           rdf:resource="http://purl.org/dc/dcmitype/StillImage" />
        <dc:title></dc:title>
      </cc:Work>
    </rdf:RDF>
  </metadata>
  <defs
     id="defs6" />
  <sodipodi:namedview
     pagecolor="#ffffff"
     bordercolor="#666666"
     borderopacity="1"
     objecttolerance="10"
     gridtolerance="10"
     guidetolerance="10"
     inkscape:pageopacity="0"
     inkscape:pageshadow="2"
     inkscape:window-width="1130"
     inkscape:window-height="765"
     id="namedview4"
     showgrid="false"
     inkscape:zoom="0.40071843"
     inkscape:cx="1369.5999"
     inkscape:cy="323.2049"
     inkscape:window-x="387"
     inkscape:window-y="93"
     inkscape:window-maximized="0"
     inkscape:current-layer="layer1" />
  <g
     inkscape:groupmode="layer"
     id="layer2"
     inkscape:label="artwork">
    <flowRoot
       xml:space="preserve"
       id="episode-title"
       style="font-style:normal;font-variant:normal;font-weight:normal;font-stretch:normal;line-height:0.01%;font-family:Arial;-inkscape-font-specification:Arial;letter-spacing:0px;word-spacing:0px;display:inline;fill:#301b0b;fill-opacity:1;stroke:none"
       transform="translate(-702.94141,-122.27392)"><flowRegion
         id="flowRegion2989"><rect
           id="rect2991"
           width="2405.8"
           height="107.55731"
           x="739.22333"
           y="644.36664"
           style="fill:#301b0b;fill-opacity:1" /></flowRegion><flowPara
         id="flowPara2993"
         style="font-style:normal;font-variant:normal;font-weight:normal;font-stretch:normal;font-size:72px;line-height:1.25;font-family:Lavi;-inkscape-font-specification:Lavi;text-align:center;text-anchor:middle;fill:#301b0b;fill-opacity:1">গল্প ৩: গোপন উপকরণ</flowPara></flowRoot>    <image
       style="display:inline"
       y="178.25"
       x="496.125"
       id="image3408"
       xlink:href="data:image/png;base64,iVBORw0KGgoAAAANSUhEUgAABKcAAADuCAYAAADsmGTKAAAABmJLR0QA/wD/AP+gvaeTAAAACXBI WXMAAAsTAAALEwEAmpwYAAAAB3RJTUUH3wkMEAQReoCfFQAAABl0RVh0Q29tbWVudABDcmVhdGVk IHdpdGggR0lNUFeBDhcAABbISURBVHja7d3JcRxHFgDQoQI3mkAn5L8VckIm6Mw5KCCJJJbuqsz8 23sRcxsR3VU//4bqxv/+BwAAAAAAAAAAAAAAAAAAAAAAAAAAAAAAAAAAAAAAAAAAAAAAAAAAAAAA AAAAAAAAAAAAAAAAAAAAAAAAAAAAAADZfOn85n7/9vX7jn/3jz//+iJ0ENcAAABwX5thdNfAbqhH XAMAAMA+pYfPyMHdUI+4BgAAgPvKDZtZB3cDPeIaAAAAnldmwKw2vBvoEdcAAADwufRDZYfh3TCP uAYAAIC3pR0mOw7vBnrENQAAAPwo3QA5ZXg3zM8irgEAAOBtqQbHqQO8Yb43cS2uAQAAeF+KgdHw bpjvSFyLawAAAD4XPiga4A3zHYlrcQ0AAMBjQgdEA7xBviNxLa4BAAB4XMhwGDG83x2EMywcDPO5 iWtxDQAAwPOOD4UnhuFTw27UYG+Yz0dci2sAAACuOToM7hx6Mwy2J4d6g3we4lpcAwAAcN2xQXDX gJt1mD010Bvme95ncS2uAQAApij7MaEqw2unj3shrsU1AAAAq20f/lYPsZUH1t0DvWG+7r0U1+Ia AABgqjLLqU4DavfvKJpAXItrAAAA1tg68BngDfPum7gW1wAAAHxk26C3YkCdMohO+1Lt6fdKXLt+ AAAA/CvtcmriAGqY73+PxLW4BgAA4EdbhjsDfL5h3iAvrsU1AAAAGS0f7AzweYd511Zci2sAAACy +S3TizFk7r0eO7+oGnEtrgEAALgizZNTBvizA7jrLa7FNQAAABmkeILBQBkzzLvu4lpcAwAAEO03 l6CWlYO3j0MhrgEAAIgWPhB6yiF+CHcPxLW4BgAAIIonpwpbNXx70gRxDQAAQJTQJ6c82RB37d0T cS2uAQAAyMCTUw388edfXzxtgrgW1wAAABWFLac8yZD3mhrkxbW4BgAA4JQlyylDn0G+I9dAXAMA ALCfj/U1HeRXDPMGecQ1AAAAu1lONR/mDfKIa3ENAACQmeWUQd4gj7gGAAAgjOWUQd4gj7gGAAAg jOWUQd4gj7gGAAAgjOXUsEH+7jBvkEdcAwAAsJLl1NBh3lVAXAMAAJCB5ZRB3gIAcS2uAQAAwlhO GeQN8IhrAAAAwlhOGeS/rPz/gbgGAADgGcsGs2e/UNhQmMtH92/yvRLX4hoA9Dj9auf09w+QTdiT U/46Vi7vFVtFWFyLawAAAHbysT7eHdgN8IhrAAAAdntxCTC4I64BAACIEvrklI9A0ZG4BgAAgMct W055MoGOxDUAAADsFf6dU54yoSNxDQAAAI/xhegAAAAAhFm6nLr6EShPmZCZuAYAAIB9PDkFAAAA QJjlyylPmdCRuAYAAIA9Uj05ZZCnI3ENAAAA79uynLr6lIlBnszENQAAAKyX8junDPJ0JK4BAADg V9uWU3eeMjHIk5W4BgAAgLW+7P4BK4bxuwsBENcAwInaX6W+X+llOvUu098/QDZHEqxBnslNqrgG gDm1vUrNt5yynALI5IuPGQHMo8EmelgXg3SO7wpnoMsMcPU6moEAcnlxCQCA0wPbzz/HsoqOcf7o axD/riPAdJZTAGCwM2Ai1hO8NrHvOgJMZTkFAAb1tK/NkEnnWH/vtYp71xFgGsspADCkGzIR7+K+ ZQy4hgA1WE4BgCHdsI54F/dt48H1A8jvN5cAAAzqld6Pv7LFlHgX9+ICYArLKQAwzBo2Ee/i3rUD IIzlFAAYwsq+TwMn02JA3IsVgI4spwDA0GrgxL333l03AMJYTgGAgcv7p9z9ds/FPQB9hPzlimcL aYe/sDHxPWsQ3WOxIBYwoJ7mPIn3TPF06rVeeZ1XXluW8xWV8+SXGffdfcb5iTkLL24TAGjWdzcp p16nPxsv3jMNpj//W7te/7S4f32vFvPOvvMEfVhOAYBmfeuA/t6/Z1Cna7w/8nNWv5/Xf8+SCmcf qMh3TgGAZv2fQe/1f6cGy10/zzAj3p+JwYj3JPbXXkunxNl3jqA2yykAGNysn15InRzUDRfi/WS8 if346+i0ANRlOQUAAwf1TMP5ztdlQSXeK8S92F93DZ0a53/VmVI/4CzLKQAYNKhnHs53vU4DBq8x VeV1WrKg3t1fTLmKUIvlFAAMGcwrNusGDMOp2I+/hnIGFc/+ipjwyw04x3IKAJo369WHNUO6eJ8c +3ffgwUV7r/6ARVYTgGAJt2QThoWU+vfi9hnyvl/76xYWEJ+llMA0LRZ79iMGzAQ+zFDvxhg8j23 4IX9LKeaDSIAYABhcv/TOT7EPs7/9bNhwQu5WU4BQMNm3RBruJh4bybE/Z2PuHp6CrlZDYGsLKcA oGmj//P/DJ10Ni0mLKjg+bPgD2xAXpZTyQcLVwGAlXWlU20xnOt5Vg6ck86Aa0SX8x91f9URWM9y CgCaDuyaaiawfJADICJnOEewluWU5gEA9WX8kIFYdAZcI2qd/zv31YKKKeer0lPzllOaNgDUFyjJ 0sF1QMyrpfBjPFb9GgfLKQAY3sQYUqgYf+676+H6kCUmLKiIrqUdvlfUcsrwAADqKhi2oUQeXhnn FlRUPj/d/tCN5ZRGGgD1RX2hFEsY1wYynpluywLy9WudY8xyygABAFCmp7F84Sqx4/yf+nfNbKyM pSlLT8upQckcAID+LGEg/tx4ioq7sTMtfiynCgesqwCAugKcGLRBTF+vr2osYuVzllMGCQCAEj2M hQuw084cY0nFR3EhNiyn2gSzKwEAwKlB2zXhzvySPUYsqTDHn/fiEvQJbsUWYG/TLM9C7MDoKqBG PT/Mdjg7Ee/hjz//+rJzefD6b1e6Pz9fD3l5//mdxHKqWbBLEACaBOD+2e/SU+0esKGzE+fnv/9+ trzz2Xs3f+o3V7Kcahr4kgSAphg06dd/5lv/jf4K1OKTuSoi5zz7Xs2fuepd5Z7ScqrxQZAgAHim afF+6XS/djThmZ9wqD6UYFjPnK+jztDOZdXq92P+3Ft/JvQ5llMDDoUkAYAmEPGw7+fotWqxrOPO sB8ZO9njdvr8GX1/ql93f63PIQEgcT490WgYrOlyPqN6ngq9lnMOzpKc2K/+vP51yQ5x6cmpYQlC MgWo2Qj7RQPkHoL0WjCrLmfKP1lzc/d8GLmQ6ng9PTmVPOHtOECSKABdGhw1bXaMZrz/mXstizNw ptTomu+t0xNS7/HkVPJktyvo/XaPykle3KImaKpRLyq8RmeMSvNB1vdb5TX6ZYn6M/UMrGI5NbwA WVJRMal/9N+LZdSEOc3O1WshTxgMTr5W8QZzanS1HHXqmqg9+pRHWE4NG0Y+O2waKKon851/chc6 NL/OBOrJ+dec6dz5DjvIXaeZW3um92iWU4WS3IlDYUlFtwHCn/qm65D2TPPbMfY1/fPuW+V77gkq mNljTK5Xk5/QnnadVrGcMkR9eBAdFjoNDxZVdBwyxTJqi9wBYi/3DNclj6k7+redLKckt4cOpcND t8FBbMPMfOPMqy+WBD7ah7McOcdNuBaVa62lVBzLqeIH/vSSyoGiW6NhSQVyDrOHxNPx5ikWYNKi So9hhn6U5VSTxBb1hdMOmQTe7b2IaZgxDBB3DyJrx7MxsGuAtKDC+ee9vJTlGk26X5ZSOVhONUtq pxOIgX6mzoVKTIPcQ//hr1KvBchXER81m/JXgXddW7PE8yynmiazqCWVg2g47PQ+xfKcvGnYlHuY Nehl6LXUGWBHHjOXxfcWrvs1v7kEfRNY1KH4/dvX74YICbzL+xXLOAs9rrdG0UBn+GByXFetW+rt 9TkwIkdVyYu7evzIGbwDy6khySny0CsqhkPvHXD+ODm8nOp/7v4M8Q2ovfXfm6XUGj7WN6wRjEo0 vsdHEu9wDcQvXMsHV8/Oqtzj7M7seU7+PHUSYOZMo8dYx3JqcMMW0UhZUkniqxP66b9UKXaRC+7/ t4+cI4up/v1IpyHhzvtRW8AZ6TZnTphpxOR6PtY3PIFEfuTPHeg9jD4Se6v+etLJz9b7qKqGamIe W/1eP/vYtzPm3FXqaQwqsP+cqAtk6mPk+z0spwj70jxD/rwkfiLOTi6pRAlywdpasLouaB77DqpZ 77OYI3Os6V2YGCer+wp5fh/LKcIPnCWVJL4zlnf+bHGLXJD3Z2keew/Z3YYE9QSck4l5vNpM407v ZTlF2GCv4ChUp+NZ3ILYpn69yL6UMsDAvjOiNnE6VjwtdY4vROepAnLi4x0auz6JPGssa2xYeV7k K8sB3DdQt873qnIGE+eZziynSDncG/gk8t1xvDKGxWuf/GZxuTYXRNYpAHrX3Ij+65nXXLEeXbkn 2d6nxVRdllPcPqy7hhgDv8HwxOtcFb/iFeQfWDl4gzh7rP/amf/vXN///rfq09l40E/U5DunWHJ4 d30WV2NXK5lXTOQrX7N4hR5nGUDPV68HW/kLx9V/sMkfgKozy+gn4nhyii1FxkemFIVKQ6PfPCJH AUD9HuzK00oRf5lW33BmBrkyxxLHcopthWZlsjf85U/o1Qvxqpi15NIkE5vH1ApA3fIesvdkGWtW 1e+bspjqw8f62F5sVh12A2OP4TH7fVScoH6ecRUA5Er3wfXT+9diOUWpgV8C71NIMt9LRQq5SY4B QO+lhxB3nGM5xdHDvyIBSOB9CqIFFe49Gn4AOXJ6/VWvzl8z/V4+llMoPCjGYhXkGBB36K1TvJep /Ze8ce5a6fFzspyiZBGVvBUYDR/iWNw/c2/UDQB1SC+x7ufqkVnNcorQoiOpUWGwF6cYDM7VhJ21 wYIKkLP1X+hR9AM5WU6hmA6W7Rq6p2iI512H95ZRu5ZU8gxqGdSqQ9Nqshxy7jr//D9XJZblFKAg JxnSEb+TYv/RgWPHYKIBRY2BWjkx6xnZ9dSvOhUTExZVsV5cArIkF0kAcQq9Y/9OI/n63zqDGPJh Zp8SXQce/YWKfNAvn/sFwhmenCJdwQHff4B7nfN6XPnN8OrfKK/6twwNADVz4u7vJ1z1szp/L1KW HunU6/BE1RmenKJ8ITVAAvLSvKZ0xRMCaggZhnsxSLbcWLUeRT/h+9G/Z6nRM9fL32tZTgFo/HCv x94fCypWDytQOY4r58PPXrulgl5gV+4XT2v4WB8AGFRLN6WuAlXPu/hF/TpbL6L++p+/Tt7/3LhX 91lOYSgBsQejz6OGErGDnIj74tquqAnqwnWWUwCaDNxn9wkuDCFiFrENvHWGnKPnWU6hEALIaS3c GfbdL0A+ZOJ96VL/sl5b/cXjLKcANH/gTMLBYUOcUiHOXQX3omIPEPW9Yu7hfZZTYIgDNp0VzYj7 hSFR7aVqnycnUj3+My2rPEX1uReXAAAADOrwVtxbqNLBz3EcldNff65z9StPTlG24XOgyVrscJ8N tO4X+hT1Aj0K5D4bkU9V6Td+ZTkFErOmBQA2DxDqLVV7PUM0E85IxKLKR/1+ZDkFtGuivGay3WeN h3NJTRZToI4xr3c4vahyvv5mOYVih6YZQF3ipxiwmEKvB7Nj6eSSSu9hOYWkiHsLR2JU0yGnUMPK syr+cDaQR3rcgxP3YfoZs5xCkSNN4atefDUPALV7Eosp9Hp6d8TAR2dod26f/D1UllNAikZaE8+E s6Kpr3O/3KtZg9bq+62m0bnXkx9dO+fozJJq2nW1nKJcctbw5W9a3FPQbMDU86im4ezAnLlpZ86f ds4sp1DQCG2sNfE4J0BEH2Ixhfqln4dVZ2pX/p90ziynMAxyPMm6nxiMNfQQdfZ2nT81jYk9tXrm WrF/fpoSO5ZTSMwcb7ZP/lnWDtcL9xv3ivu9x87+Q3wxOS/q7dUu9t+3CefMcorjzaHkXDPB3l0o rfg3QD4Enj1nu8+augZqWuXrI4ftnZ+cs8e9CBvgTgF7K0kqckw7E1ebhd+/ff3uvECPegjTapia BmfPWPdzZjnFMZ6a0pwDgNoHfYdnC6p1M5Dr2K9mOGcf87E+UidliRnoPqj6KATkPJvv/Xv6EpwV dc21wDlbz3IKSRkguOGQJ2HWUAEGZ3DOnLMfWU6hEQQA9BIf/Pf6EZwXg/PJ9y/n9D9n/lrmryyn kJQBEjT1fssMvQd1MAt43/IOO+51l3NmOYViBJCk0ZA3Ice59LQUzsvamWBSfVPLiThvHeLOcoqU SVlDCMifwOkBwFIK9vXi3evbiiVclfyjV8l/3iqynCJdsnI4AU0GGmlOn1nnFvbXsq5PUakxZDhv 1ePQcopUiVljCGgyNLlw6lxaSkFMb96pzq16L3IR0xdUllMoMgByKowbAAyCcG5gfq/OVa51K19/ dD6SD3udt6rnynKKNEOUpAhoMHo0Fx1rFM4lODf7cnS1PL3y9cpJiIm/WU6RIjlLyoAGY38DjLoE cCcvTl9SrX6Nag36x39ZThGenCVlgH4NBgCG5sgZo/tr0ps4a93ukeUUoYFuMQVoLjSBmmeAeXXt kfwduRTa/fPNQZyIk0p90IvbnbeZzpqwLKYAruU8ixJDF4C6dn/+2JGnT9ZodQY95K8spwhJ2hIy oLm4loPlz5yDBoC6Fp/fH6mRkbUhcw33S7S+Z61K/2g5xfEm32AFaC7uLajk0nM1C4DHevsMeTdz 7le3e/UQEfez+wLRd04lTkZZAm/lZ60lZYD+Dfi0eg2A/Dnx2nTrRZ6Ze6O+D+1qLFW4V5ZTHAti BQtgbT60oHJdALLVNz2/Gahi33DnI3Ou4BqWUxrs5QdUUgY4lxc1Reuuh1oFsK7GTc+prsGceft0 L9Y1riynBNEvB2v14ZKUAfbmRwsq1wHA/ON9u19xfYMF1X2WU5rtrT/HYgrgTJ6cvpi5+/7VK4B9 dW5Kjp34tJRfDMVdi26xZjkl0Ld9mZtGH+Bsvoz6ck6NMQCP1Lqu84GP8OkduM9yqtAAsvqxw51D jOQMEJc3JzVcK96rmgVwtt51WeZYShHdg3WKP8upYcF+4rfqEjRAfP7svqBaVc/ULIDYulctD3da rqmL7lkmL25lTPDcaahf/9tHgvDkcCKRAcTXiKv1opJV10fdAsg3XGf95Yqa8XFdrnR9fKQvJ8up wsNHpkMlWQPkqhFv1YsOuVpDCdC/BmbI++YbJveOESynkLgBhjQZlZdUq6+F2gVQe9ZYWRfUhP09 CHzGcsqhl8QBhtWJSksqf00WALk8v2of7dM35uML0SVVxQBgaL498Ucysr029QsA0Dfm48mpJAFU ZcOpqQeIy727asV//93IPO+vyQKAGdV7m8mTU8kGD68RgMg8/PrE0qmm7dTPU8MAYH9NdxXM7Vd5 cipZEGU80Bp6gJm14q2fc6cm+ItLAED3Ps1VuMZyavDQ4WAB1G58IupFpd+KqmMA0GM29d76vz8f 69NMv/nzNfQA6oVrAwA8Y/JH+/Qe91hOJQ7s08FtKQWgXmgOAQD9gvd3muXU8KHj9d/XyANoQNRM AOBufzHxKwD0H/f5zqmCh+buYXdwAHrXiomP1KttAMDVHuJq76T/WMdySgMOQNM6MWFJpSYCwP5a +2xP8fu3r98r1egrvVOF91fpi9EtpwCgcTP5bKNV7b0BAOzoL37un/Qee1lOAcCQRqvDkkpjCAAx 9Xfa1wZ06Tmq3DtfiA4Ag5qsqo2WLzsHgFomfgcm12nyAEDjmJJlFADADJo+AOAf0csqCykAgHk0 gADAu3YuqyyiAAAAAAAAAAAAAAAAAAAAAAAAAAAAAAAAAAAAAAAAAAAAAAAAAAAAAAAAAAAAAAAA AAAAAAAAAAAAAAAAAAAAAAAAAAAAAAAAAAAAAAAAAABguP8D11w3B1BOCDcAAAAASUVORK5CYII= "
       preserveAspectRatio="none"
       height="297.5"
       width="1488.75" />
  </g>
  <g
     inkscape:groupmode="layer"
     id="layer1"
     inkscape:label="txt"
     style="display:inline" />
</svg>
