<?xml version="1.0" encoding="UTF-8" standalone="no"?>
<!-- Created with Inkscape (http://www.inkscape.org/) -->

<svg
   xmlns:dc="http://purl.org/dc/elements/1.1/"
   xmlns:cc="http://creativecommons.org/ns#"
   xmlns:rdf="http://www.w3.org/1999/02/22-rdf-syntax-ns#"
   xmlns:svg="http://www.w3.org/2000/svg"
   xmlns="http://www.w3.org/2000/svg"
   xmlns:xlink="http://www.w3.org/1999/xlink"
   xmlns:sodipodi="http://sodipodi.sourceforge.net/DTD/sodipodi-0.dtd"
   xmlns:inkscape="http://www.inkscape.org/namespaces/inkscape"
   id="svg2"
   version="1.1"
   inkscape:version="0.92.2 (5c3e80d, 2017-08-06)"
   width="2481"
   height="3503"
   sodipodi:docname="E21P03.svg"
   inkscape:export-filename="E:\Users\jamesmichael\Downloads\Compressed\eps\ep21_The-Magic-Contest_lang-pack\lang\ph\E21P03.png"
   inkscape:export-xdpi="96"
   inkscape:export-ydpi="96">
  <sodipodi:namedview
     pagecolor="#ffffff"
     bordercolor="#666666"
     inkscape:pageopacity="0"
     inkscape:pageshadow="2"
     inkscape:window-width="1813"
     inkscape:window-height="955"
     id="namedview70"
     showgrid="false"
     inkscape:zoom="0.28284271"
     inkscape:cx="819.4709"
     inkscape:cy="1111.7416"
     inkscape:current-layer="g8478"
     inkscape:snap-to-guides="false"
     inkscape:snap-grids="false"
     inkscape:object-nodes="false"
     inkscape:snap-nodes="false"
     inkscape:snap-global="false" />
  <metadata
     id="metadata8">
    <rdf:RDF>
      <cc:Work
         rdf:about="">
        <dc:format>image/svg+xml</dc:format>
        <dc:type
           rdf:resource="http://purl.org/dc/dcmitype/StillImage" />
        <dc:title />
      </cc:Work>
    </rdf:RDF>
  </metadata>
  <defs
     id="defs6">
    <filter
       style="color-interpolation-filters:sRGB"
       id="filter4375-4-1-1-1-9-6-9-2-1"
       inkscape:label="deevad outline effect">
      <feFlood
         id="feFlood4377-7-9-0-8-1-0-2-2-06"
         flood-opacity="1"
         flood-color="rgb(0,0,0)"
         result="flood" />
      <feComposite
         id="feComposite4379-3-8-8-2-77-6-0-8-3"
         in2="SourceGraphic"
         in="flood"
         operator="in"
         result="composite1" />
      <feMorphology
         id="feMorphology4393-1-0-49-8-9-2-2-9-2"
         operator="dilate"
         radius="4"
         result="result3" />
      <feComposite
         id="feComposite4385-9-5-7-0-8-6-3-7-0"
         in2="result3"
         in="SourceGraphic"
         operator="over"
         result="composite2" />
    </filter>
    <filter
       style="color-interpolation-filters:sRGB"
       id="filter4375-4-1-1-1-9-6-9-2-1-3"
       inkscape:label="deevad outline effect">
      <feFlood
         id="feFlood4377-7-9-0-8-1-0-2-2-06-7"
         flood-opacity="1"
         flood-color="rgb(0,0,0)"
         result="flood" />
      <feComposite
         id="feComposite4379-3-8-8-2-77-6-0-8-3-5"
         in2="SourceGraphic"
         in="flood"
         operator="in"
         result="composite1" />
      <feMorphology
         id="feMorphology4393-1-0-49-8-9-2-2-9-2-9"
         operator="dilate"
         radius="4"
         result="result3" />
      <feComposite
         id="feComposite4385-9-5-7-0-8-6-3-7-0-2"
         in2="result3"
         in="SourceGraphic"
         operator="over"
         result="composite2" />
    </filter>
    <filter
       inkscape:collect="always"
       style="color-interpolation-filters:sRGB"
       id="filter8459"
       x="-0.0051426108"
       width="1.0102852"
       y="-0.0045001887"
       height="1.0090004">
      <feGaussianBlur
         inkscape:collect="always"
         stdDeviation="1.3045274"
         id="feGaussianBlur8461" />
    </filter>
    <clipPath
       clipPathUnits="userSpaceOnUse"
       id="clipPath8463">
      <rect
         style="color:#000000;display:inline;overflow:visible;visibility:visible;opacity:0.42600002;fill:#fff6d5;fill-opacity:1;fill-rule:nonzero;stroke:none;stroke-width:2.91297436;marker:none;enable-background:accumulate"
         id="rect8465"
         width="397.73532"
         height="594.54047"
         x="218.09857"
         y="-29.474783"
         ry="98.008507"
         rx="51.850826" />
    </clipPath>
  </defs>
  <sodipodi:namedview
     pagecolor="#ffffff"
     bordercolor="#666666"
     borderopacity="1"
     objecttolerance="10"
     gridtolerance="10"
     guidetolerance="10"
     inkscape:pageopacity="0"
     inkscape:pageshadow="2"
     inkscape:window-width="1920"
     inkscape:window-height="1025"
     id="namedview4"
     showgrid="false"
     inkscape:zoom="0.32959511"
     inkscape:cx="751.50937"
     inkscape:cy="911.72894"
     inkscape:window-x="0"
     inkscape:window-y="26"
     inkscape:window-maximized="1"
     inkscape:current-layer="layer1" />
  <g
     inkscape:groupmode="layer"
     id="layer2"
     inkscape:label="artwork"
     sodipodi:insensitive="true"
     style="display:inline">
    <image
       sodipodi:absref="E:\Users\jamesmichael\Downloads\Compressed\eps\ep21_The-Magic-Contest_lang-pack\lang\ph\../gfx_Pepper-and-Carrot_by-David-Revoy_E21P03.png"
       xlink:href="../gfx_Pepper-and-Carrot_by-David-Revoy_E21P03.png"
       width="2481"
       height="3503"
       id="image10"
       x="0"
       y="0" />
  </g>
  <g
     inkscape:groupmode="layer"
     id="layer4"
     inkscape:label="transla-notes"
     style="display:inline">
    <path
       style="color:#000000;clip-rule:nonzero;display:inline;overflow:visible;visibility:visible;opacity:0.481;isolation:auto;mix-blend-mode:normal;color-interpolation:sRGB;color-interpolation-filters:linearRGB;solid-color:#000000;solid-opacity:1;fill:#ffe680;fill-opacity:1;fill-rule:nonzero;stroke:#565656;stroke-width:1.20000005;stroke-linecap:butt;stroke-linejoin:miter;stroke-miterlimit:4;stroke-dasharray:none;stroke-dashoffset:0;stroke-opacity:1;marker:none;color-rendering:auto;image-rendering:auto;shape-rendering:auto;text-rendering:auto;enable-background:accumulate"
       d="m -530.39088,479.24411 0,189.0351 203.83,0 0,-90.9805 10,0 0,15.6308 30.9825,-26.9824 -30.9825,-26.9804 0,16.6171 -10,0 0,-76.3397 -203.83,0 z"
       id="rect4191-6"
       inkscape:connector-curvature="0" />
    <flowRoot
       xml:space="preserve"
       id="flowRoot4212-7"
       style="font-style:normal;font-variant:normal;font-weight:normal;font-stretch:normal;line-height:0.01%;font-family:Lavi;-inkscape-font-specification:'Lavi, Normal';text-align:center;letter-spacing:0px;word-spacing:0px;writing-mode:lr-tb;text-anchor:middle;display:inline;opacity:0.481;fill:#000000;fill-opacity:1;stroke:none;stroke-width:1px;stroke-linecap:butt;stroke-linejoin:miter;stroke-opacity:1"
       transform="translate(-300.70048,-528.99948)"><flowRegion
         id="flowRegion4214-5"><rect
           id="rect4216-3"
           width="291.95547"
           height="247.52747"
           x="-275.14545"
           y="1061.6674" /></flowRegion><flowPara
         id="flowPara4218-5"
         style="font-size:25.3241539px;line-height:1.25">Edit this one,</flowPara><flowPara
         id="flowPara4562"
         style="font-size:25.3241539px;line-height:1.25">all other one</flowPara><flowPara
         id="flowPara4564"
         style="font-size:25.3241539px;line-height:1.25">are linked</flowPara></flowRoot>    <text
       xml:space="preserve"
       style="font-style:normal;font-variant:normal;font-weight:normal;font-stretch:normal;line-height:0%;font-family:Lavi;-inkscape-font-specification:Lavi;letter-spacing:0px;word-spacing:0px;display:inline;fill:#000000;fill-opacity:1;stroke:#000000;stroke-width:0.99236238;stroke-miterlimit:4;stroke-dasharray:none;stroke-opacity:1;filter:url(#filter4375-4-1-1-1-9-6-9-2-1)"
       x="787.65729"
       y="1584.5073"
       id="text4580-1-7-3-6"
       transform="matrix(0.96380061,-0.56217228,-0.1779318,1.4896521,-746.21658,-1288.3515)"><tspan
         sodipodi:role="line"
         id="tspan4582-8-5-6-1"
         x="787.65729"
         y="1584.5073"
         style="font-size:70px;line-height:1.25;fill:#ffffff">Clap</tspan></text>
  </g>
  <g
     inkscape:groupmode="layer"
     id="layer3"
     inkscape:label="speechbubbles"
     style="display:inline">
    <path
       style="color:#000000;display:inline;overflow:visible;visibility:visible;opacity:0.98999999;fill:#731212;fill-opacity:1;fill-rule:nonzero;stroke:none;stroke-width:1px;marker:none;enable-background:accumulate"
       d="m 565.56859,197.57874 -87.13887,-6.21584 11.58234,24.21519 -28.07713,-0.23358 5.73758,22.51673 c 0,0 -48.55005,1.5443 -74.66514,3.25744 l 18.41332,32.6687 79.35537,-19.02801 -7.92133,-21.14275 28.2438,-5.31703 -10.89704,-21.27801 z"
       id="path4032"
       inkscape:connector-curvature="0"
       sodipodi:nodetypes="cccccccccccc" />
    <rect
       style="color:#000000;clip-rule:nonzero;display:inline;overflow:visible;visibility:visible;opacity:0.98999999;isolation:auto;mix-blend-mode:normal;color-interpolation:sRGB;color-interpolation-filters:linearRGB;solid-color:#000000;solid-opacity:1;fill:#731212;fill-opacity:1;fill-rule:nonzero;stroke:none;stroke-width:2.82061505;stroke-linecap:butt;stroke-linejoin:miter;stroke-miterlimit:4;stroke-dasharray:none;stroke-dashoffset:0;stroke-opacity:1;marker:none;color-rendering:auto;image-rendering:auto;shape-rendering:auto;text-rendering:auto;enable-background:accumulate"
       id="rect4632-8-6-1-3"
       width="345.75409"
       height="484.96286"
       x="1582.3668"
       y="262.05411"
       ry="26.641241"
       rx="34.834953" />
    <rect
       style="color:#000000;display:inline;overflow:visible;visibility:visible;opacity:0.98999999;fill:#731212;fill-opacity:1;fill-rule:nonzero;stroke:none;stroke-width:1.4839406;marker:none;enable-background:accumulate"
       id="rect4632-8-6-1-3-6"
       width="337.53519"
       height="312.46191"
       x="148.18338"
       y="1968.2631"
       ry="28.366234"
       rx="26.733694" />
    <rect
       style="color:#000000;clip-rule:nonzero;display:inline;overflow:visible;visibility:visible;opacity:0.99;isolation:auto;mix-blend-mode:normal;color-interpolation:sRGB;color-interpolation-filters:linearRGB;solid-color:#000000;solid-opacity:1;fill:#731212;fill-opacity:1;fill-rule:nonzero;stroke:none;stroke-width:2.5999999;stroke-linecap:butt;stroke-linejoin:miter;stroke-miterlimit:4;stroke-dasharray:none;stroke-dashoffset:0;stroke-opacity:1;marker:none;color-rendering:auto;image-rendering:auto;shape-rendering:auto;text-rendering:auto;enable-background:accumulate"
       id="rect4632-8-6-1-3-6-7"
       width="279.02921"
       height="329.82257"
       x="942.23303"
       y="1981.8512"
       ry="18.813053"
       rx="25.62664" />
    <path
       style="color:#000000;display:inline;overflow:visible;visibility:visible;fill:#ffffff;fill-opacity:1;fill-rule:nonzero;stroke:none;stroke-width:1px;marker:none;enable-background:accumulate"
       d="m 2173.3473,2714.6052 c 31.6642,-26.4635 45.3369,-48.6389 30.1849,-94.5298 -15.152,-45.8908 -1.4544,-39.2458 -1.4544,-39.2458 l 26.0177,21.5367 c -4.3022,0.3305 35.0653,72.1099 -54.7482,112.2389 z"
       id="path3072"
       inkscape:connector-curvature="0"
       sodipodi:nodetypes="csccc" />
    <path
       style="color:#000000;display:inline;overflow:visible;visibility:visible;fill:#ffffff;fill-opacity:1;fill-rule:nonzero;stroke:none;stroke-width:0.98249429px;marker:none;enable-background:accumulate"
       d="m 2191.5066,2619.451 c -14.1182,-70.5549 -2.776,-200.3906 90.1455,-212.1624 78.7335,-9.9743 104.725,90.2216 107.0474,111.6494 2.3225,21.4275 23.3059,147.5738 -51.0153,179.7153 -74.3213,32.1413 -132.0593,-8.6476 -146.1776,-79.2023 z"
       id="path3525-0-2"
       inkscape:connector-curvature="0"
       sodipodi:nodetypes="zscsz" />
    <path
       style="color:#000000;display:inline;overflow:visible;visibility:visible;fill:#ffffff;fill-opacity:1;fill-rule:nonzero;stroke:none;stroke-width:1.08154118px;marker:none;enable-background:accumulate"
       d="m 2110.5741,2326.0002 c -13.2876,-89.4134 -6.6766,-219.3731 87.0351,-224.1083 98.8014,-4.9924 118.6138,83.2642 120.914,109.7053 2.3003,26.4406 22.2362,176.2726 -51.373,215.934 -73.6093,39.661 -143.2885,-12.1172 -156.5761,-101.531 z"
       id="path3525-0"
       inkscape:connector-curvature="0"
       sodipodi:nodetypes="zscsz" />
    <path
       style="color:#000000;display:inline;overflow:visible;visibility:visible;fill:#ffffff;fill-opacity:1;fill-rule:nonzero;stroke:none;stroke-width:1.12345827px;marker:none;enable-background:accumulate"
       d="m 1802.8354,2129.547 c -1.0217,-76.2171 2.7221,-109.2379 19.9899,-157.4651 10.7606,-30.0539 67.0523,-57.7252 105.187,-54.7275 40.5882,3.1905 87.3004,11.3669 103.9775,37.0397 20.9547,32.258 26.6667,42.8552 36.2156,90.6457 4.3662,21.8528 7.2476,81.1926 1.6722,131.824 -5.5754,50.6313 -33.0337,92.5542 -63.2836,99.969 -44.689,10.9543 -131.356,27.4139 -156.6983,6.9146 -25.1087,-20.3099 -47.9573,-99.4995 -47.0603,-154.2004 z"
       id="path3525"
       inkscape:connector-curvature="0"
       sodipodi:nodetypes="csssssssc" />
    <path
       style="fill:#ffffff;stroke:none"
       d="m 1920.5115,2229.0676 c -18.0085,-42.949 -8.0799,-57.7323 1.7324,-69.7112 9.8122,-11.979 14.9921,-23.4519 15.0385,-34.979 0.046,-11.5272 -1.5308,-24.9085 -6.2891,-34.7229 -4.7584,-9.8149 -4.1155,-19.3879 1.2392,-29.2587 5.3546,-9.8707 32.2694,-68.3053 32.2694,-68.3053 0,0 -33.03,23.4567 -41.2407,34.8646 -8.2107,11.408 -11.2574,15.5231 -13.5653,21.2787 -2.3081,5.7556 -6.3978,21.0609 -3.4987,32.7498 2.8989,11.689 9.9084,20.8743 13.6029,29.0774 3.6947,8.203 1.66,22.8753 -4.2771,34.0788 -5.9372,11.2035 -16.4685,39.2937 -10.289,57.516 6.1795,18.2222 15.2775,27.4118 15.2775,27.4118 z"
       id="path3023-3"
       inkscape:connector-curvature="0"
       sodipodi:nodetypes="csssscssssssc" />
    <rect
       style="color:#000000;display:inline;overflow:visible;visibility:visible;opacity:0.98999999;fill:#731212;fill-opacity:1;fill-rule:nonzero;stroke:none;stroke-width:2.01198101;marker:none;enable-background:accumulate"
       id="rect4632-8-6-1-3-6-73"
       width="598.89258"
       height="341.14722"
       x="148.05371"
       y="2220.5837"
       ry="38.45998"
       rx="36.246521" />
    <path
       style="color:#000000;display:inline;overflow:visible;visibility:visible;opacity:0.98999999;fill:#731212;fill-opacity:1;fill-rule:nonzero;stroke:none;stroke-width:1px;marker:none;enable-background:accumulate"
       d="m 566.38963,2620.8044 35.68657,-50.4991 14.2279,15.4739 35.26245,-56.6983 32.55962,5.7211 -62.79293,76.2173 -19.37203,-21.1992 z"
       id="path4456-6"
       inkscape:connector-curvature="0"
       sodipodi:nodetypes="cccccccc" />
    <path
       style="color:#000000;display:inline;overflow:visible;visibility:visible;opacity:0.98999999;fill:#731212;fill-opacity:1;fill-rule:nonzero;stroke:none;stroke-width:1px;marker:none;enable-background:accumulate"
       d="m 868.66545,2058.6081 49.62723,-36.8894 8.70729,19.1326 51.15293,-42.9128 29.1636,15.5674 -83.39002,52.8975 -11.81477,-26.1743 z"
       id="path4456-6-9"
       inkscape:connector-curvature="0"
       sodipodi:nodetypes="cccccccc" />
    <path
       style="color:#000000;display:inline;overflow:visible;visibility:visible;opacity:0.98999999;fill:#731212;fill-opacity:1;fill-rule:nonzero;stroke:none;stroke-width:1px;marker:none;enable-background:accumulate"
       d="m 1296.4592,2241.9724 -49.6272,36.8894 -8.7073,-19.1326 -51.1529,42.9128 -29.1637,-15.5674 83.3901,-52.8975 11.8148,26.1743 z"
       id="path4456-6-9-5"
       inkscape:connector-curvature="0"
       sodipodi:nodetypes="cccccccc"
       inkscape:transform-center-x="30.052062"
       inkscape:transform-center-y="-58.33629" />
    <path
       style="color:#000000;display:inline;overflow:visible;visibility:visible;opacity:0.98999999;fill:#731212;fill-opacity:1;fill-rule:nonzero;stroke:none;stroke-width:1px;marker:none;enable-background:accumulate"
       d="m 553.86828,2069.6382 -35.68657,50.4991 -14.2279,-15.4739 -35.26245,56.6983 -32.55962,-5.7211 62.79293,-76.2173 19.37203,21.1992 z"
       id="path4456-6-5"
       inkscape:connector-curvature="0"
       sodipodi:nodetypes="cccccccc" />
    <g
       id="g8478">
      <path
         sodipodi:nodetypes="ssssccccccccsccccscccccccccccccccccccccccccccccscsccccssccscccscsccsssss"
         inkscape:connector-curvature="0"
         clip-path="url(#clipPath8463)"
         id="rect4632-8-6-1-0"
         d="m 150.00391,102.01563 c -41.56762,-0.0924 11.21679,23.56536 11.21679,68.36328 v 533.99218 c 0,44.79792 33.46549,80.86329 75.03321,80.86329 h 39.22461 L 270,704.875 c -10.08732,-9.61451 -36.65249,-9.9259 -39.375,-27.5 L 228.75,678 c 14.80507,-15.96605 24.19643,-16.70569 40,-32.5 0.50813,-1.71579 1.36328,-6.28711 1.36328,-6.28711 C 260.73534,634.89864 252.85142,641.5364 241.875,625.5 l 1.32617,0.58789 c 0,0 14.58949,-8.03789 28.25195,-28.64062 8.96457,-13.51839 16.33023,-32.91644 19.79688,-55.69727 -4.13944,-39.10682 -5.59949,-51.07971 -5.70312,-58.75977 -0.045,-3.33601 1.14453,-5.27343 1.14453,-5.27343 3.04842,-1.22022 3.44214,-0.0487 3.54492,4.0332 0,0 10.85742,-4.0625 16.79492,2.5 5.9375,6.5625 19.0625,-7.03125 22.5,0.46875 1.704,-0.50489 6.38094,-3.81961 9.34766,0.17773 4.37916,0.4728 11.42801,-5.78387 16.58984,3.10352 7.8125,8.75 19.0625,3.125 19.0625,3.125 0,0 -2.65625,10.46875 -27.65625,3.59375 -8.15599,-2.07646 -7.95721,5.43903 -17.19727,0.86523 -7.62585,4.62559 -9.25334,13.40394 -22.80273,16.32227 -7.59836,-0.60787 -7.9721,-5.91764 -14.02344,-2.04102 2.13852,12.91196 4.45912,25.59428 6.07813,29.3086 9.52014,13.4218 9.88162,24.90779 15.44531,38.04492 6.66805,9.68837 15.46875,14.0625 24.21875,26.5625 6.2422,9.02501 20.58879,10.72103 23.90625,16.09375 3.11193,4.52645 0.24166,2.01428 -0.26367,3.24609 -1.2623,3.07705 -5.67844,0.28468 -7.4961,0.50391 -4.86133,3.74869 -9.15979,5.56599 -13.49023,12.5 l -1.875,2.5 19.375,13.125 c 11.47776,7.27491 23.36909,16.41092 33.75,18.75 -6.229,10.53882 -29.61727,23.84247 -32.17188,30.14453 L 358.75,703 365.625,756.125 490.11328,747.89258 486.875,722.375 456.36328,701.90234 483.125,676.75 l 5.73828,-7.13477 c -1.11945,-2.92348 -0.70378,-9.28277 -4.48828,-10.07421 L 471.875,653 l 0.51172,-3.92578 c 0.90907,1.21209 37.84668,-50.55469 36.36328,-71.69922 -1.40035,-19.9607 -6.0293,-79.48242 -6.0293,-79.48242 0,0 21.11133,-2.79688 31.11133,-0.92188 8.58041,1.60883 -0.5432,-7.78828 24.14063,-4.88086 4.08381,0.48104 15.14158,-1.31665 20.48046,-0.0117 32.98514,8.27677 -7.22472,-2.99404 -15.32617,6.04688 2.95602,0.27186 15.7757,3.93804 14.92969,5.79688 0,0 -13.27148,-1.18165 -22.64648,5.06835 -9.375,6.25 -6.91211,-6.76757 -23.16211,3.23243 -16.25,10 -19.08594,4.04687 -23.46094,2.17187 -1.96537,5.35389 3.08856,45.52874 3.08789,48.60547 0,0 7.67578,13.88281 21.42578,41.38281 13.75,27.5 32.94922,34.86719 32.94922,34.86719 4.61092,1.90512 1.57444,5.08482 -0.625,8.125 -5.55099,3.52798 -10.76913,5.17456 -17.94141,13.56641 0.90815,-1.8163 20.51049,21.69748 45.44141,28.30859 6.88879,1.82675 1.875,1.25 1.875,1.25 -0.4292,-1.28759 -18.46845,13.81729 -20.2207,19.81055 -1.66389,5.69102 -4.1543,8.93945 -4.1543,8.93945 l 5.86133,65.98438 h 118.50976 c 41.56772,-1e-5 75.03321,-36.06537 75.03321,-80.86329 v -533.9922 c 0,-44.79792 -15.96559,-67.02091 -57.53321,-67.11328 z"
         style="color:#000000;display:inline;overflow:visible;visibility:visible;opacity:0.98999999;fill:#731212;fill-opacity:1;fill-rule:nonzero;stroke:none;stroke-width:4.03830862;marker:none;filter:url(#filter8459);enable-background:accumulate" />
      <path
         sodipodi:nodetypes="cccccccc"
         inkscape:connector-curvature="0"
         id="path4456-6-5-8"
         d="m 695.26438,186.76935 -35.68657,50.4991 -14.2279,-15.4739 -35.26245,56.6983 -32.55962,-5.7211 62.79293,-76.2173 19.37203,21.1992 z"
         style="color:#000000;display:inline;overflow:visible;visibility:visible;opacity:0.98999999;fill:#731212;fill-opacity:1;fill-rule:nonzero;stroke:none;stroke-width:1px;marker:none;enable-background:accumulate" />
    </g>
    <path
       style="color:#000000;display:inline;overflow:visible;visibility:visible;opacity:0.98999999;fill:#731212;fill-opacity:1;fill-rule:nonzero;stroke:none;stroke-width:1px;marker:none;enable-background:accumulate"
       d="m 1510.0141,318.08664 35.6866,50.4991 14.2279,-15.4739 35.2624,56.6983 32.5597,-5.7211 -62.793,-76.2173 -19.372,21.1992 z"
       id="path4456-6-5-1"
       inkscape:connector-curvature="0"
       sodipodi:nodetypes="cccccccc" />
  </g>
  <g
     inkscape:groupmode="layer"
     id="layer1"
     inkscape:label="txt"
     style="display:inline">
    <text
       xml:space="preserve"
       style="font-style:normal;font-variant:normal;font-weight:normal;font-stretch:normal;line-height:1;font-family:Lavi;-inkscape-font-specification:Lavi;text-align:center;letter-spacing:0px;word-spacing:0px;text-anchor:middle;fill:#ffffd4;fill-opacity:1;stroke:#ffffd4;stroke-width:3;stroke-miterlimit:4;stroke-dasharray:none;stroke-opacity:1"
       x="417.64789"
       y="216.16451"
       id="text4246-2-3-1"><tspan
         sodipodi:role="line"
         style="font-size:45px;line-height:1;fill:#ffffd4;fill-opacity:1;stroke:none;stroke-width:3;stroke-miterlimit:4;stroke-dasharray:none;stroke-opacity:1"
         x="425.55804"
         y="216.16451"
         id="tspan4858">Bilang Mayor </tspan><tspan
         sodipodi:role="line"
         style="font-size:45px;line-height:1;fill:#ffffd4;fill-opacity:1;stroke:none;stroke-width:3;stroke-miterlimit:4;stroke-dasharray:none;stroke-opacity:1"
         x="425.55804"
         y="261.16452"
         id="tspan4087">ng Komona, </tspan><tspan
         sodipodi:role="line"
         style="font-size:45px;line-height:1;fill:#ffffd4;fill-opacity:1;stroke:none;stroke-width:3;stroke-miterlimit:4;stroke-dasharray:none;stroke-opacity:1"
         x="425.55804"
         y="306.16449"
         id="tspan4866">dinedeklara kong </tspan><tspan
         sodipodi:role="line"
         style="font-size:45px;line-height:1;fill:#ffffd4;fill-opacity:1;stroke:none;stroke-width:3;stroke-miterlimit:4;stroke-dasharray:none;stroke-opacity:1"
         x="417.64789"
         y="351.16449"
         id="tspan4868">ang 2nd Grand</tspan><tspan
         sodipodi:role="line"
         style="font-size:45px;line-height:1;fill:#ffffd4;fill-opacity:1;stroke:none;stroke-width:3;stroke-miterlimit:4;stroke-dasharray:none;stroke-opacity:1"
         x="425.55804"
         y="396.16449"
         id="tspan4085">Magic Contest, </tspan><tspan
         sodipodi:role="line"
         style="font-size:45px;line-height:1;fill:#ffffd4;fill-opacity:1;stroke:#ffffd4;stroke-width:3;stroke-miterlimit:4;stroke-dasharray:none;stroke-opacity:1"
         x="417.64789"
         y="415.07303"
         id="tspan4852" /><tspan
         sodipodi:role="line"
         style="font-size:45px;line-height:1;fill:#ffffd4;fill-opacity:1;stroke:#ffffd4;stroke-width:3;stroke-miterlimit:4;stroke-dasharray:none;stroke-opacity:1"
         x="425.55804"
         y="453.16449"
         id="tspan8511">AY NAGUMPISA </tspan><tspan
         sodipodi:role="line"
         style="font-size:45px;line-height:1;fill:#ffffd4;fill-opacity:1;stroke:#ffffd4;stroke-width:3;stroke-miterlimit:4;stroke-dasharray:none;stroke-opacity:1"
         x="417.64789"
         y="498.16449"
         id="tspan4870">NA!</tspan></text>
    <use
       x="0"
       y="0"
       xlink:href="#text4580-1-7-3-6"
       id="use4205"
       transform="matrix(0.76095162,0,0,0.73309209,451.75807,1241.7241)"
       width="100%"
       height="100%" />
    <use
       x="0"
       y="0"
       xlink:href="#use4205"
       id="use4207"
       transform="translate(80.675924,58.860273)"
       width="100%"
       height="100%" />
    <use
       x="0"
       y="0"
       xlink:href="#use4207"
       id="use4209"
       transform="matrix(0.89450352,-0.07296573,0.07079928,0.86794456,-285.77472,206.70599)"
       width="100%"
       height="100%" />
    <use
       x="0"
       y="0"
       xlink:href="#use4209"
       id="use4211"
       transform="matrix(1.2242752,0,0,1.1562701,19.033193,-152.92185)"
       width="100%"
       height="100%" />
    <use
       x="0"
       y="0"
       xlink:href="#use4211"
       id="use4213"
       transform="matrix(0.79400936,0,0,0.74351129,86.338619,242.91653)"
       width="100%"
       height="100%" />
    <use
       x="0"
       y="0"
       xlink:href="#use4213"
       id="use4215"
       transform="translate(50.088058,-418.78604)"
       width="100%"
       height="100%" />
    <use
       x="0"
       y="0"
       xlink:href="#use4205"
       id="use4217"
       transform="matrix(1.190104,0,0,1.1764056,1873.1319,-225.19177)"
       width="100%"
       height="100%" />
    <use
       x="0"
       y="0"
       xlink:href="#use4207"
       id="use4219"
       transform="translate(1548.1581,-584.95481)"
       width="100%"
       height="100%" />
    <use
       x="0"
       y="0"
       xlink:href="#use4209"
       id="use4221"
       transform="translate(1844.0411,-445.09153)"
       width="100%"
       height="100%" />
    <use
       x="0"
       y="0"
       xlink:href="#use4211"
       id="use4223"
       transform="translate(1859.8806,-76.505052)"
       width="100%"
       height="100%" />
    <use
       x="0"
       y="0"
       xlink:href="#use4213"
       id="use4225"
       transform="translate(1870.3348,10.612501)"
       width="100%"
       height="100%" />
    <use
       x="0"
       y="0"
       xlink:href="#use4219"
       id="use4227"
       transform="matrix(1.3759736,0,0,1.3761542,-401.50883,57.282084)"
       width="100%"
       height="100%" />
    <use
       x="0"
       y="0"
       xlink:href="#use4227"
       id="use4229"
       transform="translate(-1780.2077,155.54445)"
       width="100%"
       height="100%" />
    <use
       x="0"
       y="0"
       xlink:href="#use4215"
       id="use4653"
       transform="matrix(0.81994896,0,0,0.82746843,99.665013,112.72301)"
       width="100%"
       height="100%" />
    <use
       x="0"
       y="0"
       xlink:href="#use4653"
       id="use4655"
       transform="matrix(0.81766718,0,0,0.82071082,134.84237,227.33949)"
       width="100%"
       height="100%" />
    <use
       x="0"
       y="0"
       xlink:href="#use4655"
       id="use4657"
       transform="translate(1587.1235,38.014935)"
       width="100%"
       height="100%" />
    <use
       x="0"
       y="0"
       xlink:href="#use4657"
       id="use4659"
       transform="translate(76.029869,6.3358219)"
       width="100%"
       height="100%" />
    <use
       x="0"
       y="0"
       xlink:href="#use4659"
       id="use4661"
       transform="translate(-250.26499,-60.190312)"
       width="100%"
       height="100%" />
    <use
       x="0"
       y="0"
       xlink:href="#use4229"
       id="use4663"
       transform="translate(-285.11201,-256.60081)"
       width="100%"
       height="100%" />
    <use
       x="0"
       y="0"
       xlink:href="#use4663"
       id="use4665"
       transform="translate(408.66055,310.4553)"
       width="100%"
       height="100%" />
    <use
       x="0"
       y="0"
       xlink:href="#use4665"
       id="use4667"
       transform="matrix(0.7736158,0,0,0.80234503,286.22086,368.18853)"
       width="100%"
       height="100%" />
    <use
       x="0"
       y="0"
       xlink:href="#use4667"
       id="use4669"
       transform="matrix(0.82128554,0,0,0.69817771,259.18593,547.41793)"
       width="100%"
       height="100%" />
    <use
       x="0"
       y="0"
       xlink:href="#use4669"
       id="use4671"
       transform="matrix(1.1825791,0,0,1.4191735,1037.6716,-783.92212)"
       width="100%"
       height="100%" />
    <use
       x="0"
       y="0"
       xlink:href="#use4671"
       id="use4673"
       transform="translate(-107.70898,-6.3358224)"
       width="100%"
       height="100%" />
    <use
       x="0"
       y="0"
       xlink:href="#use4673"
       id="use4675"
       transform="translate(342.13441,-6.3358224)"
       width="100%"
       height="100%" />
    <use
       x="0"
       y="0"
       xlink:href="#use4669"
       id="use4677"
       transform="translate(966.21292,-9.5037337)"
       width="100%"
       height="100%" />
    <use
       x="0"
       y="0"
       xlink:href="#use4215"
       id="use4679"
       transform="translate(-82.365692,-31.679112)"
       width="100%"
       height="100%" />
    <use
       x="0"
       y="0"
       xlink:href="#use4679"
       id="use4681"
       transform="translate(1669.4892,104.54107)"
       width="100%"
       height="100%" />
    <use
       x="0"
       y="0"
       xlink:href="#use4215"
       id="use4683"
       transform="translate(-161.56347,262.93663)"
       width="100%"
       height="100%" />
    <text
       xml:space="preserve"
       style="font-style:normal;font-variant:normal;font-weight:normal;font-stretch:normal;line-height:0%;font-family:Lavi;-inkscape-font-specification:Lavi;text-align:center;letter-spacing:0px;word-spacing:0px;text-anchor:middle;fill:#ffffd4;fill-opacity:1;stroke:none"
       x="1757.3787"
       y="446.52295"
       id="text4246-2-3-1-3"><tspan
         sodipodi:role="line"
         style="font-size:45px;line-height:1;fill:#ffffd4;fill-opacity:1"
         x="1765.2888"
         y="446.52295"
         id="tspan4091">Alam kong </tspan><tspan
         sodipodi:role="line"
         style="font-size:45px;line-height:1;fill:#ffffd4;fill-opacity:1"
         x="1765.2888"
         y="491.52295"
         id="tspan8502">hindi na kayo </tspan><tspan
         sodipodi:role="line"
         style="font-size:45px;line-height:1;fill:#ffffd4;fill-opacity:1"
         x="1757.3787"
         y="536.52295"
         id="tspan8504">makapaghintay</tspan><tspan
         sodipodi:role="line"
         style="font-size:45px;line-height:1;fill:#ffffd4;fill-opacity:1"
         x="1765.2888"
         y="581.52295"
         id="tspan8500">para sa event </tspan><tspan
         sodipodi:role="line"
         style="font-size:45px;line-height:1;fill:#ffffd4;fill-opacity:1"
         x="1757.3787"
         y="626.52295"
         id="tspan8506">na ito!</tspan></text>
    <text
       xml:space="preserve"
       style="font-style:normal;font-variant:normal;font-weight:normal;font-stretch:normal;line-height:1;font-family:Lavi;-inkscape-font-specification:Lavi;text-align:center;letter-spacing:0px;word-spacing:0px;text-anchor:middle;fill:#ffffd4;fill-opacity:1;stroke:none"
       x="318.93289"
       y="2051.864"
       id="text4246-2-3-1-3-9"><tspan
         sodipodi:role="line"
         style="font-size:45px;line-height:1;fill:#ffffd4;fill-opacity:1"
         x="326.84305"
         y="2051.864"
         id="tspan4112">Salamat sa </tspan><tspan
         sodipodi:role="line"
         style="font-size:45px;line-height:1;fill:#ffffd4;fill-opacity:1"
         x="318.93289"
         y="2096.864"
         id="tspan8519">pagpunta</tspan><tspan
         sodipodi:role="line"
         style="font-size:45px;line-height:1;fill:#ffffd4;fill-opacity:1"
         x="326.84305"
         y="2141.864"
         id="tspan8515"> Mula pa sa </tspan><tspan
         sodipodi:role="line"
         style="font-size:45px;line-height:1;fill:#ffffd4;fill-opacity:1"
         x="326.84305"
         y="2186.864"
         id="tspan8523">apat na sulok </tspan><tspan
         sodipodi:role="line"
         style="font-size:45px;line-height:1;fill:#ffffd4;fill-opacity:1"
         x="326.84305"
         y="2231.864"
         id="tspan4104">ng Hereva </tspan><tspan
         sodipodi:role="line"
         style="font-size:45px;line-height:1;fill:#ffffd4;fill-opacity:1"
         x="318.93289"
         y="2250.7725"
         id="tspan8535" /></text>
    <text
       xml:space="preserve"
       style="font-style:normal;font-variant:normal;font-weight:normal;font-stretch:normal;line-height:0%;font-family:Lavi;-inkscape-font-specification:Lavi;text-align:center;letter-spacing:0px;word-spacing:0px;text-anchor:middle;fill:#ffffd4;fill-opacity:1;stroke:none;"
       x="1084.1794"
       y="2096.8354"
       id="text4246-2-3-1-3-9-9"><tspan
         sodipodi:role="line"
         style="font-size:45px;line-height:1.25;fill:#ffffd4;fill-opacity:1;"
         x="1084.1794"
         y="2096.8354"
         id="tspan4119">Ipapakilala</tspan><tspan
         sodipodi:role="line"
         style="font-size:45px;line-height:1.25;fill:#ffffd4;fill-opacity:1;"
         x="1092.0896"
         y="2153.0854"
         id="tspan8472">ko na ang </tspan><tspan
         sodipodi:role="line"
         style="font-size:45px;line-height:1.25;fill:#ffffd4;fill-opacity:1;"
         x="1092.0896"
         y="2209.3354"
         id="tspan8474">ating mga </tspan><tspan
         sodipodi:role="line"
         style="font-size:45px;line-height:1.25;fill:#ffffd4;fill-opacity:1;"
         x="1084.1794"
         y="2265.5854"
         id="tspan8476">kalahok!</tspan></text>
    <text
       xml:space="preserve"
       style="font-style:normal;font-variant:normal;font-weight:normal;font-stretch:normal;line-height:0%;font-family:Lavi;-inkscape-font-specification:Lavi;text-align:center;letter-spacing:0px;word-spacing:0px;text-anchor:middle;fill:#ffffff;fill-opacity:1;stroke:#ffffff;stroke-width:4.16976786;stroke-miterlimit:4;stroke-dasharray:none;stroke-opacity:1"
       x="2006.1333"
       y="3155.6641"
       id="text4246-2-3-1-3-9-3-7-9-5-3"
       transform="matrix(0.94216068,0.00114843,-0.09144955,1.0612786,0,0)"><tspan
         sodipodi:role="line"
         style="font-size:72.16906738px;line-height:1.25;fill:#ffffff;fill-opacity:1;stroke:#ffffff;stroke-width:4.16976786;stroke-miterlimit:4;stroke-dasharray:none;stroke-opacity:1"
         x="2006.1333"
         y="3155.6641"
         id="tspan4814-3-3-7"> Z</tspan></text>
    <text
       xml:space="preserve"
       style="font-style:normal;font-variant:normal;font-weight:normal;font-stretch:normal;line-height:0%;font-family:Lavi;-inkscape-font-specification:Lavi;text-align:center;letter-spacing:0px;word-spacing:0px;text-anchor:middle;fill:#ffffff;fill-opacity:1;stroke:#ffffff;stroke-width:3.71764708;stroke-miterlimit:4;stroke-dasharray:none;stroke-opacity:1"
       x="1812.5386"
       y="2995.166"
       id="text4246-2-3-1-3-9-3-7-9-5-3-9"
       transform="matrix(0.90422361,0.01982934,0.00522888,1.1060358,0,0)"><tspan
         sodipodi:role="line"
         style="font-size:51.50151825px;line-height:1.25;fill:#ffffff;fill-opacity:1;stroke:#ffffff;stroke-width:3.71764708;stroke-miterlimit:4;stroke-dasharray:none;stroke-opacity:1"
         x="1812.5386"
         y="2995.166"
         id="tspan4814-3-3-7-1"> Z</tspan></text>
    <text
       xml:space="preserve"
       style="font-style:normal;font-variant:normal;font-weight:normal;font-stretch:normal;line-height:0%;font-family:Lavi;-inkscape-font-specification:Lavi;text-align:center;letter-spacing:0px;word-spacing:0px;text-anchor:middle;fill:#ffffff;fill-opacity:1;stroke:#ffffff;stroke-width:3.81367707;stroke-miterlimit:4;stroke-dasharray:none;stroke-opacity:1"
       x="1652.238"
       y="3354.4092"
       id="text4246-2-3-1-3-9-3-7-9-5-3-9-2"
       transform="matrix(0.99532583,-0.01253883,0.02386337,1.0043955,0,0)"><tspan
         sodipodi:role="line"
         style="font-size:38.66575241px;line-height:1.25;fill:#ffffff;fill-opacity:1;stroke:#ffffff;stroke-width:3.81367707;stroke-miterlimit:4;stroke-dasharray:none;stroke-opacity:1"
         x="1652.238"
         y="3354.4092"
         id="tspan4814-3-3-7-1-7"> Z ...</tspan></text>
    <text
       xml:space="preserve"
       style="font-style:normal;font-variant:normal;font-weight:normal;font-stretch:normal;font-size:10.35879898px;line-height:1;font-family:Lavi;-inkscape-font-specification:Lavi;text-align:center;letter-spacing:0px;word-spacing:0px;text-anchor:middle;fill:#000000;fill-opacity:1;stroke:none;stroke-width:0.86323327"
       x="1947.2047"
       y="2062.7751"
       id="text4246-2-3-1-3-9-9-6"><tspan
         sodipodi:role="line"
         style="font-size:38.84549713px;line-height:1;stroke:#000000;stroke-width:0.69058663;stroke-miterlimit:4;stroke-dasharray:none;stroke-opacity:1"
         x="1947.2047"
         y="2062.7751"
         id="tspan4359-1">Carrot?!</tspan><tspan
         sodipodi:role="line"
         style="font-size:38.84549713px;line-height:1;stroke-width:0.86323327"
         x="1954.033"
         y="2101.6206"
         id="tspan4125">Ano sa </tspan><tspan
         sodipodi:role="line"
         style="font-size:38.84549713px;line-height:1;stroke-width:0.86323327"
         x="1954.0331"
         y="2140.4661"
         id="tspan8730">tingin mong </tspan><tspan
         sodipodi:role="line"
         style="font-size:38.84549713px;line-height:1;stroke-width:0.86323327"
         x="1954.0331"
         y="2179.3115"
         id="tspan8742">ginagawa </tspan><tspan
         sodipodi:role="line"
         style="font-size:38.84549713px;line-height:1;stroke-width:0.86323327"
         x="1947.2047"
         y="2218.1572"
         id="tspan8732">mo?!</tspan></text>
    <text
       xml:space="preserve"
       style="font-style:normal;font-variant:normal;font-weight:normal;font-stretch:normal;font-size:10.34458733px;line-height:0%;font-family:Lavi;-inkscape-font-specification:'Lavi, Normal';text-align:center;letter-spacing:0px;word-spacing:0px;writing-mode:lr-tb;text-anchor:middle;fill:#000000;fill-opacity:1;stroke:none;stroke-width:0.86204898"
       x="2216.6001"
       y="2227.1975"
       id="text4246-2-3-1-3-9-9-6-8"><tspan
         sodipodi:role="line"
         id="tspan3504"
         x="2223.4189"
         y="2227.1975"
         style="font-size:38.792202px;line-height:1;stroke-width:0.86204898">Gising </tspan><tspan
         sodipodi:role="line"
         x="2216.6001"
         y="2265.9897"
         style="font-size:38.792202px;line-height:1;stroke-width:0.86204898"
         id="tspan8734">ka jan!</tspan><tspan
         sodipodi:role="line"
         id="tspan3512"
         x="2216.6001"
         y="2304.782"
         style="font-size:38.792202px;line-height:1;stroke-width:0.86204898">Nagsi-</tspan><tspan
         sodipodi:role="line"
         x="2223.4189"
         y="2343.5742"
         style="font-size:38.792202px;line-height:1;stroke-width:0.86204898"
         id="tspan8736">simula </tspan><tspan
         sodipodi:role="line"
         x="2216.6001"
         y="2382.3662"
         style="font-size:38.792202px;line-height:1;stroke-width:0.86204898"
         id="tspan8738">na!</tspan></text>
    <text
       id="text4250"
       y="2536.5151"
       x="2288.8782"
       style="font-style:normal;font-variant:normal;font-weight:normal;font-stretch:normal;font-size:10.15555286px;line-height:0%;font-family:Lavi;-inkscape-font-specification:'Lavi, Normal';text-align:center;letter-spacing:0px;word-spacing:0px;writing-mode:lr-tb;text-anchor:middle;fill:#000000;fill-opacity:1;stroke:none;stroke-width:0.84629607"
       xml:space="preserve"><tspan
         y="2536.5151"
         x="2288.8782"
         sodipodi:role="line"
         id="tspan4132"
         style="font-size:38.08332062px;line-height:1;stroke-width:0.84629607">Andami</tspan><tspan
         y="2574.5984"
         x="2295.5725"
         sodipodi:role="line"
         style="font-size:38.08332062px;line-height:1;stroke-width:0.84629607"
         id="tspan8484">ng tao </tspan><tspan
         y="2612.6819"
         x="2288.8782"
         sodipodi:role="line"
         style="font-size:38.08332062px;line-height:1;stroke-width:0.84629607"
         id="tspan8750">oh!</tspan></text>
    <text
       xml:space="preserve"
       style="font-style:normal;font-variant:normal;font-weight:normal;font-stretch:normal;line-height:0%;font-family:Lavi;-inkscape-font-specification:Lavi;letter-spacing:0px;word-spacing:0px;display:inline;fill:#000000;fill-opacity:1;stroke:#000000;stroke-width:0.33399999;stroke-miterlimit:4;stroke-dasharray:none;stroke-opacity:1"
       x="2694.9297"
       y="3825.3547"
       id="text4580-1-7-3-6-2"
       transform="matrix(0.82185162,-0.56349838,-0.01316314,1.2257899,0,0)"><tspan
         sodipodi:role="line"
         id="tspan4582-8-5-6-1-8"
         x="2694.9297"
         y="3825.3547"
         style="font-size:39.2102623px;line-height:1.25;letter-spacing:1.49000001px;fill:#000000;stroke-width:0.33399999;stroke-miterlimit:4;stroke-dasharray:none">Tap!</tspan></text>
    <flowRoot
       xml:space="preserve"
       id="flowRoot8564"
       style="font-style:normal;font-weight:normal;font-size:40px;line-height:1.25;font-family:sans-serif;letter-spacing:0px;word-spacing:0px;fill:#ffffd4;fill-opacity:1;stroke:none"
       transform="translate(-994.50054,-1344.7971)"><flowRegion
         id="flowRegion8566"
         style="fill:#ffffd4;fill-opacity:1"><rect
           id="rect8568"
           width="585.13098"
           height="501.86816"
           x="298.75262"
           y="2366.3259"
           style="fill:#ffffd4;fill-opacity:1" /></flowRegion><flowPara
         id="flowPara8570"
         style="font-style:normal;font-variant:normal;font-weight:normal;font-stretch:normal;line-height:1;font-family:Lavi;-inkscape-font-specification:Lavi;fill:#ffffd4;fill-opacity:1">Welcome sa aming </flowPara><flowPara
         id="flowPara8572"
         style="font-style:normal;font-variant:normal;font-weight:normal;font-stretch:normal;line-height:1;font-family:Lavi;-inkscape-font-specification:Lavi;fill:#ffffd4;fill-opacity:1">ultra-secured arena! </flowPara><flowPara
         id="flowPara8574"
         style="font-style:normal;font-variant:normal;font-weight:normal;font-stretch:normal;line-height:2;font-family:Lavi;-inkscape-font-specification:Lavi;fill:#ffffd4;fill-opacity:1">wala na pong ibong magtatangkang magwala, subukan lang nila hahaha</flowPara><flowPara
         id="flowPara8576"
         style="font-style:normal;font-variant:normal;font-weight:normal;font-stretch:normal;line-height:2;font-family:Lavi;-inkscape-font-specification:Lavi;fill:#ffffd4;fill-opacity:1" /><flowPara
         id="flowPara8578"
         style="font-style:normal;font-variant:normal;font-weight:normal;font-stretch:normal;line-height:2;font-family:Lavi;-inkscape-font-specification:Lavi;fill:#ffffd4;fill-opacity:1" /><flowPara
         id="flowPara8580"
         style="font-style:normal;font-variant:normal;font-weight:normal;font-stretch:normal;line-height:2;font-family:Lavi;-inkscape-font-specification:Lavi;fill:#ffffd4;fill-opacity:1" /><flowPara
         id="flowPara8582"
         style="font-style:normal;font-variant:normal;font-weight:normal;font-stretch:normal;line-height:2;font-family:Lavi;-inkscape-font-specification:Lavi;fill:#ffffd4;fill-opacity:1" /></flowRoot>    <text
       xml:space="preserve"
       style="font-style:normal;font-variant:normal;font-weight:normal;font-stretch:normal;line-height:1;font-family:Lavi;-inkscape-font-specification:Lavi;text-align:center;letter-spacing:0px;word-spacing:0px;text-anchor:middle;display:inline;fill:#ffffd4;fill-opacity:1;stroke:none"
       x="450.58777"
       y="2312.1038"
       id="text4246-2-3-1-3-9-6"><tspan
         sodipodi:role="line"
         style="font-size:45px;line-height:1;fill:#ffffd4;fill-opacity:1"
         x="458.49792"
         y="2312.1038"
         id="tspan8535-6">Welcome sa aming </tspan><tspan
         sodipodi:role="line"
         style="font-size:45px;line-height:1;fill:#ffffd4;fill-opacity:1"
         x="458.49792"
         y="2357.1038"
         id="tspan8688">ultra-secured arena! </tspan><tspan
         sodipodi:role="line"
         style="font-size:45px;line-height:1;fill:#ffffd4;fill-opacity:1"
         x="458.49792"
         y="2402.1038"
         id="tspan8690">wala na pong ibong </tspan><tspan
         sodipodi:role="line"
         style="font-size:45px;line-height:1;fill:#ffffd4;fill-opacity:1"
         x="450.58777"
         y="2447.1038"
         id="tspan8700">magtatangkang magwala!</tspan><tspan
         sodipodi:role="line"
         style="font-size:45px;line-height:1;fill:#ffffd4;fill-opacity:1"
         x="450.58777"
         y="2492.1038"
         id="tspan8702">subukan lang nila hahaha!!!</tspan><tspan
         sodipodi:role="line"
         style="font-size:45px;line-height:1;fill:#ffffd4;fill-opacity:1"
         x="450.58777"
         y="2511.0122"
         id="tspan8692" /><tspan
         sodipodi:role="line"
         style="font-size:45px;line-height:1;fill:#ffffd4;fill-opacity:1"
         x="450.58777"
         y="2523.0122"
         id="tspan8694" /><tspan
         sodipodi:role="line"
         style="font-size:45px;line-height:1;fill:#ffffd4;fill-opacity:1"
         x="450.58777"
         y="2535.0122"
         id="tspan8696" /><tspan
         sodipodi:role="line"
         style="font-size:45px;line-height:1;fill:#ffffd4;fill-opacity:1"
         x="450.58777"
         y="2547.0122"
         id="tspan8698" /></text>
  </g>
</svg>
