<?xml version="1.0" encoding="UTF-8" standalone="no"?>
<svg
   id="svg2"
   version="1.1"
   inkscape:version="1.1 (c68e22c387, 2021-05-23)"
   width="2481"
   height="3503"
   sodipodi:docname="E35P11.svg"
   xmlns:inkscape="http://www.inkscape.org/namespaces/inkscape"
   xmlns:sodipodi="http://sodipodi.sourceforge.net/DTD/sodipodi-0.dtd"
   xmlns:xlink="http://www.w3.org/1999/xlink"
   xmlns="http://www.w3.org/2000/svg"
   xmlns:svg="http://www.w3.org/2000/svg"
   xmlns:rdf="http://www.w3.org/1999/02/22-rdf-syntax-ns#"
   xmlns:cc="http://creativecommons.org/ns#"
   xmlns:dc="http://purl.org/dc/elements/1.1/">
  <metadata
     id="metadata8">
    <rdf:RDF>
      <cc:Work
         rdf:about="">
        <dc:format>image/svg+xml</dc:format>
        <dc:type
           rdf:resource="http://purl.org/dc/dcmitype/StillImage" />
        <dc:title />
      </cc:Work>
    </rdf:RDF>
  </metadata>
  <defs
     id="defs6">
    <filter
       style="color-interpolation-filters:sRGB"
       id="filter4375-4-1-1-1-9-3-2-3-8-7-6-4-9"
       inkscape:label="deevad outline effect"
       x="-0.0021081671"
       y="-0.0071745174"
       width="1.0042163"
       height="1.014349">
      <feFlood
         id="feFlood4377-7-9-0-8-1-6-9-6-7-5-32-7-4"
         flood-opacity="1"
         flood-color="rgb(95,141,211)"
         result="flood" />
      <feComposite
         id="feComposite4379-3-8-8-2-77-7-1-0-9-9-0-6-8"
         in2="SourceGraphic"
         in="flood"
         operator="in"
         result="composite1" />
      <feMorphology
         id="feMorphology4393-1-0-49-8-9-5-2-6-2-2-6-5-1"
         operator="dilate"
         radius="4"
         result="result3" />
      <feComposite
         id="feComposite4385-9-5-7-0-8-3-7-2-0-2-1-6-2"
         in2="result3"
         in="SourceGraphic"
         operator="over"
         result="composite2" />
    </filter>
  </defs>
  <sodipodi:namedview
     pagecolor="#ffffff"
     bordercolor="#666666"
     borderopacity="1"
     objecttolerance="10"
     gridtolerance="10"
     guidetolerance="10"
     inkscape:pageopacity="0"
     inkscape:pageshadow="2"
     inkscape:window-width="1920"
     inkscape:window-height="1017"
     id="namedview4"
     showgrid="false"
     inkscape:zoom="0.46261216"
     inkscape:cx="1028.9397"
     inkscape:cy="2653.4106"
     inkscape:window-x="-8"
     inkscape:window-y="-8"
     inkscape:window-maximized="1"
     inkscape:current-layer="layer1"
     inkscape:document-rotation="0"
     inkscape:snap-global="false"
     inkscape:pagecheckerboard="0" />
  <g
     inkscape:groupmode="layer"
     id="layer2"
     inkscape:label="artwork"
     sodipodi:insensitive="true">
    <image
       xlink:href="../gfx_Pepper-and-Carrot_by-David-Revoy_E35P11.png"
       width="2481"
       height="3503"
       id="image10"
       x="0"
       y="0" />
  </g>
  <g
     inkscape:groupmode="layer"
     id="layer3"
     inkscape:label="speechbubbles">
    <path
       style="color:#000000;display:inline;overflow:visible;visibility:visible;fill:#ffffff;fill-opacity:1;fill-rule:nonzero;stroke:none;stroke-width:1.17077px;marker:none;enable-background:accumulate"
       d="m 655.60296,1526.6704 c 34.47751,-24.9106 332.96606,-35.5556 412.02824,7.541 65.9915,35.9724 40.2439,122.5341 -18.4455,141.6334 -58.68901,19.099 -253.92585,13.6696 -339.49374,3.2265 -81.47248,-9.9423 -95.15308,-36.2614 -99.16064,-88.8787 -1.63564,-21.4761 10.5939,-38.612 45.07164,-63.5222 z"
       id="path4040-4-9-2"
       inkscape:connector-curvature="0"
       sodipodi:nodetypes="zssssz" />
    <path
       style="color:#000000;display:inline;overflow:visible;visibility:visible;fill:#ffffff;fill-opacity:1;fill-rule:nonzero;stroke:none;stroke-width:1.36564px;marker:none;enable-background:accumulate"
       d="m 672.87343,351.47617 c 33.46845,54.26318 16.77932,109.75225 -42.25383,148.97796 101.91057,-50.70471 112.5118,-145.0271 95.84592,-167.01491 -16.31806,-21.52888 -53.59209,18.03695 -53.59209,18.03695 z"
       id="path5010-4"
       inkscape:connector-curvature="0"
       sodipodi:nodetypes="ccsc" />
    <path
       style="display:inline;fill:#ffffff;stroke:none;stroke-width:0.500747"
       d="m 1196.9125,70.268193 c -30.8277,0.252798 -62.202,4.537371 -90.5963,17.882131 -15.5379,7.84485 -28.3994,22.919706 -31.7792,41.102746 -3.2552,17.90475 -2.0616,36.63602 2.8629,54.0664 5.8845,16.35595 18.9821,28.77566 33.6729,36.14254 21.6248,11.5956 45.9375,15.8597 69.8861,17.72704 32.4726,2.83517 65.1499,5.60594 97.7161,2.85111 24.9264,-2.20012 49.9085,-9.12859 71.2047,-23.38957 12.1902,-8.3159 23.5935,-18.93465 30.1489,-32.88331 5.5308,-11.36134 6.8194,-24.64049 5.0354,-37.17355 -2.1785,-15.02172 -9.5768,-29.05992 -20.4627,-38.94572 -13.0327,-12.321484 -29.721,-18.972572 -46.2114,-24.210978 -22.4367,-6.914401 -45.7502,-9.960367 -68.9959,-11.759665 -17.468,-1.221551 -34.9808,-1.44895 -52.4815,-1.409174 z"
       id="path3280-8-1"
       inkscape:connector-curvature="0"
       sodipodi:nodetypes="csssc" />
    <path
       style="color:#000000;display:inline;overflow:visible;visibility:visible;fill:#ffffff;fill-opacity:1;fill-rule:nonzero;stroke:none;stroke-width:0.722715px;marker:none;enable-background:accumulate"
       d="m 1972.0999,80.042241 c -28.3246,0.406432 -57.4391,6.568789 -80.7816,22.208449 -19.4559,13.16571 -35.748,31.61855 -42.3108,53.53875 -3.6485,13.03951 -4.855,26.75881 -3.2029,40.16175 2.8119,21.10953 14.1139,40.74776 29.6907,56.00596 12.9867,12.70148 29.6486,22.1213 47.8676,26.47524 44.2249,12.34459 90.3143,17.93543 136.3201,19.84518 43.7263,1.52074 88.0937,-1.50162 130.1379,-13.43241 27.5803,-8.85512 53.6106,-24.40452 70.214,-47.26665 13.5322,-19.38443 17.4771,-43.2101 16.6645,-65.9967 -0.5331,-21.44646 -6.812,-43.71351 -22.3046,-60.02958 -14.6678,-15.127089 -36.2602,-22.876397 -57.6436,-24.641498 -52.8085,-7.607729 -106.3855,-5.079663 -159.595,-6.383948 -21.6843,-0.270672 -43.3694,-0.607176 -65.0563,-0.484543 z"
       id="path4546-6-7"
       inkscape:connector-curvature="0"
       sodipodi:nodetypes="cscssssc" />
    <path
       style="color:#000000;display:inline;overflow:visible;visibility:visible;fill:#ffffff;fill-opacity:1;fill-rule:nonzero;stroke:none;stroke-width:1.02224px;marker:none;enable-background:accumulate"
       d="m 538.6203,1388.2962 c 34.34119,-25.3329 331.64979,-39.6345 410.39904,2.4936 65.73086,35.164 40.08487,122.0411 -18.37237,141.8593 -58.45697,19.818 -252.92193,16.7802 -338.15153,7.3854 -81.15033,-8.9443 -94.77686,-35.0958 -98.76859,-87.6639 -1.62916,-21.4561 10.55202,-38.7418 44.89345,-64.0744 z"
       id="path4040-4-9"
       inkscape:connector-curvature="0"
       sodipodi:nodetypes="zssssz" />
    <path
       style="fill:#ffffff;fill-rule:evenodd;stroke:none;stroke-width:1.03884px;stroke-linecap:butt;stroke-linejoin:miter;stroke-opacity:1"
       d="m 1082.8613,1635.3711 c -38.8384,0.6543 -77.6416,2.353 -116.41216,4.3311 -24.13262,1.4962 -48.56615,3.2443 -71.69301,9.6027 -29.79078,9.0393 -53.51177,29.6983 -65.7589,54.0143 -5.63929,11.34 -9.58839,23.2441 -12.52045,35.2698 -2.67634,12.1244 -2.29828,25.0145 3.46561,36.5008 6.64635,14.094 17.81806,26.2836 29.7502,37.4942 22.55442,20.2167 53.04662,34.5045 85.87773,38.256 28.32706,3.9234 56.95321,6.0371 85.54418,8.0593 47.6433,2.6716 95.4446,3.2248 143.1698,2.0946 40.1434,-1.0429 80.2815,-3.334 120.0942,-7.8518 21.1608,-2.8512 42.7421,-7.3645 60.5039,-17.8946 17.2612,-10.4824 28.9616,-26.7383 33.4244,-44.1386 4.497,-13.2549 8.3296,-27.3799 4.6154,-41.1126 -4.6279,-16.4468 -14.9158,-31.1746 -24.558,-45.8225 -10.0433,-14.3178 -23.0892,-27.8098 -40.7486,-35.817 -21.3727,-10.2598 -45.5584,-15.0007 -69.0236,-20.6173 -37.1077,-8.1391 -75.5569,-10.6826 -113.7787,-11.4662 -17.3093,-0.5451 -34.6277,-1.0294 -51.952,-0.9022 z"
       id="path1079"
       inkscape:connector-curvature="0" />
    <path
       style="color:#000000;display:inline;overflow:visible;visibility:visible;fill:#ffffff;fill-opacity:1;fill-rule:nonzero;stroke:none;stroke-width:0.939237px;marker:none;enable-background:accumulate"
       d="m 1421.7929,1798.1386 c -45.9909,-29.4273 -78.0349,-27.5278 -104.8526,-18.0354 -25.7868,9.1275 -19.8278,10.3608 -19.8278,10.3608 l 10.5667,-48.0852 c -3.1179,-4.3789 71.5596,-1.8389 114.1137,55.7598 z"
       id="path3072-12"
       inkscape:connector-curvature="0"
       sodipodi:nodetypes="csccc" />
    <path
       style="display:inline;fill:#ffffff;stroke:none;stroke-width:0.98453"
       d="m 1353.2452,196.77644 c -55.3704,0.71141 -111.4123,6.56567 -163.0426,23.18281 -42.3252,15.5755 -76.6287,45.87113 -88.4926,82.0756 -7.717,25.0237 -6.9832,51.00356 -6.553,76.57747 1.9525,29.0786 20.5,56.19505 46.0791,76.47645 15.1157,12.23074 33.7303,21.35899 53.4116,28.16258 44.3596,15.82346 93.038,22.86993 141.4324,24.03039 36.3681,0.6584 72.7379,-0.37645 109.0963,-0.94856 45.1356,-1.17898 90.5883,-3.0418 134.7393,-11.13023 24.5411,-4.70887 49.322,-11.56473 68.8224,-24.77076 25.6048,-17.34664 42.1259,-41.96217 50.5931,-67.61578 8.6847,-26.9469 6.5598,-55.48535 -1.9407,-82.27993 -7.3285,-25.61175 -21.268,-50.87469 -45.3983,-69.27695 -24.9622,-19.27673 -57.5191,-31.03158 -90.7589,-38.14607 -51.1563,-11.44019 -104.5033,-14.37129 -157.3664,-15.94323 -16.869,-0.39537 -33.7467,-0.42638 -50.6217,-0.39379 z"
       id="path3280-8-1-3"
       inkscape:connector-curvature="0"
       sodipodi:nodetypes="csssc" />
    <path
       style="display:inline;fill:#ffffff;stroke:none;stroke-width:0.986136"
       d="m 2009.8516,232.1866 c -58.2287,0.51905 -117.4901,9.31627 -171.1225,36.71618 -29.3487,16.1073 -53.642,47.05952 -60.026,84.39353 -6.1486,36.76262 -3.8941,75.2223 5.4076,111.01093 11.1149,33.5826 35.8544,59.08314 63.6028,74.20908 40.8459,23.80845 86.769,32.56366 132.0043,36.39776 61.3359,5.82125 123.0581,11.51027 184.5707,5.85396 47.0823,-4.51735 94.2697,-18.74311 134.495,-48.02423 23.0253,-17.07448 44.5645,-38.87726 56.9466,-67.51711 10.4469,-23.32748 12.8809,-50.59266 9.5111,-76.32597 -4.1149,-30.84309 -18.0892,-59.6668 -38.6511,-79.96465 -24.6166,-25.29889 -56.1382,-38.9551 -87.2862,-49.71079 -42.3795,-14.19688 -86.415,-20.45096 -130.3227,-24.14535 -32.9944,-2.50813 -66.0734,-2.97503 -99.1296,-2.89334 z"
       id="path3280-8-1-1"
       inkscape:connector-curvature="0"
       sodipodi:nodetypes="csssc" />
    <path
       style="display:inline;fill:#ffffff;stroke:none;stroke-width:0.712533"
       d="m 2029.5483,512.42969 c -37.2872,0.18487 -74.9934,6.32564 -109.54,22.10775 -9.4112,4.24066 -18.4645,9.55499 -26.3278,16.67052 -19.5282,17.13429 -33.3036,42.40621 -36.1846,69.72533 -3.6012,26.74245 1.0335,55.62763 16.1796,77.48593 15.957,23.18242 39.6267,38.7689 64.5638,47.84477 26.9244,10.56549 55.6494,13.79117 84.059,15.21843 42.9691,3.83831 86.2192,2.99293 129.1416,-1.13563 20.0723,-1.92176 40.3523,-4.64216 59.2922,-12.54448 19.9974,-8.23697 37.9298,-22.40607 51.424,-40.48289 11.4535,-15.45553 19.5848,-34.29083 21.0437,-54.26521 2.9873,-34.84717 -10.7443,-71.45215 -36.7658,-92.37888 -22.3874,-18.65957 -49.7364,-28.21538 -76.8096,-35.26583 -45.848,-11.61817 -93.2086,-13.15605 -140.0761,-12.97981 z"
       id="path3280-8-1-1-8"
       inkscape:connector-curvature="0"
       sodipodi:nodetypes="csssc" />
    <path
       style="fill:#ffffff;fill-rule:evenodd;stroke:none;stroke-width:1px;stroke-linecap:butt;stroke-linejoin:miter;stroke-opacity:1"
       d="m 1917.1509,703.14914 c -35.1448,34.55495 -40.918,43.76621 -48.2945,59.20991 -7.3765,15.44359 -1.4166,45.82505 15.3336,59.77726 16.7502,13.95231 20.6476,39.75145 6.4656,51.09426 -14.1819,11.34295 -70.6572,56.04997 -12.3413,98.68519 -52.1304,-50.93005 4.6214,-80.3316 15.046,-87.77901 10.4245,-7.44749 30.9525,-25.50425 13.4446,-59.50485 -17.5082,-34.00062 -21.7713,-50.818 31.7495,-83.72489 53.5207,-32.90685 -21.4035,-37.75787 -21.4035,-37.75787 z"
       id="path1081"
       inkscape:connector-curvature="0"
       sodipodi:nodetypes="ccccccssc" />
    <path
       style="color:#000000;display:inline;overflow:visible;visibility:visible;fill:#ffffff;fill-opacity:1;fill-rule:nonzero;stroke:none;stroke-width:1.4638px;marker:none;enable-background:accumulate"
       d="m 1446.9857,482.25247 c 38.5518,83.9689 2.5856,139.06018 -54.1917,168.09629 98.918,-30.2652 116.1188,-134.92733 86.7076,-167.77583 -23.1309,-25.83416 -32.5159,-0.32046 -32.5159,-0.32046 z"
       id="path5010-4-3"
       inkscape:connector-curvature="0"
       sodipodi:nodetypes="ccsc" />
    <path
       style="color:#000000;display:inline;overflow:visible;visibility:visible;fill:#ffffff;fill-opacity:1;fill-rule:nonzero;stroke:none;stroke-width:0.861506px;marker:none;enable-background:accumulate"
       d="m 1708.9341,2344.6889 c 0.1396,-105.6475 -1.9817,-81.2211 156.3841,-79.1966 68.739,0.8787 150.308,10.6222 143.7753,157.3952 -5.1637,116.0161 -130.901,110.3132 -154.2725,113.5955 -23.2236,3.2615 -117.9728,-16.6744 -138.5725,-62.3724 -12.895,-28.6062 -8.0693,-101.383 -7.3144,-129.4217 z"
       id="path4546-6-59"
       inkscape:connector-curvature="0"
       sodipodi:nodetypes="cssssc" />
    <path
       style="fill:#ffffff;stroke:none;stroke-width:1.40498"
       d="m 720.93646,74.334276 c -50.55152,3.08778 -100.03953,15.416754 -149.93195,23.909777 -31.45318,6.242517 -62.81602,17.304637 -88.87367,37.942527 -16.49827,13.20659 -29.33925,31.97773 -35.29672,53.34425 -9.54535,30.12085 -9.93681,62.865 -5.11563,94.04195 3.84814,22.99347 12.27848,45.81666 27.54972,62.71498 15.19086,17.11859 34.15817,30.07813 54.65516,38.33478 17.69799,7.8496 36.26553,13.26302 55.14052,16.50527 42.14937,7.86858 85.03779,9.8885 127.74302,9.45199 43.67122,-0.77799 87.28472,-6.16766 129.93481,-16.42186 21.26672,-4.78213 42.71551,-11.63012 60.62503,-25.42823 19.75792,-15.0267 35.44362,-36.34047 44.53157,-60.59277 3.97062,-10.73934 5.91123,-22.25046 6.27639,-33.7908 0.74213,-14.8313 0.81776,-29.69103 1.10115,-44.53743 0.10717,-44.82775 -3.44038,-89.73925 -11.72081,-133.685824 -3.09725,-3.45486 -7.93984,-1.880213 -11.78697,-3.251442 C 857.91557,82.354172 789.57167,74.056384 720.93646,74.334276 Z"
       id="path3100-2"
       inkscape:connector-curvature="0"
       sodipodi:nodetypes="cccccccccccccc" />
    <path
       style="display:inline;fill:#ffffff;fill-rule:evenodd;stroke:none;stroke-width:1.14884px;stroke-linecap:butt;stroke-linejoin:miter;stroke-opacity:1"
       d="m 1876.2442,2473.0319 c 29.6781,34.3855 -48.3918,61.0872 -32.7914,98.1006 6.1219,14.5249 50.1858,21.814 59.4409,88.3499 -23.107,-54.5774 -70.7535,-56.808 -83.5614,-79.4341 -24.3256,-42.971 15.5983,-74.4437 22.7675,-83.4264 9.5884,-12.0136 34.1444,-23.59 34.1444,-23.59 z"
       id="path4186-80"
       inkscape:connector-curvature="0"
       sodipodi:nodetypes="cscssc" />
    <path
       style="color:#000000;display:inline;overflow:visible;visibility:visible;fill:#ffffff;fill-opacity:1;fill-rule:nonzero;stroke:none;stroke-width:0.472467px;marker:none;enable-background:accumulate"
       d="m 266.97992,2086.542 c 13.37453,-13.964 129.16447,-22.406 159.83419,0.5429 25.59955,19.1552 15.61147,66.8586 -7.1553,77.8463 -22.76671,10.9877 -98.5031,9.7123 -131.69666,4.7305 -31.60485,-4.7428 -36.91183,-19.0595 -38.46644,-47.8849 -0.63452,-11.7653 4.10957,-21.2709 17.48421,-35.2348 z"
       id="path4040-4-9-3"
       inkscape:connector-curvature="0"
       sodipodi:nodetypes="zssssz" />
    <path
       style="color:#000000;display:inline;overflow:visible;visibility:visible;fill:#ffffff;fill-opacity:1;fill-rule:nonzero;stroke:none;stroke-width:0.816531px;marker:none;enable-background:accumulate"
       d="m 354.58902,2078.2586 c 35.58146,-4.2267 52.48817,-58.2989 28.13393,-95.1145 44.43236,49.6051 29.57055,64.2564 4.74971,120.5184 -6.58837,14.934 -32.88364,-25.4039 -32.88364,-25.4039 z"
       id="path5010-4-5"
       inkscape:connector-curvature="0"
       sodipodi:nodetypes="ccsc" />
  </g>
  <g
     inkscape:groupmode="layer"
     id="layer1"
     inkscape:label="txt">
    <text
       xml:space="preserve"
       style="font-style:normal;font-variant:normal;font-weight:normal;font-stretch:normal;font-size:45px;line-height:1.25;font-family:Lavi;-inkscape-font-specification:Lavi;text-align:center;letter-spacing:0px;word-spacing:0px;text-anchor:middle;fill:#000000;fill-opacity:1;stroke:none"
       x="693.59827"
       y="171.74739"
       id="text4246-3-2-2"><tspan
         style="font-size:45px"
         sodipodi:role="line"
         x="693.59827"
         y="171.74739"
         id="tspan873">Obrigada por</tspan><tspan
         style="font-size:45px"
         sodipodi:role="line"
         x="693.59827"
         y="227.99739"
         id="tspan50710">deixar Carrot me</tspan><tspan
         style="font-size:45px"
         sodipodi:role="line"
         x="693.59827"
         y="284.24738"
         id="tspan57206">trazer uma muda</tspan><tspan
         style="font-size:45px"
         sodipodi:role="line"
         x="693.59827"
         y="340.49738"
         id="tspan908">nova de roupas.</tspan></text>
    <text
       xml:space="preserve"
       style="font-style:normal;font-variant:normal;font-weight:normal;font-stretch:normal;font-size:45px;line-height:1.25;font-family:Lavi;-inkscape-font-specification:Lavi;text-align:center;letter-spacing:0px;word-spacing:0px;text-anchor:middle;fill:#000000;fill-opacity:1;stroke:none"
       x="1232.1646"
       y="167.65114"
       id="text4246-3-2-2-3-3-3"><tspan
         style="font-size:45px"
         sodipodi:role="line"
         x="1232.1646"
         y="167.65114"
         id="tspan876-3">Imagina.</tspan></text>
    <text
       xml:space="preserve"
       style="font-style:normal;font-variant:normal;font-weight:normal;font-stretch:normal;font-size:45px;line-height:1.25;font-family:Lavi;-inkscape-font-specification:Lavi;text-align:center;letter-spacing:0px;word-spacing:0px;text-anchor:middle;fill:#000000;fill-opacity:1;stroke:none"
       x="1406.9082"
       y="273.70291"
       id="text4246-3-2-2-3-3"><tspan
         style="font-size:45px"
         sodipodi:role="line"
         x="1406.9082"
         y="273.70291"
         id="tspan971">Você facilitou o</tspan><tspan
         style="font-size:45px"
         sodipodi:role="line"
         x="1406.9082"
         y="329.95291"
         id="tspan58862">nosso trabalho, então</tspan><tspan
         style="font-size:45px"
         sodipodi:role="line"
         x="1406.9082"
         y="386.20291"
         id="tspan58866">o mínimo que eu posso</tspan><tspan
         style="font-size:45px"
         sodipodi:role="line"
         x="1406.9082"
         y="442.45291"
         id="tspan941">fazer é retornar o favor.</tspan></text>
    <text
       xml:space="preserve"
       style="font-style:normal;font-variant:normal;font-weight:normal;font-stretch:normal;font-size:45px;line-height:1.25;font-family:Lavi;-inkscape-font-specification:Lavi;text-align:center;letter-spacing:0px;word-spacing:0px;text-anchor:middle;fill:#000000;fill-opacity:1;stroke:none"
       x="2066.6965"
       y="140.92047"
       id="text4246-3-2-2-3-3-67"><tspan
         style="font-size:45px"
         sodipodi:role="line"
         x="2066.6965"
         y="140.92047"
         id="tspan1178">Mas, sabe,</tspan><tspan
         style="font-size:45px"
         sodipodi:role="line"
         x="2066.6965"
         y="197.17047"
         id="tspan898">você realmente</tspan><tspan
         style="font-size:45px"
         sodipodi:role="line"
         x="2066.6965"
         y="253.42047"
         id="tspan71144">irritou a Wasabi.</tspan></text>
    <text
       xml:space="preserve"
       style="font-style:normal;font-variant:normal;font-weight:normal;font-stretch:normal;font-size:45px;line-height:1.25;font-family:Lavi;-inkscape-font-specification:Lavi;text-align:center;letter-spacing:0px;word-spacing:0px;text-anchor:middle;fill:#000000;fill-opacity:1;stroke:none"
       x="2069.8462"
       y="336.0451"
       id="text4246-3-2-2-3-3-67-2"><tspan
         style="font-size:45px"
         sodipodi:role="line"
         x="2069.8462"
         y="336.0451"
         id="tspan994-1">Ela exige perfeição.</tspan><tspan
         style="font-size:45px"
         sodipodi:role="line"
         x="2069.8462"
         y="392.2951"
         id="tspan61753">Você perturbou isso com</tspan><tspan
         style="font-size:45px"
         sodipodi:role="line"
         x="2069.8462"
         y="448.5451"
         id="tspan61757">a sua sujeira, as suas</tspan><tspan
         style="font-size:45px"
         sodipodi:role="line"
         x="2069.8462"
         y="504.7951"
         id="tspan61761">roupas e a sua entrada.</tspan></text>
    <text
       xml:space="preserve"
       style="font-style:normal;font-variant:normal;font-weight:normal;font-stretch:normal;font-size:45px;line-height:1.25;font-family:Lavi;-inkscape-font-specification:Lavi;text-align:center;letter-spacing:0px;word-spacing:0px;text-anchor:middle;fill:#000000;fill-opacity:1;stroke:none"
       x="2069.7837"
       y="601.4223"
       id="text4246-3-2-2-3-3-67-2-3"><tspan
         style="font-size:45px"
         sodipodi:role="line"
         x="2069.7837"
         y="601.4223"
         id="tspan1016-9-6">E você atacou</tspan><tspan
         style="font-size:45px"
         sodipodi:role="line"
         x="2069.7837"
         y="657.6723"
         id="tspan61765">ela! Ela não vai</tspan><tspan
         style="font-size:45px"
         sodipodi:role="line"
         x="2069.7837"
         y="713.9223"
         id="tspan1134">deixar barato.</tspan></text>
    <text
       xml:space="preserve"
       style="font-style:normal;font-variant:normal;font-weight:normal;font-stretch:normal;font-size:45px;line-height:1.25;font-family:Lavi;-inkscape-font-specification:Lavi;text-align:center;letter-spacing:0px;word-spacing:0px;text-anchor:middle;fill:#000000;fill-opacity:1;stroke:none"
       x="349.56961"
       y="2138.6455"
       id="text4246-3-2-2-3-3-6-67"><tspan
         style="font-size:45px"
         sodipodi:role="line"
         x="349.56961"
         y="2138.6455"
         id="tspan1191-3">Eu sei.</tspan></text>
    <text
       xml:space="preserve"
       style="font-style:normal;font-variant:normal;font-weight:normal;font-stretch:normal;font-size:45px;line-height:1.25;font-family:Lavi;-inkscape-font-specification:Lavi;text-align:center;letter-spacing:0px;word-spacing:0px;text-anchor:middle;fill:#000000;fill-opacity:1;stroke:none"
       x="743.62054"
       y="1442.3682"
       id="text4246-3-2-2-3-3-6"><tspan
         style="font-size:45px"
         sodipodi:role="line"
         x="743.62054"
         y="1442.3682"
         id="tspan909">Pois bem, eu vou</tspan><tspan
         style="font-size:45px"
         sodipodi:role="line"
         x="743.62054"
         y="1498.6182"
         id="tspan64939">descansar um pouco.</tspan></text>
    <text
       xml:space="preserve"
       style="font-style:normal;font-variant:normal;font-weight:normal;font-stretch:normal;font-size:45px;line-height:1.25;font-family:Lavi;-inkscape-font-specification:Lavi;text-align:center;letter-spacing:0px;word-spacing:0px;text-anchor:middle;fill:#000000;fill-opacity:1;stroke:none"
       x="863.08191"
       y="1579.2286"
       id="text4246-3-2-2-3-3-6-6"><tspan
         style="font-size:45px"
         sodipodi:role="line"
         x="863.08191"
         y="1579.2286"
         id="tspan977">Nós partiremos</tspan><tspan
         style="font-size:45px"
         sodipodi:role="line"
         x="863.08191"
         y="1635.4786"
         id="tspan949">logo que eu acordar.</tspan></text>
    <text
       xml:space="preserve"
       style="font-style:normal;font-variant:normal;font-weight:normal;font-stretch:normal;font-size:45px;line-height:1.25;font-family:Lavi;-inkscape-font-specification:Lavi;text-align:center;letter-spacing:0px;word-spacing:0px;text-anchor:middle;fill:#000000;fill-opacity:1;stroke:none"
       x="1099.5597"
       y="1705.2618"
       id="text4246-3-2-2-3-3-6-2"><tspan
         style="font-size:45px"
         sodipodi:role="line"
         x="1099.5597"
         y="1705.2618"
         id="tspan986">Pode fazer o que</tspan><tspan
         style="font-size:45px"
         sodipodi:role="line"
         x="1099.5597"
         y="1761.5118"
         id="tspan958">quiser, contanto que não</tspan><tspan
         style="font-size:45px"
         sodipodi:role="line"
         x="1099.5597"
         y="1817.7618"
         id="tspan77551">vá muito longe...</tspan></text>
    <text
       xml:space="preserve"
       style="font-style:normal;font-variant:normal;font-weight:normal;font-stretch:normal;line-height:0%;font-family:Lavi;-inkscape-font-specification:Lavi;letter-spacing:0px;word-spacing:0px;display:inline;fill:#ffffff;fill-opacity:1;stroke:#5f8dd3;stroke-width:0.992362;stroke-miterlimit:4;stroke-dasharray:none;stroke-opacity:1;filter:url(#filter4375-4-1-1-1-9-3-2-3-8-7-6-4-9)"
       x="787.65729"
       y="1584.5073"
       id="text4580-5-0-6-2-8-5-9-9"
       transform="matrix(0.71138619,-0.38856964,0.42362052,1.0933045,-1095.3818,1936.127)"><tspan
         sodipodi:role="line"
         id="tspan4582-6-9-1-3-9-5-3-3"
         x="787.65729"
         y="1584.5073"
         style="font-size:70px;line-height:1.25;fill:#ffffff;stroke:#5f8dd3">Splash</tspan></text>
    <text
       xml:space="preserve"
       style="font-style:normal;font-variant:normal;font-weight:normal;font-stretch:normal;font-size:45px;line-height:1.25;font-family:Lavi;-inkscape-font-specification:Lavi;text-align:center;letter-spacing:0px;word-spacing:0px;text-anchor:middle;fill:#000000;fill-opacity:1;stroke:none"
       x="1858.9943"
       y="2359.686"
       id="text4246-3-2-2-3-3-6-2-9"><tspan
         style="font-size:45px"
         sodipodi:role="line"
         x="1858.9943"
         y="2359.686"
         id="tspan1017-0">Mas que</tspan><tspan
         style="font-size:45px"
         sodipodi:role="line"
         x="1858.9943"
         y="2415.936"
         id="tspan66561">bruxa mais</tspan><tspan
         style="font-size:45px"
         sodipodi:role="line"
         x="1858.9943"
         y="2472.186"
         id="tspan1080">curiosa.</tspan></text>
  </g>
</svg>
