<?xml version="1.0" encoding="UTF-8" standalone="no"?>
<svg
   xmlns:dc="http://purl.org/dc/elements/1.1/"
   xmlns:cc="http://creativecommons.org/ns#"
   xmlns:rdf="http://www.w3.org/1999/02/22-rdf-syntax-ns#"
   xmlns:svg="http://www.w3.org/2000/svg"
   xmlns="http://www.w3.org/2000/svg"
   xmlns:xlink="http://www.w3.org/1999/xlink"
   xmlns:sodipodi="http://sodipodi.sourceforge.net/DTD/sodipodi-0.dtd"
   xmlns:inkscape="http://www.inkscape.org/namespaces/inkscape"
   id="svg2"
   version="1.1"
   inkscape:version="1.0.2 (e86c870879, 2021-01-15)"
   width="2481"
   height="3503"
   sodipodi:docname="E06P01.svg">
  <metadata
     id="metadata8">
    <rdf:RDF>
      <cc:Work
         rdf:about="">
        <dc:format>image/svg+xml</dc:format>
        <dc:type
           rdf:resource="http://purl.org/dc/dcmitype/StillImage" />
        <dc:title />
      </cc:Work>
    </rdf:RDF>
  </metadata>
  <defs
     id="defs6" />
  <sodipodi:namedview
     pagecolor="#ffffff"
     bordercolor="#666666"
     borderopacity="1"
     objecttolerance="10"
     gridtolerance="10"
     guidetolerance="10"
     inkscape:pageopacity="0"
     inkscape:pageshadow="2"
     inkscape:window-width="1920"
     inkscape:window-height="1022"
     id="namedview4"
     showgrid="false"
     inkscape:zoom="0.49190039"
     inkscape:cx="1154.499"
     inkscape:cy="800.29004"
     inkscape:window-x="0"
     inkscape:window-y="28"
     inkscape:window-maximized="1"
     inkscape:current-layer="layer1"
     inkscape:document-rotation="0" />
  <g
     inkscape:groupmode="layer"
     id="layer2"
     inkscape:label="artwork"
     sodipodi:insensitive="true">
    <image
       sodipodi:absref="/home/cherry/Workspace/peppercarrot/webcomics/ep06_The-Potion-Contest/lang/gfx_Pepper-and-Carrot_by-David-Revoy_E06P01.png"
       xlink:href="../gfx_Pepper-and-Carrot_by-David-Revoy_E06P01.png"
       y="0"
       x="0"
       id="image10"
       height="3503"
       width="2481" />
  </g>
  <g
     inkscape:groupmode="layer"
     id="layer3"
     inkscape:label="speechbubbles">
    <path
       style="fill:#ffffff;stroke:none"
       d="m 1065.0584,2991.5882 c 139.0204,-151.8259 352.2724,-147.4644 534.1995,-135.0446 l -2.4584,29.6919 c -271.0832,-44.1257 -427.9056,20.1405 -531.7411,105.3527 z"
       id="path4208"
       inkscape:connector-curvature="0"
       sodipodi:nodetypes="cccc" />
    <path
       style="fill:#ffffff;stroke:none"
       d="m 848.69618,2327.5469 c 11.92344,-57.0082 80.05736,-226.7656 764.80332,-144.4206 25.5503,5.0674 32.3637,24.0701 32.3637,24.0701 l -11.9235,7.6011 c 0,0 -669.41585,-141.8868 -785.24352,112.7494 z"
       id="path4184"
       inkscape:connector-curvature="0" />
    <path
       style="fill:#ffffff;stroke:none"
       d="m 109.9198,925.66142 c 1.04631,-27.48207 22.27573,-23.72883 40.94472,-23.93818 18.1461,-4.13553 16.89406,-23.00838 65.20823,-4.2244 18.0929,-5.3069 24.78627,-19.87579 65.20824,-7.04063 15.67019,-5.64754 31.34039,-8.39721 47.01059,2.81626 27.22472,-1.46366 31.09442,-20.99933 90.98825,2.81625 26.66091,-11.44728 41.59689,-5.47493 53.07647,5.63252 13.76757,-3.67027 25.95071,-14.69684 45.49411,8.44877 23.48032,-1.04709 40.32954,6.52609 48.52707,25.34629 5.11276,8.10267 19.19624,6.20959 10.6153,29.57055 34.29684,28.06797 17.91311,41.65645 15.1647,59.14085 -0.7083,13.2228 -2.55813,26.1427 -24.26352,33.7949 6.44076,19.007 -6.96939,25.7259 -18.19765,33.7952 -10.09796,14.6166 -23.32996,11.7726 -36.39531,9.8569 -25.78,30.1813 -51.56,23.35 -77.34,23.9382 -11.78854,9.973 -21.59217,7.044 -30.32941,-2.8164 -38.341,17.6783 -49.94714,3.4388 -68.24119,-2.8161 -38.52211,28.3023 -57.62956,13.3383 -81.8894,9.8569 -17.18113,5.122 -34.33329,10.0287 -48.52707,-7.0408 -42.04792,9.058 -40.77924,-7.4796 -51.56002,-16.8975 -18.83728,12.9639 -27.9338,4.823 -37.91176,-1.408 -26.216786,-6.1098 -13.66833,-16.7193 -18.19764,-25.3464 -20.766034,-19.2443 -20.399839,-38.4889 -7.582355,-57.7332 -9.612702,-10.1968 -24.179593,-19.5574 -1.516493,-35.20328 -9.34973,-13.67014 -20.242196,-27.22127 6.065897,-43.65117 -2.950313,-10.85544 4.521431,-14.4528 13.648241,-16.89753 z"
       id="path4086"
       inkscape:connector-curvature="0"
       sodipodi:nodetypes="cccccccccccccccccccccccccc" />
    <path
       style="fill:#ffffff;stroke:none;stroke-width:1px;stroke-linecap:butt;stroke-linejoin:miter;stroke-opacity:1"
       d="m 230.13067,823.60392 c -9.53903,-20.56429 -0.23424,-22.81511 10.00568,-26.42602 11.63357,-13.55921 16.74734,-4.29914 22.87013,1.42938 15.03339,7.03416 19.43438,18.62507 14.29383,34.3052 -2.64407,15.25927 -13.01754,16.99209 -27.15828,12.13219 -15.35344,0.0889 -21.95096,-7.11879 -20.01136,-21.44075 z"
       id="path4088"
       inkscape:connector-curvature="0"
       sodipodi:nodetypes="cccccc" />
    <path
       style="fill:#ffffff;stroke:none;stroke-width:1px;stroke-linecap:butt;stroke-linejoin:miter;stroke-opacity:1"
       d="m 275.87093,761.44332 c -5.09277,-10.88445 3.68029,-14.83599 15.72321,-17.15259 19.65656,11.35504 12.8163,22.10199 7.14692,32.87581 -12.0433,1.8308 -24.81763,4.83126 -22.87013,-15.72322 z"
       id="path4090"
       inkscape:connector-curvature="0"
       sodipodi:nodetypes="cccc" />
    <path
       style="fill:#ffffff;stroke:none;stroke-width:0.95018345px;stroke-linecap:butt;stroke-linejoin:miter;stroke-opacity:1"
       d="m 380.35065,1266.8619 c -8.18547,0.4124 -15.90406,5.1548 -22.0511,11.9227 -9.5957,-3.1736 -21.97246,-8.2795 -30.23063,1.5132 -3.49147,5.0476 -6.40374,14.3767 -12.95232,11.8629 -10.86616,-0.145 -24.82258,2.5184 -29.04655,17.4762 -1.972,5.7908 -1.35693,15.0368 -7.4168,16.6721 -7.97698,4.4774 -13.82897,17.4469 -9.179,28.0569 1.65962,3.057 2.11164,7.2338 -0.31398,9.775 -4.8641,10.1284 -0.94752,23.0925 5.67171,30.193 1.97531,3.2767 -1.36395,7.354 0.19633,11.0446 1.55371,8.6231 8.72058,11.2019 14.56785,12.1188 0.46842,4.4335 1.46397,9.5291 4.34935,12.7201 5.5405,7.1469 13.86654,7.6094 21.13209,7.8798 6.1863,3.6468 10.71373,11.0528 17.54782,13.0321 11.76158,4.4263 23.90561,-2.9034 33.60458,-10.412 3.74873,8.3113 8.62835,16.8603 16.33028,19.3955 6.47534,2.9025 13.39246,0.9439 19.80881,-0.3144 16.12876,2.8959 33.70984,14.072 49.53502,3.853 5.74149,-3.6105 10.53084,-9.2884 14.51964,-15.5765 6.33077,6.7494 16.54269,10.9218 23.2415,3.0173 1.83789,-2.596 3.5881,-7.5817 6.907,-4.5974 15.29958,5.7451 32.26989,14.7527 48.0131,5.8124 7.41485,-3.0608 13.84153,-10.0749 20.13636,-14.7463 10.25212,5.5615 23.90771,7.023 32.11238,-4.3181 2.99244,-2.5783 3.88914,-10.6945 8.33018,-8.7778 10.38068,1.5888 21.75441,-4.9726 25.40049,-18.0408 1.5697,-5.6655 1.88667,-12.627 6.6307,-15.6046 7.22213,-7.5425 11.23467,-21.1804 6.88079,-32.5365 -2.62109,-7.286 -6.10602,-14.274 -5.68011,-22.617 -1.53055,-14.0768 -11.62009,-23.7276 -22.15289,-25.0838 -4.46766,-1.4671 -10.59727,0.412 -12.72446,-6.1652 -12.21536,-19.5553 -33.56358,-25.2607 -52.07256,-20.1752 -3.66212,1.2833 -5.10816,-4.9933 -8.28716,-6.4098 -7.57091,-6.9383 -17.96098,-6.1984 -25.30873,0.7709 -3.36921,4.6005 -6.43358,-2.3008 -10.11328,-3.021 -13.64791,-6.1048 -30.74561,-4.6696 -41.60863,8.6845 -11.15376,-16.6633 -30.1568,-21.7392 -46.09766,-14.9432 -4.84359,1.0262 -9.49442,4.8609 -14.10101,5.3094 -8.01686,-4.6632 -16.67504,-8.3842 -25.57908,-7.7715 z"
       id="path4094"
       inkscape:connector-curvature="0" />
    <path
       style="fill:#ffffff;stroke:none"
       d="m 254.84178,1217.9014 c -21.93594,-5.4808 -17.74008,-13.6811 -13.99678,-23.3941 -3.03862,-16.7769 7.36071,-14.91 15.68046,-15.9283 15.0063,-6.7699 26.74841,-2.9642 35.56127,10.332 10.07962,11.2071 4.80314,19.8776 -7.9578,27.312 -9.7183,11.33 -19.48107,11.7989 -29.28715,1.6784 z"
       id="path4088-4"
       inkscape:connector-curvature="0"
       sodipodi:nodetypes="cccccc" />
    <path
       style="fill:#ffffff;stroke:none"
       d="m 281.23738,1261.3662 c -1.6722,-15.5601 8.1265,-14.7295 15.31815,-17.624 8.5716,-3.7924 14.70548,-2.0987 17.90033,6.2094 9.77538,3.2771 13.75133,9.4545 10.08794,19.4525 -3.52546,10.5347 -12.20688,9.4657 -20.99121,8.1652 -4.6338,4.2774 -9.42027,7.1804 -15.37947,-0.4737 -11.84717,-2.3085 -12.53472,-8.0516 -6.93574,-15.7294 z"
       id="path4119"
       inkscape:connector-curvature="0"
       sodipodi:nodetypes="ccccccc" />
    <path
       style="fill:#ffffff;stroke:none;stroke-width:0.91189969px;stroke-linecap:butt;stroke-linejoin:miter;stroke-opacity:1"
       d="m 326.78418,1668.4749 c -2.56343,-24.9282 9.10041,-33.6182 27.21558,-34.9449 10.22675,-15.5074 18.0174,-33.795 53.2972,-20.7082 24.68042,-26.6812 50.71526,-20.8994 77.11084,-6.4713 43.25617,-33.2569 53.80511,-12.6491 74.84286,-5.1771 50.66964,-26.1972 56.83571,6.8647 79.3788,18.1197 38.54212,-28.0463 62.93108,-9.427 86.18269,12.9425 13.21114,0.023 21.5758,6.1934 19.2777,25.8852 20.43468,8.9831 30.96794,24.4239 27.2156,49.1816 17.75589,33.0826 3.71784,42.5783 -12.47381,50.4762 15.58458,28.9611 6.68031,51.4722 -22.67967,68.5956 -3.89282,20.9841 -17.48309,23.9826 -35.15346,19.4139 -8.0884,18.6713 -21.73277,29.5382 -52.16321,16.8253 -22.05137,20.5448 -45.9319,20.2126 -71.44092,1.2943 -10.05872,21.893 -27.75343,23.8657 -49.89525,14.2367 -30.38185,12.0017 -42.93099,0.5189 -51.02923,-16.8253 -19.43622,11.4116 -38.96848,20.8504 -60.10108,-2.5885 -24.57632,6.3545 -31.24421,-4.8106 -31.75151,-22.0024 -19.28987,15.1367 -31.88648,9.902 -40.82338,-6.4714 -14.1693,-0.4012 -30.2679,2.4004 -26.08161,-28.4735 -20.56382,-5.5398 -32.52409,-16.2478 -20.4117,-41.4163 -6.39081,-15.2958 -16.74512,-30.0891 6.80391,-49.1817 -4.32209,-27.7982 6.35466,-38.4776 22.67965,-42.7104 z"
       id="path4121"
       inkscape:connector-curvature="0"
       sodipodi:nodetypes="ccccccccccccccccccccccc" />
    <path
       style="fill:#ffffff;stroke:none"
       d="m 426.16799,1495.7228 c -1.6722,-15.5601 8.1265,-14.7295 15.31815,-17.624 8.5716,-3.7924 14.70548,-2.0987 17.90033,6.2094 9.77538,3.2771 13.75133,9.4545 10.08794,19.4525 -3.52546,10.5347 -12.20688,9.4657 -20.99121,8.1652 -4.6338,4.2774 -9.42027,7.1804 -15.37947,-0.4737 -11.84717,-2.3085 -12.53472,-8.0516 -6.93574,-15.7294 z"
       id="path4119-8"
       inkscape:connector-curvature="0"
       sodipodi:nodetypes="ccccccc" />
    <path
       style="fill:#ffffff;stroke:none"
       d="m 473.63058,1564.8263 c -15.87888,-16.1637 -4.1024,-20.2143 1.38885,-27.0178 6.23672,-8.4833 14.66459,-9.736 25.73404,-2.2704 13.95095,-1.3644 23.98299,3.3767 28.85294,16.1601 5.508,13.3003 -5.22536,16.5249 -16.2828,19.5483 -1.36816,7.0209 -4.14446,12.6166 -17.73722,7.265 -15.41163,3.4716 -21.35155,-2.4587 -21.95581,-13.6852 z"
       id="path4119-7"
       inkscape:connector-curvature="0"
       sodipodi:nodetypes="ccccccc" />
    <path
       style="fill:#ffffff;stroke:none"
       d="m 854.06667,2156.8344 c 19.73952,-26.8114 158.94453,-26.7384 188.10863,-4.2782 29.1641,22.4602 26.3278,56.8909 5.4135,81.6803 -14.7396,17.4708 -165.81621,22.0647 -189.14751,2.813 -23.3313,-19.2516 -24.11415,-53.4038 -4.37462,-80.2151 z"
       id="path4160"
       inkscape:connector-curvature="0"
       sodipodi:nodetypes="zsssz" />
    <path
       style="fill:#ffffff;stroke:none;stroke-width:1px;stroke-linecap:butt;stroke-linejoin:miter;stroke-opacity:1"
       d="m 1145.6566,2110.7778 c 25.7948,-27.3748 274.6902,-20.0673 303.2779,11.037 28.5876,31.1043 14.9152,88.296 -18.6442,99.333 -33.5594,11.037 -242.3737,13.0437 -270.9613,-1.0034 -28.4889,-13.9985 -39.4672,-81.9918 -13.6724,-109.3666 z"
       id="path4162"
       inkscape:connector-curvature="0"
       sodipodi:nodetypes="zsssz" />
    <path
       style="fill:#ffffff;stroke:none"
       d="m 1626.791,2127.4305 c 49.6169,-31.237 297.3449,-8.1151 336.2695,23.5167 38.9246,31.6317 36.8581,107.5055 6.3112,127.5793 -30.5472,20.0735 -307.2369,18.9943 -355.2218,-9.2424 -34.5679,-20.341 -36.9758,-110.6165 12.6411,-141.8536 z"
       id="path4164"
       inkscape:connector-curvature="0"
       sodipodi:nodetypes="zsssz" />
    <path
       style="fill:#ffffff;stroke:none"
       d="m 1201.5647,2821.5119 c 19.9792,-14.0231 53.2637,-19.8752 84.4282,-20.4786 31.1644,-0.6033 75.5507,3.6735 98.5103,19.8549 22.9596,16.1816 40.8445,30.4369 35.6632,57.6458 -5.1811,27.2089 -41.6424,46.1053 -77.5724,55.5628 -35.93,9.4574 -98.3145,0.4916 -127.5903,-14.1459 -29.2756,-14.6376 -44.9862,-27.5393 -46.7873,-49.0378 -1.8011,-21.4982 13.3692,-35.3782 33.3483,-49.4012 z"
       id="path4204"
       inkscape:connector-curvature="0"
       sodipodi:nodetypes="zzzzzzzz" />
    <path
       style="fill:#ffffff;stroke:none;stroke-width:0.96692984999999998px;stroke-linecap:butt;stroke-linejoin:miter;stroke-opacity:1"
       d="m 1563.3029,2891.138 c 0.6377,-21.0575 0.5288,-58.0166 24.2708,-76.9497 23.7421,-18.9331 61.3692,-10.7371 100.8171,-10.7371 39.4479,0 104.0726,-5.7594 134.4227,14.3161 30.3501,20.0756 39.0628,44.9597 39.2067,73.3707 0.1439,28.411 -18.2349,60.1358 -41.0736,78.7392 -22.8387,18.6034 -57.3059,20.5062 -84.0143,25.0533 -26.7084,4.5472 -45.3094,12.1353 -74.6792,3.5791 -29.3698,-8.5562 -73.3027,-41.6431 -87.7482,-62.6335 -14.4456,-20.9904 -11.8397,-23.6806 -11.202,-44.7381 z"
       id="path4206"
       inkscape:connector-curvature="0"
       sodipodi:nodetypes="zzzzzzzzzz" />
  </g>
  <g
     inkscape:groupmode="layer"
     id="layer1"
     inkscape:label="txt"
     style="display:inline">
    <flowRoot
       xml:space="preserve"
       id="flowRoot2987-6-5-6-3-8"
       style="font-style:normal;font-variant:normal;font-weight:normal;font-stretch:normal;line-height:0.01%;font-family:Lavi;-inkscape-font-specification:Lavi;letter-spacing:0px;word-spacing:0px;fill:#000000;fill-opacity:1;stroke:none"
       transform="matrix(0.92052605,-0.33060622,0,1.511425,1277.4687,2693.112)"><flowRegion
         id="flowRegion2989-7-8-9-3-9"><rect
           id="rect2991-2-1-1-36-7"
           width="357.43549"
           height="179.76456"
           x="120.55251"
           y="265.53046"
           style="font-style:normal;font-variant:normal;font-weight:normal;font-stretch:normal;font-family:Lavi;-inkscape-font-specification:Lavi" /></flowRegion><flowPara
         style="font-style:normal;font-variant:normal;font-weight:normal;font-stretch:normal;font-size:48px;line-height:1.25;font-family:'Nanum Pen Script OTF';-inkscape-font-specification:'Nanum Pen Script OTF';text-align:center;text-anchor:middle"
         id="flowPara3217-6"><flowSpan
   style="font-size:36.0311px"
   id="flowSpan3416"> 꽤</flowSpan>액?</flowPara></flowRoot>
    <flowRoot
       xml:space="preserve"
       id="flowRoot2987-6-5-6-3-8-7"
       style="font-style:normal;font-variant:normal;font-weight:normal;font-stretch:normal;line-height:0.01%;font-family:Lavi;-inkscape-font-specification:Lavi;letter-spacing:0px;word-spacing:0px;fill:#000000;fill-opacity:1;stroke:none"
       transform="matrix(0.61014531,-0.25329543,0,1.157985,1349.8756,2797.7657)"><flowRegion
         id="flowRegion2989-7-8-9-3-9-7"><rect
           id="rect2991-2-1-1-36-7-9"
           width="357.43549"
           height="179.76456"
           x="120.55251"
           y="265.53046"
           style="font-style:normal;font-variant:normal;font-weight:normal;font-stretch:normal;font-family:Lavi;-inkscape-font-specification:Lavi" /></flowRegion><flowPara
         style="font-size:48px;line-height:1.25;text-align:center;text-anchor:middle"
         id="flowPara3217-6-4"> </flowPara></flowRoot>
    <flowRoot
       xml:space="preserve"
       id="flowRoot159"
       style="font-style:normal;font-variant:normal;font-weight:normal;font-stretch:normal;line-height:1.25;font-family:'Xiaolai SC';-inkscape-font-specification:'Xiaolai SC';text-align:center;letter-spacing:0px;word-spacing:0px;text-anchor:middle;fill:#000000;fill-opacity:1;stroke:none"
       transform="matrix(0.7274093,0,0,0.74994923,1953.7768,2533.2611)"><flowRegion
         id="flowRegion155"
         style="font-style:normal;font-variant:normal;font-weight:normal;font-stretch:normal;font-family:'Xiaolai SC';-inkscape-font-specification:'Xiaolai SC'"><rect
           id="rect153"
           width="744.12329"
           height="84.563675"
           x="59.439823"
           y="265.53046"
           style="font-style:normal;font-variant:normal;font-weight:normal;font-stretch:normal;font-family:'Xiaolai SC';-inkscape-font-specification:'Xiaolai SC';text-align:center;text-anchor:middle;" /></flowRegion><flowPara
         style="font-style:normal;font-variant:normal;font-weight:normal;font-stretch:normal;font-size:48px;font-family:'Xiaolai SC';-inkscape-font-specification:'Xiaolai SC';text-align:start;text-anchor:start;fill:#a0a0a0;fill-opacity:1"
         id="flowPara157">* 第4話:天才的靈感 參考</flowPara></flowRoot>
    <flowRoot
       xml:space="preserve"
       id="flowRoot85"
       style="font-style:normal;font-variant:normal;font-weight:normal;font-stretch:normal;line-height:1.25;font-family:'Xiaolai SC';-inkscape-font-specification:'Xiaolai SC';letter-spacing:0px;word-spacing:0px;fill:#000000;fill-opacity:1;stroke:none"
       transform="matrix(0.89894428,0,0,0.86889646,-23.248837,699.36637)"><flowRegion
         id="flowRegion79"
         style="font-style:normal;font-variant:normal;font-weight:normal;font-stretch:normal;font-family:'Xiaolai SC';-inkscape-font-specification:'Xiaolai SC'"><rect
           id="rect77"
           width="525.65155"
           height="245.01311"
           x="138.55077"
           y="262.427"
           style="font-style:normal;font-variant:normal;font-weight:normal;font-stretch:normal;font-family:'Xiaolai SC';-inkscape-font-specification:'Xiaolai SC';" /></flowRegion><flowPara
         style="font-style:normal;font-variant:normal;font-weight:normal;font-stretch:normal;font-size:48px;font-family:'Xiaolai SC';-inkscape-font-specification:'Xiaolai SC';text-align:center;text-anchor:middle"
         id="flowPara81">에이 씨,</flowPara><flowPara
         style="font-style:normal;font-variant:normal;font-weight:normal;font-stretch:normal;font-size:48px;font-family:'Xiaolai SC';-inkscape-font-specification:'Xiaolai SC';text-align:center;text-anchor:middle"
         id="flowPara83">또 窓門을 열어놓고</flowPara><flowPara
         style="font-style:normal;font-variant:normal;font-weight:normal;font-stretch:normal;font-size:48px;font-family:'Xiaolai SC';-inkscape-font-specification:'Xiaolai SC';text-align:center;text-anchor:middle"
         id="flowPara165">잠들었나봐...</flowPara></flowRoot>
    <flowRoot
       xml:space="preserve"
       id="flowRoot95"
       style="font-style:normal;font-variant:normal;font-weight:normal;font-stretch:normal;line-height:1.25;font-family:'Xiaolai SC';-inkscape-font-specification:'Xiaolai SC';letter-spacing:0px;word-spacing:0px;fill:#000000;fill-opacity:1;stroke:none"
       transform="matrix(0.87574553,0,0,0.91282175,158.40006,1068.7899)"><flowRegion
         id="flowRegion89"
         style="font-style:normal;font-variant:normal;font-weight:normal;font-stretch:normal;font-family:'Xiaolai SC';-inkscape-font-specification:'Xiaolai SC'"><rect
           id="rect87"
           width="427.17923"
           height="131.11569"
           x="120.55251"
           y="265.53046"
           style="font-style:normal;font-variant:normal;font-weight:normal;font-stretch:normal;font-family:'Xiaolai SC';-inkscape-font-specification:'Xiaolai SC';" /></flowRegion><flowPara
         style="font-style:normal;font-variant:normal;font-weight:normal;font-stretch:normal;font-size:48px;font-family:'Xiaolai SC';-inkscape-font-specification:'Xiaolai SC';text-align:center;text-anchor:middle"
         id="flowPara91">...바람이 너무</flowPara><flowPara
         style="font-style:normal;font-variant:normal;font-weight:normal;font-stretch:normal;font-size:48px;font-family:'Xiaolai SC';-inkscape-font-specification:'Xiaolai SC';text-align:center;text-anchor:middle"
         id="flowPara93">甚하게 부네...</flowPara></flowRoot>
    <flowRoot
       xml:space="preserve"
       id="flowRoot107"
       style="font-style:normal;font-variant:normal;font-weight:normal;font-stretch:normal;line-height:1.25;font-family:'Xiaolai SC';-inkscape-font-specification:'Xiaolai SC';letter-spacing:0px;word-spacing:0px;fill:#000000;fill-opacity:1;stroke:none"
       transform="matrix(0.9257545,0,0,0.89481053,159.31085,1428.3275)"><flowRegion
         id="flowRegion99"
         style="font-style:normal;font-variant:normal;font-weight:normal;font-stretch:normal;font-family:'Xiaolai SC';-inkscape-font-specification:'Xiaolai SC'"><rect
           id="rect97"
           width="570.64728"
           height="189.15115"
           x="120.55251"
           y="265.53046"
           style="font-style:normal;font-variant:normal;font-weight:normal;font-stretch:normal;font-family:'Xiaolai SC';-inkscape-font-specification:'Xiaolai SC';" /></flowRegion><flowPara
         style="font-style:normal;font-variant:normal;font-weight:normal;font-stretch:normal;font-size:48px;font-family:'Xiaolai SC';-inkscape-font-specification:'Xiaolai SC';text-align:center;text-anchor:middle"
         id="flowPara101">...근데 窓門사이로</flowPara><flowPara
         style="font-style:normal;font-variant:normal;font-weight:normal;font-stretch:normal;font-size:48px;font-family:'Xiaolai SC';-inkscape-font-specification:'Xiaolai SC';text-align:center;text-anchor:middle"
         id="flowPara103">왜 코모나가</flowPara><flowPara
         style="font-style:normal;font-variant:normal;font-weight:normal;font-stretch:normal;font-size:48px;font-family:'Xiaolai SC';-inkscape-font-specification:'Xiaolai SC';text-align:center;text-anchor:middle"
         id="flowPara105">보이는 거지?</flowPara></flowRoot>
    <flowRoot
       xml:space="preserve"
       id="flowRoot115"
       style="font-style:normal;font-variant:normal;font-weight:normal;font-stretch:normal;line-height:1.25;font-family:'Xiaolai SC';-inkscape-font-specification:'Xiaolai SC';letter-spacing:0px;word-spacing:0px;fill:#000000;fill-opacity:1;stroke:#000000;stroke-width:1.09165;stroke-miterlimit:4;stroke-dasharray:none;stroke-opacity:1"
       transform="matrix(1.02183,0,-0.09534866,1.0906893,702.92394,1871.4201)"><flowRegion
         id="flowRegion111"
         style="font-style:normal;font-variant:normal;font-weight:normal;font-stretch:normal;font-family:'Xiaolai SC';-inkscape-font-specification:'Xiaolai SC'"><rect
           id="rect109"
           width="293.92557"
           height="139.87151"
           x="120.55251"
           y="265.53046"
           style="font-style:normal;font-variant:normal;font-weight:normal;font-stretch:normal;font-family:'Xiaolai SC';-inkscape-font-specification:'Xiaolai SC';stroke:#000000;stroke-width:1.09165204;stroke-miterlimit:4;stroke-dasharray:none;stroke-opacity:1;" /></flowRegion><flowPara
         style="font-style:normal;font-variant:normal;font-weight:normal;font-stretch:normal;font-size:48px;font-family:'Xiaolai SC';-inkscape-font-specification:'Xiaolai SC';text-align:center;text-anchor:middle;stroke:#000000;stroke-width:1.09165;stroke-miterlimit:4;stroke-dasharray:none;stroke-opacity:1"
         id="flowPara113">코모나!</flowPara></flowRoot>
    <flowRoot
       xml:space="preserve"
       id="flowRoot123"
       style="font-style:normal;font-variant:normal;font-weight:normal;font-stretch:normal;line-height:1.25;font-family:'Xiaolai SC';-inkscape-font-specification:'Xiaolai SC';letter-spacing:0px;word-spacing:0px;fill:#000000;fill-opacity:1;stroke:none"
       transform="matrix(1.164062,0,0,1.1251524,974.7173,1826.4752)"><flowRegion
         id="flowRegion119"
         style="font-style:normal;font-variant:normal;font-weight:normal;font-stretch:normal;font-family:'Xiaolai SC';-inkscape-font-specification:'Xiaolai SC'"><rect
           id="rect117"
           width="309.18378"
           height="167.27036"
           x="120.55251"
           y="274.30832"
           style="font-style:normal;font-variant:normal;font-weight:normal;font-stretch:normal;font-family:'Xiaolai SC';-inkscape-font-specification:'Xiaolai SC';" /></flowRegion><flowPara
         style="font-style:normal;font-variant:normal;font-weight:normal;font-stretch:normal;font-size:48px;font-family:'Xiaolai SC';-inkscape-font-specification:'Xiaolai SC';text-align:center;text-anchor:middle"
         id="flowPara121">물藥大會! </flowPara></flowRoot>
    <flowRoot
       xml:space="preserve"
       id="flowRoot133"
       style="font-style:normal;font-variant:normal;font-weight:normal;font-stretch:normal;line-height:1.25;font-family:'Xiaolai SC';-inkscape-font-specification:'Xiaolai SC';letter-spacing:0px;word-spacing:0px;fill:#000000;fill-opacity:1;stroke:none"
       transform="matrix(0.79322614,0,0,0.80435355,1478.223,1938.0396)"><flowRegion
         id="flowRegion127"
         style="font-style:normal;font-variant:normal;font-weight:normal;font-stretch:normal;font-family:'Xiaolai SC';-inkscape-font-specification:'Xiaolai SC'"><rect
           id="rect125"
           width="554.99268"
           height="264.13297"
           x="120.55251"
           y="265.53046"
           style="font-style:normal;font-variant:normal;font-weight:normal;font-stretch:normal;font-family:'Xiaolai SC';-inkscape-font-specification:'Xiaolai SC';" /></flowRegion><flowPara
         style="font-style:normal;font-variant:normal;font-weight:normal;font-stretch:normal;font-size:48px;font-family:'Xiaolai SC';-inkscape-font-specification:'Xiaolai SC';text-align:center;text-anchor:middle"
         id="flowPara129">내가 失手로...</flowPara><flowPara
         style="font-style:normal;font-variant:normal;font-weight:normal;font-stretch:normal;font-size:48px;font-family:'Xiaolai SC';-inkscape-font-specification:'Xiaolai SC';text-align:center;text-anchor:middle"
         id="flowPara131">失手로 잠들었나 봐!*</flowPara></flowRoot>
    <flowRoot
       xml:space="preserve"
       id="flowRoot141"
       style="font-style:normal;font-variant:normal;font-weight:normal;font-stretch:normal;line-height:1.25;font-family:'Xiaolai SC';-inkscape-font-specification:'Xiaolai SC';letter-spacing:0px;word-spacing:0px;fill:#000000;fill-opacity:1;stroke:none"
       transform="matrix(0.78028994,0,0,0.90982674,1063.9931,2597.6994)"><flowRegion
         id="flowRegion137"
         style="font-style:normal;font-variant:normal;font-weight:normal;font-stretch:normal;font-family:'Xiaolai SC';-inkscape-font-specification:'Xiaolai SC'"><rect
           id="rect135"
           width="357.43549"
           height="179.76456"
           x="120.55251"
           y="265.53046"
           style="font-style:normal;font-variant:normal;font-weight:normal;font-stretch:normal;font-family:'Xiaolai SC';-inkscape-font-specification:'Xiaolai SC';" /></flowRegion><flowPara
         style="font-style:normal;font-variant:normal;font-weight:normal;font-stretch:normal;font-size:48px;font-family:'Xiaolai SC';-inkscape-font-specification:'Xiaolai SC';text-align:center;text-anchor:middle"
         id="flowPara139">...근데...</flowPara></flowRoot>
    <flowRoot
       xml:space="preserve"
       id="flowRoot151"
       style="font-style:normal;font-variant:normal;font-weight:normal;font-stretch:normal;line-height:1.25;font-family:'Xiaolai SC';-inkscape-font-specification:'Xiaolai SC';letter-spacing:0px;word-spacing:0px;fill:#000000;fill-opacity:1;stroke:none"
       transform="matrix(0.91763044,0,0,0.95083825,1432.823,2584.4655)"><flowRegion
         id="flowRegion145"
         style="font-style:normal;font-variant:normal;font-weight:normal;font-stretch:normal;font-family:'Xiaolai SC';-inkscape-font-specification:'Xiaolai SC'"><rect
           id="rect143"
           width="357.43549"
           height="179.76456"
           x="120.55251"
           y="265.53046"
           style="font-style:normal;font-variant:normal;font-weight:normal;font-stretch:normal;font-family:'Xiaolai SC';-inkscape-font-specification:'Xiaolai SC';" /></flowRegion><flowPara
         style="font-style:normal;font-variant:normal;font-weight:normal;font-stretch:normal;font-size:48px;font-family:'Xiaolai SC';-inkscape-font-specification:'Xiaolai SC';text-align:center;text-anchor:middle"
         id="flowPara147">여기가</flowPara><flowPara
         style="font-style:normal;font-variant:normal;font-weight:normal;font-stretch:normal;font-size:48px;font-family:'Xiaolai SC';-inkscape-font-specification:'Xiaolai SC';text-align:center;text-anchor:middle"
         id="flowPara149">어디야?!?</flowPara></flowRoot>
  </g>
</svg>
