<?xml version="1.0" encoding="UTF-8" standalone="no"?>
<svg
   xmlns:dc="http://purl.org/dc/elements/1.1/"
   xmlns:cc="http://creativecommons.org/ns#"
   xmlns:rdf="http://www.w3.org/1999/02/22-rdf-syntax-ns#"
   xmlns:svg="http://www.w3.org/2000/svg"
   xmlns="http://www.w3.org/2000/svg"
   xmlns:xlink="http://www.w3.org/1999/xlink"
   xmlns:sodipodi="http://sodipodi.sourceforge.net/DTD/sodipodi-0.dtd"
   xmlns:inkscape="http://www.inkscape.org/namespaces/inkscape"
   id="svg2"
   version="1.1"
   inkscape:version="1.0.2 (e86c870879, 2021-01-15)"
   width="2481"
   height="3503"
   sodipodi:docname="E06P08.svg">
  <metadata
     id="metadata8">
    <rdf:RDF>
      <cc:Work
         rdf:about="">
        <dc:format>image/svg+xml</dc:format>
        <dc:type
           rdf:resource="http://purl.org/dc/dcmitype/StillImage" />
        <dc:title />
      </cc:Work>
    </rdf:RDF>
  </metadata>
  <defs
     id="defs6">
    <filter
       color-interpolation-filters="sRGB"
       id="filter4375-4-1-1-15-1-3-3"
       inkscape:label="deevad outline effect">
      <feFlood
         id="feFlood4377-7-9-0-4-4-4-7"
         flood-opacity="1"
         flood-color="rgb(0,0,0)"
         result="flood" />
      <feComposite
         id="feComposite4379-3-8-8-6-0-7-4"
         in2="SourceGraphic"
         in="flood"
         operator="in"
         result="composite1" />
      <feMorphology
         id="feMorphology4393-1-0-49-8-2-7-3"
         operator="dilate"
         radius="0.69999999999999996"
         result="result3" />
      <feComposite
         id="feComposite4385-9-5-7-2-1-2-9"
         in2="result3"
         in="SourceGraphic"
         operator="over"
         result="composite2" />
    </filter>
    <filter
       color-interpolation-filters="sRGB"
       id="filter3639"
       inkscape:label="deevad outline effect">
      <feFlood
         id="feFlood3641"
         flood-opacity="1"
         flood-color="rgb(0,0,0)"
         result="flood" />
      <feComposite
         id="feComposite3643"
         in2="SourceGraphic"
         in="flood"
         operator="in"
         result="composite1" />
      <feMorphology
         id="feMorphology3645"
         operator="dilate"
         radius="0.69999999999999996"
         result="result3" />
      <feComposite
         id="feComposite3647"
         in2="result3"
         in="SourceGraphic"
         operator="over"
         result="composite2" />
    </filter>
    <filter
       color-interpolation-filters="sRGB"
       id="filter3649"
       inkscape:label="deevad outline effect">
      <feFlood
         id="feFlood3651"
         flood-opacity="1"
         flood-color="rgb(0,0,0)"
         result="flood" />
      <feComposite
         id="feComposite3653"
         in2="SourceGraphic"
         in="flood"
         operator="in"
         result="composite1" />
      <feMorphology
         id="feMorphology3655"
         operator="dilate"
         radius="0.69999999999999996"
         result="result3" />
      <feComposite
         id="feComposite3657"
         in2="result3"
         in="SourceGraphic"
         operator="over"
         result="composite2" />
    </filter>
  </defs>
  <sodipodi:namedview
     pagecolor="#ffffff"
     bordercolor="#666666"
     borderopacity="1"
     objecttolerance="10"
     gridtolerance="10"
     guidetolerance="10"
     inkscape:pageopacity="0"
     inkscape:pageshadow="2"
     inkscape:window-width="1920"
     inkscape:window-height="1022"
     id="namedview4"
     showgrid="false"
     inkscape:zoom="0.5"
     inkscape:cx="1214.7113"
     inkscape:cy="736.31532"
     inkscape:window-x="0"
     inkscape:window-y="28"
     inkscape:window-maximized="1"
     inkscape:current-layer="layer1"
     inkscape:document-rotation="0" />
  <g
     inkscape:groupmode="layer"
     id="layer2"
     inkscape:label="artwork"
     sodipodi:insensitive="true">
    <image
       sodipodi:absref="/home/cherry/Workspace/peppercarrot/webcomics/ep06_The-Potion-Contest/lang/gfx_Pepper-and-Carrot_by-David-Revoy_E06P08.png"
       xlink:href="../gfx_Pepper-and-Carrot_by-David-Revoy_E06P08.png"
       y="0"
       x="0"
       id="image10"
       height="3503"
       width="2481" />
  </g>
  <g
     inkscape:groupmode="layer"
     id="layer3"
     inkscape:label="speechbubbles" />
  <g
     inkscape:groupmode="layer"
     id="layer1"
     inkscape:label="txt">
    <path
       style="color:#000000;display:inline;overflow:visible;visibility:visible;fill:#ffffff;fill-opacity:1;fill-rule:nonzero;stroke:none;stroke-width:1px;marker:none;enable-background:accumulate"
       d="m 510.14762,1963.0629 c -14.01377,-46.3951 -40.00882,-95.7772 -45.79925,-144.3988 l -11.44029,45.6542 c -62.91152,-129.7986 -216.9307,-210.2683 -37.93418,5.9274 l 4.61436,-21.5395 c 6.85365,14.1808 24.60331,28.6882 28.47492,44.653 l 15.40082,-17.4241 c 13.28656,38.1411 31.12227,58.0858 46.68362,87.1278 z"
       id="path4032-9"
       inkscape:connector-curvature="0"
       sodipodi:nodetypes="cccccccc" />
    <path
       style="color:#000000;fill:#ffffff;fill-opacity:1;fill-rule:nonzero;stroke:none;stroke-width:1px;marker:none;visibility:visible;display:inline;overflow:visible;enable-background:accumulate"
       d="m 734.33747,2852.147 c 34.68316,-42.7494 111.27433,-68.3456 171.06944,-6.0348 45.90017,-4.9397 81.26643,-4.2641 125.92729,48.6318 -41.84055,-33.4484 -69.35796,-47.6353 -136.48501,-35.9449 -35.82358,-28.4476 -90.54377,-19.0565 -121.82817,39.1849 -31.28451,58.2414 -17.69437,44.59 -17.69437,44.59 l -30.80741,-73.5852 z"
       id="path5074-3-6"
       inkscape:connector-curvature="0"
       sodipodi:nodetypes="ccccsccc" />
    <path
       style="color:#000000;fill:#ffffff;fill-opacity:1;fill-rule:nonzero;stroke:none;stroke-width:1px;marker:none;visibility:visible;display:inline;overflow:visible;enable-background:accumulate"
       d="m 921.73639,1713.3647 c 38.32906,18.6277 26.56293,53.657 -17.25459,29.5292 30.4647,35.9116 50.91128,52.0261 35.37649,66.5249 113.16101,-28.688 40.12509,17.6202 12.35589,45.6958 25.2138,-11.1892 65.39632,-42.7141 50.24712,0.9326 8.0165,-2.0071 17.4491,-7.7553 21.4169,0.9326 10.2141,-5.9994 17.8025,-7.54 22.2405,-3.7303 10.0387,-10.9178 16.5252,-13.7923 16.4745,-1.865 9.4908,-8.9943 12.4136,-5.8987 14.827,-1.8652 16.2884,-19.3104 22.3718,-13.8628 28.8303,-9.3257 9.2223,-11.5941 20.0147,-8.9681 32.1252,5.5954 12.3911,-19.7186 25.706,-18.519 39.5387,-5.5954 4.0629,-4.8576 7.7526,-13.0937 13.1796,-5.5954 5.4916,-2.5937 10.9829,-9.2401 16.4744,-2.7977 57.96,-25.5257 83.2408,-3.9641 110.3791,14.921 15.1317,-8.3376 26.0358,-24.4528 51.8945,-13.0558 2.4173,-11.638 16.2824,-16.3634 40.3625,-14.9211 -24.6985,-14.0451 -25.9691,-22.0409 31.3015,-14.9211 -39.9179,-11.5016 -76.7041,-23.0032 -14.8271,-34.5049 -14.4922,-4.5662 -61.8613,6.1755 -9.8847,-48.4933 -36.9085,12.0657 -70.4145,15.2007 -80.7249,-33.5725 -19.9115,12.8266 -41.9579,19.1806 -59.3081,-10.2582 -15.8027,13.7936 -37.9137,10.4819 -49.4234,3.7302 -3.114,15.1069 -26.6303,38.2752 -58.4843,-3.7302 6.989,23.8751 1.6991,61.9029 -35.4201,-0.9326 -0.7362,10.9306 14.5493,70.3734 -88.9621,-0.9326 12.9121,47.8406 -21.4561,20.0035 -48.59972,3.7302 13.46032,29.9949 -6.7969,32.3145 -51.0709,14.9211 34.1543,28.4805 -0.96419,20.6172 -23.06429,19.584 z"
       id="path3549-2"
       inkscape:connector-curvature="0"
       sodipodi:nodetypes="ccccccccccccccccccccccccccccc" />
    <path
       style="color:#000000;display:inline;overflow:visible;visibility:visible;fill:#ffffff;fill-opacity:1;fill-rule:nonzero;stroke:none;stroke-width:1px;marker:none;enable-background:accumulate"
       d="m 680.18509,1756.655 c 70.98862,15.425 143.3438,30.5991 22.52133,81.2353 116.93805,-16.2519 46.6575,11.8906 18.96153,29.935 207.99506,-41.4052 76.00871,17.8474 26.67617,52.6287 45.95459,-14.8404 118.07893,-54.5176 93.46674,-2.3845 54.22531,-26.6335 139.27587,-74.8686 39.88186,-0.39 83.63367,-45.8924 85.49225,-41.119 41.03408,-5.9045 54.73639,-31.4082 64.10381,-25.9232 57.875,-6.5312 34.4697,-40.6127 42.0771,-22.5251 52.8277,-12.9095 16.1993,-14.208 36.4717,-11.8811 60.1634,4.3267 21.4291,-23.9364 46.274,1.4801 46.3901,24.3218 17.7056,-34.413 46.9931,-39.2878 74.3681,-0.9563 0.5347,-22.9435 0.1338,-71.9868 42.2341,-0.077 -11.0163,-65.7771 125.6593,-37.9895 191.5642,3.324 -38.7908,-48.2731 -5.741,-79.0486 74.6701,-56.8129 3.5475,-13.7886 28.934,-20.2784 73.8073,-20.2561 -47.0463,-14.7301 -50.0573,-24.0007 56.9662,-19.6293 -75.1269,-10.7004 -144.4331,-21.6174 -30.3604,-39.3597 -27.3067,-4.3417 -114.4761,11.5073 -22.3104,-56.0738 -67.6196,16.6752 -129.6403,22.6623 -152.7644,-33.7096 -35.9668,16.3899 -76.4269,25.3519 -111.0652,-7.9038 -28.2515,17.2375 -69.6164,14.8911 -91.5571,7.7849 -4.5609,17.8968 -46.3876,46.6403 -109.0039,-0.3202 14.9288,27.4604 8.1854,72.3351 -65.9088,1.3589 -0.4804,12.8442 32.7571,81.36 -165.42385,5.0624 27.88436,55.1004 -38.25429,24.8968 -90.02614,7.7278 27.45379,34.1756 -10.00854,38.2919 -93.71017,20.9969 65.79333,30.9716 -0.11782,24.1975 -41.27755,24.517 z"
       id="path3549"
       inkscape:connector-curvature="0"
       sodipodi:nodetypes="ccccccccccccccccccccccccccccc" />
    <path
       style="color:#000000;display:inline;overflow:visible;visibility:visible;fill:#ffffff;fill-opacity:1;fill-rule:nonzero;stroke:none;stroke-width:1px;marker:none;enable-background:accumulate"
       d="m 500.18592,426.349 c 25.84601,-34.48897 166.42489,-31.54474 213.19809,-16.60243 46.773,14.94213 64.17694,40.67597 66.35242,49.80737 2.17537,9.13132 -3.2632,51.46759 -27.19368,59.7689 -23.93035,8.30121 -92.45823,12.45182 -116.38871,12.45182 -23.93034,0 -100.32144,-5.2837 -119.6521,-17.43262 -18.49169,-11.62172 -42.16213,-53.50416 -16.31602,-87.99304 z"
       id="path3330"
       inkscape:connector-curvature="0"
       sodipodi:nodetypes="zsssssz" />
    <path
       style="color:#000000;display:inline;overflow:visible;visibility:visible;fill:#ffffff;fill-opacity:1;fill-rule:nonzero;stroke:none;stroke-width:1px;marker:none;enable-background:accumulate"
       d="m 498.6875,678.94382 c -7.84297,-55.88544 13.07161,-204.33105 173.85333,-192.10605 160.78158,12.22477 179.48831,76.9464 190.84644,103.03859 5.8404,17.32596 55.66875,134.53554 -70.69585,156.62481 C 664.79118,768.8589 537.90257,759.279 498.6875,678.94382 Z"
       id="path3525"
       inkscape:connector-curvature="0"
       sodipodi:nodetypes="cscsc" />
    <path
       style="color:#000000;display:inline;overflow:visible;visibility:visible;fill:#ffffff;fill-opacity:1;fill-rule:nonzero;stroke:none;stroke-width:1px;marker:none;enable-background:accumulate"
       d="m 852.84087,694.73851 c 42.51329,20.49356 123.80235,14.32923 138.26233,-30.35733 -49.15567,36.55167 -109.63609,20.90132 -120.75591,10.89767 -11.11981,-10.00366 -17.50642,19.45966 -17.50642,19.45966 z"
       id="path3978"
       inkscape:connector-curvature="0" />
    <path
       style="color:#000000;display:inline;overflow:visible;visibility:visible;fill:#ffffff;fill-opacity:1;fill-rule:nonzero;stroke:none;stroke-width:0.951019px;marker:none;enable-background:accumulate"
       d="m 1592.6007,822.71804 c 45.8104,-84.51337 272.2437,-77.2987 345.9163,-40.68337 73.6721,36.6149 98.6781,99.6743 101.098,122.05033 2.4199,22.37581 -11.4052,126.1186 -51.0008,146.4605 -39.5953,20.3417 -150.6411,30.5125 -189.2461,30.5125 -38.6051,0 -161.2101,-12.9474 -190.9451,-42.7177 -28.4445,-28.4784 -61.6328,-131.10909 -15.8223,-215.62226 z"
       id="path3330-3"
       inkscape:connector-curvature="0"
       sodipodi:nodetypes="zsssssz" />
    <path
       style="color:#000000;fill:#ffffff;fill-opacity:1;fill-rule:nonzero;stroke:none;stroke-width:1px;marker:none;visibility:visible;display:inline;overflow:visible;enable-background:accumulate"
       d="m 1441.4333,792.86046 c 1.8123,17.9111 3.4719,36.60072 12.514,52.57918 2.6665,4.48827 5.7379,8.94714 9.7431,12.29849 4.9422,2.55729 10.902,0.92324 14.9972,-2.48609 6.2588,-4.50938 10.9613,-11.84776 18.8831,-13.58596 5.7972,-1.12556 10.4379,3.16953 14.6457,6.42604 10.5623,8.51108 20.0337,18.50261 31.8998,25.28467 12.8634,8.50453 27.0155,16.51979 42.7488,17.47511 6.2316,0.27366 12.7888,-0.31154 18.2031,-3.68195 14.2818,-8.01643 24.173,-24.34511 22.834,-40.90808 -1.8569,-10.48428 -12.9332,-19.03038 -23.5991,-16.39316 -5.6511,1.30784 -9.507,6.21921 -11.5244,11.3814 -5.4816,8.7963 -15.7551,13.86937 -26.0014,13.88113 -8.456,0.14805 -16.8709,-2.36044 -24.0764,-6.73748 -11.3704,-3.36484 -18.2685,-13.64874 -26.3598,-21.52774 -3.7502,-3.54453 -7.9795,-7.06083 -13.0234,-8.42848 -7.6564,-0.23923 -13.3775,5.76673 -17.631,11.40618 -4.5368,5.70318 -9.1549,12.83128 -16.9484,14.04463 -5.2949,1.57023 -8.0628,-4.3141 -11.2198,-7.42808 -8.8564,-11.35341 -14.0534,-25.32791 -16.0433,-39.50562 -0.089,-1.36474 -0.067,-2.72787 -0.042,-4.09419 z"
       id="path4496"
       inkscape:connector-curvature="0"
       inkscape:transform-center-x="-99.717282"
       inkscape:transform-center-y="101.38562" />
    <path
       style="color:#000000;display:inline;overflow:visible;visibility:visible;fill:#ffffff;fill-opacity:1;fill-rule:nonzero;stroke:none;stroke-width:1px;marker:none;enable-background:accumulate"
       d="m 1661.1553,1088.6786 c 57.1679,-54.1945 375.6195,-60.7703 479.0755,-37.2905 103.4553,23.4795 126.9307,58.0798 131.7426,72.4286 4.8114,14.3486 7.8021,70.2249 -48.8836,98.1782 -43.5527,21.477 -208.2601,32.3456 -261.1912,32.3456 -52.9306,0 -221.8974,-8.3026 -264.6542,-27.393 -40.9013,-18.262 -93.2571,-84.0742 -36.0891,-138.2689 z"
       id="path3330-7"
       inkscape:connector-curvature="0"
       sodipodi:nodetypes="zsssssz" />
    <path
       style="color:#000000;fill:#ffffff;fill-opacity:1;fill-rule:nonzero;stroke:none;stroke-width:1px;marker:none;visibility:visible;display:inline;overflow:visible;enable-background:accumulate"
       d="m 799.55794,2061.6662 c 41.54476,-24.9583 79.49671,-56.3087 125.21587,-73.8403 l -43.51369,-5.8567 c 12.70794,-14.5474 33.04403,-20.2182 50.79008,-28.9032 l -26.26055,-7.9369 c 30.43962,-33.9774 70.07719,-50.7411 105.26895,-75.8248 l -46.93148,-10.2988 c -32.40962,29.4099 -59.34882,63.5475 -97.91175,87.6396 l 24.81802,10.2865 c -12.06842,10.1205 -24.58698,19.7921 -39.1159,27.4588 l 32.36116,10.2326 z"
       id="path4032"
       inkscape:connector-curvature="0"
       sodipodi:nodetypes="cccccccccccc" />
    <path
       style="fill:#ffffff;fill-opacity:1;stroke:none"
       d="m 834.84882,2883.6026 c -28.78194,-6.8708 -39.86465,-13.258 -34.71629,-17.1941 -11.80514,-1.9615 -16.405,-53.0973 -5.37616,-62.4448 0.73408,-0.984 5.88563,-3.9365 3.67174,-4.4272 -2.21377,-0.4907 -15.48178,0.9903 -17.7007,-0.9754 -2.21892,-1.9659 19.80671,-30.0034 16.85382,-30.9856 -2.95312,-0.9819 -48.71563,-5.0755 -58.31677,-9.4966 -9.60132,-4.421 -26.49188,7.0768 -29.44314,6.5863 3.4829,-14.2548 -30.22459,2.4724 -33.91331,1.9824 -3.68846,-0.4902 -10.37554,-15.2384 -14.06417,-15.7283 -3.68873,-0.4901 -20.62516,6.4014 -23.57642,5.9112 -2.95127,-0.4904 -1.51852,-12.7839 -5.20724,-13.2737 -3.68863,-0.4902 -19.87413,10.3348 -22.08801,9.8442 -2.21382,-0.4908 -10.40961,-25.0727 -14.10158,-26.5461 -3.69205,-1.4734 -27.19067,27.0565 -29.40124,27.5493 -2.21038,0.4927 -16.33721,-33.429 -19.28858,-33.9195 -2.95125,-0.4903 -17.618,23.1187 -19.83194,22.628 -2.21386,-0.4907 -16.27151,-14.2524 -19.22437,-15.2344 -2.95296,-0.982 -22.01722,30.496 -24.96671,30.4975 -2.94968,0 -28.06645,-13.2635 -30.28714,-15.721 -2.22062,-2.4575 -4.38037,12.7865 -7.32996,12.7879 -2.9496,0 -36.8999,-8.8341 -37.63573,-8.3421 -0.73563,0.4922 5.19559,9.832 2.98343,9.8331 -2.21216,0 -36.91174,-12.2763 -38.37824,-9.8169 -1.4662,2.4592 -75.25603,-12.2585 -80.41103,-10.2894 -5.155,1.9693 33.321,40.3052 29.6443,43.2571 -3.67687,2.952 -16.96194,-0.4839 -17.69421,0.9915 -0.73226,1.4756 8.13835,7.8637 5.9331,9.8316 -2.2056,1.9678 -27.24992,9.8467 -29.45355,12.306 -2.20381,2.4598 11.09119,8.8459 8.14677,10.3225 -2.94462,1.4765 -46.41879,10.8388 -47.14768,13.2977 -0.72889,2.4588 22.17066,14.2493 19.23298,17.6927 -2.93777,3.4433 -11.04403,4.9221 -10.29818,7.3804 0.74586,2.4583 14.76648,5.4021 14.03749,7.861 -0.72907,2.459 -8.06071,14.755 -10.26612,16.7229 -2.20543,1.9678 15.4886,0.9763 15.49535,2.9431 0.006,1.9669 11.70776,14.234 -28.19588,43.8839 61.30373,-22.9118 65.95135,-0.6303 90.29866,3.2922 24.34757,3.9227 14.84569,28.5125 18.53765,29.986 3.69208,1.4735 30.9419,-8.3732 34.64071,-4.933 3.69872,3.4405 5.19539,9.8319 8.14507,9.8306 2.94942,0 27.41761,-10.0372 31.10613,-9.5472 30.52071,-6.974 42.16312,15.227 36.02852,18.8592 5.16335,0.4893 25.04255,-8.3706 29.46527,-8.8643 4.42267,-0.4937 8.15173,11.7973 11.83536,10.8123 3.68363,-0.9849 27.24974,-9.8467 30.93993,-8.8649 3.69039,0.9818 6.65347,4.9141 9.59977,3.9292 2.94601,-0.9846 16.20569,-4.9244 16.20569,-4.9244 0,0 9.59619,2.9459 14.02054,2.9439 4.42432,0 21.06027,-12.4678 24.74388,-13.453 3.6836,-0.985 37.77994,4.329 53.63303,34.6438 -8.97279,-35.735 26.27189,-38.94 31.4286,-40.4175 5.15662,-1.4775 20.65716,2.9408 22.12668,1.465 1.46979,-1.4759 5.86712,-9.3451 10.28989,-9.8389 4.42267,-0.4937 14.73933,-2.4651 14.73933,-2.4651 l -1.4848,-2.9497 c 0,0 30.99734,7.8532 34.69448,10.8018 3.69703,2.9486 -2.2561,-12.7833 -4.48178,-16.7161 13.28642,3.9278 52.39697,12.269 55.35488,14.7262 2.95804,2.4572 -5.19192,-8.8486 -9.62817,-12.2885 5.90416,1.4726 11.06761,1.962 11.06761,1.962 l -17.0005,-11.7934 5.15844,-0.9858 c 0,0 -11.07941,-5.4039 -11.08788,-7.8625 -0.008,-2.4584 28.7396,-5.4219 28.7396,-5.4219 0,0 -11.81349,-4.42 -8.87239,-6.8798 2.94134,-2.46 10.3101,-3.9384 10.3101,-3.9384 l 1.45281,-6.3929 z"
       id="path5888"
       inkscape:connector-curvature="0"
       sodipodi:nodetypes="ccccccccccsccccsccccccsccsccscsccccscccscccccscccccsccccscccccccccccc" />
    <path
       style="fill:#ffffff;fill-opacity:1;stroke:none"
       d="m 1797.6547,3221.0213 c 57.9539,10.0559 38.4579,-29.1424 34.7663,-34.0012 14.1145,8.1536 38.1635,-0.8175 13.1478,-29.198 35.543,11.3918 18.1445,6.02 -2.5361,-24.5295 31.3071,15.5342 51.0494,5.7083 28.8113,-15.8279 31.9431,27.6918 43.1997,18.8512 22.8268,-15.5352 40.1702,35.6171 32.6532,22.2031 22.864,4.6146 33.453,32.1026 8.5922,-15.6704 11.1501,-15.929 2.5579,-0.2589 13.3816,8.408 15.4382,8.095 2.0564,-0.3129 2.321,-13.6711 4.879,-13.9298 2.558,-0.2589 12.4744,12.5937 14.0296,12.2266 6.0331,4.5107 12.3861,-23.2422 12.2656,-27.5889 -2.5716,3.7697 12.1585,34.6638 17.2187,31.8484 1.4536,0.6925 18.5822,-35.5723 16.5364,-35.1591 -3.8155,0.7704 7.7324,26.5651 11.2068,25.8438 2.7627,4.7786 14.1724,-7.0605 14.6097,-15.0197 -1.0747,2.2521 8.4082,37.8823 13.9057,34.7029 2.4813,6.6828 20.8385,-6.6134 22.1821,-14.7361 1.7579,-2.4872 1.6904,14.105 3.6961,14.3219 -3.5392,8.1765 22.2608,-1.4809 26.4362,-6.244 0.4508,0.5843 -2.4889,8.6896 -3.0199,10.3829 -2.862,9.1256 20.7253,0.9885 27.0896,-7.7798 -24.5447,43.7563 47.1014,0.8958 55.7233,-5.2187 3.3073,2.4998 -26.7232,41.0184 -24.5203,44.4695 2.2031,3.4512 11.5844,0.7174 11.9336,2.3624 0.3492,1.6442 -6.3273,7.8833 -5.026,10.1659 1.3017,2.2825 17.5398,12.6063 18.7907,15.4187 1.2508,2.8128 -8.4346,8.7264 -6.5808,10.5334 1.8538,1.807 30.476,15.0762 30.7239,17.7802 0.248,2.7041 -16.5139,13.7426 -14.8629,17.6694 1.6509,3.9269 7.0146,6.1133 6.2597,8.7091 -0.755,2.5957 -10.5869,4.7452 -10.339,7.4494 0.248,2.7042 3.9948,16.4961 5.2964,18.7785 1.3015,2.2828 -10.6319,-0.079 -10.8346,2.0412 -0.2074,2.1195 -32.0874,9.709 17.3123,49.5612 -53.6544,-25.4505 -47.3485,-5.6882 -64.302,-3.238 -16.9538,2.4504 -12.97,29.6546 -15.6293,30.9735 -2.6593,1.3187 -20.199,-11.2875 -23.0613,-7.8488 -2.8623,3.4387 -4.5242,10.2202 -6.5303,10.0032 -2.0056,-0.2155 -17.6345,-12.824 -20.1923,-12.5653 -20.0538,-9.7479 -30.209,13.336 -26.4031,17.7 -3.5608,0.1504 -16.1875,-10.8537 -19.1455,-11.709 -2.958,-0.8554 -6.7329,12.1231 -9.1387,10.7921 -2.4059,-1.331 -17.5397,-12.6064 -20.1482,-11.8174 -2.6089,0.7888 -5.0203,4.8119 -6.9247,3.5346 -1.9044,-1.2766 -10.5249,-6.4927 -10.5249,-6.4927 0,0 -6.8232,2.475 -9.8318,2.1496 -3.0089,-0.3232 -21.8951,-20.0382 -24.3008,-21.3694 -2.406,-1.3311 -44.5259,26.3975 -43.3257,29.7402 1.2001,3.3428 -1.7546,-35.151 -5.1127,-37.1206 -3.3579,-1.9696 -14.3449,1.6615 -15.1955,-0.037 -0.8509,-1.6984 -3.0484,-10.5033 -6.0064,-11.3588 -2.9581,-0.8554 -9.7755,-3.7344 -9.7755,-3.7344 l 1.3071,-3.0717 c 0,0 -21.8724,6.2022 -24.6838,9.111 -2.8116,2.9086 2.8227,-13.6169 4.7328,-17.6943 -9.4318,3.2641 -36.871,9.3995 -39.1301,11.8325 -2.2595,2.4329 4.4225,-9.1603 7.7863,-12.5448 -4.1636,1.1563 -7.7246,1.3067 -7.7246,1.3067 l 12.7504,-11.4724 -3.409,-1.4395 c 0,0 8.0797,-5.0166 8.3331,-7.6666 0.2568,-2.6494 -18.9987,-7.9447 -18.9987,-7.9447 58.8357,1.4697 16.1658,-18.0658 -6.7951,-24.2961 z"
       id="path5888-2"
       inkscape:connector-curvature="0"
       sodipodi:nodetypes="ccccccccsccccsccccccsccsccscsccccscccscccccscccccsccccsccccccccc" />
    <path
       style="color:#000000;fill:#ffffff;fill-opacity:1;fill-rule:nonzero;stroke:none;stroke-width:1px;marker:none;visibility:visible;display:inline;overflow:visible;enable-background:accumulate"
       d="m 1949.2127,3186.2754 c -39.3897,38.4564 -118.4251,55.0326 -170.6211,-13.769 -46.1636,-0.3962 -81.2149,-5.1531 -119.4658,-62.8545 37.6962,38.0583 63.3903,55.3293 131.4185,51.4723 32.2972,32.3957 87.7359,29.3893 125.5394,-24.8478 37.8036,-54.2372 22.7273,-42.2473 22.7273,-42.2473 l 22.0999,76.6516 z"
       id="path5074-3"
       inkscape:connector-curvature="0"
       sodipodi:nodetypes="ccccsccc" />
    <path
       style="color:#000000;display:inline;overflow:visible;visibility:visible;fill:#ffffff;fill-opacity:1;fill-rule:nonzero;stroke:none;stroke-width:1px;marker:none;enable-background:accumulate"
       d="m 406.08001,1589.2705 c -3.94008,12.0585 -25.39102,50.6462 -32.42385,13.808 -36.10835,56.9643 -77.46948,47.2261 -118.53193,41.2791 -8.11593,16.6421 -6.04714,39.3259 -40.00537,40.6382 6.77653,13.5602 -2.94297,25.7265 -27.38161,36.6495 34.90934,2.0885 42.4028,9.8895 -18.61088,31.9653 47.64896,-8.47 92.26677,-15.3211 41.38111,28.8338 17.60506,-2.662 55.04266,-38.5128 47.55458,46.1857 26.275,-31.8437 56.25209,-52.4812 104.4378,-6.2197 9.22645,-23.8615 25.58936,-41.98 65.44427,-19.8094 4.49175,-22.7603 47.15714,-33.0197 63.58693,-31.8279 -35.3278,-17.4701 -36.39927,-32.4555 6.49659,-43.3111 -78.78384,-28.4923 -18.5894,-33.7655 -8.49652,-46.9456 -59.09188,-3.4933 -36.31208,-26.8904 -28.85947,-47.1929 -65.52394,12.33 -48.40932,-21.2424 -54.59165,-44.053 z"
       id="path3549-3"
       inkscape:connector-curvature="0"
       sodipodi:nodetypes="ccccccccccccccc" />
    <flowRoot
       xml:space="preserve"
       id="flowRoot4133-6-9-4-8-5-3"
       style="color:#000000;font-style:normal;font-variant:normal;font-weight:normal;font-stretch:normal;line-height:0.01%;font-family:Arial;-inkscape-font-specification:Arial;letter-spacing:0.00204969px;word-spacing:0px;display:inline;overflow:visible;visibility:visible;fill:#ffffff;fill-opacity:1;fill-rule:nonzero;stroke:#ffffff;stroke-width:0.0910482;stroke-linecap:butt;stroke-linejoin:miter;stroke-miterlimit:4;stroke-dasharray:none;stroke-dashoffset:0;stroke-opacity:1;marker:none;filter:url(#filter4375-4-1-1-15-1-3-3);enable-background:accumulate"
       transform="matrix(8.3099216,-5.4900388,-0.26452567,16.18078,-7093.1327,-9087.3999)"><flowRegion
         id="flowRegion4135-2-9-3-5-2-6"
         style="stroke-width:0.866467"><rect
           id="rect4137-1-7-1-2-1-4"
           width="200.00224"
           height="39.051064"
           x="1125.3193"
           y="1078.5308"
           style="color:#000000;letter-spacing:0.00204969px;display:inline;overflow:visible;visibility:visible;fill:#ffffff;fill-opacity:1;fill-rule:nonzero;stroke:#ffffff;stroke-width:0.09104824;stroke-linecap:butt;stroke-linejoin:miter;stroke-miterlimit:4;stroke-dasharray:none;stroke-dashoffset:0;stroke-opacity:1;marker:none;filter:url(#filter4375-4-1-1-15-1-3-3);enable-background:accumulate;" /></flowRegion><flowPara
         id="flowPara4139-2-8-6-8-6-3"
         style="color:#000000;font-style:normal;font-variant:normal;font-weight:normal;font-stretch:normal;font-size:17.8541px;line-height:125%;font-family:'Nanum Pen Script OTF';-inkscape-font-specification:'Nanum Pen Script OTF';letter-spacing:0.00204969px;word-spacing:0.00204969px;display:inline;overflow:visible;visibility:visible;fill:#ffffff;fill-opacity:1;fill-rule:nonzero;stroke:#ffffff;stroke-width:0.0910482;stroke-linecap:butt;stroke-linejoin:miter;stroke-miterlimit:4;stroke-dasharray:none;stroke-dashoffset:0;stroke-opacity:1;marker:none;filter:url(#filter4375-4-1-1-15-1-3-3);enable-background:accumulate"><flowSpan
           style="stroke-width:0.0991515"
           id="flowSpan3426">쩌</flowSpan><flowSpan
           style="font-size:15.1739px;stroke-width:0.0910482"
           id="flowSpan3434">저</flowSpan><flowSpan
           style="font-size:11.7056px;stroke-width:0.0910482"
           id="flowSpan3436">적!</flowSpan></flowPara></flowRoot>
    <flowRoot
       xml:space="preserve"
       id="flowRoot91"
       style="font-style:normal;font-variant:normal;font-weight:normal;font-stretch:normal;line-height:1.25;font-family:'Xiaolai SC';-inkscape-font-specification:'Xiaolai SC';text-align:center;letter-spacing:0px;word-spacing:0px;text-anchor:middle;fill:#000000;fill-opacity:1;stroke:none"
       transform="matrix(0.96905924,0,0,0.96905924,418.29889,287.10838)"><flowRegion
         id="flowRegion87"
         style="font-style:normal;font-variant:normal;font-weight:normal;font-stretch:normal;font-family:'Xiaolai SC';-inkscape-font-specification:'Xiaolai SC'"><rect
           id="rect85"
           width="315.85901"
           height="230.63199"
           x="120.55251"
           y="265.53046"
           style="font-style:normal;font-variant:normal;font-weight:normal;font-stretch:normal;font-family:'Xiaolai SC';-inkscape-font-specification:'Xiaolai SC';text-align:center;text-anchor:middle" /></flowRegion><flowPara
         style="font-style:normal;font-variant:normal;font-weight:normal;font-stretch:normal;font-size:48px;font-family:'Xiaolai SC';-inkscape-font-specification:'Xiaolai SC';text-align:center;text-anchor:middle"
         id="flowPara89">... 이番에도 우리次例에</flowPara><flowPara
         style="font-style:normal;font-variant:normal;font-weight:normal;font-stretch:normal;font-size:48px;font-family:'Xiaolai SC';-inkscape-font-specification:'Xiaolai SC';text-align:center;text-anchor:middle"
         id="flowPara161">다들 떠나잖아</flowPara></flowRoot>
    <flowRoot
       transform="matrix(1.0111574,0,0,1.0111574,210.05102,165.21604)"
       style="font-style:normal;font-variant:normal;font-weight:normal;font-stretch:normal;line-height:1.25;font-family:'Xiaolai SC';-inkscape-font-specification:'Xiaolai SC';text-align:center;letter-spacing:0px;word-spacing:0px;text-anchor:middle;fill:#000000;fill-opacity:1;stroke:none"
       id="flowRoot99"
       xml:space="preserve"><flowRegion
         id="flowRegion95"
         style="font-style:normal;font-variant:normal;font-weight:normal;font-stretch:normal;font-family:'Xiaolai SC';-inkscape-font-specification:'Xiaolai SC'"><rect
           style="font-style:normal;font-variant:normal;font-weight:normal;font-stretch:normal;font-family:'Xiaolai SC';-inkscape-font-specification:'Xiaolai SC';text-align:center;text-anchor:middle;"
           y="265.53046"
           x="120.55251"
           height="310.73996"
           width="602.40173"
           id="rect93" /></flowRegion><flowPara
         id="flowPara97"
         style="font-style:normal;font-variant:normal;font-weight:normal;font-stretch:normal;font-size:48px;font-family:'Xiaolai SC';-inkscape-font-specification:'Xiaolai SC';text-align:center;text-anchor:middle">이것 봐...</flowPara></flowRoot>
    <flowRoot
       xml:space="preserve"
       id="flowRoot109"
       style="font-style:normal;font-variant:normal;font-weight:normal;font-stretch:normal;line-height:1.25;font-family:'Xiaolai SC';-inkscape-font-specification:'Xiaolai SC';text-align:center;letter-spacing:0px;word-spacing:0px;text-anchor:middle;fill:#000000;fill-opacity:1;stroke:none"
       transform="matrix(0.92506487,0,0,0.92506487,1482.7427,572.08605)"><flowRegion
         id="flowRegion103"
         style="font-style:normal;font-variant:normal;font-weight:normal;font-stretch:normal;font-family:'Xiaolai SC';-inkscape-font-specification:'Xiaolai SC'"><rect
           id="rect101"
           width="432.25272"
           height="249.5233"
           x="120.55251"
           y="265.53046"
           style="font-style:normal;font-variant:normal;font-weight:normal;font-stretch:normal;font-family:'Xiaolai SC';-inkscape-font-specification:'Xiaolai SC';text-align:center;text-anchor:middle" /></flowRegion><flowPara
         style="font-style:normal;font-variant:normal;font-weight:normal;font-stretch:normal;font-size:48px;font-family:'Xiaolai SC';-inkscape-font-specification:'Xiaolai SC';text-align:center;text-anchor:middle"
         id="flowPara105">그래도 네가 들고 온</flowPara><flowPara
         style="font-style:normal;font-variant:normal;font-weight:normal;font-stretch:normal;font-size:48px;font-family:'Xiaolai SC';-inkscape-font-specification:'Xiaolai SC';text-align:center;text-anchor:middle"
         id="flowPara175">&quot;물藥&quot;을使用할</flowPara><flowPara
         style="font-style:normal;font-variant:normal;font-weight:normal;font-stretch:normal;font-size:48px;font-family:'Xiaolai SC';-inkscape-font-specification:'Xiaolai SC';text-align:center;text-anchor:middle"
         id="flowPara177">方道는 알 것 같아, 당근아</flowPara></flowRoot>
    <flowRoot
       xml:space="preserve"
       id="flowRoot119"
       style="font-style:normal;font-variant:normal;font-weight:normal;font-stretch:normal;line-height:1.25;font-family:'Xiaolai SC';-inkscape-font-specification:'Xiaolai SC';text-align:center;letter-spacing:0px;word-spacing:0px;text-anchor:middle;fill:#000000;fill-opacity:1;stroke:none"
       transform="matrix(0.9699365,0,0,0.9699365,1545.4458,836.38897)"><flowRegion
         id="flowRegion113"
         style="font-style:normal;font-variant:normal;font-weight:normal;font-stretch:normal;font-family:'Xiaolai SC';-inkscape-font-specification:'Xiaolai SC'"><rect
           id="rect111"
           width="602.40173"
           height="310.73996"
           x="120.55251"
           y="265.53046"
           style="font-style:normal;font-variant:normal;font-weight:normal;font-stretch:normal;font-family:'Xiaolai SC';-inkscape-font-specification:'Xiaolai SC';text-align:center;text-anchor:middle;" /></flowRegion><flowPara
         style="font-style:normal;font-variant:normal;font-weight:normal;font-stretch:normal;font-size:48px;font-family:'Xiaolai SC';-inkscape-font-specification:'Xiaolai SC';text-align:center;text-anchor:middle"
         id="flowPara115">... 어서 이事態를解決하고</flowPara><flowPara
         style="font-style:normal;font-variant:normal;font-weight:normal;font-stretch:normal;font-size:48px;font-family:'Xiaolai SC';-inkscape-font-specification:'Xiaolai SC';text-align:center;text-anchor:middle"
         id="flowPara117">집으로 가자!</flowPara></flowRoot>
    <flowRoot
       xml:space="preserve"
       id="flowRoot129"
       style="font-style:normal;font-variant:normal;font-weight:normal;font-stretch:normal;line-height:1.25;font-family:'Xiaolai SC';-inkscape-font-specification:'Xiaolai SC';text-align:center;letter-spacing:0px;word-spacing:0px;text-anchor:middle;fill:#000000;fill-opacity:1;stroke:none;stroke-width:0.836195"
       transform="matrix(0.67015508,0,0,0.67015508,178.11585,926.87101)"><flowRegion
         id="flowRegion123"
         style="font-style:normal;font-variant:normal;font-weight:normal;font-stretch:normal;font-family:'Xiaolai SC';-inkscape-font-specification:'Xiaolai SC'"><rect
           id="rect121"
           width="901.58209"
           height="465.06769"
           x="94.23513"
           y="2792.457"
           style="font-style:normal;font-variant:normal;font-weight:normal;font-stretch:normal;font-family:'Xiaolai SC';-inkscape-font-specification:'Xiaolai SC';text-align:center;text-anchor:middle;stroke-width:0.83619505;" /></flowRegion><flowPara
         style="font-style:normal;font-variant:normal;font-weight:normal;font-stretch:normal;font-size:71.839px;font-family:'Xiaolai SC';-inkscape-font-specification:'Xiaolai SC';text-align:center;letter-spacing:2.24497px;text-anchor:middle;stroke:#000000;stroke-width:0.787425;stroke-miterlimit:4;stroke-dasharray:none;stroke-opacity:1"
         id="flowPara125">내 마지막 물藥</flowPara><flowPara
         style="font-style:normal;font-variant:normal;font-weight:normal;font-stretch:normal;font-size:71.839px;font-family:'Xiaolai SC';-inkscape-font-specification:'Xiaolai SC';text-align:center;letter-spacing:2.24497px;text-anchor:middle;stroke:#000000;stroke-width:0.787425;stroke-miterlimit:4;stroke-dasharray:none;stroke-opacity:1"
         id="flowPara127">한番 먹어 볼래?...</flowPara></flowRoot>
    <flowRoot
       xml:space="preserve"
       id="flowRoot139"
       style="font-style:normal;font-variant:normal;font-weight:normal;font-stretch:normal;line-height:1.25;font-family:'Xiaolai SC';-inkscape-font-specification:'Xiaolai SC';text-align:center;letter-spacing:0px;word-spacing:0px;text-anchor:middle;fill:#000000;fill-opacity:1;stroke:none;stroke-width:0.72171"
       transform="matrix(1.150928,0,0,1.150928,1531.5581,2840.6988)"><flowRegion
         id="flowRegion133"
         style="font-style:normal;font-variant:normal;font-weight:normal;font-stretch:normal;font-family:'Xiaolai SC';-inkscape-font-specification:'Xiaolai SC'"><rect
           id="rect131"
           width="602.40173"
           height="310.73996"
           x="120.55251"
           y="265.53046"
           style="font-style:normal;font-variant:normal;font-weight:normal;font-stretch:normal;font-family:'Xiaolai SC';-inkscape-font-specification:'Xiaolai SC';text-align:center;text-anchor:middle;stroke-width:0.72170995;" /></flowRegion><flowPara
         style="font-style:normal;font-variant:normal;font-weight:normal;font-stretch:normal;font-size:48px;font-family:'Xiaolai SC';-inkscape-font-specification:'Xiaolai SC';text-align:center;letter-spacing:1.5px;text-anchor:middle;stroke:#000000;stroke-width:0.72171;stroke-miterlimit:4;stroke-dasharray:none;stroke-opacity:1"
         id="flowPara135">... 그래,</flowPara><flowPara
         style="font-style:normal;font-variant:normal;font-weight:normal;font-stretch:normal;font-size:48px;font-family:'Xiaolai SC';-inkscape-font-specification:'Xiaolai SC';text-align:center;letter-spacing:1.5px;text-anchor:middle;stroke:#000000;stroke-width:0.72171;stroke-miterlimit:4;stroke-dasharray:none;stroke-opacity:1"
         id="flowPara137">싫지?</flowPara></flowRoot>
    <flowRoot
       transform="matrix(1.7975492,0,-0.17465806,1.8489896,-538.58015,1176.7604)"
       style="font-style:normal;font-variant:normal;font-weight:normal;font-stretch:normal;line-height:1.25;font-family:'Xiaolai SC';-inkscape-font-specification:'Xiaolai SC';text-align:center;letter-spacing:0px;word-spacing:0px;text-anchor:middle;fill:#000000;fill-opacity:1;stroke:#000000;stroke-width:0.452314;stroke-miterlimit:4;stroke-dasharray:none;stroke-opacity:1"
       id="flowRoot147"
       xml:space="preserve"><flowRegion
         id="flowRegion143"
         style="font-style:normal;font-variant:normal;font-weight:normal;font-stretch:normal;font-family:'Xiaolai SC';-inkscape-font-specification:'Xiaolai SC'"><rect
           style="font-style:normal;font-variant:normal;font-weight:normal;font-stretch:normal;font-family:'Xiaolai SC';-inkscape-font-specification:'Xiaolai SC';text-align:center;text-anchor:middle;stroke:#000000;stroke-width:0.4523142;stroke-miterlimit:4;stroke-dasharray:none;stroke-opacity:1;"
           y="265.53046"
           x="120.55251"
           height="355.03918"
           width="798.1947"
           id="rect141" /></flowRegion><flowPara
         style="font-style:normal;font-variant:normal;font-weight:normal;font-stretch:normal;font-size:48px;font-family:'Xiaolai SC';-inkscape-font-specification:'Xiaolai SC';text-align:center;letter-spacing:1.4522px;text-anchor:middle;stroke:#000000;stroke-width:0.452314;stroke-miterlimit:4;stroke-dasharray:none;stroke-opacity:1"
         id="flowPara145">야!</flowPara></flowRoot>
    <text
       xml:space="preserve"
       style="font-style:normal;font-variant:normal;font-weight:normal;font-stretch:normal;font-size:9.09338px;line-height:1.25;font-family:'Xiaolai SC';-inkscape-font-specification:'Xiaolai SC';letter-spacing:0px;word-spacing:0px;fill:#000000;fill-opacity:1;stroke:none;stroke-width:0.757782px;stroke-linecap:butt;stroke-linejoin:miter;stroke-opacity:1"
       x="1151.3518"
       y="1765.9517"
       id="text151"><tspan
         sodipodi:role="line"
         id="tspan149"
         x="1151.3518"
         y="1765.9517"
         style="font-style:normal;font-variant:normal;font-weight:normal;font-stretch:normal;font-size:54.8852px;font-family:'Xiaolai SC';-inkscape-font-specification:'Xiaolai SC';stroke-width:0.757782px">이</tspan></text>
    <flowRoot
       transform="matrix(1.0344715,0,-0.10051397,1.2673644,636.63047,1420.4571)"
       style="font-style:normal;font-variant:normal;font-weight:normal;font-stretch:normal;line-height:1.25;font-family:'Xiaolai SC';-inkscape-font-specification:'Xiaolai SC';text-align:center;letter-spacing:0px;word-spacing:0px;text-anchor:middle;fill:#000000;fill-opacity:1;stroke:#000000;stroke-width:1.41268;stroke-miterlimit:4;stroke-dasharray:none;stroke-opacity:1"
       id="flowRoot159"
       xml:space="preserve"><flowRegion
         id="flowRegion155"
         style="font-style:normal;font-variant:normal;font-weight:normal;font-stretch:normal;font-family:'Xiaolai SC';-inkscape-font-specification:'Xiaolai SC'"><rect
           style="font-style:normal;font-variant:normal;font-weight:normal;font-stretch:normal;font-family:'Xiaolai SC';-inkscape-font-specification:'Xiaolai SC';text-align:center;text-anchor:middle;stroke:#000000;stroke-width:1.41267733;stroke-miterlimit:4;stroke-dasharray:none;stroke-opacity:1;"
           y="284.74136"
           x="84.744102"
           height="333.9072"
           width="914.18988"
           id="rect153" /></flowRegion><flowPara
         style="font-style:normal;font-variant:normal;font-weight:normal;font-stretch:normal;font-size:48px;font-family:'Xiaolai SC';-inkscape-font-specification:'Xiaolai SC';text-align:center;letter-spacing:5.20896px;text-anchor:middle;stroke:#000000;stroke-width:1.41268;stroke-miterlimit:4;stroke-dasharray:none;stroke-opacity:1"
         id="flowPara157">超大型-貴族-좀비-金絲鳥야!</flowPara></flowRoot>
  </g>
</svg>
