<?xml version="1.0" encoding="UTF-8" standalone="no"?>
<svg
   xmlns:dc="http://purl.org/dc/elements/1.1/"
   xmlns:cc="http://creativecommons.org/ns#"
   xmlns:rdf="http://www.w3.org/1999/02/22-rdf-syntax-ns#"
   xmlns:svg="http://www.w3.org/2000/svg"
   xmlns="http://www.w3.org/2000/svg"
   xmlns:xlink="http://www.w3.org/1999/xlink"
   xmlns:sodipodi="http://sodipodi.sourceforge.net/DTD/sodipodi-0.dtd"
   xmlns:inkscape="http://www.inkscape.org/namespaces/inkscape"
   sodipodi:docname="E35P09.svg"
   height="3503"
   width="2481"
   inkscape:version="0.92.5 (2060ec1f9f, 2020-04-08)"
   version="1.1"
   id="svg2">
  <metadata
     id="metadata8">
    <rdf:RDF>
      <cc:Work
         rdf:about="">
        <dc:format>image/svg+xml</dc:format>
        <dc:type
           rdf:resource="http://purl.org/dc/dcmitype/StillImage" />
        <dc:title />
      </cc:Work>
    </rdf:RDF>
  </metadata>
  <defs
     id="defs6">
    <filter
       height="1.0039616"
       width="1.024925"
       y="-0.0012978443"
       x="-0.02"
       inkscape:label="soundFX1"
       id="filter4375-4-1-1-1-9-5-8-8-5-5-3-3"
       style="color-interpolation-filters:sRGB">
      <feFlood
         result="flood"
         flood-color="rgb(52,52,52)"
         flood-opacity="1"
         id="feFlood4377-7-9-0-8-1-7-3-1-2-7-6-6" />
      <feComposite
         baseFrequency="0.053999999999999999 0.053999999999999999"
         result="composite1"
         operator="in"
         in="flood"
         in2="SourceGraphic"
         id="feComposite4379-3-8-8-2-77-4-1-0-6-4-7-7" />
      <feMorphology
         result="result3"
         radius="4.0330969769021738"
         operator="dilate"
         id="feMorphology4393-1-0-49-8-9-3-0-1-9-9-5-5" />
      <feComposite
         result="fbSourceGraphic"
         operator="over"
         in="SourceGraphic"
         in2="result3"
         id="feComposite4385-9-5-7-0-8-8-7-5-4-9-3-3" />
      <feColorMatrix
         id="feColorMatrix4544-9-4-4-5-5"
         values="0 0 0 -1 0 0 0 0 -1 0 0 0 0 -1 0 0 0 0 1 0"
         in="fbSourceGraphic"
         result="fbSourceGraphicAlpha" />
      <feTurbulence
         result="turbulence"
         baseFrequency="0.053999999999999999 0.054054054054054057"
         seed="147"
         numOctaves="4"
         type="fractalNoise"
         id="feTurbulence4546-3-6-5-6-6" />
      <feDisplacementMap
         result="fbSourceGraphic"
         xChannelSelector="R"
         yChannelSelector="G"
         scale="10.561763"
         in="fbSourceGraphic"
         in2="turbulence"
         id="feDisplacementMap4548-8-0-9-2-2" />
      <feColorMatrix
         id="feColorMatrix4670-7-7-3-9-9"
         values="0 0 0 -1 0 0 0 0 -1 0 0 0 0 -1 0 0 0 0 1 0"
         in="fbSourceGraphic"
         result="fbSourceGraphicAlpha" />
      <feFlood
         in="fbSourceGraphic"
         result="flood"
         flood-color="rgb(28,28,28)"
         flood-opacity="1"
         id="feFlood4672-4-4-5-1-1" />
      <feComposite
         result="composite1"
         operator="in"
         in="flood"
         in2="fbSourceGraphic"
         id="feComposite4674-8-3-7-2-2" />
      <feGaussianBlur
         result="blur"
         stdDeviation="0"
         in="composite1"
         id="feGaussianBlur4676-3-7-08-7-7" />
      <feOffset
         result="offset"
         dy="0.39217365321829334"
         dx="-10.48377497279229"
         id="feOffset4678-6-9-1-0-0" />
      <feComposite
         result="composite2"
         operator="over"
         in="fbSourceGraphic"
         in2="offset"
         id="feComposite4680-4-0-9-9-9" />
    </filter>
  </defs>
  <sodipodi:namedview
     inkscape:pagecheckerboard="0"
     inkscape:snap-global="false"
     inkscape:document-rotation="0"
     inkscape:current-layer="layer3"
     inkscape:window-maximized="1"
     inkscape:window-y="27"
     inkscape:window-x="0"
     inkscape:cy="1937.3754"
     inkscape:cx="1355.2865"
     inkscape:zoom="0.34782609"
     showgrid="false"
     id="namedview4"
     inkscape:window-height="704"
     inkscape:window-width="1366"
     inkscape:pageshadow="2"
     inkscape:pageopacity="0"
     guidetolerance="10"
     gridtolerance="10"
     objecttolerance="10"
     borderopacity="1"
     bordercolor="#666666"
     pagecolor="#ffffff" />
  <g
     sodipodi:insensitive="true"
     inkscape:label="artwork"
     id="layer2"
     inkscape:groupmode="layer">
    <image
       sodipodi:absref="/home/juanjo/Comics/lang-ep-35/es/../gfx_Pepper-and-Carrot_by-David-Revoy_E35P09.png"
       xlink:href="../gfx_Pepper-and-Carrot_by-David-Revoy_E35P09.png"
       y="0"
       x="0"
       id="image10"
       height="3503"
       width="2481" />
  </g>
  <g
     inkscape:label="speechbubbles"
     id="layer3"
     inkscape:groupmode="layer">
    <path
       sodipodi:nodetypes="cccccccccccccccccccccccc"
       inkscape:connector-curvature="0"
       id="path4289-9-2"
       d="m 256.14108,814.38125 c 56.36486,13.12958 60.52354,24.23792 10.24495,33.23954 54.04957,4.09246 44.68452,10.95001 20.52769,18.45118 79.79395,40.40127 69.78217,71.34297 57.6582,102.06212 67.13962,-19.49539 75.12657,2.16338 74.80345,23.34222 19.30759,-29.97327 43.41771,-13.89562 41.72036,12.16329 19.98489,-30.19616 47.81677,-45.70038 49.98643,-15.55465 24.94366,-24.27406 24.10555,-34.33732 51.60072,-27.43044 39.77196,-30.04752 67.54153,4.07493 99.19006,17.45682 3.37233,-30.18086 24.64777,-32.90467 51.63116,-26.87305 8.60592,-13.38319 12.96092,-32.15342 50.94019,-8.30877 1.14363,-24.77738 21.18865,-9.03127 35.42549,-5.73833 -19.42189,-12.31681 7.39016,-18.57917 87.38306,-17.87959 -32.00554,-4.55937 -50.83721,-27.77411 5.6674,-50.78848 -77.85999,14.49855 -51.70328,-2.82895 -31.09856,-21.02165 -57.87322,-19.52935 -11.5793,-47.15383 8.72285,-72.75806 -58.03879,16.01187 -132.36641,20.72347 -110.30844,-15.48361 -73.27164,34.4931 -65.04391,18.35889 -60.53214,4.53281 -41.53397,37.48512 -45.74867,8.08614 -61.07675,-1.39584 -126.17974,52.74884 -131.37942,10.54099 -164.88162,-9.45209 0.33492,48.85578 -32.71842,32.96535 -65.9099,16.80787 10.77225,40.36146 -9.38018,30.15787 -28.88605,21.01189 2.01237,17.65047 -13.59986,24.2572 -52.97495,15.97278 29.56512,11.94797 14.01571,15.87107 -69.8336,7.64404 z"
       style="display:inline;fill:#ffffff;fill-rule:evenodd;stroke:none;stroke-width:1.32238448px;stroke-linecap:butt;stroke-linejoin:miter;stroke-opacity:1" />
    <path
       sodipodi:nodetypes="cccc"
       id="path1881"
       d="M 963.27671,1015.5732 C 855.1456,974.16786 728.54706,920.87912 712.01736,938.41898 l -4.63952,-34.71076 c 24.01825,-8.63206 180.13442,72.14698 255.89887,111.86498 z"
       style="display:inline;fill:#ffffff;fill-rule:evenodd;stroke:none;stroke-width:0.988989px;stroke-linecap:butt;stroke-linejoin:miter;stroke-opacity:1" />
    <text
       inkscape:transform-center-y="-49.154777"
       inkscape:transform-center-x="-7.7973551"
       y="1440.271"
       x="662.92181"
       transform="matrix(0.6234491,0.267428,-0.65521393,1.0449346,2153.6335,-849.35717)"
       id="text4580-6-0-0-0-9-3-3"
       style="font-style:normal;font-variant:normal;font-weight:normal;font-stretch:normal;font-size:145.67500305px;line-height:1.25;font-family:Lavi;-inkscape-font-specification:Lavi;letter-spacing:0px;word-spacing:0px;fill:#ffffff;fill-opacity:1;stroke:#ffffff;stroke-width:0.74523997;stroke-miterlimit:4;stroke-dasharray:none;stroke-opacity:1;filter:url(#filter4375-4-1-1-1-9-5-8-8-5-5-3-3)"
       xml:space="preserve"><tspan
         y="1440.271"
         x="662.92181"
         id="tspan892"
         sodipodi:role="line"><tspan
           rotate="0 0 0 0 0 0 0 0 0 0"
           id="tspan876-6-6"
           style="font-size:145.67500305px;fill:#ffffff;fill-opacity:1;stroke:#ffffff;stroke-width:0.74523997;stroke-miterlimit:4;stroke-dasharray:none;stroke-opacity:1"><tspan
             dy="0 0 0 25 30 30 35 40 50"
             style="font-size:117.98600006px;stroke-width:0.74523997"
             id="tspan2853">¡Suooush!</tspan></tspan><textPath
           style="stroke-width:0.74524"
           id="textPath2837"
           xlink:href="#path974"></textPath></tspan></text>
    <path
       sodipodi:nodetypes="cccccccccccccccccccccccccccc"
       inkscape:connector-curvature="0"
       id="path4508-2"
       d="m 807.72809,1467.8029 c -98.32315,59.6481 -92.74228,47.6179 -73.15403,-5.9733 -67.62861,65.4772 -69.87157,40.2091 -59.38982,10.0029 -44.37922,49.4268 -63.96749,39.2386 -69.43137,0.4461 -0.27044,53.4934 -21.05894,32.5037 -30.22717,16.4964 -2.77047,15.8163 -17.2529,44.0053 -42.32265,1.4481 0.2204,13.8906 13.81111,46.9079 -37.87835,-2.9345 12.98968,55.0382 -32.78631,-1.7984 -58.47735,-42.5255 16.05931,50.1704 9.45998,57.3143 -10.96432,38.2053 9.36336,20.6429 14.97135,36.6339 -20.51026,1.7201 12.20307,38.1353 -5.13189,33.5754 -43.40384,-7.2334 25.69825,40.4758 58.95905,81.0472 21.44115,67.7541 6.27966,11.92 28.60991,22.1971 -37.78316,41.5547 12.41954,8.0369 50.25795,-4.0668 18.74627,30.4996 -4.22314,4.0439 9.94906,6.4062 -17.06637,17.1582 15.9593,-0.8233 25.75322,1.6857 11.08333,17.4061 29.13264,-1.0312 18.26698,15.4705 -3.07784,36.5651 42.13325,-27.1542 89.87496,-50.3876 60.01019,-11.0192 52.79893,-36.9914 58.40956,-10.3542 48.92344,7.1441 31.65132,-29.855 51.4346,-25.3179 77.29592,15.3904 6.69541,-25.4658 20.18609,-45.1218 77.26334,-27.5077 -25.11359,-32.1822 10.55941,-11.8048 37.87498,1.3451 -15.02936,-40.3078 22.95051,-14.0347 71.06379,24.9663 -26.99159,-44.4441 3.84169,-49.0263 49.1755,-17.6393 -23.92948,-47.0261 -39.23326,-57.1918 77.04777,-13.7994 -98.23829,-44.0942 -77.45545,-73.128 -17.6314,-104.3178 -60.97121,-1.7261 -65.78465,-8.1023 -22.17338,-37.9922 -85.73579,7.9176 -33.87196,-20.5002 -6.43437,-57.1603 z"
       style="display:inline;fill:#ffffff;fill-rule:evenodd;stroke:none;stroke-width:1.01076972px;stroke-linecap:butt;stroke-linejoin:miter;stroke-opacity:1" />
    <path
       sodipodi:nodetypes="ccccsccc"
       inkscape:connector-curvature="0"
       id="path1111-3-3"
       d="m 981.01706,1712.6543 -82.47964,-69.3619 -21.73828,-20.9157 -3.89619,33.8993 c -113.19185,-60.793 -107.41261,-104.6482 -123.16199,-63.0392 -19.42613,51.3227 45.72551,35.5105 135.52361,93.9205 4.43214,-8.2819 5.06237,-18.0952 6.91438,-27.2171 z"
       style="fill:#ffffff;fill-rule:evenodd;stroke:none;stroke-width:0.999998px;stroke-linecap:butt;stroke-linejoin:miter;stroke-opacity:1" />
  </g>
  <g
     inkscape:label="txt"
     id="layer1"
     inkscape:groupmode="layer">
    <text
       transform="scale(0.96891819,1.0320789)"
       id="text4246-3-2-2"
       y="306.20593"
       x="330.38358"
       style="font-style:normal;font-variant:normal;font-weight:normal;font-stretch:normal;font-size:64.91349792px;line-height:1.25;font-family:Lavi;-inkscape-font-specification:Lavi;text-align:center;letter-spacing:0px;word-spacing:0px;text-anchor:middle;fill:#ffffff;fill-opacity:1;stroke:none;stroke-width:1.44252002"
       xml:space="preserve"><tspan
         id="tspan915"
         y="306.20593"
         x="330.38358"
         sodipodi:role="line"
         style="font-style:normal;font-variant:normal;font-weight:bold;font-stretch:normal;font-size:64.91349792px;font-family:Lavi;-inkscape-font-specification:'Lavi Bold';fill:#ffffff;stroke-width:1.44252002">¡NO!</tspan><tspan
         id="tspan905"
         y="387.34781"
         x="330.38358"
         sodipodi:role="line"
         style="font-style:normal;font-variant:normal;font-weight:bold;font-stretch:normal;font-size:64.91349792px;font-family:Lavi;-inkscape-font-specification:'Lavi Bold';fill:#ffffff;stroke-width:1.44252002" /></text>
    <text
       id="text4246-3-2-2-3"
       y="299.48114"
       x="2086.762"
       style="font-style:normal;font-variant:normal;font-weight:normal;font-stretch:normal;font-size:45px;line-height:1.25;font-family:Lavi;-inkscape-font-specification:Lavi;text-align:center;letter-spacing:0px;word-spacing:0px;text-anchor:middle;fill:#ffffff;fill-opacity:1;stroke:none"
       xml:space="preserve"><tspan
         id="tspan873"
         y="299.48114"
         x="2093.7932"
         sodipodi:role="line"
         style="font-style:normal;font-variant:normal;font-weight:bold;font-stretch:normal;font-size:45px;font-family:Lavi;-inkscape-font-specification:'Lavi Bold';fill:#ffffff">¡Yo </tspan><tspan
         y="355.73114"
         x="2086.762"
         sodipodi:role="line"
         style="font-style:normal;font-variant:normal;font-weight:bold;font-stretch:normal;font-size:45px;font-family:Lavi;-inkscape-font-specification:'Lavi Bold';fill:#ffffff"
         id="tspan48">no soy así!</tspan></text>
    <text
       transform="matrix(0.95619489,-0.06824752,0,1.0458119,0,0)"
       id="text4246-3-2-2-3-5"
       y="896.21271"
       x="615.79883"
       style="font-style:normal;font-variant:normal;font-weight:normal;font-stretch:normal;font-size:68.84600067px;line-height:1.25;font-family:Lavi;-inkscape-font-specification:Lavi;text-align:center;letter-spacing:0px;word-spacing:0px;text-anchor:middle;fill:#000000;fill-opacity:1;stroke:none;stroke-width:0.956195"
       xml:space="preserve"><tspan
         style="font-style:normal;font-variant:normal;font-weight:bold;font-stretch:normal;font-size:68.84600067px;font-family:Lavi;-inkscape-font-specification:'Lavi Bold';stroke-width:0.956195"
         id="tspan906-6"
         y="896.21271"
         x="626.55603"
         sodipodi:role="line">¡¡¡STOOOOP!!! </tspan></text>
    <text
       id="text4246-3-2-2-3-1"
       y="1609.231"
       x="578.07495"
       style="font-style:normal;font-variant:normal;font-weight:normal;font-stretch:normal;font-size:56.8891983px;line-height:1.25;font-family:Lavi;-inkscape-font-specification:Lavi;text-align:center;letter-spacing:0px;word-spacing:0px;text-anchor:middle;fill:#000000;fill-opacity:1;stroke:none;stroke-width:1.20164001"
       xml:space="preserve"><tspan
         id="tspan1006"
         y="1609.231"
         x="578.07495"
         sodipodi:role="line"
         style="font-style:normal;font-variant:normal;font-weight:bold;font-stretch:normal;font-size:56.8891983px;font-family:Lavi;-inkscape-font-specification:'Lavi Bold';stroke-width:1.20164001">¡ME RINDO!</tspan></text>
  </g>
</svg>
