<?xml version="1.0" encoding="UTF-8" standalone="no"?>
<!-- Created with Inkscape (http://www.inkscape.org/) -->

<svg
   xmlns:dc="http://purl.org/dc/elements/1.1/"
   xmlns:cc="http://creativecommons.org/ns#"
   xmlns:rdf="http://www.w3.org/1999/02/22-rdf-syntax-ns#"
   xmlns:svg="http://www.w3.org/2000/svg"
   xmlns="http://www.w3.org/2000/svg"
   xmlns:xlink="http://www.w3.org/1999/xlink"
   xmlns:sodipodi="http://sodipodi.sourceforge.net/DTD/sodipodi-0.dtd"
   xmlns:inkscape="http://www.inkscape.org/namespaces/inkscape"
   id="svg2"
   version="1.1"
   inkscape:version="0.48.5 r10040"
   width="2481"
   height="3503"
   sodipodi:docname="Pepper-and-Carrot_by-David-Revoy_E19P01.svg">
  <metadata
     id="metadata8">
    <rdf:RDF>
      <cc:Work
         rdf:about="">
        <dc:format>image/svg+xml</dc:format>
        <dc:type
           rdf:resource="http://purl.org/dc/dcmitype/StillImage" />
        <dc:title />
      </cc:Work>
    </rdf:RDF>
  </metadata>
  <defs
     id="defs6" />
  <sodipodi:namedview
     pagecolor="#ffffff"
     bordercolor="#666666"
     borderopacity="1"
     objecttolerance="10"
     gridtolerance="10"
     guidetolerance="10"
     inkscape:pageopacity="0"
     inkscape:pageshadow="2"
     inkscape:window-width="1292"
     inkscape:window-height="745"
     id="namedview4"
     showgrid="false"
     inkscape:zoom="0.41799165"
     inkscape:cx="1216.2612"
     inkscape:cy="541.81198"
     inkscape:window-x="66"
     inkscape:window-y="-8"
     inkscape:window-maximized="1"
     inkscape:current-layer="layer1"
     showguides="false" />
  <g
     inkscape:groupmode="layer"
     id="layer2"
     inkscape:label="artwork"
     sodipodi:insensitive="true">
    <image
       sodipodi:absref="C:\Users\Gwen\Documents\Academie_du_Gallo\Traduction_BD\peppercarrot_ep19_translation-master\go\../gfx_Pepper-and-Carrot_by-David-Revoy_E19P01.png"
       xlink:href="../gfx_Pepper-and-Carrot_by-David-Revoy_E19P01.png"
       y="0"
       x="0"
       id="image10"
       height="3503"
       width="2481" />
  </g>
  <g
     inkscape:groupmode="layer"
     id="layer3"
     inkscape:label="speechbubbles">
    <path
       style="color:#000000;fill:#ffffff;fill-opacity:1;fill-rule:nonzero;stroke:none;stroke-width:1px;marker:none;visibility:visible;display:inline;overflow:visible;enable-background:accumulate"
       d="m 967.78711,1936.5674 c -5.82243,-29.8516 39.78939,-65.8653 204.92139,-57.9056 165.1324,7.9598 197.6175,21.984 202.4948,60.2936 2.0221,15.8826 -41.9596,40.5945 -66.3234,44.5744 -24.3639,3.9798 -125.3664,4.5754 -165.973,1.3916 -40.606,-3.1839 -127.7457,-10.1473 -152.10957,-24.4749 -24.36398,-14.3274 -20.30302,-20.6952 -23.01022,-23.8791 z"
       id="path3365"
       inkscape:connector-curvature="0"
       sodipodi:nodetypes="csssssc" />
    <path
       style="color:#000000;display:inline;overflow:visible;visibility:visible;fill:#ffffff;fill-opacity:1;fill-rule:nonzero;stroke:none;stroke-width:1px;marker:none;enable-background:accumulate"
       d="m 1363.5975,2079.5776 c -10.4681,54.0667 -57.8418,78.2371 -97.1541,92.8985 -73.3677,23.2222 -150.2516,11.5665 -224.1702,-0.9669 -38.3508,-8.9095 -77.85504,-47.3197 -73.84514,-99.1832 3.87538,-46.4894 41.05464,-76.7852 76.88974,-81.1038 52.5333,-15.0719 107.3206,-22.414 160.735,-9.5916 45.8651,7.3208 94.9852,9.3053 135.8358,38.2204 13.6517,15.2781 18.8969,38.1542 21.7089,59.7266 z"
       id="path3365-3"
       inkscape:connector-curvature="0" />
    <path
       style="fill:#ffffff;stroke:none"
       d="m 1000.5445,2303.3382 c 6.0973,-65.0079 60.2736,-123.6524 130.1837,-132.7072 85.708,-19.3221 176.8191,-16.91 262.3487,1.6039 55.9295,15.3145 85.9949,33.0113 129.4478,76.9697 28.8149,32.2399 44.8018,133.5962 -1.8697,165.2173 -48.5856,46.2301 -178.7747,56.472 -244.6436,55.2084 -94.8072,1.9026 -190.0556,-9.3322 -236.8761,-47.837 -43.77951,-36.9425 -44.55379,-70.3318 -38.5908,-118.4551 z"
       id="path3065"
       inkscape:connector-curvature="0"
       sodipodi:nodetypes="cccccccc" />
    <path
       style="display:inline;fill:#ffffff;stroke:none"
       d="m 1642.9487,2316.2979 c -21.9558,36.2988 -64.6442,61.9501 -96.7367,35.7869 -19.4449,-15.8524 -29.1134,-28.291 -29.1134,-28.291 l -6.3679,30.9322 20.7854,19.5483 c 0,0 65.508,31.9103 111.4326,-57.9764 z"
       id="path3063-1"
       inkscape:connector-curvature="0"
       sodipodi:nodetypes="cscccc" />
    <path
       style="color:#000000;fill:#ffffff;fill-opacity:1;fill-rule:nonzero;stroke:none;stroke-width:1px;marker:none;visibility:visible;display:inline;overflow:visible;enable-background:accumulate"
       d="m 1898.7032,2318.7633 c 22.7401,-14.8351 112.2856,-27.5791 201.7192,-26.0229 89.4336,1.5563 175.1496,9.704 227.5488,46.2927 77.2014,53.907 42.0376,177.1599 2.0526,197.9002 -28.9788,15.0314 -115.7109,28.518 -198.7821,30.0346 -83.0709,1.5168 -162.4809,-8.9363 -201.2782,-22.5197 -33.4833,-11.723 -82.2671,-43.6247 -86.2503,-120.7802 -1.6256,-31.4904 9.5104,-75.2341 54.99,-104.9047 z"
       id="path4040"
       inkscape:connector-curvature="0"
       sodipodi:nodetypes="ssssssss" />
    <path
       style="color:#000000;display:inline;overflow:visible;visibility:visible;fill:#ffffff;fill-opacity:1;fill-rule:nonzero;stroke:none;stroke-width:1px;marker:none;enable-background:accumulate"
       d="m 2091.5868,2309.6031 c -12.6779,-33.6245 -30.9699,-60.7293 -65.977,-55.676 52.3023,-18.546 92.9308,35.3617 103.6224,53.2726 10.6914,17.9109 -37.6454,2.4034 -37.6454,2.4034 z"
       id="path5010"
       inkscape:connector-curvature="0" />
    <path
       style="color:#000000;fill:#ffffff;fill-opacity:1;fill-rule:nonzero;stroke:none;stroke-width:1px;marker:none;visibility:visible;display:inline;overflow:visible;enable-background:accumulate"
       d="m 570.06127,2726.3612 c -1.29063,-26.3558 12.96526,-45.2414 67.16925,-62.4534 54.20425,-17.2119 131.13061,-9.0026 151.31454,-8.4347 94.71783,2.665 126.45498,11.5648 145.81353,30.9284 19.35867,19.3634 24.30434,15.1087 23.62019,48.6465 -0.6125,30.0255 -6.08431,44.1361 -29.31461,50.5905 -23.23044,6.4545 -201.69296,13.8487 -229.1687,13.5611 -26.90084,-0.2816 -61.15147,-3.5096 -87.82223,-14.0823 -25.17783,-9.9808 -40.32142,-32.4002 -41.61197,-58.7561 z"
       id="path3373"
       inkscape:connector-curvature="0"
       sodipodi:nodetypes="zsssssssz" />
    <path
       style="color:#000000;display:inline;overflow:visible;visibility:visible;fill:#ffffff;fill-opacity:1;fill-rule:nonzero;stroke:none;stroke-width:1px;marker:none;enable-background:accumulate"
       d="m 681.6041,2857.9187 c 9.37295,-68.447 79.42521,-107.7189 283.021,-111.8075 53.249,-1.0693 137.2217,17.4372 179.038,33.397 41.8164,15.9598 72.6267,76.0534 66.3782,126.2086 -12.4973,100.3103 -143.0789,83.591 -179.0087,84.7711 -35.92969,1.1803 -295.9444,22.2443 -337.75508,-38.5274 -31.38462,-45.6174 -13.23556,-72.7995 -11.67342,-94.0418 z"
       id="path4546"
       inkscape:connector-curvature="0"
       sodipodi:nodetypes="csssssc" />
    <path
       style="color:#000000;display:inline;overflow:visible;visibility:visible;fill:#ffffff;fill-opacity:1;fill-rule:nonzero;stroke:none;stroke-width:1px;marker:none;enable-background:accumulate"
       d="m 864.77409,2984.4513 c 31.03786,-39.6698 199.85571,-36.2833 256.02451,-19.0964 56.1686,17.1867 80.4507,21.8571 79.6811,57.2893 -0.7205,33.1719 -18.834,64.1707 -47.5716,73.719 -28.7374,9.5482 -96.1156,9.3505 -124.8531,9.3505 -28.73741,0 -120.47366,-6.0774 -143.6874,-20.0513 -22.20623,-13.3675 -50.6315,-61.5414 -19.59351,-101.2111 z"
       id="path3330"
       inkscape:connector-curvature="0"
       sodipodi:nodetypes="zsssssz" />
    <path
       style="color:#000000;display:inline;overflow:visible;visibility:visible;fill:#ffffff;fill-opacity:1;fill-rule:nonzero;stroke:none;stroke-width:1px;marker:none;enable-background:accumulate"
       d="m 933.09499,3160.516 c 39.78505,-10.9584 53.20162,-17.1208 58.43434,-65.1641 5.23266,-48.0433 23.16177,-44.6696 23.16177,-44.6696 l 14.7504,30.3838 c 0,0 -18.3423,101.2684 -96.34651,79.4499 z"
       id="path3072"
       inkscape:connector-curvature="0" />
    <path
       style="fill:#ffffff;fill-rule:evenodd;stroke:none;stroke-width:1px;stroke-linecap:butt;stroke-linejoin:miter;stroke-opacity:1"
       d="m 1891.4248,3239.5273 c 26.3898,2.1524 60.7586,-8.5621 39.4235,-40.9681 38.3979,25.9662 74.7721,30.83 113.0657,2.4031 -5.5978,28.6978 57.0153,30.9119 78.4695,11.9225 -6.546,29.906 23.5543,31.0596 48.7068,32.0091 -53.2076,36.5615 -25.2677,48.1891 -4.3022,61.9598 -52.2903,-10.1884 -39.6437,10.4551 -45.8893,22.1285 -44.8572,-26.449 -77.4789,-20.1718 -103.251,4.4257 -13.479,-13.3768 -17.7099,-41.0242 -67.3998,1.4752 18.2722,-36.6892 -5.6785,-32.8382 -44.4553,-14.7522 8.9214,-8.4337 46.471,-30.9658 -14.3679,-28.9705 9.5003,-2.97 17.1236,-6.2033 22.4963,-9.7524 5.3727,-3.5491 -29.1749,-13.0242 -28.6769,-17.2571 0.4981,-4.2329 36.0419,-3.2235 30.9182,-8.2451 -5.1237,-5.0215 -13.2451,-10.4635 -24.7376,-16.3785 z"
       id="path4584"
       inkscape:connector-curvature="0"
       sodipodi:nodetypes="cccccccccccsssc" />
    <path
       style="color:#000000;display:inline;overflow:visible;visibility:visible;fill:#ffffff;fill-opacity:1;fill-rule:nonzero;stroke:none;stroke-width:1px;marker:none;enable-background:accumulate"
       d="m 1929.0839,3276.1051 c -26.7744,0.1934 -96.6935,-12.0611 -103.8888,-13.0148 6.0705,-5.4371 10.1298,-10.8932 13.4021,-15.1162 -13.7156,-0.9263 -59.5001,-2.596 -79.7676,1.5975 50.7453,-11.4228 73.8083,-12.6417 95.8809,-9.8645 -2.9601,5.998 -5.8701,9.4267 -7.3188,12.6033 18.7307,6.708 117.9634,8.8349 106.078,1.4065 z"
       id="path5066"
       inkscape:connector-curvature="0"
       sodipodi:nodetypes="cccccccc" />
  </g>
  <g
     inkscape:groupmode="layer"
     id="layer1"
     inkscape:label="txt">
    <text
       xml:space="preserve"
       style="font-style:normal;font-variant:normal;font-weight:normal;font-stretch:normal;font-size:12px;line-height:125%;font-family:Lavi;-inkscape-font-specification:Lavi;text-align:center;letter-spacing:0px;word-spacing:0px;text-anchor:middle;fill:#000000;fill-opacity:1;stroke:none"
       x="2137.0017"
       y="2370.491"
       id="text4246"
       sodipodi:linespacing="125%"><tspan
         sodipodi:role="line"
         style="font-size:45px"
         x="2137.0017"
         y="2370.491"
         id="tspan4252" /></text>
    <text
       xml:space="preserve"
       style="font-size:12px;font-style:normal;font-variant:normal;font-weight:normal;font-stretch:normal;text-align:center;line-height:125%;letter-spacing:0px;word-spacing:0px;text-anchor:middle;fill:#000000;fill-opacity:1;stroke:none;font-family:Lavi;-inkscape-font-specification:Lavi"
       x="1168.0322"
       y="2032.8386"
       id="text4246-3"
       sodipodi:linespacing="125%"><tspan
         sodipodi:role="line"
         style="font-size:45px"
         x="1175.9424"
         y="2032.8386"
         id="tspan6973">Pas la peine </tspan><tspan
         sodipodi:role="line"
         style="font-size:45px"
         x="1175.9424"
         y="2089.0886"
         id="tspan6977">de regarder de </tspan><tspan
         sodipodi:role="line"
         style="font-size:45px"
         x="1168.0322"
         y="2145.3386"
         id="tspan6979">tai pus fort…</tspan></text>
    <text
       xml:space="preserve"
       style="font-size:12px;font-style:normal;font-variant:normal;font-weight:normal;font-stretch:normal;text-align:center;line-height:125%;letter-spacing:0px;word-spacing:0px;text-anchor:middle;fill:#000000;fill-opacity:1;stroke:none;font-family:Lavi;-inkscape-font-specification:Lavi"
       x="1274.8484"
       y="2247.0911"
       id="text4246-3-7"
       sodipodi:linespacing="125%"><tspan
         sodipodi:role="line"
         style="font-size:45px"
         x="1282.7585"
         y="2247.0911"
         id="tspan4222">Encave-mai toutes lez </tspan><tspan
         sodipodi:role="line"
         style="font-size:45px"
         x="1282.7585"
         y="2303.3411"
         id="tspan3200">pocions manqeys-ilae e </tspan><tspan
         sodipodi:role="line"
         style="font-size:45px"
         x="1282.7585"
         y="2359.5911"
         id="tspan3202">ramasse-tai ao pus </tspan><tspan
         sodipodi:role="line"
         style="font-size:45px"
         x="1282.7585"
         y="2415.8411"
         id="tspan3204">vite a te délasser. </tspan></text>
    <text
       xml:space="preserve"
       style="font-size:12px;font-style:normal;font-variant:normal;font-weight:normal;font-stretch:normal;text-align:center;line-height:125%;letter-spacing:0px;word-spacing:0px;text-anchor:middle;fill:#000000;fill-opacity:1;stroke:none;font-family:Lavi;-inkscape-font-specification:Lavi"
       x="2109.2842"
       y="2349.2207"
       id="text4246-3-7-6"
       sodipodi:linespacing="125%"><tspan
         sodipodi:role="line"
         style="font-size:45px"
         x="2117.1943"
         y="2349.2207"
         id="tspan4193">Te vair en </tspan><tspan
         sodipodi:role="line"
         style="font-size:45px"
         x="2117.1943"
         y="2405.4707"
         id="tspan3215">rencontrer yüne demaen </tspan><tspan
         sodipodi:role="line"
         style="font-size:45px"
         x="2117.1943"
         y="2461.7207"
         id="tspan3217">sera ventiers pus </tspan><tspan
         sodipodi:role="line"
         style="font-size:45px"
         x="2109.2842"
         y="2517.9707"
         id="tspan3219">un reybl, qhi qi saet !</tspan></text>
    <text
       xml:space="preserve"
       style="font-size:12px;font-style:normal;font-variant:normal;font-weight:normal;font-stretch:normal;text-align:center;line-height:125%;letter-spacing:0px;word-spacing:0px;text-anchor:middle;fill:#000000;fill-opacity:1;stroke:none;font-family:Lavi;-inkscape-font-specification:Lavi"
       x="773.05804"
       y="2709.8247"
       id="text4246-3-7-6-7"
       sodipodi:linespacing="125%"><tspan
         sodipodi:role="line"
         style="font-size:45px"
         x="780.9682"
         y="2709.8247"
         id="tspan4515">Bon de memme, </tspan><tspan
         sodipodi:role="line"
         style="font-size:45px"
         x="773.05804"
         y="2766.0747"
         id="tspan3223">je me hobe !</tspan></text>
    <text
       xml:space="preserve"
       style="font-size:12px;font-style:normal;font-variant:normal;font-weight:normal;font-stretch:normal;text-align:center;line-height:125%;letter-spacing:0px;word-spacing:0px;text-anchor:middle;fill:#000000;fill-opacity:1;stroke:none;font-family:Lavi;-inkscape-font-specification:Lavi"
       x="941.59753"
       y="2832.0046"
       id="text4246-3-7-6-7-0"
       sodipodi:linespacing="125%"><tspan
         sodipodi:role="line"
         style="font-size:45px"
         x="949.50769"
         y="2832.0046"
         id="tspan4433">Maez aoterment, c'ét </tspan><tspan
         sodipodi:role="line"
         style="font-size:45px"
         x="949.50769"
         y="2888.2546"
         id="tspan3230">qhi ste bigney de voulair </tspan><tspan
         sodipodi:role="line"
         style="font-size:45px"
         x="941.59753"
         y="2944.5046"
         id="tspan3232">tenant tout encaver ?</tspan></text>
    <text
       xml:space="preserve"
       style="font-size:12px;font-style:normal;font-variant:normal;font-weight:normal;font-stretch:normal;text-align:center;line-height:125%;letter-spacing:0px;word-spacing:0px;text-anchor:middle;fill:#000000;fill-opacity:1;stroke:none;font-family:Lavi;-inkscape-font-specification:Lavi"
       x="1028.9365"
       y="3020.2258"
       id="text4246-3-7-6-7-0-9"
       sodipodi:linespacing="125%"><tspan
         sodipodi:role="line"
         style="font-size:45px"
         x="1036.8467"
         y="3020.2258"
         id="tspan4464">Ella seraet pas </tspan><tspan
         sodipodi:role="line"
         style="font-size:45px"
         x="1028.9365"
         y="3076.4758"
         id="tspan3244">mieuz qe…</tspan></text>
    <text
       xml:space="preserve"
       style="font-size:12px;font-style:normal;font-variant:normal;font-weight:normal;font-stretch:normal;text-align:center;line-height:125%;letter-spacing:0px;word-spacing:0px;text-anchor:middle;fill:#000000;fill-opacity:1;stroke:none;font-family:Lavi;-inkscape-font-specification:Lavi"
       x="2035.1406"
       y="3276.5044"
       id="text4246-3-7-6-7-0-9-3"
       sodipodi:linespacing="125%"><tspan
         sodipodi:role="line"
         style="font-size:45px"
         x="2035.1406"
         y="3276.5044"
         id="tspan4464-5">qe <tspan
   style="font-weight:bold"
   id="tspan3246">QHI</tspan> ?</tspan></text>
    <text
       xml:space="preserve"
       style="font-size:12px;font-style:normal;font-variant:normal;font-weight:normal;font-stretch:normal;text-align:center;line-height:125%;letter-spacing:0px;word-spacing:0px;text-anchor:middle;fill:#000000;fill-opacity:1;stroke:none;font-family:Lavi;-inkscape-font-specification:Lavi"
       x="1177.4561"
       y="1942.5215"
       id="text4246-3-9"
       sodipodi:linespacing="125%"><tspan
         sodipodi:role="line"
         style="font-size:45px"
         x="1185.3662"
         y="1942.5215"
         id="tspan4183-8">Je m'en retourne. </tspan></text>
  </g>
</svg>
