<?xml version="1.0" encoding="UTF-8" standalone="no"?>
<!-- Created with Inkscape (http://www.inkscape.org/) -->

<svg
   xmlns:dc="http://purl.org/dc/elements/1.1/"
   xmlns:cc="http://creativecommons.org/ns#"
   xmlns:rdf="http://www.w3.org/1999/02/22-rdf-syntax-ns#"
   xmlns:svg="http://www.w3.org/2000/svg"
   xmlns="http://www.w3.org/2000/svg"
   xmlns:xlink="http://www.w3.org/1999/xlink"
   xmlns:sodipodi="http://sodipodi.sourceforge.net/DTD/sodipodi-0.dtd"
   xmlns:inkscape="http://www.inkscape.org/namespaces/inkscape"
   id="svg2"
   version="1.1"
   inkscape:version="0.48.5 r10040"
   width="2481"
   height="3503"
   sodipodi:docname="E26P01.svg">
  <metadata
     id="metadata8">
    <rdf:RDF>
      <cc:Work
         rdf:about="">
        <dc:format>image/svg+xml</dc:format>
        <dc:type
           rdf:resource="http://purl.org/dc/dcmitype/StillImage" />
        <dc:title />
      </cc:Work>
    </rdf:RDF>
  </metadata>
  <defs
     id="defs6" />
  <sodipodi:namedview
     pagecolor="#ffffff"
     bordercolor="#666666"
     borderopacity="1"
     objecttolerance="10"
     gridtolerance="10"
     guidetolerance="10"
     inkscape:pageopacity="0"
     inkscape:pageshadow="2"
     inkscape:window-width="1292"
     inkscape:window-height="745"
     id="namedview4"
     showgrid="false"
     inkscape:zoom="0.41053452"
     inkscape:cx="1475.2713"
     inkscape:cy="751.92926"
     inkscape:window-x="66"
     inkscape:window-y="-8"
     inkscape:window-maximized="1"
     inkscape:current-layer="layer1"
     inkscape:snap-global="false" />
  <g
     inkscape:groupmode="layer"
     id="layer2"
     inkscape:label="artwork"
     sodipodi:insensitive="true">
    <image
       sodipodi:absref="C:\Users\Gwen\Documents\Academie_du_Gallo\Traduction_BD\peppercarrot_ep26_Books-Are-Great_lang-pack\lang\go\../gfx_Pepper-and-Carrot_by-David-Revoy_E26P01.png"
       xlink:href="../gfx_Pepper-and-Carrot_by-David-Revoy_E26P01.png"
       width="2481"
       height="3503"
       id="image10"
       x="0"
       y="0" />
  </g>
  <g
     inkscape:groupmode="layer"
     id="layer3"
     inkscape:label="speechbubbles"
     style="display:inline;opacity:1">
    <path
       style="fill:#ffffff;fill-opacity:1;stroke:none"
       d="m 292.10303,1886.1776 c -92.63578,0.4163 -136.19494,-10.1327 -157.9697,-19.4702 -36.130519,-15.4936 -43.196686,-108.6848 29.60555,-127.2534 73.18538,-18.6663 215.90693,-14.5153 274.48271,21.3805 58.57558,35.8958 16.79933,83.1585 3.33092,92.8715 -13.46865,9.7129 -49.2309,32.099 -149.44948,32.4716 z"
       id="path3659-8"
       inkscape:connector-curvature="0"
       sodipodi:nodetypes="cssssc" />
    <path
       style="color:#000000;display:inline;overflow:visible;visibility:visible;fill:#ffffff;fill-opacity:1;fill-rule:nonzero;stroke:none;stroke-width:0.77001458px;marker:none;enable-background:accumulate"
       d="m 274.67689,1855.3732 c 11.17842,15.8247 25.32183,43.4204 25.79652,49.4209 -6.73911,-0.5556 -13.09406,0.387 -18.03883,1.0204 1.81058,10.7946 32.21158,51.6223 41.64451,56.3046 -23.83945,-10.0592 -58.27989,-45.5693 -59.88737,-63.8703 6.68489,-2.1454 10.75049,-2.4727 14.26692,-3.6967 -0.36416,-9.3034 -20.80365,-30.8908 -20.80365,-30.8908 z"
       id="path5066"
       inkscape:connector-curvature="0"
       sodipodi:nodetypes="cccccccc" />
    <path
       style="color:#000000;fill:#ffffff;fill-opacity:1;fill-rule:nonzero;stroke:none;stroke-width:1.09650445px;marker:none;visibility:visible;display:inline;overflow:visible;enable-background:accumulate"
       d="m 1767.0902,1932.7746 c -40.8014,-46.8109 -39.3663,-145.5334 -27.7087,-166.5983 18.2306,-39.3865 61.9084,-46.4158 117.2819,-46.4158 55.3732,0 448.4157,-23.917 505.2464,25.2345 56.8304,49.1515 38.941,140.6884 -10.6036,198.0317 -49.5446,57.3433 -324.6137,45.6406 -324.6137,45.6406 0,0 -196.943,3.7911 -259.6023,-55.8927 z"
       id="path3992"
       inkscape:connector-curvature="0"
       sodipodi:nodetypes="ccscccc" />
    <path
       style="color:#000000;display:inline;overflow:visible;visibility:visible;fill:#ffffff;fill-opacity:1;fill-rule:nonzero;stroke:none;stroke-width:1px;marker:none;enable-background:accumulate"
       d="m 1984.9695,2211.7966 c 97.5172,-13.4683 140.8945,-73.5032 173.5649,-113.8088 15.274,-18.8437 -32.2063,-50.3843 -32.2063,-50.3843 l -20.4844,64.3961 c 4.4776,5.3732 -31.2523,71.0033 -120.8742,99.797 z"
       id="path4000"
       inkscape:connector-curvature="0"
       sodipodi:nodetypes="csccc" />
    <path
       style="color:#000000;fill:#ffffff;fill-opacity:1;fill-rule:nonzero;stroke:none;stroke-width:0.95806623px;marker:none;visibility:visible;display:inline;overflow:visible;enable-background:accumulate"
       d="m 1973.7429,2032.8023 c 17.9972,-23.0063 31.3612,-67.3113 163.9109,-51.7323 71.001,8.3448 151.725,7.6994 143.354,88.2216 -8.371,80.5222 -125.9083,70.1622 -149.9752,71.1095 -24.0666,0.9474 -137.5967,0.012 -158.3981,-28.3054 -13.0213,-17.7262 -16.8524,-57.9183 1.1084,-79.2934 z"
       id="path4546-6"
       inkscape:connector-curvature="0"
       sodipodi:nodetypes="cssssc" />
    <path
       style="color:#000000;display:inline;overflow:visible;visibility:visible;opacity:1;vector-effect:none;fill:#ffffff;fill-opacity:1;fill-rule:nonzero;stroke:none;stroke-width:1.13519955;stroke-linecap:butt;stroke-linejoin:miter;stroke-miterlimit:4;stroke-dasharray:none;stroke-dashoffset:0;stroke-opacity:1;marker:none;paint-order:stroke fill markers;enable-background:accumulate"
       d="m 884.84162,2689.0779 c -40.42827,-51.982 -36.09674,-153.3468 -24.5457,-176.7386 11.55089,-23.3919 27.43335,-58.4797 82.30042,-58.4797 54.86689,0 452.92116,-15.776 509.23186,38.805 56.3107,54.5811 48.3772,145.6271 -0.7142,209.305 -49.0916,63.678 -322.259,45.5879 -322.259,45.5879 -0.258,0.3616 -191.07888,20.6263 -244.01338,-58.4796 z"
       id="path3992-0"
       inkscape:connector-curvature="0"
       sodipodi:nodetypes="ccscscc" />
    <path
       style="color:#000000;display:inline;overflow:visible;visibility:visible;fill:#ffffff;fill-opacity:1;fill-rule:nonzero;stroke:none;stroke-width:1.1471467px;marker:none;enable-background:accumulate"
       d="m 1107.7917,2663.674 c -41.0805,41.3971 -74.3212,126.4523 -32.6058,262.3106 -64.481,-107.4324 -40.7404,-218.5665 -31.5488,-251.0486 9.1915,-32.4819 64.1546,-11.262 64.1546,-11.262 z"
       id="path4008"
       inkscape:connector-curvature="0" />
    <path
       style="color:#000000;display:inline;overflow:visible;visibility:visible;fill:#ffffff;fill-opacity:1;fill-rule:nonzero;stroke:none;stroke-width:1.1471467px;marker:none;enable-background:accumulate"
       d="m 1891.9827,2656.832 c -40.4116,58.3597 -53.3089,167.7072 24.2468,263.2149 -108.4132,-99.3198 -82.2954,-214.0613 -72.6196,-244.9782 2.0322,-33.6961 48.3728,-18.2367 48.3728,-18.2367 z"
       id="path4008-0"
       inkscape:connector-curvature="0"
       sodipodi:nodetypes="cccc" />
    <path
       style="color:#000000;display:inline;overflow:visible;visibility:visible;opacity:1;fill:#ffffff;fill-opacity:1;fill-rule:nonzero;stroke:none;stroke-width:1.30196857px;marker:none;enable-background:accumulate"
       d="m 1834.7526,2744.4158 c -78.436,-11.4249 -91.5029,-33.2233 -110.2108,-85.7917 -18.7078,-52.5684 16.2931,-199.8538 32.6658,-211.8218 10.4258,-4.5693 132.8243,-1.6759 200.6467,10.4072 67.8223,12.0833 147.6059,4.1407 169.8817,86.3811 19.3035,71.2666 -23.5589,178.7306 -113.247,195.4587 -89.6882,16.7282 -179.7364,5.3665 -179.7364,5.3665 z"
       id="path3970"
       inkscape:connector-curvature="0"
       sodipodi:nodetypes="csccssc" />
  </g>
  <g
     inkscape:groupmode="layer"
     id="layer1"
     inkscape:label="txt">
    <text
       xml:space="preserve"
       style="font-style:normal;font-variant:normal;font-weight:normal;font-stretch:normal;text-align:center;line-height:0%;letter-spacing:0px;word-spacing:0px;text-anchor:middle;fill:#000000;fill-opacity:1;stroke:none;font-family:Lavi;-inkscape-font-specification:Lavi"
       x="287.69135"
       y="1784.0059"
       id="text4246"
       sodipodi:linespacing="0%"><tspan
         sodipodi:role="line"
         style="font-size:45px;line-height:1.25"
         x="295.6015"
         y="1784.0059"
         id="tspan44">Lez livrs, </tspan><tspan
         sodipodi:role="line"
         style="font-size:45px;line-height:1.25"
         x="287.69135"
         y="1840.2559"
         id="tspan5549">c’ét de la mane !</tspan></text>
    <text
       xml:space="preserve"
       style="font-style:normal;font-variant:normal;font-weight:normal;font-stretch:normal;text-align:center;line-height:0%;letter-spacing:0px;word-spacing:0px;text-anchor:middle;fill:#000000;fill-opacity:1;stroke:none;font-family:Lavi;-inkscape-font-specification:Lavi"
       x="2112.5583"
       y="2041.5022"
       id="text4246-3-5-9"
       sodipodi:linespacing="0%"><tspan
         sodipodi:role="line"
         style="font-size:45px;line-height:1.25"
         x="2120.4685"
         y="2041.5022"
         id="tspan75">Ça n’n ét </tspan><tspan
         sodipodi:role="line"
         style="font-size:45px;line-height:1.25"
         x="2112.5583"
         y="2097.7522"
         id="tspan5570">mirobiaod !</tspan></text>
    <text
       xml:space="preserve"
       style="font-style:normal;font-variant:normal;font-weight:normal;font-stretch:normal;text-align:center;line-height:0%;letter-spacing:0px;word-spacing:0px;text-anchor:middle;fill:#000000;fill-opacity:1;stroke:none;font-family:Lavi;-inkscape-font-specification:Lavi"
       x="2069.752"
       y="1794.6953"
       id="text4246-3-3"
       sodipodi:linespacing="0%"><tspan
         sodipodi:role="line"
         style="font-size:45px;line-height:1.25"
         x="2077.6621"
         y="1794.6953"
         id="tspan5560">Den le livr rale-ici, y a lez </tspan><tspan
         sodipodi:role="line"
         style="font-size:45px;line-height:1.25"
         x="2077.6621"
         y="1850.9453"
         id="tspan5564">merqes d’un vieuz courouz </tspan><tspan
         sodipodi:role="line"
         style="font-size:45px;line-height:1.25"
         x="2069.752"
         y="1907.1953"
         id="tspan5566">qi dépingl tout du donjon-ilae.</tspan></text>
    <text
       xml:space="preserve"
       style="font-style:normal;font-variant:normal;font-weight:normal;font-stretch:normal;text-align:center;line-height:0%;letter-spacing:0px;word-spacing:0px;text-anchor:middle;fill:#000000;fill-opacity:1;stroke:none;font-family:Lavi;-inkscape-font-specification:Lavi"
       x="1169.4302"
       y="2544.7097"
       id="text4246-3-3-1"
       sodipodi:linespacing="0%"><tspan
         sodipodi:role="line"
         style="font-size:45px;line-height:1.25"
         x="1177.3403"
         y="2544.7097"
         id="tspan5581">Par empl, l’uelh faeynouz de </tspan><tspan
         sodipodi:role="line"
         style="font-size:45px;line-height:1.25"
         x="1177.3403"
         y="2600.9597"
         id="tspan5585">la grand porte abrive dez </tspan><tspan
         sodipodi:role="line"
         style="font-size:45px;line-height:1.25"
         x="1177.3403"
         y="2657.2097"
         id="tspan5587">boules de feu pour harer </tspan><tspan
         sodipodi:role="line"
         style="font-size:45px;line-height:1.25"
         x="1169.4302"
         y="2713.4597"
         id="tspan5589">lez chiens-de-noce.</tspan></text>
    <text
       xml:space="preserve"
       style="font-style:normal;font-variant:normal;font-weight:normal;font-stretch:normal;text-align:center;line-height:0%;letter-spacing:0px;word-spacing:0px;text-anchor:middle;fill:#000000;fill-opacity:1;stroke:none;font-family:Lavi;-inkscape-font-specification:Lavi"
       x="1918.9341"
       y="2536.8408"
       id="text4246-3-3-1-2"
       sodipodi:linespacing="0%"><tspan
         sodipodi:role="line"
         style="font-size:45px;line-height:1.25"
         x="1926.8442"
         y="2536.8408"
         id="tspan1230">Pâmaenz, si q’en </tspan><tspan
         sodipodi:role="line"
         style="font-size:45px;line-height:1.25"
         x="1926.8442"
         y="2593.0908"
         id="tspan5605">s’aperche par le </tspan><tspan
         sodipodi:role="line"
         style="font-size:45px;line-height:1.25"
         x="1926.8442"
         y="2649.3408"
         id="tspan5607">côtae, </tspan><tspan
         sodipodi:role="line"
         style="font-size:45px;line-height:1.25"
         x="1918.9341"
         y="2705.5908"
         id="tspan5609">hors de veùre…</tspan></text>
  </g>
</svg>
