<?xml version="1.0" encoding="UTF-8" standalone="no"?>
<!-- Created with Inkscape (http://www.inkscape.org/) -->

<svg
   xmlns:dc="http://purl.org/dc/elements/1.1/"
   xmlns:cc="http://creativecommons.org/ns#"
   xmlns:rdf="http://www.w3.org/1999/02/22-rdf-syntax-ns#"
   xmlns:svg="http://www.w3.org/2000/svg"
   xmlns="http://www.w3.org/2000/svg"
   xmlns:xlink="http://www.w3.org/1999/xlink"
   xmlns:sodipodi="http://sodipodi.sourceforge.net/DTD/sodipodi-0.dtd"
   xmlns:inkscape="http://www.inkscape.org/namespaces/inkscape"
   id="svg2"
   version="1.1"
   inkscape:version="0.92.3 (2405546, 2018-03-11)"
   width="2481"
   height="3503"
   sodipodi:docname="E14P04.svg">
  <sodipodi:namedview
     pagecolor="#ffffff"
     bordercolor="#666666"
     inkscape:pageopacity="0"
     inkscape:pageshadow="2"
     inkscape:window-width="1680"
     inkscape:window-height="987"
     id="namedview70"
     showgrid="false"
     inkscape:zoom="0.56568542"
     inkscape:cx="1312.8751"
     inkscape:cy="1228.6709"
     inkscape:current-layer="layer1"
     inkscape:window-x="-8"
     inkscape:window-y="24"
     inkscape:window-maximized="1" />
  <metadata
     id="metadata8">
    <rdf:RDF>
      <cc:Work
         rdf:about="">
        <dc:format>image/svg+xml</dc:format>
        <dc:type
           rdf:resource="http://purl.org/dc/dcmitype/StillImage" />
        <dc:title />
      </cc:Work>
    </rdf:RDF>
  </metadata>
  <defs
     id="defs6" />
  <sodipodi:namedview
     pagecolor="#ffffff"
     bordercolor="#666666"
     borderopacity="1"
     objecttolerance="10"
     gridtolerance="10"
     guidetolerance="10"
     inkscape:pageopacity="0"
     inkscape:pageshadow="2"
     inkscape:window-width="1920"
     inkscape:window-height="1025"
     id="namedview4"
     showgrid="false"
     inkscape:zoom="0.3478261"
     inkscape:cx="1818.8013"
     inkscape:cy="803.14507"
     inkscape:window-x="0"
     inkscape:window-y="26"
     inkscape:window-maximized="1"
     inkscape:current-layer="layer3"
     showguides="false" />
  <g
     inkscape:groupmode="layer"
     id="layer2"
     inkscape:label="artwork"
     sodipodi:insensitive="true">
    <image
       sodipodi:absref="C:\Users\ato\OneDrive - Høgskulen i Volda\Vevsida\Teikneseriesida\Pepar &amp; Gulrot\ep14_The-Dragon-s-Tooth_lang-pack\lang\nn\../gfx_Pepper-and-Carrot_by-David-Revoy_E14P04.png"
       xlink:href="../gfx_Pepper-and-Carrot_by-David-Revoy_E14P04.png"
       y="0"
       x="0"
       id="image10"
       height="3503"
       width="2481" />
  </g>
  <g
     inkscape:groupmode="layer"
     id="layer3"
     inkscape:label="speechbubbles">
    <path
       style="color:#000000;display:inline;overflow:visible;visibility:visible;fill:#ffffff;fill-opacity:1;fill-rule:nonzero;stroke:none;stroke-width:1px;marker:none;enable-background:accumulate"
       d="m 1624.3083,367.82482 c 10.5479,-20.326 55.0295,-17.6728 70.7719,-11.75341 -29.8179,-26.89811 -26.7953,-41.4565 18.0836,-39.27815 -69.3273,-50.03545 -9.0474,-37.4874 4.3862,-47.07518 -56.8344,-20.53598 -28.2304,-36.16477 -15.4523,-53.29185 -67.4031,-7.3692 -41.5914,-34.29072 -41.467,-57.77429 -7.1139,10.31432 -38.5335,40.73998 -35.4467,3.67491 -49.1411,30.74469 -105.8142,48.1124 -102.199,-13.92516 -21.9509,29.19715 -41.5578,40.50459 -35.4468,3.67491 -50.7129,43.62724 -88.5417,22.31788 -127.0835,4.70221 -12.4366,13.45458 -16.5223,35.62602 -50.081,26.98031 2.9584,14.86369 -9.8635,23.59611 -36.7135,26.85913 33.569,12.15538 38.8137,21.7567 -26.8152,24.96534 48.8812,5.83063 94.3299,12.30915 32.6325,39.45537 17.9337,2.5986 64.2375,-20.57052 34.0078,57.75726 34.3039,-22.61401 69.2086,-33.499 103.8116,24.51255 23.0815,-24.94651 58.8471,-34.85784 69.3644,0.23525 7.1597,-13.79701 29.934,-16.97865 48.7659,-15.75827 6.5216,6.41655 13.0098,14.89498 19.5168,25.80383 15.4752,-19.99328 36.3912,-32.44989 69.3643,0.23524 z"
       id="path3549-3-7"
       inkscape:connector-curvature="0"
       sodipodi:nodetypes="cccccccccccccccccccc" />
    <path
       style="fill:#ffffff;fill-rule:evenodd;stroke:none;stroke-width:1.0744282px;stroke-linecap:butt;stroke-linejoin:miter;stroke-opacity:1"
       d="m 1501.4166,342.5699 c -16.8319,-2.89644 -32.1954,5.80181 -46.3606,12.68734 -9.1219,4.13675 -18.9042,7.99207 -25.1651,15.62459 -6.1822,6.02745 -8.3236,16.72986 -0.2921,22.31239 5.7154,2.8998 13.9842,8.37538 8.6154,14.97656 -3.0925,5.59144 -11.4373,7.36638 -12.8007,13.76877 -3.3258,8.92599 4.9561,16.99269 13.5061,20.22638 6.3365,2.13686 12.1905,2.94204 13.0342,9.76712 6.458,10.258 20.6765,11.91725 32.4854,12.80832 10.1374,0.47258 20.3682,1.91153 30.4021,-0.25903 11.25,-1.79298 24.8257,-4.81789 34.1082,3.14734 16.3302,8.91388 36.0753,10.81904 54.8212,11.62984 9.4329,0.0593 18.9697,1.00446 28.343,0.134 19.7972,-2.95942 40.0426,-3.94509 59.9988,-1.79891 20.8159,-0.0998 35.8761,-17.53448 56.8056,-17.07811 17.237,-3.50811 36.387,-6.92594 48.584,-19.48845 5.3171,-4.58504 4.9589,-12.25678 11.7518,-15.17822 5.2089,-6.47135 -2.0297,-15.18822 -9.5051,-16.80177 -7.2397,-0.33737 6.4398,-2.32447 7.9103,-5.27186 7.4786,-4.82131 12.8217,-15.39727 5.7333,-22.42256 -15.953,-13.45387 -40.1719,-14.28429 -56.2091,-27.69811 -13.351,-5.78598 -27.5453,1.13896 -41.0853,2.45134 -6.671,-1.32795 -9.5172,-11.0372 -17.8906,-12.14731 -10.7465,-4.00836 -22.6106,-4.15464 -34.061,-4.24115 -11.0958,6.71944 -25.1735,4.1488 -36.8901,0.30951 -10.2252,-3.25965 -21.1315,-5.81436 -31.9939,-3.68351 -8.0069,0.55857 -17.113,4.18531 -24.6156,1.2562 -10.5547,-7.82045 -25.0053,-3.91102 -37.4297,-4.77633 -8.5383,-2.1118 -16.3377,2.70395 -23.8671,5.63599 -3.0105,1.17289 -12.4198,6.19493 -2.2893,4.10959"
       id="path4220"
       inkscape:connector-curvature="0" />
    <path
       style="color:#000000;display:inline;overflow:visible;visibility:visible;fill:#ffffff;fill-opacity:1;fill-rule:nonzero;stroke:none;stroke-width:0.87909001px;marker:none;enable-background:accumulate"
       d="m 1325.6865,547.27636 c 18.1105,-37.48493 56.2049,-69.00635 106.1646,-81.78531 49.9597,-12.77895 142.3854,-9.37128 158.6225,-5.11157 16.2367,4.25963 105.5399,19.59432 124.8993,40.89261 19.3594,21.29829 45.5883,47.70815 51.2088,74.96986 5.6205,27.2618 0.6244,92.86048 -17.4859,107.34332 -18.1104,14.48285 -100.5442,46.00427 -148.6305,47.70806 -48.0863,1.70388 -159.8712,-11.92702 -191.7206,-21.2982 -31.8494,-9.37128 -65.5722,-21.2983 -75.5641,-51.11583 -9.992,-29.81763 -28.7269,-69.00645 -7.4941,-111.60294 z"
       id="path3533"
       inkscape:connector-curvature="0" />
    <path
       style="color:#000000;display:inline;overflow:visible;visibility:visible;fill:#ffffff;fill-opacity:1;fill-rule:nonzero;stroke:none;stroke-width:1px;marker:none;enable-background:accumulate"
       d="m 1678.4528,528.49189 c 30.5923,52.37324 -103.4044,94.84893 -110.4621,125.45674 -2.3684,10.27079 -5.582,32.22619 0.4801,42.42915 10.2279,17.21496 39.4486,19.14791 -24.0871,109.8658 -15.4603,19.92013 12.0481,56.95066 47.151,66.90119 28.0513,17.10155 -7.3932,123.12378 -37.4741,172.62433 43.7979,-42.6678 77.2922,-149.02168 64.215,-140.15631 4.5835,-35.53698 -13.701,-44.07469 -23.5467,-53.21369 -9.8457,-9.13907 -29.5569,-14.98259 -28.3948,-30.06869 1.1623,-15.08705 39.8018,-58.24357 44.8599,-85.55656 5.0578,-27.31218 -22.1531,-43.05915 -16.0064,-68.06815 6.1465,-25.00909 83.9624,-57.20023 102.0984,-79.91604 20.9522,-23.39323 25.1007,-60.90229 25.1007,-60.90229 z"
       id="path3153"
       inkscape:connector-curvature="0"
       sodipodi:nodetypes="cssccccscssccc" />
    <path
       style="color:#000000;display:inline;overflow:visible;visibility:visible;fill:#ffffff;fill-opacity:1;fill-rule:nonzero;stroke:none;stroke-width:0.90365124px;marker:none;enable-background:accumulate"
       d="m 1468.0466,924.06646 c 0.7699,-38.2146 15.7683,-74.35395 148.7266,-73.10331 99.6927,0.93774 126.2414,30.38124 128.4502,69.0085 1.5567,27.22135 -52.3777,52.418 -138.031,51.08327 -81.868,-1.27573 -133.1587,-17.84603 -139.1458,-46.98846 z"
       id="path5026"
       inkscape:connector-curvature="0"
       sodipodi:nodetypes="csssc" />
    <path
       style="color:#000000;display:inline;overflow:visible;visibility:visible;fill:#ffffff;fill-opacity:1;fill-rule:nonzero;stroke:none;stroke-width:0.93530899px;marker:none;enable-background:accumulate"
       d="m 241.99119,1924.4114 c 9.21073,-47.2323 28.41389,-96.5528 203.75817,-86.9265 175.3443,9.6263 214.42466,52.3112 214.84208,101.3399 0.54678,64.2246 -45.25855,74.3908 -70.9774,82.1087 -25.71873,7.7179 -85.91043,15.9385 -129.18764,17.9745 -23.26922,1.0949 -164.29646,-7.5047 -190.68004,-32.2803 -26.2895,-24.6873 -30.25752,-48.2268 -27.75517,-82.2163 z"
       id="path3365"
       inkscape:connector-curvature="0"
       sodipodi:nodetypes="csssssc" />
    <path
       style="fill:#ffffff;stroke:none"
       d="m 822.15272,2218.8389 c -8.72758,85.5065 -132.14228,98.7311 -189.1148,101.2582 -56.97246,2.5271 -208.49774,13.5551 -259.83324,-57.9686 -51.33552,-71.5236 -28.78782,-104.3326 4.59766,-139.1863 28.46993,-29.7221 95.40268,-44.1015 153.99263,-51.1407 72.75112,-8.7405 196.03448,-0.9235 246.47646,35.6556 26.90014,19.507 52.60893,25.8754 43.88129,111.3818 z"
       id="path3100"
       inkscape:connector-curvature="0"
       sodipodi:nodetypes="zsssssz" />
    <path
       style="fill:#ffffff;fill-rule:evenodd;stroke:none;stroke-width:1px;stroke-linecap:butt;stroke-linejoin:miter;stroke-opacity:1"
       d="m 534.12829,1990.1588 c 25.7289,58.6047 40.02273,101.4862 22.87013,151.5146 -17.15259,50.0284 1.42939,104.345 -12.86445,141.509 -14.29383,37.1639 -38.54491,47.2584 -11.43506,107.2037 19.79941,43.7805 -85.08462,39.3605 -44.31895,127.2554 -63.78914,-78.8501 40.07923,-99.8873 25.7289,-127.2151 -28.88282,-55.0024 -7.13885,-80.0858 2.86684,-105.8147 10.00568,-25.7289 -6.87995,-119.2204 10.00568,-151.5146 18.13588,-34.6853 -17.29178,-107.4567 -22.87013,-131.5032 -7.17205,-30.9164 30.01704,-11.4351 30.01704,-11.4351 z"
       id="path4313"
       inkscape:connector-curvature="0"
       sodipodi:nodetypes="cssscssssc" />
  </g>
  <g
     inkscape:groupmode="layer"
     id="layer1"
     inkscape:label="txt">
    <text
       xml:space="preserve"
       style="font-style:normal;font-variant:normal;font-weight:normal;font-stretch:normal;line-height:0%;font-family:Lavi;-inkscape-font-specification:Lavi;text-align:center;letter-spacing:0px;word-spacing:0px;text-anchor:middle;fill:#000000;fill-opacity:1;stroke:none"
       x="1492.463"
       y="276.7338"
       id="text4246"><tspan
         sodipodi:role="line"
         style="font-size:67.89629364px;line-height:1.25"
         x="1492.463"
         y="276.7338"
         id="tspan4252">Gulrot!</tspan></text>
    <text
       xml:space="preserve"
       style="font-style:normal;font-variant:normal;font-weight:normal;font-stretch:normal;line-height:0%;font-family:Lavi;-inkscape-font-specification:Lavi;text-align:center;letter-spacing:0px;word-spacing:0px;text-anchor:middle;fill:#000000;fill-opacity:1;stroke:none"
       x="1625.382"
       y="417.03772"
       id="text4246-1"><tspan
         sodipodi:role="line"
         style="font-size:45px;line-height:1.25"
         x="1625.382"
         y="417.03772"
         id="tspan4252-8">Kom tilbake ...</tspan></text>
    <text
       xml:space="preserve"
       style="font-style:normal;font-variant:normal;font-weight:normal;font-stretch:normal;line-height:0%;font-family:Lavi;-inkscape-font-specification:Lavi;text-align:center;letter-spacing:0px;word-spacing:0px;text-anchor:middle;fill:#000000;fill-opacity:1;stroke:none"
       x="1542.0848"
       y="548.81372"
       id="text4246-1-3"><tspan
         sodipodi:role="line"
         style="font-size:45px;line-height:1.25"
         x="1549.1161"
         y="548.81372"
         id="tspan3510">Sumpdrakar </tspan><tspan
         sodipodi:role="line"
         style="font-size:45px;line-height:1.25"
         x="1549.1161"
         y="605.06372"
         id="tspan8030">er kjende for </tspan><tspan
         sodipodi:role="line"
         style="font-size:45px;line-height:1.25"
         x="1542.0848"
         y="661.31372"
         id="tspan8036">å vera fredelege!</tspan></text>
    <text
       xml:space="preserve"
       style="font-style:normal;font-variant:normal;font-weight:normal;font-stretch:normal;line-height:0%;font-family:Lavi;-inkscape-font-specification:Lavi;text-align:center;letter-spacing:0px;word-spacing:0px;text-anchor:middle;fill:#000000;fill-opacity:1;stroke:none"
       x="1600.0629"
       y="921.86475"
       id="text4246-1-3-6"><tspan
         sodipodi:role="line"
         style="font-size:35.54689407px;line-height:1.25"
         x="1600.0629"
         y="921.86475"
         id="tspan8040">... trudde eg.</tspan></text>
    <text
       xml:space="preserve"
       style="font-style:normal;font-variant:normal;font-weight:normal;font-stretch:normal;line-height:0%;font-family:Lavi;-inkscape-font-specification:Lavi;text-align:center;letter-spacing:0px;word-spacing:0px;text-anchor:middle;fill:#000000;fill-opacity:1;stroke:none"
       x="447.2666"
       y="1921.0948"
       id="text4246-10"><tspan
         sodipodi:role="line"
         style="font-size:45px;line-height:1.25"
         x="454.29785"
         y="1921.0948"
         id="tspan3514">Hmmm... </tspan><tspan
         sodipodi:role="line"
         style="font-size:45px;line-height:1.25"
         x="447.2666"
         y="1977.3448"
         id="tspan8046">Lyndraken ...</tspan></text>
    <text
       xml:space="preserve"
       style="font-style:normal;font-variant:normal;font-weight:normal;font-stretch:normal;line-height:0%;font-family:Lavi;-inkscape-font-specification:Lavi;text-align:center;letter-spacing:0px;word-spacing:0px;text-anchor:middle;fill:#000000;fill-opacity:1;stroke:none"
       x="579.8111"
       y="2155.9912"
       id="text4246-10-5"><tspan
         sodipodi:role="line"
         style="font-size:45px;line-height:1.25"
         x="586.84235"
         y="2155.9912"
         id="tspan3531">Her er nok ikkje </tspan><tspan
         sodipodi:role="line"
         style="font-size:45px;line-height:1.25"
         x="586.84235"
         y="2212.2412"
         id="tspan8055">dette rett verktøy </tspan><tspan
         sodipodi:role="line"
         style="font-size:45px;line-height:1.25"
         x="579.8111"
         y="2268.4912"
         id="tspan8057">for jobben.</tspan><tspan
         sodipodi:role="line"
         style="font-size:45px;line-height:1.25"
         x="579.8111"
         y="2286.9983"
         id="tspan8053" /></text>
  </g>
</svg>
