<?xml version="1.0" encoding="UTF-8" standalone="no"?>
<!-- Created with Inkscape (http://www.inkscape.org/) -->

<svg
   xmlns:dc="http://purl.org/dc/elements/1.1/"
   xmlns:cc="http://creativecommons.org/ns#"
   xmlns:rdf="http://www.w3.org/1999/02/22-rdf-syntax-ns#"
   xmlns:svg="http://www.w3.org/2000/svg"
   xmlns="http://www.w3.org/2000/svg"
   xmlns:xlink="http://www.w3.org/1999/xlink"
   xmlns:sodipodi="http://sodipodi.sourceforge.net/DTD/sodipodi-0.dtd"
   xmlns:inkscape="http://www.inkscape.org/namespaces/inkscape"
   id="svg2"
   version="1.1"
   inkscape:version="0.92.2 (5c3e80d, 2017-08-06)"
   width="2481"
   height="3503"
   sodipodi:docname="E22P02.svg"
   inkscape:export-filename="E:\Users\jamesmichael\Downloads\Compressed\eps\ep22_The-Voting-System_lang-pack\lang\ph\E22P02.png"
   inkscape:export-xdpi="90"
   inkscape:export-ydpi="90">
  <sodipodi:namedview
     pagecolor="#ffffff"
     bordercolor="#666666"
     inkscape:pageopacity="0"
     inkscape:pageshadow="2"
     inkscape:window-width="1813"
     inkscape:window-height="955"
     id="namedview70"
     showgrid="false"
     inkscape:zoom="0.2"
     inkscape:cx="476.38612"
     inkscape:cy="2148.1771"
     inkscape:current-layer="layer3"
     inkscape:snap-grids="false"
     inkscape:snap-to-guides="false"
     inkscape:snap-others="false"
     inkscape:object-nodes="false"
     inkscape:snap-nodes="false"
     inkscape:snap-global="false" />
  <metadata
     id="metadata8">
    <rdf:RDF>
      <cc:Work
         rdf:about="">
        <dc:format>image/svg+xml</dc:format>
        <dc:type
           rdf:resource="http://purl.org/dc/dcmitype/StillImage" />
        <dc:title />
      </cc:Work>
    </rdf:RDF>
  </metadata>
  <defs
     id="defs6">
    <filter
       style="color-interpolation-filters:sRGB"
       id="filter4375-4-1-1-1-9-6-9-2-1"
       inkscape:label="deevad outline effect">
      <feFlood
         id="feFlood4377-7-9-0-8-1-0-2-2-06"
         flood-opacity="1"
         flood-color="rgb(0,0,0)"
         result="flood" />
      <feComposite
         id="feComposite4379-3-8-8-2-77-6-0-8-3"
         in2="SourceGraphic"
         in="flood"
         operator="in"
         result="composite1" />
      <feMorphology
         id="feMorphology4393-1-0-49-8-9-2-2-9-2"
         operator="dilate"
         radius="4"
         result="result3" />
      <feComposite
         id="feComposite4385-9-5-7-0-8-6-3-7-0"
         in2="result3"
         in="SourceGraphic"
         operator="over"
         result="composite2" />
    </filter>
    <filter
       style="color-interpolation-filters:sRGB"
       id="filter4375-4-1-1-1-9-6-9-2-1-9"
       inkscape:label="deevad outline effect">
      <feFlood
         id="feFlood4377-7-9-0-8-1-0-2-2-06-9"
         flood-opacity="1"
         flood-color="rgb(0,0,0)"
         result="flood" />
      <feComposite
         id="feComposite4379-3-8-8-2-77-6-0-8-3-7"
         in2="SourceGraphic"
         in="flood"
         operator="in"
         result="composite1" />
      <feMorphology
         id="feMorphology4393-1-0-49-8-9-2-2-9-2-8"
         operator="dilate"
         radius="4"
         result="result3" />
      <feComposite
         id="feComposite4385-9-5-7-0-8-6-3-7-0-2"
         in2="result3"
         in="SourceGraphic"
         operator="over"
         result="composite2" />
    </filter>
    <filter
       inkscape:collect="always"
       style="color-interpolation-filters:sRGB"
       id="filter5140"
       x="-0.0040053238"
       width="1.0080106"
       y="-0.003269172"
       height="1.0065383">
      <feGaussianBlur
         inkscape:collect="always"
         stdDeviation="0.82624753"
         id="feGaussianBlur5142" />
    </filter>
    <clipPath
       clipPathUnits="userSpaceOnUse"
       id="clipPath5144">
      <rect
         transform="rotate(90)"
         rx="41.981346"
         ry="45.931492"
         y="-1224.1606"
         x="1798.4014"
         height="377.50375"
         width="556.19257"
         id="rect5146"
         style="color:#000000;clip-rule:nonzero;display:inline;overflow:visible;visibility:visible;opacity:1;isolation:auto;mix-blend-mode:normal;color-interpolation:sRGB;color-interpolation-filters:linearRGB;solid-color:#000000;solid-opacity:1;fill:#550000;fill-opacity:1;fill-rule:nonzero;stroke:none;stroke-width:2.85428143;stroke-linecap:butt;stroke-linejoin:miter;stroke-miterlimit:4;stroke-dasharray:none;stroke-dashoffset:0;stroke-opacity:1;marker:none;color-rendering:auto;image-rendering:auto;shape-rendering:auto;text-rendering:auto;enable-background:accumulate" />
    </clipPath>
  </defs>
  <sodipodi:namedview
     pagecolor="#ffffff"
     bordercolor="#666666"
     borderopacity="1"
     objecttolerance="10"
     gridtolerance="10"
     guidetolerance="10"
     inkscape:pageopacity="0"
     inkscape:pageshadow="2"
     inkscape:window-width="1920"
     inkscape:window-height="1025"
     id="namedview4"
     showgrid="false"
     inkscape:zoom="0.41468262"
     inkscape:cx="1087.6272"
     inkscape:cy="763.52991"
     inkscape:window-x="0"
     inkscape:window-y="26"
     inkscape:window-maximized="1"
     inkscape:current-layer="layer3"
     inkscape:snap-text-baseline="true" />
  <g
     inkscape:groupmode="layer"
     id="layer2"
     inkscape:label="artwork"
     sodipodi:insensitive="true">
    <image
       sodipodi:absref="E:\Users\jamesmichael\Downloads\Compressed\eps\ep22_The-Voting-System_lang-pack\lang\ph\../gfx_Pepper-and-Carrot_by-David-Revoy_E22P02.png"
       xlink:href="../gfx_Pepper-and-Carrot_by-David-Revoy_E22P02.png"
       y="0"
       x="0"
       id="image10"
       height="3503"
       width="2481" />
  </g>
  <g
     inkscape:groupmode="layer"
     id="layer3"
     inkscape:label="speechbubbles"
     style="display:inline">
    <path
       style="color:#000000;clip-rule:nonzero;display:inline;overflow:visible;visibility:visible;opacity:1;isolation:auto;mix-blend-mode:normal;color-interpolation:sRGB;color-interpolation-filters:linearRGB;solid-color:#000000;solid-opacity:1;fill:#550000;fill-opacity:1;fill-rule:nonzero;stroke:none;stroke-width:2.43407655;stroke-linecap:butt;stroke-linejoin:miter;stroke-miterlimit:4;stroke-dasharray:none;stroke-dashoffset:0;stroke-opacity:1;marker:none;color-rendering:auto;image-rendering:auto;shape-rendering:auto;text-rendering:auto;enable-background:accumulate"
       d="m 584.33418,276.30146 c -39.3475,0 -40,-0.30183 -40,35.05757 v 506.68282 c 0,36.6094 -5.285,35.05757 40,35.05757 h 203.52343 c 40.5975,0 40,3.73933 40,-35.05757 V 311.35903 c 0,-34.1094 -1.2775,-35.05757 -40,-35.05757 z"
       id="rect4632-8-6-1-3-6-7"
       inkscape:connector-curvature="0"
       sodipodi:nodetypes="sssssssss" />
    <path
       style="color:#000000;display:inline;overflow:visible;visibility:visible;fill:#550000;fill-opacity:1;fill-rule:nonzero;stroke:none;stroke-width:1px;marker:none;enable-background:accumulate"
       d="m 636.69243,886.5443 46.37749,-44.77509 9.05133,24.94742 48.36716,-18.60426 -55.85737,46.02163 -9.79715,-24.47813 z"
       id="path4456"
       inkscape:connector-curvature="0"
       sodipodi:nodetypes="ccccccc"
       inkscape:transform-center-x="-57.5"
       inkscape:transform-center-y="-15" />
    <rect
       style="color:#000000;clip-rule:nonzero;display:inline;overflow:visible;visibility:visible;opacity:1;isolation:auto;mix-blend-mode:normal;color-interpolation:sRGB;color-interpolation-filters:linearRGB;solid-color:#000000;solid-opacity:1;fill:#550000;fill-opacity:1;fill-rule:nonzero;stroke:none;stroke-width:2.64763379;stroke-linecap:butt;stroke-linejoin:miter;stroke-miterlimit:4;stroke-dasharray:none;stroke-dashoffset:0;stroke-opacity:1;marker:none;color-rendering:auto;image-rendering:auto;shape-rendering:auto;text-rendering:auto;enable-background:accumulate"
       id="rect4632-8-6-1-3-6-7-3-0"
       width="292.93518"
       height="240.33789"
       x="1368.4064"
       y="-2297.886"
       ry="15"
       rx="17.5"
       transform="rotate(90)" />
    <rect
       style="color:#000000;clip-rule:nonzero;display:inline;overflow:visible;visibility:visible;opacity:1;isolation:auto;mix-blend-mode:normal;color-interpolation:sRGB;color-interpolation-filters:linearRGB;solid-color:#000000;solid-opacity:1;fill:#550000;fill-opacity:1;fill-rule:nonzero;stroke:none;stroke-width:2.78598309;stroke-linecap:butt;stroke-linejoin:miter;stroke-miterlimit:4;stroke-dasharray:none;stroke-dashoffset:0;stroke-opacity:1;marker:none;color-rendering:auto;image-rendering:auto;shape-rendering:auto;text-rendering:auto;enable-background:accumulate"
       id="rect4632-8-6-1-3-6-7-3-0-6"
       width="389.02673"
       height="215.30861"
       x="1851.4866"
       y="-1943.0966"
       ry="12.706878"
       rx="11.960297"
       transform="rotate(90)" />
    <path
       style="fill:#550000;fill-opacity:1;stroke:none;stroke-width:1px;stroke-linecap:butt;stroke-linejoin:miter;stroke-opacity:1;filter:url(#filter5140)"
       d="m 1052.8125,1781.4375 c 0,0 25.6645,20.3677 46.4097,38.8404 12.9691,11.5484 39.3868,32.8247 47.8202,33.2334 6.4487,0.3125 13.393,-4.6274 49.8326,-41.1363 34.365,-34.4304 23.75,-22.8125 23.75,-22.8125 l 138.7878,27.8717 19.4454,517.7045 -494.26851,-2.1967 -0.82107,-604.3771 124.74238,11.9714 13.2583,15.0261 z"
       id="path5021"
       inkscape:connector-curvature="0"
       clip-path="url(#clipPath5144)"
       sodipodi:nodetypes="cssscccccccc" />
    <path
       style="color:#000000;display:inline;overflow:visible;visibility:visible;fill:#550000;fill-opacity:1;fill-rule:nonzero;stroke:none;stroke-width:1px;marker:none;enable-background:accumulate"
       d="m 2239.0923,1364.7279 -62.7566,-46.6247 -12.2123,33.4838 -46.9642,-15.6916 55.2618,45.6854 12.4435,-34.2114 z"
       id="path4456-6"
       inkscape:connector-curvature="0"
       inkscape:transform-center-x="33.138736"
       inkscape:transform-center-y="30.4377"
       sodipodi:nodetypes="ccccccc" />
    <rect
       style="color:#000000;clip-rule:nonzero;display:inline;overflow:visible;visibility:visible;opacity:1;isolation:auto;mix-blend-mode:normal;color-interpolation:sRGB;color-interpolation-filters:linearRGB;solid-color:#000000;solid-opacity:1;fill:#550000;fill-opacity:1;fill-rule:nonzero;stroke:none;stroke-width:2.5999999;stroke-linecap:butt;stroke-linejoin:miter;stroke-miterlimit:4;stroke-dasharray:none;stroke-dashoffset:0;stroke-opacity:1;marker:none;color-rendering:auto;image-rendering:auto;shape-rendering:auto;text-rendering:auto;enable-background:accumulate"
       id="rect4632-8-6-1-3-6-7-3"
       width="313.54218"
       height="284.57239"
       x="-2302.3638"
       y="541.04059"
       ry="13.75"
       rx="13.75"
       transform="rotate(-90)" />
    <path
       style="color:#000000;display:inline;overflow:visible;visibility:visible;fill:#550000;fill-opacity:1;fill-rule:nonzero;stroke:none;stroke-width:2.5999999;marker:none;enable-background:accumulate;opacity:1"
       d="M 178.38867 2380.0039 C 172.86027 2380.0039 168.41016 2385.9516 168.41016 2393.3398 L 168.41016 2871.918 C 168.41016 2879.3062 172.86027 2885.2539 178.38867 2885.2539 L 472.22266 2885.2539 C 474.97521 2885.2539 477.45981 2883.7774 479.26172 2881.3848 C 473.9564 2877.9478 467.65018 2871.9828 470.9375 2864.25 C 472.82006 2859.8216 477.39773 2859.3496 482.20117 2860.4746 L 482.20117 2393.3398 C 482.20117 2385.9516 477.75106 2380.0039 472.22266 2380.0039 L 178.38867 2380.0039 z "
       id="rect4632-8-6-1-3-6-7-3-0-1" />
    <path
       style="color:#000000;display:inline;overflow:visible;visibility:visible;fill:#ffffff;fill-opacity:1;fill-rule:nonzero;stroke:none;stroke-width:1.18679523px;marker:none;enable-background:accumulate"
       d="m 1259.4216,2527.528 c 28.98,-16.0149 82.3094,-3.149 87.1446,102.2553 4.0969,89.3105 -37.0581,118.7935 -45.8595,121.428 -8.8011,2.6344 -60.6151,26.4368 -73.8171,-57.8685 -13.2019,-84.3055 3.552,-149.8 32.532,-165.8148 z"
       id="path3525-0-2"
       inkscape:connector-curvature="0"
       sodipodi:nodetypes="zscsz" />
    <path
       inkscape:transform-center-y="-15"
       inkscape:transform-center-x="-57.5"
       sodipodi:nodetypes="ccccccc"
       inkscape:connector-curvature="0"
       id="path4958"
       d="m 642.12136,276.02021 46.37749,-44.77509 9.05133,24.94742 48.36716,-18.60426 -55.85737,46.02163 -9.79715,-24.47813 z"
       style="color:#000000;display:inline;overflow:visible;visibility:visible;fill:#550000;fill-opacity:1;fill-rule:nonzero;stroke:none;stroke-width:1px;marker:none;enable-background:accumulate" />
    <rect
       transform="rotate(90)"
       rx="12.5"
       ry="16.25"
       y="-477.66379"
       x="1262.9554"
       height="277.0051"
       width="391.57523"
       id="rect4960"
       style="color:#000000;clip-rule:nonzero;display:inline;overflow:visible;visibility:visible;opacity:1;isolation:auto;mix-blend-mode:normal;color-interpolation:sRGB;color-interpolation-filters:linearRGB;solid-color:#000000;solid-opacity:1;fill:#550000;fill-opacity:1;fill-rule:nonzero;stroke:none;stroke-width:2.5999999;stroke-linecap:butt;stroke-linejoin:miter;stroke-miterlimit:4;stroke-dasharray:none;stroke-dashoffset:0;stroke-opacity:1;marker:none;color-rendering:auto;image-rendering:auto;shape-rendering:auto;text-rendering:auto;enable-background:accumulate" />
    <path
       inkscape:transform-center-y="-15"
       inkscape:transform-center-x="-57.5"
       sodipodi:nodetypes="ccccccc"
       inkscape:connector-curvature="0"
       id="path5148"
       d="m 126.69243,1459.0443 46.37749,-44.7751 9.05133,24.9474 48.36716,-18.6042 -55.85737,46.0216 -9.79715,-24.4781 z"
       style="color:#000000;display:inline;overflow:visible;visibility:visible;fill:#550000;fill-opacity:1;fill-rule:nonzero;stroke:none;stroke-width:1px;marker:none;enable-background:accumulate" />
    <path
       style="color:#000000;display:inline;overflow:visible;visibility:visible;fill:#550000;fill-opacity:1;fill-rule:nonzero;stroke:none;stroke-width:1px;marker:none;enable-background:accumulate"
       d="m 639.19243,1991.5443 46.37749,-44.7751 9.05133,24.9474 48.36716,-18.6042 -55.85737,46.0216 -9.79715,-24.4781 z"
       id="path5150"
       inkscape:connector-curvature="0"
       sodipodi:nodetypes="ccccccc"
       inkscape:transform-center-x="-57.5"
       inkscape:transform-center-y="-15" />
    <path
       sodipodi:nodetypes="ccccccc"
       inkscape:transform-center-y="31.025"
       inkscape:transform-center-x="32.639091"
       inkscape:connector-curvature="0"
       id="path5174"
       d="m 383.79443,2916.437 -63.49586,-45.6129 -11.67402,33.6752 -47.20967,-14.9368 55.98689,44.7938 11.89363,-34.4065 z"
       style="color:#000000;display:inline;overflow:visible;visibility:visible;fill:#550000;fill-opacity:1;fill-rule:nonzero;stroke:none;stroke-width:1px;marker:none;enable-background:accumulate" />
    <path
       style="color:#000000;display:inline;overflow:visible;visibility:visible;fill:#550000;fill-opacity:1;fill-rule:nonzero;stroke:none;stroke-width:1px;marker:none;enable-background:accumulate"
       d="m 1891.2944,2263.937 -63.4958,-45.6129 -11.674,33.6752 -47.2097,-14.9368 55.9869,44.7938 11.8936,-34.4065 z"
       id="path5176"
       inkscape:connector-curvature="0"
       inkscape:transform-center-x="32.639091"
       inkscape:transform-center-y="31.025"
       sodipodi:nodetypes="ccccccc" />
  </g>
  <g
     inkscape:groupmode="layer"
     id="layer1"
     inkscape:label="txt"
     style="display:inline">
    <text
       xml:space="preserve"
       style="font-style:normal;font-variant:normal;font-weight:normal;font-stretch:normal;line-height:1;font-family:Lavi;-inkscape-font-specification:Lavi;text-align:center;letter-spacing:0px;word-spacing:0px;text-anchor:middle;display:inline;fill:#ffffff;fill-opacity:1;stroke:none"
       x="684.16797"
       y="340.22601"
       id="text4246-2-3-1-3-9-9-6-2"><tspan
         sodipodi:role="line"
         style="font-size:45px;line-height:1;fill:#ffffff"
         x="684.16797"
         y="349.71381"
         id="tspan5012" /><tspan
         sodipodi:role="line"
         style="font-size:45px;line-height:1;fill:#ffffff"
         x="692.07812"
         y="387.80527"
         id="tspan4813">Salamat sa </tspan><tspan
         sodipodi:role="line"
         style="font-size:45px;line-height:1;fill:#ffffff"
         x="692.07812"
         y="432.80527"
         id="tspan4815">ating mga </tspan><tspan
         sodipodi:role="line"
         style="font-size:45px;line-height:1;fill:#ffffff"
         x="692.07812"
         y="477.80527"
         id="tspan4817">mahusay na </tspan><tspan
         sodipodi:role="line"
         style="font-size:45px;line-height:1;fill:#ffffff"
         x="692.07812"
         y="522.8053"
         id="tspan4819">engineer, </tspan><tspan
         sodipodi:role="line"
         style="font-size:45px;line-height:1;fill:#ffffff"
         x="692.07812"
         y="567.8053"
         id="tspan4821">lahat ng </tspan><tspan
         sodipodi:role="line"
         style="font-size:45px;line-height:1;fill:#ffffff"
         x="692.07812"
         y="612.8053"
         id="tspan4825">audience ay </tspan><tspan
         sodipodi:role="line"
         style="font-size:45px;line-height:1;fill:#ffffff"
         x="692.07812"
         y="657.8053"
         id="tspan4827">maaari nang </tspan><tspan
         sodipodi:role="line"
         style="font-size:45px;line-height:1;fill:#ffffff"
         x="684.16797"
         y="702.8053"
         id="tspan4953">makipag-</tspan><tspan
         sodipodi:role="line"
         style="font-size:45px;line-height:1;fill:#ffffff"
         x="684.16797"
         y="747.8053"
         id="tspan4941">participate!</tspan></text>
    <text
       xml:space="preserve"
       style="font-style:normal;font-variant:normal;font-weight:normal;font-stretch:normal;font-size:10.5891161px;line-height:0%;font-family:Lavi;-inkscape-font-specification:Lavi;text-align:center;letter-spacing:0px;word-spacing:0px;text-anchor:middle;display:inline;fill:#ffffff;fill-opacity:1;stroke:none;stroke-width:0.88242632"
       x="684.21265"
       y="2091.9243"
       id="text4246-2-3-1-3-9-9-6"><tspan
         sodipodi:role="line"
         style="font-size:39.70918655px;line-height:1.25;fill:#ffffff;stroke-width:0.88242632"
         x="684.21265"
         y="2095.002"
         id="tspan4853" /><tspan
         sodipodi:role="line"
         style="font-size:39.70918655px;line-height:1;fill:#ffffff;stroke-width:0.88242632"
         x="684.21265"
         y="2095.002"
         id="tspan4855" /><tspan
         sodipodi:role="line"
         style="font-size:39.70918655px;line-height:1;fill:#ffffff;stroke-width:0.88242632"
         x="691.19275"
         y="2123.3203"
         id="tspan4865">na ipapasa sa </tspan><tspan
         sodipodi:role="line"
         style="font-size:39.70918655px;line-height:1;fill:#ffffff;stroke-width:0.88242632"
         x="691.19275"
         y="2163.0295"
         id="tspan4857">inyo ng ating </tspan><tspan
         sodipodi:role="line"
         style="font-size:39.70918655px;line-height:1;fill:#ffffff;stroke-width:0.88242632"
         x="691.19275"
         y="2202.7388"
         id="tspan4859">mga hosts at </tspan><tspan
         sodipodi:role="line"
         style="font-size:39.70918655px;line-height:1;fill:#ffffff;stroke-width:0.88242632"
         x="684.21265"
         y="2242.4478"
         id="tspan4861">hostesses</tspan><tspan
         sodipodi:role="line"
         style="font-size:39.70918655px;line-height:1;fill:#ffffff;stroke-width:0.88242632"
         x="684.21265"
         y="2253.8386"
         id="tspan4863" /></text>
    <text
       xml:space="preserve"
       style="font-style:normal;font-variant:normal;font-weight:normal;font-stretch:normal;font-size:10.67512512px;line-height:1;font-family:Lavi;-inkscape-font-specification:'Lavi, Normal';text-align:center;letter-spacing:0px;word-spacing:0px;writing-mode:lr-tb;text-anchor:middle;display:inline;fill:#ffffff;fill-opacity:1;stroke:none;stroke-width:0.88959372"
       x="1052.318"
       y="1896.1578"
       id="text4246-2-3-1-3-9-9-6-5"><tspan
         sodipodi:role="line"
         x="1059.3549"
         y="1896.1578"
         style="font-size:40.03171921px;line-height:1;fill:#ffffff;stroke-width:0.88959372"
         id="tspan5065">Pindutin </tspan><tspan
         sodipodi:role="line"
         x="1052.318"
         y="1936.1896"
         style="font-size:40.03171921px;line-height:1;fill:#ffffff;stroke-width:0.88959372"
         id="tspan5013">ang green,</tspan><tspan
         sodipodi:role="line"
         x="1059.3549"
         y="1976.2213"
         style="font-size:40.03171921px;line-height:1;fill:#ffffff;stroke-width:0.88959372"
         id="tspan4876">dagdag puntos </tspan><tspan
         sodipodi:role="line"
         x="1052.318"
         y="2016.2531"
         style="font-size:40.03171921px;line-height:1;fill:#ffffff;stroke-width:0.88959372"
         id="tspan4878">para sa kalahok.</tspan><tspan
         sodipodi:role="line"
         x="1059.3549"
         y="2056.2847"
         style="font-size:40.03171921px;line-height:1;fill:#ffffff;stroke-width:0.88959372"
         id="tspan4880">Pindutin ang </tspan><tspan
         sodipodi:role="line"
         x="1059.3549"
         y="2096.3164"
         style="font-size:40.03171921px;line-height:1;fill:#ffffff;stroke-width:0.88959372"
         id="tspan5027">pula, at bawas </tspan><tspan
         sodipodi:role="line"
         x="1052.318"
         y="2136.3481"
         style="font-size:40.03171921px;line-height:1;fill:#ffffff;stroke-width:0.88959372"
         id="tspan5017">puntos sa</tspan><tspan
         sodipodi:role="line"
         x="1052.318"
         y="2176.3799"
         style="font-size:40.03171921px;line-height:1;fill:#ffffff;stroke-width:0.88959372"
         id="tspan5131"> kalahok!</tspan><tspan
         sodipodi:role="line"
         x="1052.318"
         y="2193.2007"
         style="font-size:40.03171921px;line-height:1;fill:#ffffff;stroke-width:0.88959372"
         id="tspan5015" /><tspan
         sodipodi:role="line"
         x="1052.318"
         y="2203.876"
         style="font-size:40.03171921px;line-height:1;fill:#ffffff;stroke-width:0.88959372"
         id="tspan5129" /><tspan
         sodipodi:role="line"
         x="1052.318"
         y="2214.551"
         style="font-size:40.03171921px;line-height:1;fill:#ffffff;stroke-width:0.88959372"
         id="tspan4886" /></text>
    <text
       xml:space="preserve"
       style="font-style:normal;font-variant:normal;font-weight:normal;font-stretch:normal;line-height:1;font-family:Lavi;-inkscape-font-specification:Lavi;text-align:center;letter-spacing:0px;word-spacing:0px;text-anchor:middle;display:inline;fill:#ffffff;fill-opacity:1;stroke:none"
       x="2177.4458"
       y="1443.2998"
       id="text4246-2-3-1-3-9-9-6-9-3"><tspan
         sodipodi:role="line"
         style="font-size:45px;line-height:1;fill:#ffffff"
         x="2185.356"
         y="1443.2998"
         id="tspan3559-5">sabi </tspan><tspan
         sodipodi:role="line"
         style="font-size:45px;line-height:1;fill:#ffffff"
         x="2185.356"
         y="1488.2998"
         id="tspan4890">nila papano </tspan><tspan
         sodipodi:role="line"
         style="font-size:45px;line-height:1;fill:#ffffff"
         x="2185.356"
         y="1533.2998"
         id="tspan4892">naman daw </tspan><tspan
         sodipodi:role="line"
         style="font-size:45px;line-height:1;fill:#ffffff"
         x="2185.356"
         y="1578.2998"
         id="tspan4894">ang mga </tspan><tspan
         sodipodi:role="line"
         style="font-size:45px;line-height:1;fill:#ffffff"
         x="2177.4458"
         y="1623.2998"
         id="tspan4896">hurado?</tspan></text>
    <text
       xml:space="preserve"
       style="font-style:normal;font-variant:normal;font-weight:normal;font-stretch:normal;line-height:1;font-family:Lavi;-inkscape-font-specification:Lavi;text-align:center;letter-spacing:0px;word-spacing:0px;text-anchor:middle;display:inline;fill:#ffffff;fill-opacity:1;stroke:none"
       x="1834.2017"
       y="1958.4551"
       id="text4246-2-3-1-3-9-9-6-9"><tspan
         sodipodi:role="line"
         style="font-size:45px;line-height:1;fill:#ffffff"
         x="1842.1118"
         y="1958.4551"
         id="tspan5083">naisip </tspan><tspan
         sodipodi:role="line"
         style="font-size:45px;line-height:1;fill:#ffffff"
         x="1842.1118"
         y="2003.4551"
         id="tspan4903">na din </tspan><tspan
         sodipodi:role="line"
         style="font-size:45px;line-height:1;fill:#ffffff"
         x="1842.1118"
         y="2048.4551"
         id="tspan4905">namin ang </tspan><tspan
         sodipodi:role="line"
         style="font-size:45px;line-height:1;fill:#ffffff"
         x="1842.1118"
         y="2093.4551"
         id="tspan5133">tungkol </tspan><tspan
         sodipodi:role="line"
         style="font-size:45px;line-height:1;fill:#ffffff"
         x="1834.2017"
         y="2138.4551"
         id="tspan4907">dyan</tspan><tspan
         sodipodi:role="line"
         style="font-size:45px;line-height:1;fill:#ffffff"
         x="1834.2017"
         y="2157.3635"
         id="tspan4909" /></text>
    <text
       xml:space="preserve"
       style="font-style:normal;font-variant:normal;font-weight:normal;font-stretch:normal;line-height:1;font-family:Lavi;-inkscape-font-specification:Lavi;text-align:center;letter-spacing:0px;word-spacing:0px;text-anchor:middle;display:inline;fill:#ffffff;fill-opacity:1;stroke:none"
       x="326.86154"
       y="2447.3821"
       id="text4246-2-3-1-3-9-9-6-9-8"><tspan
         sodipodi:role="line"
         style="font-size:45px;line-height:1;fill:#ffffff"
         x="334.7717"
         y="2447.3821"
         id="tspan5105">Bawat </tspan><tspan
         sodipodi:role="line"
         style="font-size:45px;line-height:1;fill:#ffffff"
         x="334.7717"
         y="2492.3821"
         id="tspan4925">hurado ay </tspan><tspan
         sodipodi:role="line"
         style="font-size:45px;line-height:1;fill:#ffffff"
         x="334.7717"
         y="2537.3821"
         id="tspan5166">may special </tspan><tspan
         sodipodi:role="line"
         style="font-size:45px;line-height:1;fill:#ffffff"
         x="334.7717"
         y="2582.3821"
         id="tspan4927">remote at sa </tspan><tspan
         sodipodi:role="line"
         style="font-size:45px;line-height:1;fill:#ffffff"
         x="326.86154"
         y="2627.3821"
         id="tspan4929">isang pindot,</tspan><tspan
         sodipodi:role="line"
         style="font-size:45px;line-height:1;fill:#ffffff"
         x="334.7717"
         y="2672.3821"
         id="tspan4931">ay kayang </tspan><tspan
         sodipodi:role="line"
         style="font-size:45px;line-height:1;fill:#ffffff"
         x="334.7717"
         y="2717.3821"
         id="tspan4935">magbigay at </tspan><tspan
         sodipodi:role="line"
         style="font-size:45px;line-height:1;fill:#ffffff"
         x="326.86154"
         y="2762.3821"
         id="tspan5160">bumawi ng</tspan><tspan
         sodipodi:role="line"
         style="font-size:45px;line-height:1;fill:#ffffff"
         x="334.7717"
         y="2807.3821"
         id="tspan5156">100 puntos </tspan><tspan
         sodipodi:role="line"
         style="font-size:45px;line-height:1;fill:#ffffff"
         x="326.86154"
         y="2852.3821"
         id="tspan4937">kada isa.</tspan><tspan
         sodipodi:role="line"
         style="font-size:45px;line-height:1;fill:#ffffff"
         x="326.86154"
         y="2871.2905"
         id="tspan4939" /></text>
    <text
       id="text4250"
       y="2665.2498"
       x="1285.3547"
       style="font-style:normal;font-variant:normal;font-weight:normal;font-stretch:normal;line-height:0%;font-family:Lavi;-inkscape-font-specification:'Lavi, Normal';text-align:center;letter-spacing:0px;word-spacing:0px;writing-mode:lr-tb;text-anchor:middle;display:inline;fill:#000000;fill-opacity:1;stroke:none"
       xml:space="preserve"><tspan
         y="2665.2498"
         x="1285.3547"
         id="tspan4260"
         sodipodi:role="line"
         style="font-size:45px;line-height:1.25">Wow!</tspan></text>
    <text
       id="text4982"
       y="1365.4354"
       x="337.8212"
       style="font-style:normal;font-variant:normal;font-weight:normal;font-stretch:normal;line-height:0%;font-family:Lavi;-inkscape-font-specification:Lavi;text-align:center;letter-spacing:0px;word-spacing:0px;text-anchor:middle;display:inline;fill:#ffffff;fill-opacity:1;stroke:none"
       xml:space="preserve"><tspan
         id="tspan4962"
         y="1365.4354"
         x="345.73135"
         style="font-size:45px;line-height:1.25;fill:#ffffff"
         sodipodi:role="line">Pagmasdan </tspan><tspan
         id="tspan4964"
         y="1421.6854"
         x="345.73135"
         style="font-size:45px;line-height:1.25;fill:#ffffff"
         sodipodi:role="line">ang mga </tspan><tspan
         id="tspan4968"
         y="1477.9354"
         x="345.73135"
         style="font-size:45px;line-height:1.25;fill:#ffffff"
         sodipodi:role="line">high-tech na </tspan><tspan
         y="1534.1854"
         x="345.73135"
         style="font-size:45px;line-height:1.25;fill:#ffffff"
         sodipodi:role="line"
         id="tspan4995">voting </tspan><tspan
         y="1590.4354"
         x="337.8212"
         style="font-size:45px;line-height:1.25;fill:#ffffff"
         sodipodi:role="line"
         id="tspan4999">remote,</tspan><tspan
         id="tspan4978"
         y="1608.969"
         x="337.8212"
         style="font-size:45px;line-height:1.25;fill:#ffffff"
         sodipodi:role="line" /><tspan
         id="tspan4980"
         y="1608.969"
         x="337.8212"
         style="font-size:45px;line-height:1.25;fill:#ffffff"
         sodipodi:role="line" /></text>
    <text
       id="text5051"
       y="2234.6614"
       x="1756.6017"
       style="font-style:normal;font-variant:normal;font-weight:normal;font-stretch:normal;font-size:12.68957615px;line-height:1;font-family:Lavi;-inkscape-font-specification:'Lavi, Normal';text-align:center;letter-spacing:0px;word-spacing:0px;writing-mode:lr-tb;text-anchor:middle;display:inline;fill:#ffffff;fill-opacity:1;stroke:none;stroke-width:1.05746472"
       xml:space="preserve"
       transform="skewX(-17.657339)"><tspan
         id="tspan5049"
         style="font-size:47.5859108px;line-height:1;fill:#ffffff;stroke-width:1.05746472"
         y="2234.6614"
         x="1764.9664"
         sodipodi:role="line">Kayo ang </tspan><tspan
         style="font-size:47.5859108px;line-height:1;fill:#ffffff;stroke-width:1.05746472"
         y="2282.2473"
         x="1756.6017"
         sodipodi:role="line"
         id="tspan5107"> Huhusga!</tspan></text>
  </g>
</svg>
