<?xml version="1.0" encoding="UTF-8" standalone="no"?>
<!-- Created with Inkscape (http://www.inkscape.org/) -->

<svg
   id="svg2"
   version="1.1"
   inkscape:version="1.1.1 (3bf5ae0d25, 2021-09-20)"
   width="2481"
   height="3503"
   sodipodi:docname="E36P15.svg"
   xmlns:inkscape="http://www.inkscape.org/namespaces/inkscape"
   xmlns:sodipodi="http://sodipodi.sourceforge.net/DTD/sodipodi-0.dtd"
   xmlns:xlink="http://www.w3.org/1999/xlink"
   xmlns="http://www.w3.org/2000/svg"
   xmlns:svg="http://www.w3.org/2000/svg"
   xmlns:rdf="http://www.w3.org/1999/02/22-rdf-syntax-ns#"
   xmlns:cc="http://creativecommons.org/ns#"
   xmlns:dc="http://purl.org/dc/elements/1.1/">
  <metadata
     id="metadata8">
    <rdf:RDF>
      <cc:Work
         rdf:about="">
        <dc:format>image/svg+xml</dc:format>
        <dc:type
           rdf:resource="http://purl.org/dc/dcmitype/StillImage" />
      </cc:Work>
    </rdf:RDF>
  </metadata>
  <defs
     id="defs6" />
  <sodipodi:namedview
     pagecolor="#1e1e1e"
     bordercolor="#111111"
     borderopacity="1"
     objecttolerance="10"
     gridtolerance="10"
     guidetolerance="10"
     inkscape:pageopacity="0"
     inkscape:pageshadow="2"
     inkscape:window-width="1852"
     inkscape:window-height="1016"
     id="namedview4"
     showgrid="false"
     inkscape:zoom="0.7035753"
     inkscape:cx="1180.3996"
     inkscape:cy="2374.3017"
     inkscape:window-x="0"
     inkscape:window-y="0"
     inkscape:window-maximized="1"
     inkscape:current-layer="layer3"
     inkscape:pagecheckerboard="0"
     inkscape:snap-global="false" />
  <g
     inkscape:groupmode="layer"
     id="layer2"
     inkscape:label="artwork"
     sodipodi:insensitive="true">
    <image
       xlink:href="../gfx_Pepper-and-Carrot_by-David-Revoy_E36P15.png"
       y="0"
       x="0"
       id="image10"
       height="3503"
       width="2481" />
  </g>
  <g
     inkscape:groupmode="layer"
     id="layer3"
     inkscape:label="speechbubbles"
     style="display:inline">
    <path
       sodipodi:nodetypes="zssssz"
       inkscape:connector-curvature="0"
       id="path4040-4-9-3"
       d="m 301.30963,1085.1722 c -32.81792,0.5348 -65.95519,8.0202 -95.16291,25.0742 -14.72154,9.4558 -27.54398,23.6891 -33.65667,41.5884 -5.64916,20.6995 -6.22394,43.5798 0.61744,64.0208 7.81974,21.7078 25.61971,38.2707 45.93636,43.8668 18.68938,5.5807 38.18441,3.0217 57.24019,2.3157 15.64773,-0.778 31.34632,-1.0893 46.97385,0.3023 31.77994,1.2994 63.60426,-0.7615 95.20769,-4.4534 14.35693,-2.1415 28.93879,-7.2943 39.8728,-18.2764 12.5827,-12.5577 18.89456,-31.3912 19.79043,-49.8809 1.08267,-16.7528 -1.28452,-34.4346 -9.791,-48.6358 -7.74157,-12.7166 -19.63962,-21.0817 -30.9626,-29.3667 -16.66996,-11.8426 -35.52178,-20.4327 -55.31751,-22.5947 -25.46553,-3.6306 -51.18878,-3.7182 -76.8195,-3.9666 -1.30952,0 -2.61904,0 -3.92857,0.01 z"
       style="color:#000000;display:inline;overflow:visible;visibility:visible;fill:#ffffff;fill-opacity:1;fill-rule:nonzero;stroke:none;stroke-width:0.944339px;marker:none;enable-background:accumulate" />
    <path
       sodipodi:nodetypes="zssssz"
       inkscape:connector-curvature="0"
       id="path4040-4-9-3-0"
       d="m 1029.5218,1104.2748 c -65.50025,0.6452 -132.22321,5.7225 -193.87528,27.2362 -20.41057,7.1074 -39.58238,21.0634 -45.71528,40.8274 -7.46156,23.5475 4.07024,49.2855 23.83673,64.9858 17.54079,14.2208 40.57116,20.8677 62.89651,26.1281 40.8424,8.7248 82.99638,10.0899 124.75052,11.6213 89.8209,2.5795 179.6271,-2.5414 269.158,-8.6252 37.3167,-2.8393 75.8614,-9.1366 107.6498,-28.2133 28.6447,-19.2428 38.9065,-59.0686 19.7091,-86.9357 -13.0779,-19.0725 -36.4182,-30.425 -60.236,-34.4716 -38.0701,-7.0561 -77.0858,-7.8082 -115.7783,-9.3 -46.6716,-1.5299 -93.3742,-2.1286 -140.0658,-2.9692 -17.442,-0.2288 -34.886,-0.3939 -52.33,-0.2838 z"
       style="color:#000000;display:inline;overflow:visible;visibility:visible;fill:#ffffff;fill-opacity:1;fill-rule:nonzero;stroke:none;stroke-width:1.35486px;marker:none;enable-background:accumulate" />
    <path
       sodipodi:nodetypes="zssssz"
       inkscape:connector-curvature="0"
       id="path4040-4-9-3-0-9"
       d="m 1504.1272,1148.7539 c -38.9328,0.9418 -78.6162,7.9091 -112.6305,26.0636 -20.1711,11.5176 -31.0857,33.6874 -30.9928,55.1371 -1.0026,26.0096 9.7206,53.1573 31.7786,70.0462 19.7256,14.7179 44.965,20.9775 69.5653,24.7412 33.6057,4.8585 67.6977,5.9478 101.6633,6.2378 43.9874,-0.042 88.1485,-2.7642 131.3254,-10.773 25.1062,-5.8343 49.6268,-17.7587 65.0858,-37.3826 16.804,-21.7956 21.7681,-51.9144 9.4549,-76.5307 -10.5915,-21.8065 -33.5065,-37.7553 -58.9017,-42.1196 -37.0379,-8.8531 -75.477,-9.7386 -113.4393,-12.1933 -30.9178,-1.9835 -61.9083,-3.3854 -92.909,-3.2267 z"
       style="color:#000000;display:inline;overflow:visible;visibility:visible;fill:#ffffff;fill-opacity:1;fill-rule:nonzero;stroke:none;stroke-width:1.14411px;marker:none;enable-background:accumulate" />
    <path
       style="fill:#ffffff;fill-rule:evenodd;stroke:none;stroke-width:1.03468px;stroke-linecap:butt;stroke-linejoin:miter;stroke-opacity:1"
       d="m 311.1607,1250.875 c -35.23163,1.1022 -70.66077,-0.3365 -105.66594,5.3751 -11.14858,2.0506 -21.86783,7.221 -30.89507,15.2198 -17.62275,15.1349 -29.33461,39.2218 -31.79307,64.7117 -2.75896,21.5495 -2.49124,43.906 2.48511,64.9882 4.68738,17.5623 15.1643,33.106 29.2043,41.456 15.6884,10.0321 33.4492,14.0131 50.82637,17.7885 33.56109,6.6918 67.73936,7.3724 101.69164,6.4253 24.19146,-0.8977 48.2588,-4.1447 72.42048,-5.6484 22.24909,-1.6913 44.7507,-4.5226 65.81108,-13.6401 10.13897,-4.1393 20.85297,-8.9776 27.78968,-19.1166 7.82909,-11.8634 10.0088,-27.2517 11.04142,-41.8378 1.58294,-25.0991 -0.48043,-50.6377 -6.81589,-74.7121 -2.63151,-9.4948 -5.8515,-18.9716 -10.91556,-27.0523 -7.03224,-9.8046 -17.50402,-14.8595 -27.79558,-18.0555 -25.22163,-9.8133 -52.02139,-10.7566 -78.31628,-12.2429 -23.01357,-1.4391 -46.00447,-3.992 -69.07269,-3.6589 z"
       id="path4430-0"
       inkscape:connector-curvature="0"
       sodipodi:nodetypes="cccc" />
    <path
       style="fill:#ffffff;fill-rule:evenodd;stroke:none;stroke-width:0.994835px;stroke-linecap:butt;stroke-linejoin:miter;stroke-opacity:1"
       d="m 492.73176,1624.6635 c 35.8435,-75.0596 29.27963,-94.5713 28.30936,-110.3154 -16.52174,13.049 -24.86604,17.1296 -24.65914,16.0987 3.00972,-14.9956 -37.0191,-160.0643 -46.02432,-155.6225 l 25.72144,3.5806 c 0,0 17.88665,28.959 23.68535,50.3037 5.37124,19.7714 9.79616,68.3744 9.79616,68.3744 0,0 11.77629,-10.107 19.5645,-13.9247 2.56416,14.0835 32.14557,54.8133 -36.39335,141.5052 z"
       id="path891"
       inkscape:connector-curvature="0"
       sodipodi:nodetypes="ccsccsccc" />
    <path
       id="path889"
       style="fill:#ffffff;fill-rule:evenodd;stroke:none;stroke-width:1.18686px;stroke-linecap:butt;stroke-linejoin:miter;stroke-opacity:1"
       d="m 1984.2667,1087.207 c -7.3397,6.1259 -13.5659,13.2284 -18.6079,20.5807 -17.2635,25.3282 -28.5131,53.2158 -34.9489,81.6403 -6.7869,31.7896 -4.5407,64.3307 0.4994,96.1701 6.1948,36.7271 18.4324,73.675 43.8768,104.8629 16.3084,17.0411 42.109,25.9271 67.5952,29.8365 33.0544,5.7887 66.591,10.4192 100.4364,11.3518 38.1612,0.2695 76.1721,-4.6936 113.0138,-12.5297 31.8586,-7.6637 63.0623,-20.8066 84.0273,-42.3037 14.9983,-15.9967 21.2321,-35.8699 26.5993,-55.1435 16.7032,-55.9105 20.8852,-115.1604 4.0431,-171.4007 -3.8579,-12.3519 -8.0259,-24.8772 -15.7149,-36.0658 -7.6859,-10.6875 -18.1542,-19.7292 -30.2965,-26.9989 z" />
    <path
       style="display:inline;fill:#ffffff;stroke:none;stroke-width:1.01998"
       d="m 2024.8625,1656.5295 c -36.6951,-36.3482 -51.4636,-146.9832 -15.7581,-200.1432 21.0661,-31.3642 32.1188,-50.4337 32.1188,-50.4337 l -28.0045,-20.3446 c -86.6887,117.4428 -32.0129,235.0369 11.6438,270.9215 z"
       id="path3063-1-0"
       inkscape:connector-curvature="0"
       sodipodi:nodetypes="csccc" />
    <path
       style="fill:#ffffff;fill-rule:evenodd;stroke:none;stroke-width:0.925596px;stroke-linecap:butt;stroke-linejoin:miter;stroke-opacity:1"
       d="m 1443.9859,2281.4559 c -35.6997,0.7026 -71.8767,4.8115 -105.6036,18.7637 -16.0443,6.8429 -31.3903,17.8775 -40.8132,34.418 -9.0921,21.8242 -8.414,48.9944 3.1167,69.5221 6.351,11.4098 15.9153,20.106 26.4604,26.2099 14.418,8.5056 30.2987,13.2898 46.1813,16.8475 26.4563,5.4982 53.4495,6.629 80.2948,6.5874 35.2251,-0.3752 70.4615,-3.6878 105.17,-10.529 22.1205,-5.3052 44.5466,-12.4171 63.2916,-27.2299 9.3168,-10.5331 13.1377,-25.4002 15.4859,-39.6487 3.8501,-23.2257 -4.1134,-49.0226 -21.2563,-63.0629 -12.1308,-9.5068 -26.6699,-13.7746 -40.782,-17.8978 -23.4052,-6.1271 -47.3903,-8.5654 -71.2395,-11.3709 -20.0517,-1.9326 -40.1839,-2.7215 -60.3061,-2.6094 z"
       id="path4430-0-7"
       inkscape:connector-curvature="0"
       sodipodi:nodetypes="cccc" />
    <path
       style="display:inline;fill:#ffffff;fill-rule:evenodd;stroke:none;stroke-width:0.720483px;stroke-linecap:butt;stroke-linejoin:miter;stroke-opacity:1"
       d="m 1103.6125,2911.2658 c -28.9323,0.5523 -58.6701,5.9365 -83.2095,20.6199 -18.4597,11.9646 -27.44164,33.6236 -25.64531,53.9178 0.71349,20.3498 11.31151,40.9412 30.22671,52.2325 17.9232,10.8907 39.1042,16.1547 60.0807,19.5 30.8585,4.6057 62.6429,6.9564 93.5918,1.6718 18.9828,-3.395 38.0503,-9.2041 53.4043,-20.3056 9.6923,-6.9276 17.1274,-16.492 20.5886,-27.3378 6.7254,-18.9661 6.6369,-40.3619 -2.2601,-58.7248 -7.4432,-14.1411 -22.2732,-24.3914 -38.7627,-28.2086 -24.0083,-7.0573 -49.1967,-9.6786 -74.1477,-12.2527 -11.2605,-0.8724 -22.5668,-1.2574 -33.8668,-1.1125 z"
       id="path4430-0-7-3"
       inkscape:connector-curvature="0"
       sodipodi:nodetypes="cccc" />
    <path
       style="color:#000000;display:inline;overflow:visible;visibility:visible;fill:#ffffff;fill-opacity:1;fill-rule:nonzero;stroke:none;stroke-width:0.933879px;marker:none;enable-background:accumulate"
       d="m 1510.6073,2424.7097 c 95.8683,30.7313 27.8183,159.8015 -2.9543,189.2123 50.4373,-43.5579 100.0481,-123.5802 33.0541,-217.2104 -31.2156,-43.6267 -19.8493,18.5629 -19.8493,18.5629 z"
       id="path4035-4"
       inkscape:connector-curvature="0"
       sodipodi:nodetypes="ccscc" />
    <path
       style="color:#000000;display:inline;overflow:visible;visibility:visible;fill:#ffffff;fill-opacity:1;fill-rule:nonzero;stroke:none;stroke-width:1.25818px;marker:none;enable-background:accumulate"
       d="m 1016.0253,2110.8934 c -52.4321,1.232 -104.99127,1.6283 -157.01342,6.0753 -30.72517,3.1071 -61.75364,9.2089 -88.06473,29.5022 -18.61027,14.8793 -34.85204,38.0047 -40.94515,69.7993 -3.78256,20.391 -1.32124,44.4164 6.62031,64.9956 9.36851,25.292 26.18103,45.4704 44.24268,51.8479 23.65761,10.5651 47.54359,12.8678 71.30199,19.0703 75.43727,14.8809 149.65162,10.6038 223.26902,5.6001 28.6172,-2.1953 57.5351,-4.8703 84.0559,-17.359 18.3645,-9.2597 35.698,-25.4838 44.106,-52.1299 11.4655,-37.9796 2.0038,-92.8506 -23.1276,-123.5797 -19.1209,-23.2021 -42.4349,-32.8207 -64.6468,-40.2408 -33.4193,-10.5145 -66.8877,-13.867 -99.7982,-13.5813 z"
       id="path4546-6-5-5"
       inkscape:connector-curvature="0"
       sodipodi:nodetypes="cssssc" />
    <path
       style="color:#000000;display:inline;overflow:visible;visibility:visible;fill:#ffffff;fill-opacity:1;fill-rule:nonzero;stroke:none;stroke-width:0.511885px;marker:none;enable-background:accumulate"
       d="m 1182.8043,2298.7231 c -47.0958,97.2099 119.6823,275.9514 169.1212,292.0835 -51.7775,2.6287 -240.2555,-195.1587 -200.9875,-267.3486 13.5008,-24.8191 78.962,-121.9447 31.8663,-24.7349 z"
       id="path4480-6"
       inkscape:connector-curvature="0"
       sodipodi:nodetypes="zcsz" />
    <path
       style="fill:#ffffff;stroke:none;stroke-width:1.22863"
       d="m 1132.3337,2836.1319 c 6.9881,13.1882 16.9513,18.3851 13.6567,35.0595 -18.6808,32.3624 -3.398,71.476 20.2436,84.4218 3.4934,10.3144 -10.2432,41.0229 -10.2432,41.0229 -31.6711,-50.3948 -47.4892,-83.1315 -25.5958,-126.3842 3.8504,-6.927 -8.3872,-14.7062 -12.2361,-26.3855 -3.8491,-11.6793 -4.7084,-20.1125 -0.097,-40.9935 3.9527,-17.898 39.9891,-41.3608 39.9891,-41.3608 -27.433,31.2471 -35.5926,52.7621 -25.7173,74.6198 z"
       id="path3023-4"
       inkscape:connector-curvature="0"
       sodipodi:nodetypes="cccccsscc" />
    <path
       style="display:inline;color:#000000;overflow:visible;visibility:visible;fill:#ffffff;fill-opacity:1;fill-rule:nonzero;stroke:none;stroke-width:1.24837px;marker:none;enable-background:accumulate"
       d="m 1376.3349,1458.4408 c 65.8497,-28.0462 73.8682,-93.2932 85.6163,-133.8532 16.6063,-57.3342 4.4593,-31.0509 4.4593,-31.0509 l 17.674,-21.5326 c 11.5377,-2.8141 18.9907,153.1862 -107.7496,186.4367 z"
       id="path3072-1-3"
       inkscape:connector-curvature="0"
       sodipodi:nodetypes="csccc" />
  </g>
  <g
     inkscape:groupmode="layer"
     id="layer1"
     inkscape:label="txt"
     style="display:inline">
    <text
       id="text4246-4-2-7"
       y="1159.6787"
       x="326.35803"
       style="font-style:normal;font-variant:normal;font-weight:normal;font-stretch:normal;line-height:0%;font-family:Lavi;-inkscape-font-specification:Lavi;text-align:center;letter-spacing:0px;word-spacing:0px;text-anchor:middle;fill:#000000;fill-opacity:1;stroke:none"
       xml:space="preserve"><tspan
         y="1159.6787"
         x="326.35803"
         style="font-size:45px;line-height:1.25"
         sodipodi:role="line"
         id="tspan1999">Hey, hvad</tspan><tspan
         y="1215.9287"
         x="326.35803"
         style="font-size:45px;line-height:1.25"
         sodipodi:role="line"
         id="tspan12630">sker der?</tspan></text>
    <text
       id="text4246-4-2-7-3"
       y="1307.0507"
       x="330.63736"
       style="font-style:normal;font-variant:normal;font-weight:normal;font-stretch:normal;line-height:0%;font-family:Lavi;-inkscape-font-specification:Lavi;text-align:center;letter-spacing:0px;word-spacing:0px;text-anchor:middle;fill:#000000;fill-opacity:1;stroke:none"
       xml:space="preserve"><tspan
         y="1307.0507"
         x="330.63736"
         style="font-size:45px;line-height:1.25"
         sodipodi:role="line"
         id="tspan14801">Nogen af dem</tspan><tspan
         y="1363.3007"
         x="330.63736"
         style="font-size:45px;line-height:1.25"
         sodipodi:role="line"
         id="tspan19626">begynder at </tspan><tspan
         y="1419.5507"
         x="330.63736"
         style="font-style:normal;font-variant:normal;font-weight:bold;font-stretch:normal;font-size:45px;line-height:1.25;font-family:Lavi;-inkscape-font-specification:'Lavi Bold'"
         sodipodi:role="line"
         id="tspan48107">kysse... ?!</tspan></text>
    <text
       id="text4246-4-2-7-3-6"
       y="1179.7714"
       x="1098.0321"
       style="font-style:normal;font-variant:normal;font-weight:normal;font-stretch:normal;line-height:0%;font-family:Lavi;-inkscape-font-specification:Lavi;text-align:center;letter-spacing:0px;word-spacing:0px;text-anchor:middle;fill:#000000;fill-opacity:1;stroke:none"
       xml:space="preserve"><tspan
         y="1179.7714"
         x="1098.0321"
         style="font-size:45px;line-height:1.25"
         sodipodi:role="line"
         id="tspan67460">Øhm... det skaber en del</tspan><tspan
         y="1236.0214"
         x="1098.0321"
         style="font-size:45px;line-height:1.25"
         sodipodi:role="line"
         id="tspan34704"> nye par det der!</tspan></text>
    <text
       id="text4246-4-2-7-3-6-3"
       y="1233.8654"
       x="1575.7726"
       style="font-style:normal;font-variant:normal;font-weight:normal;font-stretch:normal;line-height:0%;font-family:Lavi;-inkscape-font-specification:Lavi;text-align:center;letter-spacing:0px;word-spacing:0px;text-anchor:middle;fill:#000000;fill-opacity:1;stroke:none"
       xml:space="preserve"><tspan
         y="1233.8654"
         x="1575.7726"
         style="font-size:45px;line-height:1.25"
         sodipodi:role="line"
         id="tspan72570">Var det meningen,</tspan><tspan
         y="1290.1154"
         x="1575.7726"
         style="font-size:45px;line-height:1.25"
         sodipodi:role="line"
         id="tspan37300">Pepper?</tspan></text>
    <text
       id="text4246-4-2-7-3-6-3-6"
       y="1164.1056"
       x="2157.8196"
       style="font-style:normal;font-variant:normal;font-weight:normal;font-stretch:normal;line-height:0%;font-family:Lavi;-inkscape-font-specification:Lavi;text-align:center;letter-spacing:0px;word-spacing:0px;text-anchor:middle;fill:#000000;fill-opacity:1;stroke:none"
       xml:space="preserve"><tspan
         y="1164.1056"
         x="2157.8196"
         style="font-size:45px;line-height:1.25"
         sodipodi:role="line"
         id="tspan77909">Øh, nej! Jeg tror at</tspan><tspan
         y="1220.3556"
         x="2157.8196"
         style="font-size:45px;line-height:1.25"
         sodipodi:role="line"
         id="tspan77915">det er dragens Rea</tspan><tspan
         y="1276.6056"
         x="2157.8196"
         style="font-size:45px;line-height:1.25"
         sodipodi:role="line"
         id="tspan65857">som overdoserede</tspan><tspan
         y="1332.8556"
         x="2157.8196"
         style="font-size:45px;line-height:1.25"
         sodipodi:role="line"
         id="tspan66695">kærligheden i min</tspan><tspan
         y="1389.1056"
         x="2157.8196"
         style="font-size:45px;line-height:1.25"
         sodipodi:role="line"
         id="tspan69757">formular.</tspan></text>
    <text
       id="text4246-4-2-7-3-6-3-6-1"
       y="2196.5691"
       x="965.97968"
       style="font-style:normal;font-variant:normal;font-weight:normal;font-stretch:normal;line-height:0%;font-family:Lavi;-inkscape-font-specification:Lavi;text-align:center;letter-spacing:0px;word-spacing:0px;text-anchor:middle;fill:#000000;fill-opacity:1;stroke:none"
       xml:space="preserve"><tspan
         y="2196.5691"
         x="965.97968"
         style="font-size:45px;line-height:1.25"
         sodipodi:role="line"
         id="tspan11317">Haha, denne kamp</tspan><tspan
         y="2252.8191"
         x="965.97968"
         style="font-size:45px;line-height:1.25"
         sodipodi:role="line"
         id="tspan78452">går direkte ind i</tspan><tspan
         y="2309.0691"
         x="965.97968"
         style="font-size:45px;line-height:1.25"
         sodipodi:role="line"
         id="tspan79606">historiebøgerne!</tspan></text>
    <text
       id="text4246-4-2-7-3-6-3-6-1-3"
       y="2350.5242"
       x="1456"
       style="font-style:normal;font-variant:normal;font-weight:normal;font-stretch:normal;line-height:0%;font-family:Lavi;-inkscape-font-specification:Lavi;text-align:center;letter-spacing:0px;word-spacing:0px;text-anchor:middle;fill:#000000;fill-opacity:1;stroke:none"
       xml:space="preserve"><tspan
         y="2350.5242"
         x="1456"
         style="font-size:45px;line-height:1.25"
         sodipodi:role="line"
         id="tspan83228-9">Hi, hi!</tspan></text>
    <text
       id="text4246-4-2-7-3-6-3-6-1-3-2"
       y="2400.8943"
       x="1464.8267"
       style="font-style:normal;font-variant:normal;font-weight:normal;font-stretch:normal;line-height:0%;font-family:Lavi;-inkscape-font-specification:Lavi;text-align:center;letter-spacing:0px;word-spacing:0px;text-anchor:middle;fill:#000000;fill-opacity:1;stroke:none"
       xml:space="preserve"><tspan
         y="2400.8943"
         x="1464.8267"
         style="font-size:45px;line-height:1.25"
         sodipodi:role="line"
         id="tspan83228-9-2">Helt sikkert!</tspan></text>
    <text
       id="text4246-4-2-7-3-6-3-6-1-3-2-8"
       y="2970.5569"
       x="1129.4034"
       style="font-style:normal;font-variant:normal;font-weight:normal;font-stretch:normal;font-size:42px;line-height:0%;font-family:Lavi;-inkscape-font-specification:Lavi;text-align:center;letter-spacing:0px;word-spacing:0px;text-anchor:middle;fill:#000000;fill-opacity:1;stroke:none"
       xml:space="preserve"><tspan
         y="2970.5569"
         x="1129.4034"
         style="font-size:42px;line-height:1.25"
         sodipodi:role="line"
         id="tspan21813">Åh,</tspan><tspan
         y="3023.0569"
         x="1129.4034"
         style="font-size:42px;line-height:1.25"
         sodipodi:role="line"
         id="tspan92338">hvor pinligt!</tspan></text>
    <text
       transform="matrix(0.85852879,0,-0.29243083,1.1647833,0,0)"
       id="text4213-7"
       y="2982.4719"
       x="2454.0139"
       style="font-style:normal;font-variant:normal;font-weight:normal;font-stretch:normal;font-size:10.7631px;line-height:0%;font-family:Lavi;-inkscape-font-specification:Lavi;text-align:center;letter-spacing:0px;word-spacing:0px;text-anchor:middle;display:inline;fill:#d97041;fill-opacity:1;stroke:#000000;stroke-width:0;stroke-miterlimit:4;stroke-dasharray:none;stroke-opacity:1"
       xml:space="preserve"><tspan
         style="font-style:normal;font-variant:normal;font-weight:bold;font-stretch:normal;font-size:64.7408px;line-height:1.25;font-family:Lavi;-inkscape-font-specification:'Lavi Bold';fill:#d97041;fill-opacity:1;stroke:none;stroke-width:0;stroke-miterlimit:4;stroke-dasharray:none"
         y="2982.4719"
         x="2454.0139"
         id="tspan3562-5"
         sodipodi:role="line">- SLUT -</tspan></text>
  </g>
</svg>
