<?xml version="1.0" encoding="UTF-8" standalone="no"?>
<!-- Created with Inkscape (http://www.inkscape.org/) -->

<svg
   id="svg2"
   version="1.1"
   inkscape:version="1.1.2 (0a00cf5339, 2022-02-04)"
   width="2481"
   height="3503"
   sodipodi:docname="E37P05.svg"
   xmlns:inkscape="http://www.inkscape.org/namespaces/inkscape"
   xmlns:sodipodi="http://sodipodi.sourceforge.net/DTD/sodipodi-0.dtd"
   xmlns:xlink="http://www.w3.org/1999/xlink"
   xmlns="http://www.w3.org/2000/svg"
   xmlns:svg="http://www.w3.org/2000/svg"
   xmlns:rdf="http://www.w3.org/1999/02/22-rdf-syntax-ns#"
   xmlns:cc="http://creativecommons.org/ns#"
   xmlns:dc="http://purl.org/dc/elements/1.1/">
  <metadata
     id="metadata8">
    <rdf:RDF>
      <cc:Work
         rdf:about="">
        <dc:format>image/svg+xml</dc:format>
        <dc:type
           rdf:resource="http://purl.org/dc/dcmitype/StillImage" />
        <dc:title />
      </cc:Work>
    </rdf:RDF>
  </metadata>
  <defs
     id="defs6">
    <rect
       x="1608.2427"
       y="3438.9756"
       width="3.7688227"
       height="17.710736"
       id="rect217686" />
    <filter
       inkscape:label="Magmah-FX"
       inkscape:menu="Distort"
       inkscape:menu-tooltip="Horizontal rippling of edges"
       style="color-interpolation-filters:sRGB"
       id="filter4265-7"
       y="0"
       x="0"
       width="1"
       height="1">
      <feTurbulence
         numOctaves="1"
         baseFrequency="0.002 0.107"
         id="feTurbulence4267-7" />
      <feColorMatrix
         values="5 0 0 0 0 0 0 0 0 0 0 0 0 0 0 0 0 0 4 0 "
         result="result91"
         id="feColorMatrix4269-1" />
      <feDisplacementMap
         yChannelSelector="A"
         xChannelSelector="R"
         scale="14.3"
         in="SourceGraphic"
         in2="result91"
         id="feDisplacementMap4271-2" />
    </filter>
    <filter
       style="color-interpolation-filters:sRGB"
       inkscape:label="Magmah-spell-glow"
       id="filter4751"
       x="-0.033441791"
       y="-0.12562146"
       width="1.0668836"
       height="1.2512429">
      <feFlood
         flood-opacity="1"
         flood-color="rgb(255,255,255)"
         result="flood"
         id="feFlood4753" />
      <feComposite
         in="flood"
         in2="SourceGraphic"
         operator="in"
         result="composite1"
         id="feComposite4755" />
      <feGaussianBlur
         in="composite1"
         stdDeviation="5.4"
         result="blur"
         id="feGaussianBlur4757" />
      <feOffset
         dx="0"
         dy="0"
         result="offset"
         id="feOffset4759" />
      <feComposite
         in="SourceGraphic"
         in2="offset"
         operator="over"
         result="composite2"
         id="feComposite4761" />
    </filter>
    <filter
       inkscape:label="Magmah-FX"
       inkscape:menu="Distort"
       inkscape:menu-tooltip="Horizontal rippling of edges"
       style="color-interpolation-filters:sRGB"
       id="filter4265-7-5"
       y="0"
       x="0"
       width="1"
       height="1">
      <feTurbulence
         numOctaves="1"
         baseFrequency="0.002 0.107"
         id="feTurbulence4267-7-3" />
      <feColorMatrix
         values="5 0 0 0 0 0 0 0 0 0 0 0 0 0 0 0 0 0 4 0 "
         result="result91"
         id="feColorMatrix4269-1-5" />
      <feDisplacementMap
         yChannelSelector="A"
         xChannelSelector="R"
         scale="14.3"
         in="SourceGraphic"
         in2="result91"
         id="feDisplacementMap4271-2-6" />
    </filter>
  </defs>
  <sodipodi:namedview
     pagecolor="#ffffff"
     bordercolor="#666666"
     borderopacity="1"
     objecttolerance="10"
     gridtolerance="10"
     guidetolerance="10"
     inkscape:pageopacity="0"
     inkscape:pageshadow="2"
     inkscape:window-width="1846"
     inkscape:window-height="1016"
     id="namedview4"
     showgrid="false"
     inkscape:zoom="0.57212826"
     inkscape:cx="1444.6061"
     inkscape:cy="2788.7103"
     inkscape:window-x="0"
     inkscape:window-y="0"
     inkscape:window-maximized="1"
     inkscape:current-layer="layer1"
     inkscape:pagecheckerboard="0"
     inkscape:showpageshadow="0"
     inkscape:deskcolor="#d1d1d1" />
  <g
     inkscape:groupmode="layer"
     id="layer2"
     inkscape:label="artwork"
     sodipodi:insensitive="true">
    <image
       xlink:href="../gfx_Pepper-and-Carrot_by-David-Revoy_E37P05.png"
       y="0"
       x="0"
       id="image10"
       height="3503"
       width="2481" />
  </g>
  <g
     inkscape:groupmode="layer"
     id="layer3"
     inkscape:label="speechbubbles"
     style="display:inline">
    <path
       style="fill:#ffffff;stroke:none;stroke-width:0.75896"
       d="m 406.98716,334.38726 c -27.43677,0.71309 -54.75111,6.80295 -79.64412,17.94543 -16.70527,9.27873 -25.51229,30.53926 -18.80087,48.15839 4.37978,12.06126 14.9748,21.19176 26.90148,26.27077 20.38872,9.38849 43.26646,11.90664 65.59676,12.72122 22.29346,0.79627 44.75239,0.44568 66.81169,-3.01386 14.37296,-2.73191 28.37026,-8.72922 39.10085,-18.47421 9.64036,-8.90396 16.03284,-21.78642 14.72742,-34.8247 -0.96319,-9.77143 -6.96295,-18.50203 -14.86684,-24.45872 -8.30464,-6.26044 -18.13482,-10.28119 -27.91796,-13.87926 -22.95853,-8.00336 -47.62292,-10.46969 -71.90841,-10.44506 z"
       id="path3280-81"
       inkscape:connector-curvature="0"
       sodipodi:nodetypes="csssc" />
    <path
       style="display:inline;fill:#ffffff;stroke:none;stroke-width:0.75896"
       d="M 339.75781 240.44336 C 316.76682 241.59346 293.35873 243.73316 271.79149 252.3479 C 261.04266 256.56779 250.57807 263.17755 244.69984 273.41776 C 236.67359 286.63596 235.41939 304.26229 243.15686 317.89554 C 250.33906 330.05605 263.57624 337.74013 277.2832 340.10938 C 302.49359 345.87739 328.25165 348.6627 353.9245 351.44115 C 382.54722 353.18337 411.89595 348.71169 437.84365 336.18651 C 448.11578 330.86655 457.14717 322.1337 460.67966 310.89345 C 465.82522 296.53591 462.54628 279.11265 451.45945 268.39097 C 444.09492 261.38539 434.68407 257.12625 425.46638 253.14042 C 408.77591 246.38017 390.85196 243.35064 373.01797 241.54703 C 361.9629 240.55842 350.85195 240.33192 339.75781 240.44336 z "
       id="path3280-81-3"
       inkscape:connector-curvature="0"
       sodipodi:nodetypes="csssc" />
    <path
       style="color:#000000;display:inline;overflow:visible;visibility:visible;fill:#ffffff;fill-opacity:1;fill-rule:nonzero;stroke:none;stroke-width:2.02177px;marker:none;enable-background:accumulate"
       d="m 2012.3273,230.56956 c -76.1121,0.59058 -153.069,5.78664 -226.1118,25.19527 -35.9845,9.85416 -71.1458,25.53211 -95.6694,50.72722 -24.5632,26.90576 -37.3205,62.41402 -31.0116,96.41107 7.0144,23.20056 27.6149,41.64976 51.0925,53.76835 35.7425,19.1849 77.7671,27.08995 119.0666,31.90835 56.4145,6.08203 113.227,8.97572 170.0132,10.98519 83.6288,1.67972 169.0369,-1.97057 248.7328,-25.57021 32.7152,-9.72541 64.9299,-22.60599 90.9505,-42.52629 14.1193,-10.9932 26.6842,-25.08089 28.8326,-41.80383 2.4068,-16.81852 -2.0657,-33.76887 -8.3461,-49.63302 -11.0025,-26.27687 -32.9364,-49.00726 -60.9938,-63.23852 -43.1076,-22.73467 -93.1682,-33.40562 -142.8141,-39.60819 -47.5798,-5.79785 -95.749,-6.84149 -143.7414,-6.61539 z"
       id="path5026-3"
       inkscape:connector-curvature="0"
       sodipodi:nodetypes="csssc" />
    <path
       style="color:#000000;display:inline;overflow:visible;visibility:visible;fill:#ffffff;fill-opacity:1;fill-rule:nonzero;stroke:none;stroke-width:0.911216px;marker:none;enable-background:accumulate"
       d="m 1554.2989,903.04304 c -37.4064,0.88415 -74.7147,9.67453 -105.321,26.01315 -13.7632,7.24253 -25.1148,16.89965 -33.5512,27.79966 -20.1569,25.83618 -24.4835,58.80565 -9.1777,86.66075 12.3163,22.4368 38.42,39.7676 68.4913,48.0223 33.6886,10.169 70.2742,12.9738 106.2597,13.9338 36.0602,0.7369 72.7618,0.2995 107.7126,-7.164 23.3315,-5.375 45.5707,-15.3733 59.8001,-30.5848 17.1178,-17.447 24.5733,-39.3524 25.0318,-60.8164 0.21,-21.10405 -7.6744,-42.77307 -25.4379,-59.38338 -19.0644,-18.2389 -47.1394,-30.26266 -76.7185,-36.05201 -33.7102,-6.8918 -68.8668,-7.916 -103.6015,-8.43351 -4.4957,-0.0466 -8.992,-0.042 -13.4877,0.008 z"
       id="path4040-40"
       inkscape:connector-curvature="0"
       sodipodi:nodetypes="zssssz" />
    <path
       style="color:#000000;display:inline;overflow:visible;visibility:visible;fill:#ffffff;fill-opacity:1;fill-rule:nonzero;stroke:none;stroke-width:0.999998px;marker:none;enable-background:accumulate"
       d="m 496.15677,1011.893 c 34.73321,-33.49717 31.89314,-53.50347 31.44376,-68.11357 -4.7651,-0.9949 -12.85059,-4.2577 -12.85059,-4.2577 0,0 1.90835,-28.8086 -1.17233,-39.94541 -3.08071,-11.13686 -17.53582,-8.20897 -17.53582,-8.20897 0,0 -5.18065,55.93348 -10.00914,67.69208 13.18767,2.2293 19.31591,4.9084 24.41808,3.8748 3.16059,8.1805 -2.4061,36.7502 -14.29396,48.95877 z"
       id="path4456-3"
       inkscape:connector-curvature="0" />
    <path
       style="color:#000000;display:inline;overflow:visible;visibility:visible;fill:#ffffff;fill-opacity:1;fill-rule:nonzero;stroke:none;stroke-width:0.709513px;marker:none;enable-background:accumulate"
       d="m 1128.904,2344.5208 c 3.4771,-61.8266 52.1407,-107.9246 179.8028,-98.6983 68.3826,4.9413 146.0064,7.5682 141.7058,98.1235 -4.301,90.5557 -115.8421,90.321 -138.847,92.8675 -23.0051,2.5479 -142.9947,-4.6902 -164.2231,-35.069 -13.2885,-19.0161 -18.6536,-38.0925 -18.4385,-57.2237 z"
       id="path4546-6-21"
       inkscape:connector-curvature="0"
       sodipodi:nodetypes="cssssc" />
    <path
       style="color:#000000;display:inline;overflow:visible;visibility:visible;fill:#ffffff;fill-opacity:1;fill-rule:nonzero;stroke:none;stroke-width:0.709511px;marker:none;enable-background:accumulate"
       d="m 665.62436,2273.8156 c -26.18517,0.4782 -53.00836,9.0284 -72.37885,27.3528 -21.01479,21.2033 -32.43394,50.715 -35.00178,80.3243 -4.4021,36.42 7.30659,74.3773 31.05586,102.0543 14.73205,14.6731 34.60817,21.9273 53.55635,29.1984 31.11885,11.4528 65.33446,13.5542 97.74859,6.9899 23.59177,-4.0526 47.20434,-13.607 63.84412,-31.5324 13.63125,-14.9955 19.25482,-35.5198 21.10423,-55.3726 2.11064,-24.4205 0.21307,-49.0132 -3.06724,-73.2372 -2.92118,-18.6775 -9.72349,-37.4328 -23.09213,-51.0956 -12.02827,-12.6786 -28.47909,-19.7421 -44.97671,-24.2881 -18.86535,-5.1622 -38.35306,-7.5038 -57.76871,-9.3429 -10.32112,-0.7857 -20.67346,-1.1506 -31.02373,-1.0509 z"
       id="path4546-6-21-2"
       inkscape:connector-curvature="0"
       sodipodi:nodetypes="cssssc" />
    <path
       style="color:#000000;display:inline;overflow:visible;visibility:visible;fill:#ffffff;fill-opacity:1;fill-rule:nonzero;stroke:none;stroke-width:1.24776px;marker:none;enable-background:accumulate"
       d="m 445.44522,1891.8981 c -30.57448,0.7277 -61.67269,0.6195 -91.35713,11.0376 -17.42307,6.0815 -34.31836,17.6894 -45.06678,36.3492 -12.53542,21.3815 -14.39261,50.4099 -8.1219,75.2545 2.94976,11.5281 7.40583,22.5409 13.35284,32.1029 6.47446,10.1813 15.39446,17.9787 25.46795,21.3958 28.99423,12.6151 59.9204,15.627 90.3889,16.8936 31.88851,0.9788 63.81364,-0.3336 95.61366,-3.3702 26.84713,-3.0333 53.9993,-8.5066 78.71628,-22.5582 14.9509,-8.8382 29.12806,-22.208 36.31293,-41.3466 10.00823,-26.46 7.37921,-60.4348 -8.19972,-82.7095 -12.50557,-17.0882 -30.57781,-25.3656 -48.21146,-30.3955 -29.13261,-8.1579 -59.08242,-9.6075 -88.79202,-11.5319 -16.68705,-0.9092 -33.40006,-1.7235 -50.10355,-1.1217 z"
       id="path4546-6-21-1"
       inkscape:connector-curvature="0"
       sodipodi:nodetypes="cssssc" />
    <path
       style="color:#000000;display:inline;overflow:visible;visibility:visible;fill:#ffffff;fill-opacity:1;fill-rule:nonzero;stroke:none;stroke-width:0.90167px;marker:none;enable-background:accumulate"
       d="m 529.56665,2178.2885 c 2.62738,-85.2265 39.39949,-148.772 135.86616,-136.0537 51.67279,6.8113 110.32845,10.4324 107.07856,135.2616 -3.24996,124.8293 -87.53487,124.5059 -104.91836,128.0163 -17.38354,3.5122 -108.05247,-6.4655 -124.09353,-48.3421 -10.04137,-26.2136 -14.0954,-52.5099 -13.93283,-78.8821 z"
       id="path4546-6-21-1-9"
       inkscape:connector-curvature="0"
       sodipodi:nodetypes="cssssc" />
    <path
       style="color:#000000;display:inline;overflow:visible;visibility:visible;fill:#ffffff;fill-opacity:1;fill-rule:nonzero;stroke:none;stroke-width:1.1971px;marker:none;enable-background:accumulate"
       d="m 1332.7033,1899.2603 c -34.2161,0.4979 -69.4536,3.4378 -100.8776,18.6676 -15.5498,7.6255 -29.9364,21.203 -33.5548,39.2961 -2.4964,18.0388 9.1563,35.4891 24.3016,43.3441 15.5893,8.0752 33.18,9.9172 50.0639,13.3122 58.8247,9.6434 118.7994,13.6403 178.1965,7.9027 20.8106,-2.3246 42.3403,-6.2184 60.2121,-18.2135 11.2561,-7.8258 19.195,-20.6513 20.6518,-34.7122 2.2126,-16.1745 -3.6176,-34.3094 -17.4022,-43.2107 -17.6487,-12.4374 -39.3813,-15.3128 -60.0019,-18.3515 -36.1905,-4.7727 -72.6653,-6.8504 -109.1128,-7.9708 -4.1585,-0.075 -8.3174,-0.085 -12.4766,-0.064 z"
       id="path4546-6-21-1-9-4"
       inkscape:connector-curvature="0"
       sodipodi:nodetypes="cssssc" />
    <path
       style="color:#000000;display:inline;overflow:visible;visibility:visible;fill:#ffffff;fill-opacity:1;fill-rule:nonzero;stroke:none;stroke-width:0.961925px;marker:none;enable-background:accumulate"
       d="m 1225.205,1985.7656 c -46.0551,0.882 -92.8459,2.8713 -137.2146,18.4889 -15.8662,6.8173 -27.7327,22.7322 -33.7422,40.6654 -9.9821,27.1823 -8.5937,60.755 6.9694,84.8351 9.1438,13.9915 23.5997,22.1407 38.362,24.9674 19.4855,4.8894 39.2628,8.1831 59.0811,10.6435 35.6891,3.8894 71.5685,2.0101 107.33,1.0065 51.1947,-0.3976 102.5081,2.4619 153.5867,-2.8587 19.0847,-1.8225 38.2638,-3.8181 56.9691,-8.678 24.6734,-8.9227 43.9125,-36.1747 44.8515,-66.2485 1.3251,-24.676 -8.9277,-49.1571 -25.3964,-64.6853 -21.1456,-21.3445 -49.0938,-31.1597 -76.5405,-35.023 -36.3693,-4.6848 -72.9341,0.8942 -109.3883,-0.9675 -28.2893,-0.7004 -56.564,-2.493 -84.8678,-2.1458 z"
       id="path4546-6-21-1-9-4-7"
       inkscape:connector-curvature="0"
       sodipodi:nodetypes="cssssc" />
    <path
       style="color:#000000;display:inline;overflow:visible;visibility:visible;fill:#ffffff;fill-opacity:1;fill-rule:nonzero;stroke:none;stroke-width:1.14709px;marker:none;enable-background:accumulate"
       d="m 1005.12,3066.8417 c 5.7267,-41.6532 61.8615,-70.7879 205.3078,-59.2238 76.8376,6.1939 164.1463,11.2087 156.65,72.2502 -7.4964,61.0415 -133.0578,56.2289 -159.0305,56.9907 -25.9729,0.7627 -160.8399,-9.1373 -183.8475,-30.561 -14.4023,-13.4105 -19.8828,-26.5311 -19.0798,-39.4561 z"
       id="path4546-6-21-1-9-4-7-8"
       inkscape:connector-curvature="0"
       sodipodi:nodetypes="cssssc" />
    <path
       style="color:#000000;display:inline;overflow:visible;visibility:visible;fill:#ffffff;fill-opacity:1;fill-rule:nonzero;stroke:none;stroke-width:0.624175px;marker:none;enable-background:accumulate"
       d="m 2203.114,3192.8201 c 1.6004,-29.4598 24.0001,-51.4252 82.7628,-47.029 31.4764,2.3544 67.2066,3.6062 65.2269,46.7553 -1.9798,43.1489 -53.3219,43.0372 -63.9111,44.2506 -10.5891,1.2141 -65.82,-2.2349 -75.5915,-16.7102 -6.1167,-9.061 -8.5862,-18.1508 -8.4871,-27.2667 z"
       id="path4546-6-21-1-9-4-7-8-4"
       inkscape:connector-curvature="0"
       sodipodi:nodetypes="cssssc" />
    <path
       style="color:#000000;display:inline;overflow:visible;visibility:visible;fill:#ffffff;fill-opacity:1;fill-rule:nonzero;stroke:none;stroke-width:1px;marker:none;enable-background:accumulate"
       d="m 1284.7327,2502.3184 c -35.7282,-19.4322 -47.354,-28.3515 -44.071,-75.6186 3.2834,-47.2663 -14.2412,-48.0483 -14.2412,-48.0483 l -19.1468,25.8436 c 0,0 -0.01,101.2711 77.459,97.8233 z"
       id="path3072-56-6"
       inkscape:connector-curvature="0" />
    <path
       style="color:#000000;display:inline;overflow:visible;visibility:visible;fill:#ffffff;fill-opacity:1;fill-rule:nonzero;stroke:none;stroke-width:1px;marker:none;enable-background:accumulate"
       d="m 1468.6848,2848.0015 c 26.25,171.1132 -108.5575,232.9592 -156.9646,205.9986 -41.3932,-23.0541 -36.6132,25.372 -36.6132,25.372 0,0 -184.8377,-79.9742 -48.5243,-12.9007 136.3134,67.0735 295.373,-29.4851 242.1021,-218.4699 z"
       id="path3072-56-6-7"
       inkscape:connector-curvature="0"
       sodipodi:nodetypes="csczc" />
    <path
       style="color:#000000;display:inline;overflow:visible;visibility:visible;fill:#ffffff;fill-opacity:1;fill-rule:nonzero;stroke:none;stroke-width:1.32718px;marker:none;enable-background:accumulate"
       d="m 1607.4918,765.39734 c -36.4039,0.77639 -72.7453,3.21744 -109.1501,4.02254 -15.7533,0.55808 -31.6751,0.0235 -47.185,3.14962 -21.0546,3.87556 -41.8674,11.93431 -57.515,26.04301 -16.7993,15.65449 -25.2464,39.57672 -19.333,61.38125 6.857,28.27725 32.3604,51.34818 62.39,57.56128 30.9997,8.25486 63.2787,10.65294 95.2556,13.14327 42.1087,2.43167 84.7731,3.02077 126.3572,-4.64842 25.3343,-4.82118 50.8889,-11.32638 72.9933,-24.32564 18.1285,-11.62249 28.0296,-32.43812 27.9154,-52.77243 1.0267,-19.39046 -5.894,-39.88187 -21.6285,-53.01093 -17.5,-15.33286 -40.9406,-22.99705 -64.1682,-26.66503 -21.7667,-3.42143 -43.9035,-4.06013 -65.9317,-3.87852 z"
       id="path4546-3"
       inkscape:connector-curvature="0"
       sodipodi:nodetypes="cssssc" />
    <path
       style="color:#000000;display:inline;overflow:visible;visibility:visible;fill:#ffffff;fill-opacity:1;fill-rule:nonzero;stroke:none;stroke-width:0.999998px;marker:none;enable-background:accumulate"
       d="m 2177.6835,3278.2468 c 19.412,3.2287 21.8531,2.1451 26.087,-6.1508 4.2336,-8.2965 7.4345,-21.3989 24.2674,-27.0612 16.8328,-5.6629 26.4772,-1.2243 33.0349,1.2943 -1.1679,-11.6566 8.131,-31.9623 0.9277,-37.4845 -7.2032,-5.5223 17.0343,2.8574 17.0343,2.8574 0,0 12.1095,28.3527 3.5098,41.2194 -8.5996,12.8666 -35.9866,3.6351 -48.1953,5.9287 -12.2087,2.2936 -17.7187,20.2054 -26.9698,23.8183 -9.2511,3.6136 -20.9523,-1.0637 -29.696,-4.4216 z"
       id="path4538-7-1"
       inkscape:connector-curvature="0"
       sodipodi:nodetypes="ccscccsscc" />
    <path
       style="fill:#ffffff;fill-rule:evenodd;stroke:none;stroke-width:0.989952px;stroke-linecap:butt;stroke-linejoin:miter;stroke-opacity:1"
       d="m 563.82903,2593.7899 c 63.64415,46.5419 99.6802,37.8628 99.27382,22.0538 -0.73279,-28.5061 -23.68426,-45.5161 -20.14693,-49.7569 56.87331,-68.1838 45.61583,-44.4564 42.02712,-78.3168 -3.58863,-33.8596 -32.82515,9.9982 -43.47048,25.9957 -10.64526,15.9984 -23.23393,28.0821 -24.13067,46.0989 -0.89678,18.0167 30.31994,32.2197 26.20251,52.3883 -4.11738,20.1676 -79.75537,-18.463 -79.75537,-18.463 z"
       id="path4324-2"
       inkscape:connector-curvature="0"
       sodipodi:nodetypes="cssssssc" />
    <path
       style="fill:#ffffff;fill-rule:evenodd;stroke:none;stroke-width:1px;stroke-linecap:butt;stroke-linejoin:miter;stroke-opacity:1"
       d="m 1641.3607,1592.1712 c 22.6649,-9.5896 43.3488,-24.3392 44.2472,-33.5648 0.8985,-9.2259 -11.1673,-38.3407 15.3399,-36.3802 44.753,7.0521 59.1413,-17.435 71.8681,-40.1028 -10.4456,44.0867 -37.326,59.8862 -66.9409,56.1082 -20.4331,0.5043 27.1628,20.802 -14.1238,65.6767 -34.0791,18.4121 -50.3905,-11.7371 -50.3905,-11.7371 z"
       id="path1085"
       inkscape:connector-curvature="0"
       sodipodi:nodetypes="csccccc" />
    <path
       style="display:inline;fill:#ffffff;fill-rule:evenodd;stroke:none;stroke-width:1px;stroke-linecap:butt;stroke-linejoin:miter;stroke-opacity:1"
       d="m 573.98692,398.83183 c -16.46145,0.69234 -32.53906,10.64863 -39.37482,25.82696 -1.5098,2.80001 -5.28273,3.60587 -7.9531,2.02233 -5.98863,-2.1906 -11.2243,-5.98508 -17.1572,-8.31055 -9.42582,-4.50612 -18.97461,-9.76783 -29.57769,-10.58241 -9.00662,0.914 -17.21994,8.38612 -18.31844,17.45517 0.90457,4.28518 5.9133,5.81752 9.78437,5.505 14.04596,1.22391 26.26568,8.99968 37.96354,16.2261 7.48461,4.90408 17.2879,7.91388 25.94154,4.3397 8.81339,-3.63103 14.02032,-12.22106 18.30372,-20.27104 3.62722,-6.5902 7.0618,-13.9609 13.65799,-18.08996 6.18392,-3.01805 13.32935,-0.5356 18.89819,2.69485 6.80555,3.74446 18.82609,7.48219 26.68995,6.1183 5.30212,-0.83429 11.53306,0.83552 40.82961,-10.13109 -31.99063,6.29792 -54.18708,-2.32452 -64.55229,-8.18195 -4.64584,-2.56145 -9.72444,-4.75296 -15.13537,-4.62141 z"
       id="path1090"
       inkscape:connector-curvature="0"
       sodipodi:nodetypes="cscsccsssssscccc" />
    <path
       style="display:inline;fill:#ffffff;fill-rule:evenodd;stroke:none;stroke-width:1px;stroke-linecap:butt;stroke-linejoin:miter;stroke-opacity:1"
       d="m 1632.4094,459.91481 c -13.3884,1.15044 -24.7371,8.98689 -36.3133,15.05377 -11.8625,6.20073 -25.5581,10.73446 -39.0354,8.00762 -12.0677,-2.68829 -22.4478,-9.82861 -32.3701,-16.87389 3.8291,6.30693 9.6771,10.98608 14.8332,16.14522 8.6507,7.70795 18.9492,14.83075 30.8631,15.63525 13.8403,0.66512 26.656,-5.48295 39.186,-10.5008 10.1694,-4.14143 21.2147,-8.21845 32.3521,-6.14686 10.9557,2.46419 19.4305,11.01931 24.7936,20.52472 12.9764,18.70237 36.0984,28.93962 58.5851,28.39704 18.8298,-0.40627 36.6152,-8.27562 52.1794,-18.39972 8.6096,-5.57117 17.0795,-11.45267 24.7815,-18.23589 3.5784,-3.4799 7.2534,-7.52693 8.1751,-12.57851 0.062,-7.7622 -6.879,-14.01137 -14.1994,-15.19004 -15.3865,-4.75845 -33.1467,3.19988 -40.7426,17.20002 -9.2358,12.31089 -22.7022,22.43453 -38.3284,24.27839 -13.6452,1.76845 -27.7626,-5.49772 -34.6822,-17.30967 -6.6644,-8.95507 -13.2887,-18.84395 -23.7907,-23.63499 -8.0465,-4.26307 -17.1552,-6.65417 -26.287,-6.37166 z"
       id="path1090-9"
       inkscape:connector-curvature="0"
       sodipodi:nodetypes="cscsccsssssscccccc" />
    <path
       style="display:inline;fill:#ffffff;stroke:none;stroke-width:0.991359"
       d="m 1542.4499,1569.489 c -16.883,0.092 -33.8546,-0.056 -50.5788,2.5966 -18.9615,2.9669 -37.7295,8.5464 -54.4446,18.0671 -17.7719,10.1009 -32.4997,26.3082 -38.7919,45.8553 -3.022,9.1055 -3.5144,19.0095 -1.1022,28.3134 4.1934,17.1208 16.5134,31.9752 32.5199,39.5147 18.7243,10.1227 40.5015,12.4365 61.4919,12.3281 40.5927,1.4092 81.2612,1.9418 121.8291,-0.4415 23.6188,-1.2207 47.8854,-3.9462 69.2863,-14.6674 15.0193,-7.6424 27.4607,-21.6081 30.4402,-38.4335 5.4304,-27.5605 -9.7543,-57.128 -34.4722,-70.2562 -22.071,-12.5629 -47.4877,-17.4675 -72.4691,-20.3988 -21.1434,-2.3649 -42.4549,-2.6158 -63.7086,-2.4778 z"
       id="path3280-8-3"
       inkscape:connector-curvature="0"
       sodipodi:nodetypes="csssc" />
    <path
       style="fill:#ffffff;fill-rule:evenodd;stroke:none;stroke-width:1.07322px;stroke-linecap:butt;stroke-linejoin:miter;stroke-opacity:1"
       d="m 369.9142,761.56105 c -33.69297,1.85844 -67.55621,2.76083 -100.92516,8.23114 -14.91497,3.20196 -30.33474,7.15213 -42.63169,16.75202 -10.60213,10.81487 -18.01577,24.33049 -24.62162,37.89755 -5.66577,15.25972 -4.19687,32.06815 -0.79294,47.6689 2.4379,14.37997 8.03271,29.03747 19.36992,38.58163 11.72873,11.14507 26.21019,20.716 42.63297,21.92836 15.7329,1.24934 31.5174,-0.24299 47.26721,0.47444 74.23322,0.13992 148.68986,0.74471 222.59577,-7.37883 12.01703,-1.92242 23.37165,-9.0884 29.42747,-19.94851 6.84675,-9.88252 14.56127,-20.26181 15.31914,-32.78816 0.85274,-11.76886 0.0534,-23.57794 0.0891,-35.3636 -0.26318,-7.57726 0.35507,-15.34836 -1.70103,-22.72326 -2.37677,-8.59079 -7.89831,-15.87914 -14.48867,-21.62316 -13.45545,-12.60245 -31.18363,-19.63007 -49.14421,-22.18031 -31.86231,-6.10834 -64.28004,-8.79389 -96.67919,-9.25329 -15.2369,-0.31145 -30.47782,-0.28876 -45.71704,-0.27492 z"
       id="path1299"
       inkscape:connector-curvature="0" />
    <path
       style="display:inline;fill:#ffffff;stroke:none;stroke-width:1"
       d="m 1575.0857,1186.523 c 10.8195,-11.5712 12.6153,-27.6824 8.3349,-36.5519 -14.3352,-19.07 -23.666,-31.1287 -18.9556,-59.0775 1.8899,-10.6227 -10.6134,-54.69 -10.6134,-54.69 0,0 -18.8784,35.0095 -23.1768,48.4387 -4.2987,13.4308 -0.8577,8.5167 -1.1091,14.2481 -0.2509,5.73 5.2504,24.4274 10.1452,33.8185 9.1181,15.8303 33.4249,28.4532 20.0415,48.0454 -29.2938,37.8208 6.5931,83.639 50.3342,32.8542 -61.0177,33.4873 -47.1285,-14.1159 -35.0011,-27.0855 z"
       id="path3023-0"
       inkscape:connector-curvature="0"
       sodipodi:nodetypes="scccsscccss" />
    <path
       style="display:inline;fill:#ffffff;fill-rule:evenodd;stroke:none;stroke-width:1px;stroke-linecap:butt;stroke-linejoin:miter;stroke-opacity:1"
       d="m 463.94149,1909.1524 c -28.8926,-1.9628 -70.7911,12.0344 -46.4898,52.4279 -53.0586,-26.4704 -127.5213,-35.9738 -145.041,8.1212 -2.9485,-53.932 -38.5111,-39.2875 -67.8631,-26.3004 27.9346,-22.1424 -23.4398,-33.052 -50.9437,-33.5284 56.996,-47.8017 26.119,-61.7102 2.7943,-78.5323 57.4315,11.386 42.9826,-14.3734 49.4459,-29.3254 49.812,32.1764 85.2527,23.2921 112.648,-8.5788 15.1349,16.5395 20.6066,51.4042 73.5776,-3.81 -18.8313,46.9564 7.2124,41.3921 49.0134,17.387 -6.2541,15.9892 -45.124,41.0794 21.271,36.7994 -41.1448,16.1299 -49.3548,36.7253 1.5874,65.3398 z"
       id="path4584-8"
       inkscape:connector-curvature="0"
       sodipodi:nodetypes="cccccccccccc" />
    <path
       style="fill:#ffffff;fill-rule:evenodd;stroke:none;stroke-width:0.999993px;stroke-linecap:butt;stroke-linejoin:miter;stroke-opacity:1"
       d="m 1088.4402,1861.1551 c 12.6082,4.62 30.6985,12.1275 32.8912,20.213 2.1928,8.0848 13.7047,23.1004 9.8674,36.3833 -3.8373,13.2822 -14.8011,26.5651 -25.2166,34.0733 -10.4157,7.5075 -30.1504,13.2822 -42.7587,14.4376 -12.6083,1.1553 -44.9513,-6.9301 -54.2706,-4.6201 -9.3192,2.31 -43.30683,3.4647 -60.30065,-2.31 -16.99383,-5.7755 -36.1804,-27.1432 -38.92135,-40.4262 -2.74096,-13.2829 9.31917,-39.848 11.51191,-46.7781 2.1928,-6.9308 11.51198,-9.2409 11.51198,-9.2409 26.0186,-3.9635 117.34611,-7.6933 155.68541,-1.7319 z"
       id="path1099"
       inkscape:connector-curvature="0"
       sodipodi:nodetypes="ccccccccccc" />
    <path
       style="color:#000000;display:inline;overflow:visible;visibility:visible;fill:#ffffff;fill-opacity:1;fill-rule:nonzero;stroke:none;stroke-width:1px;marker:none;enable-background:accumulate"
       d="m 1452.4903,2326.043 c 10.971,-24.1187 65.6645,-26.0947 85.4961,-21.1723 -39.0592,-27.0257 -36.7486,-43.7948 18.3862,-46.3501 -89.6213,-48.7249 -14.6485,-41.2984 0.8784,-53.6205 -71.5177,-16.827 -38.0003,-37.6608 -23.9945,-58.4182 -83.1971,-0.7866 -54.174,-34.0542 -56.2617,-60.5723 -7.7228,12.4365 -43.275,50.285 -43.0322,8.1082 -57.2111,40.1898 -124.9163,66.124 -126.4085,-4.2968 -24.0808,35.4049 -46.9991,50.3579 -43.0325,8.1085 -57.9062,54.9042 -106.2369,35.0813 -155.088,19.5063 -13.9378,16.575 -16.8236,42.0539 -58.7205,36.0456 5.0386,16.4451 -9.8212,27.7338 -42.3714,34.4166 42.244,9.9675 49.5787,20.2173 -30.43781,31.1719 60.38141,1.1193 116.62361,3.3522 43.70161,40.8831 22.1968,0.9296 76.6578,-30.3929 47.1304,61.3865 39.8275,-29.3552 81.5089,-45.5402 129.392,16.0652 25.8701,-30.7332 68.698,-45.9162 84.9169,-7.4851 7.4468,-16.3715 35.0167,-22.5062 58.1812,-23.2334 8.5938,6.5136 17.3432,15.3569 26.3475,26.9419 17.0331,-24.2934 41.4439,-40.6896 84.9168,-7.4851 z"
       id="path3549-3-7-5"
       inkscape:connector-curvature="0"
       sodipodi:nodetypes="cccccccccccccccccccc" />
    <path
       style="color:#000000;display:inline;overflow:visible;visibility:visible;fill:#ffffff;fill-opacity:1;fill-rule:nonzero;stroke:none;stroke-width:1px;marker:none;enable-background:accumulate"
       d="m 1248.3756,3101.0358 c -34.0547,0.9497 -68.5035,2.1594 -101.6584,12.4662 -12.7024,4.2239 -25.0928,12.845 -31.9496,26.7649 -10.0992,19.6919 -10.5754,45.147 -3.2671,66.2434 6.7498,20.4349 20.1342,38.3688 37.5884,45.9389 22.9571,9.9299 47.6929,10.2466 71.7995,10.6 13.7416,0.085 27.4787,0.5091 41.2179,0.7779 38.8939,0.4891 77.9602,-2.8195 116.0788,-12.3901 9.7713,-2.9373 19.4952,-9.1397 24.7559,-19.8424 7.2932,-13.5667 9.9598,-29.7252 12.1434,-45.4073 1.5124,-14.1222 -0.5867,-29.1789 -7.5265,-40.9572 -10.1476,-18.7403 -27.5237,-30.7402 -45.6799,-34.4585 -19.6948,-4.5781 -39.853,-4.1225 -59.7505,-6.5292 -17.8885,-1.6204 -35.7956,-3.4505 -53.7519,-3.2066 z"
       id="path3330-06"
       inkscape:connector-curvature="0"
       sodipodi:nodetypes="zsssssz" />
    <path
       style="color:#000000;display:inline;overflow:visible;visibility:visible;fill:#ffffff;fill-opacity:1;fill-rule:nonzero;stroke:none;stroke-width:0.999996px;marker:none;enable-background:accumulate"
       d="m 1306.467,3247.722 c -33.4382,0.8037 -67.2632,1.8275 -99.8177,10.5504 -12.4724,3.5746 -24.6385,10.8709 -31.3713,22.6516 -9.9162,16.6654 -10.3839,38.2086 -3.2079,56.0628 6.6276,17.2943 19.7696,32.4721 36.9078,38.8788 22.5414,8.4039 46.8295,8.6719 70.4995,8.9709 13.4929,0.071 26.9813,0.4309 40.4716,0.6583 38.1898,0.414 76.5487,-2.3861 113.977,-10.4859 9.5945,-2.4858 19.1423,-7.735 24.3079,-16.793 7.161,-11.4816 9.7793,-25.1568 11.9233,-38.4288 1.4852,-11.9519 -0.5761,-24.6947 -7.3901,-34.6627 -9.9639,-15.8602 -27.0254,-26.0158 -44.8528,-29.1628 -19.3382,-3.8746 -39.1315,-3.4888 -58.6687,-5.5257 -17.5646,-1.3713 -35.1476,-2.9203 -52.7786,-2.7139 z"
       id="path3330-06-3"
       inkscape:connector-curvature="0"
       sodipodi:nodetypes="zsssssz" />
    <path
       style="color:#000000;display:inline;overflow:visible;visibility:visible;fill:#ffffff;fill-opacity:1;fill-rule:nonzero;stroke:none;stroke-width:1px;marker:none;enable-background:accumulate"
       d="m 1068.8371,1892.8646 c 11.4378,2.7356 47.3323,15.9404 10.8601,17.1812 51.6656,27.0195 37.2572,55.9977 30.7323,62.2351 14.2845,-2.2487 41.1127,5.3918 36.406,22.6715 13.7611,-2.5646 24.8412,3.0868 33.5282,16.0687 4.8361,-17.44 13.0401,-20.7248 29.6677,11.3622 -4.436,-24.5111 -7.5366,-47.3955 31.4238,-19.0283 -1.1832,-9.0272 -33.1272,-30.1074 48.8341,-21.0526 -28.9335,-15.212 -46.6471,-31.5878 2.311,-52.9532 -22.5198,-6.1331 -38.8692,-15.4994 -14.0614,-34.1754 -21.8261,-3.6812 -28.406,-25.7957 -25.9273,-33.9907 -19.8611,16.6908 -34.5544,16.2949 -41.6969,-5.9729 -34.091,37.8749 -34.4037,7.2492 -46.442,1.3468 -8.1436,29.5237 -29.1246,16.598 -48.3162,11.5801 6.7647,33.7487 -24.5886,23.0394 -47.3194,24.7275 z"
       id="path3549-3-8"
       inkscape:connector-curvature="0"
       sodipodi:nodetypes="ccccccccccccccc" />
    <path
       style="display:inline;fill:#ffffff;fill-opacity:1;fill-rule:evenodd;stroke:none;stroke-width:1px;stroke-linecap:butt;stroke-linejoin:miter;stroke-opacity:1"
       d="m 907.57193,889.81119 c -8.81473,0.86734 -15.44501,7.06793 -20.26405,13.30501 -4.38673,5.15329 -12.18285,6.20817 -18.93807,6.08783 -9.23044,0.22173 -16.93619,6.16177 -21.71485,12.8845 -2.79904,3.55077 -3.63246,8.00224 -3.37801,12.27282 -0.51833,6.67297 -6.21459,11.93324 -6.9703,18.52713 0.16443,6.3875 6.74215,10.535 8.11843,16.59892 1.43482,4.5169 2.25566,9.9862 6.986,12.7515 6.65345,3.1882 14.91216,-0.2253 21.38499,3.5487 4.65552,2.9316 8.61494,6.6895 13.1783,9.748 4.79525,3.46691 10.36477,6.0294 16.36506,7.2675 13.65218,3.3373 27.92208,0.9185 41.40962,-1.867 18.61674,-3.5707 37.62058,-5.4628 56.65035,-5.6211 5.6369,-0.3583 10.5284,-3.1437 15.0536,-5.9562 5.1629,-2.8443 11.4202,-4.4438 17.431,-3.1727 6.2475,0.7524 13.1542,2.4968 19.052,-0.3939 7.8685,-4.7571 11.0864,-13.1958 15.4998,-20.35492 3.5252,-6.1287 7.4785,-12.97344 5.784,-20.0904 -2.3671,-5.88049 -9.3328,-8.27678 -14.1478,-12.17595 -8.161,-7.58527 -7.1646,-19.54532 -14.7985,-27.42615 -7.3569,-7.78732 -19.197,-10.83932 -30.2106,-10.57648 -8.5491,0.18336 -16.81456,2.5898 -24.52014,5.78799 -5.76397,1.83563 -12.92195,1.6179 -17.47365,-2.47125 -4.52053,-3.22883 -9.99753,-6.67829 -16.08581,-5.53162 -8.48076,0.94699 -15.92603,6.65075 -24.75611,5.44371 -8.62181,-1.16006 -14.6027,-8.87024 -23.65526,-8.58594 z"
       id="path4367-3"
       inkscape:connector-curvature="0"
       sodipodi:nodetypes="ccccccccccccccccccccccc" />
    <path
       style="display:inline;color:#000000;overflow:visible;visibility:visible;fill:#ffffff;fill-opacity:1;fill-rule:nonzero;stroke:none;stroke-width:1px;marker:none;enable-background:accumulate"
       d="m 919.98446,956.58587 c 0.43094,17.40692 10.57354,33.58462 24.60304,43.46733 4.0486,3.4474 7.8177,7.2049 11.522,11.0151 -9.5441,6.7343 -21.8739,8.4934 -30.6973,16.3868 -3.0033,7.8153 2.0786,16.9291 9.5442,19.9766 7.9011,4.1347 17.5508,5.3387 23.9324,12.0527 5.8472,7.0001 1.9231,19.0861 -6.6504,21.789 -11.2727,5.778 -17.9502,20.1486 -13.5426,32.3069 4.131,10.8528 14.5875,18.0402 25.4452,21.0937 5.2942,1.6139 10.7387,2.647 16.1286,3.8787 -10.8778,-5.5071 -22.4207,-11.1561 -29.8066,-21.25 -5.866,-8.2804 -2.1755,-21.8742 7.6733,-25.1751 6.0663,-1.8597 13.149,-3.1903 17.0207,-8.7544 8.1822,-11.235 4.0413,-29.3207 -8.5309,-35.4929 -6.8306,-3.5643 -14.777,-5.4022 -20.3877,-10.9819 -1.6954,-3.9526 2.6275,-8.2401 6.5884,-7.513 7.4263,-1.7714 15.8041,-2.1777 21.7723,-7.5012 4.4591,-5.1824 3.2488,-13.2448 -0.7338,-18.3354 -8.0405,-15.38991 -15.424,-31.12291 -23.8906,-46.28913 -6.1584,-1.4328 -12.5406,-0.9451 -18.79,-1.6404 -3.7393,-0.2117 -7.4785,-0.4233 -11.21781,-0.635 0.006,0.5339 0.0117,1.0677 0.0176,1.6016 z"
       id="path5058"
       inkscape:connector-curvature="0"
       sodipodi:nodetypes="cscsssssccsssccsccccc" />
  </g>
  <g
     inkscape:groupmode="layer"
     id="layer1"
     inkscape:label="txt"
     style="display:inline">
    <text
       xml:space="preserve"
       style="font-style:normal;font-variant:normal;font-weight:normal;font-stretch:normal;font-size:45.3333px;line-height:125%;font-family:Lavi;-inkscape-font-specification:Lavi;text-align:center;letter-spacing:0px;word-spacing:0px;text-anchor:middle;fill:#000000;fill-opacity:1;stroke:none"
       x="352.83478"
       y="308.57437"
       id="text4246-70-2-2-2-7-4-9-6"><tspan
         sodipodi:role="line"
         style="font-size:45.3333px"
         x="352.83478"
         y="308.57437"
         id="tspan9933-2-7">Hmm...</tspan></text>
    <text
       xml:space="preserve"
       style="font-style:normal;font-variant:normal;font-weight:normal;font-stretch:normal;font-size:45.3333px;line-height:125%;font-family:Lavi;-inkscape-font-specification:Lavi;text-align:center;letter-spacing:0px;word-spacing:0px;text-anchor:middle;fill:#000000;fill-opacity:1;stroke:none"
       x="415.25522"
       y="407.0365"
       id="text4246-70-2-2-2-7-4-9"><tspan
         sodipodi:role="line"
         style="font-size:45.3333px"
         x="415.25522"
         y="407.0365"
         id="tspan9933-2">Jaså...</tspan></text>
    <text
       xml:space="preserve"
       style="font-style:normal;font-variant:normal;font-weight:normal;font-stretch:normal;font-size:45.3333px;line-height:125%;font-family:Lavi;-inkscape-font-specification:Lavi;text-align:center;letter-spacing:0px;word-spacing:0px;text-anchor:middle;fill:#000000;fill-opacity:1;stroke:none"
       x="2007.585"
       y="311.93054"
       id="text4246-70-2-2-2-7-4-9-7"><tspan
         sodipodi:role="line"
         style="font-size:45.3333px"
         x="2007.585"
         y="311.93054"
         id="tspan701">    ...og nu befinder du dig her,</tspan><tspan
         sodipodi:role="line"
         style="font-size:45.3333px"
         x="2007.585"
         y="368.59717"
         id="tspan68536">fordi du vil have Føniks-tårer,</tspan><tspan
         sodipodi:role="line"
         style="font-size:45.3333px"
         x="2007.585"
         y="425.26379"
         id="tspan572">så du kan helbredes, ikke sandt?</tspan></text>
    <text
       xml:space="preserve"
       style="font-style:normal;font-variant:normal;font-weight:normal;font-stretch:normal;font-size:45.3333px;line-height:125%;font-family:Lavi;-inkscape-font-specification:Lavi;text-align:center;letter-spacing:0px;word-spacing:0px;text-anchor:middle;fill:#000000;fill-opacity:1;stroke:none"
       x="391.04419"
       y="838.33826"
       id="text4246-70-2-2-2-7-4-9-9"><tspan
         sodipodi:role="line"
         style="font-size:45.3333px"
         x="391.04419"
         y="838.33826"
         id="tspan9933-2-3">Ja, det er <tspan
   style="font-style:normal;font-variant:normal;font-weight:bold;font-stretch:normal;font-family:Lavi;-inkscape-font-specification:'Lavi Bold'"
   id="tspan3433">min</tspan></tspan><tspan
         sodipodi:role="line"
         style="font-size:45.3333px"
         x="391.04419"
         y="895.00488"
         id="tspan12869"><tspan
           style="font-weight:bold"
           id="tspan81547">eneste mulighed.</tspan></tspan></text>
    <text
       xml:space="preserve"
       style="font-style:normal;font-variant:normal;font-weight:normal;font-stretch:normal;font-size:45.3333px;line-height:125%;font-family:Lavi;-inkscape-font-specification:Lavi;text-align:center;letter-spacing:0px;word-spacing:0px;text-anchor:middle;display:inline;fill:#000000;fill-opacity:1;stroke:none"
       x="952.45361"
       y="960.59735"
       id="text4246-70-2-2-2-7-4-9-9-3"><tspan
         sodipodi:role="line"
         style="font-style:italic;font-variant:normal;font-weight:normal;font-stretch:normal;font-size:45.3333px;font-family:Lavi;-inkscape-font-specification:'Lavi Italic'"
         x="952.45361"
         y="960.59735"
         id="tspan12869-7">*suk*</tspan></text>
    <text
       xml:space="preserve"
       style="font-style:normal;font-variant:normal;font-weight:normal;font-stretch:normal;font-size:45.3333px;line-height:125%;font-family:Lavi;-inkscape-font-specification:Lavi;text-align:center;letter-spacing:0px;word-spacing:0px;text-anchor:middle;fill:#000000;fill-opacity:1;stroke:none"
       x="1567.6672"
       y="827.2207"
       id="text4246-70-2-2-2-7-4-9-9-6-6"><tspan
         sodipodi:role="line"
         style="font-size:45.3333px"
         x="1567.6672"
         y="827.2207"
         id="tspan30961-6">... nå, hvad</tspan><tspan
         sodipodi:role="line"
         style="font-size:45.3333px"
         x="1567.6672"
         y="883.88733"
         id="tspan106265">venter du på?</tspan></text>
    <text
       xml:space="preserve"
       style="font-style:normal;font-variant:normal;font-weight:normal;font-stretch:normal;font-size:45.3333px;line-height:125%;font-family:Lavi;-inkscape-font-specification:Lavi;text-align:center;letter-spacing:0px;word-spacing:0px;text-anchor:middle;fill:#000000;fill-opacity:1;stroke:none"
       x="1588.8657"
       y="989.98041"
       id="text4246-70-2-2-2-7-4-9-9-6"><tspan
         sodipodi:role="line"
         style="font-size:45.3333px"
         x="1588.8657"
         y="989.98041"
         id="tspan35611">Prøv så at få</tspan><tspan
         sodipodi:role="line"
         style="font-size:45.3333px"
         x="1588.8657"
         y="1046.6471"
         id="tspan114446">mig til at græde.</tspan></text>
    <text
       xml:space="preserve"
       style="font-style:normal;font-variant:normal;font-weight:normal;font-stretch:normal;font-size:45.3333px;line-height:125%;font-family:Lavi;-inkscape-font-specification:Lavi;text-align:center;letter-spacing:0px;word-spacing:0px;text-anchor:middle;fill:#000000;fill-opacity:1;stroke:none"
       x="1552.2095"
       y="1638.8534"
       id="text4246-70-2-2-2-7-4-9-9-6-5"><tspan
         sodipodi:role="line"
         style="font-size:45.3333px"
         x="1552.2095"
         y="1638.8534"
         id="tspan35611-6">Jeg giver dig</tspan><tspan
         sodipodi:role="line"
         style="font-size:45.3333px"
         x="1552.2095"
         y="1695.52"
         id="tspan29603"><tspan
   style="font-weight:bold"
   id="tspan120054">et minut</tspan>!</tspan></text>
    <text
       xml:space="preserve"
       style="font-style:normal;font-variant:normal;font-weight:normal;font-stretch:normal;font-size:55.9581px;line-height:125%;font-family:Lavi;-inkscape-font-specification:Lavi;text-align:center;letter-spacing:0px;word-spacing:0px;text-anchor:middle;fill:#000000;fill-opacity:1;stroke:none;stroke-width:1"
       x="311.79352"
       y="1889.1261"
       id="text4246-70-2-2-2-7-4-9-9-6-1"><tspan
         sodipodi:role="line"
         style="font-style:normal;font-variant:normal;font-weight:bold;font-stretch:normal;font-size:55.9581px;font-family:Lavi;-inkscape-font-specification:'Lavi Bold';stroke-width:1"
         x="311.79352"
         y="1889.1261"
         id="tspan40668">Hvad?!</tspan></text>
    <text
       xml:space="preserve"
       style="font-style:normal;font-variant:normal;font-weight:normal;font-stretch:normal;font-size:49.2216px;line-height:125%;font-family:Lavi;-inkscape-font-specification:Lavi;text-align:center;letter-spacing:0px;word-spacing:0px;text-anchor:middle;fill:#000000;fill-opacity:1;stroke:none;stroke-width:1"
       x="472.64255"
       y="1972.0665"
       id="text4246-70-2-2-2-7-4-9-9-6-1-2-2"><tspan
         sodipodi:role="line"
         style="font-style:normal;font-variant:normal;font-weight:bold;font-stretch:normal;font-size:49.2216px;font-family:Lavi;-inkscape-font-specification:'Lavi Bold';stroke-width:1"
         x="472.64255"
         y="1972.0665"
         id="tspan40438"><tspan
   id="tspan130468"
   style="font-weight:normal;font-size:49.2216px;-inkscape-font-specification:Lavi;stroke-width:1">Få Dem </tspan>til</tspan><tspan
         sodipodi:role="line"
         style="font-style:normal;font-variant:normal;font-weight:bold;font-stretch:normal;font-size:49.2216px;font-family:Lavi;-inkscape-font-specification:'Lavi Bold';stroke-width:1"
         x="472.64255"
         y="2033.5935"
         id="tspan132423">at græde?!</tspan></text>
    <text
       xml:space="preserve"
       style="font-style:normal;font-variant:normal;font-weight:normal;font-stretch:normal;font-size:45.3333px;line-height:125%;font-family:Lavi;-inkscape-font-specification:Lavi;text-align:center;letter-spacing:0px;word-spacing:0px;text-anchor:middle;fill:#000000;fill-opacity:1;stroke:none"
       x="660.6972"
       y="2136.5947"
       id="text4246-70-2-2-2-7-4-9-9-6-1-2"><tspan
         sodipodi:role="line"
         style="font-size:45.3333px"
         x="660.6972"
         y="2136.5947"
         id="tspan53928">Men jeg</tspan><tspan
         sodipodi:role="line"
         style="font-size:45.3333px"
         x="660.6972"
         y="2193.2615"
         id="tspan139762">vidste ikke</tspan><tspan
         sodipodi:role="line"
         style="font-size:45.3333px"
         x="660.6972"
         y="2249.928"
         id="tspan1816">at...</tspan></text>
    <text
       xml:space="preserve"
       style="font-style:normal;font-variant:normal;font-weight:normal;font-stretch:normal;font-size:49.2681px;line-height:125%;font-family:Lavi;-inkscape-font-specification:Lavi;text-align:center;letter-spacing:0px;word-spacing:0px;text-anchor:middle;fill:#000000;fill-opacity:1;stroke:none;stroke-width:1"
       x="699.79742"
       y="2319.0542"
       id="text4246-70-2-2-2-7-4-9-9-6-1-2-27"
       transform="scale(0.9865238,1.0136603)"><tspan
         sodipodi:role="line"
         style="font-size:49.2681px;stroke-width:1"
         x="699.79742"
         y="2319.0542"
         id="tspan1134">Og jeg</tspan><tspan
         sodipodi:role="line"
         style="font-size:49.2681px;stroke-width:1"
         x="699.79742"
         y="2380.6394"
         id="tspan3812">har <tspan
   style="font-style:normal;font-variant:normal;font-weight:bold;font-stretch:normal;font-family:Lavi;-inkscape-font-specification:'Lavi Bold';stroke-width:1"
   id="tspan1136">kun</tspan></tspan><tspan
         sodipodi:role="line"
         style="font-size:49.2681px;stroke-width:1"
         x="699.79742"
         y="2442.2244"
         id="tspan156392"><tspan
   style="font-style:normal;font-variant:normal;font-weight:bold;font-stretch:normal;font-family:Lavi;-inkscape-font-specification:'Lavi Bold';stroke-width:1"
   id="tspan156394"> ét minut</tspan>?!</tspan></text>
    <text
       xml:space="preserve"
       style="font-style:normal;font-variant:normal;font-weight:normal;font-stretch:normal;font-size:48.1157px;line-height:125%;font-family:Lavi;-inkscape-font-specification:Lavi;text-align:center;letter-spacing:0px;word-spacing:0px;text-anchor:middle;fill:#000000;fill-opacity:1;stroke:none;stroke-width:1"
       x="1022.1918"
       y="1917.3142"
       id="text4246-70-2-2-2-7-4-9-9-6-1-2-3"><tspan
         sodipodi:role="line"
         style="font-size:48.1157px;stroke-width:1"
         x="1022.1918"
         y="1917.3142"
         id="tspan44044-5">Øhm...</tspan></text>
    <text
       xml:space="preserve"
       style="font-style:normal;font-variant:normal;font-weight:normal;font-stretch:normal;font-size:51.9425px;line-height:125%;font-family:Lavi;-inkscape-font-specification:Lavi;text-align:center;letter-spacing:0px;word-spacing:0px;text-anchor:middle;fill:#000000;fill-opacity:1;stroke:none;stroke-width:1"
       x="1187.4293"
       y="1953.7235"
       id="text4246-70-2-2-2-7-4-9-9-6-1-2-3-9-6"><tspan
         sodipodi:role="line"
         style="font-style:normal;font-variant:normal;font-weight:bold;font-stretch:normal;font-size:51.9425px;font-family:Lavi;-inkscape-font-specification:'Lavi Bold';stroke-width:1"
         x="1187.4293"
         y="1953.7235"
         id="tspan62775-6">OK!</tspan></text>
    <text
       xml:space="preserve"
       style="font-style:normal;font-variant:normal;font-weight:normal;font-stretch:normal;font-size:40.5417px;line-height:125%;font-family:Lavi;-inkscape-font-specification:Lavi;text-align:center;letter-spacing:0px;word-spacing:0px;text-anchor:middle;fill:#000000;fill-opacity:1;stroke:none;stroke-width:1"
       x="1377.374"
       y="1972.0564"
       id="text4246-70-2-2-2-7-4-9-9-6-1-2-3-9-6-0"><tspan
         sodipodi:role="line"
         style="font-size:40.5417px;stroke-width:1"
         x="1377.374"
         y="1972.0564"
         id="tspan62775-6-2">Lad os se.</tspan></text>
    <text
       xml:space="preserve"
       style="font-style:normal;font-variant:normal;font-weight:normal;font-stretch:normal;font-size:45.3333px;line-height:125%;font-family:Lavi;-inkscape-font-specification:Lavi;text-align:center;letter-spacing:0px;word-spacing:0px;text-anchor:middle;fill:#000000;fill-opacity:1;stroke:none"
       x="1277.869"
       y="2055.957"
       id="text4246-70-2-2-2-7-4-9-9-6-1-2-3-9"><tspan
         sodipodi:role="line"
         style="font-size:45.3333px"
         x="1277.869"
         y="2055.957"
         id="tspan62775">Hmm... Tænk på</tspan><tspan
         sodipodi:role="line"
         style="font-size:45.3333px"
         x="1277.869"
         y="2112.6238"
         id="tspan85354"><tspan
   style="font-weight:bold"
   id="tspan172432">verdens hungersnød</tspan>.</tspan></text>
    <text
       xml:space="preserve"
       style="font-style:normal;font-variant:normal;font-weight:normal;font-stretch:normal;font-size:45.3333px;line-height:125%;font-family:Lavi;-inkscape-font-specification:Lavi;text-align:center;letter-spacing:0px;word-spacing:0px;text-anchor:middle;fill:#000000;fill-opacity:1;stroke:none"
       x="1278.3167"
       y="2194.4316"
       id="text4246-70-2-2-2-7-4-9-9-6-1-2-3-9-2"><tspan
         sodipodi:role="line"
         style="font-size:45.3333px"
         x="1278.3167"
         y="2194.4316"
         id="tspan62775-9">Øh, nej nej nej!</tspan></text>
    <text
       xml:space="preserve"
       style="font-style:normal;font-variant:normal;font-weight:normal;font-stretch:normal;font-size:45.3333px;line-height:125%;font-family:Lavi;-inkscape-font-specification:Lavi;text-align:center;letter-spacing:0px;word-spacing:0px;text-anchor:middle;fill:#000000;fill-opacity:1;stroke:none"
       x="1275.4706"
       y="2250.7942"
       id="text4246-70-2-2-2-7-4-9-9-6-1-2-3-9-2-2"><tspan
         sodipodi:role="line"
         style="font-size:45.3333px"
         x="1275.4706"
         y="2250.7942"
         id="tspan62775-9-6">Jeg har noget bedre:</tspan></text>
    <text
       xml:space="preserve"
       style="font-style:normal;font-variant:normal;font-weight:normal;font-stretch:normal;font-size:45.3333px;line-height:125%;font-family:Lavi;-inkscape-font-specification:Lavi;text-align:center;letter-spacing:0px;word-spacing:0px;text-anchor:middle;fill:#000000;fill-opacity:1;stroke:none"
       x="1296.0024"
       y="2341.2722"
       id="text4246-70-2-2-2-7-4-9-9-6-1-2-3-9-2-7-6"><tspan
         sodipodi:role="line"
         style="font-size:45.3333px"
         x="1296.0024"
         y="2341.2722"
         id="tspan62775-9-3-1">Dem De har</tspan><tspan
         sodipodi:role="line"
         style="font-size:45.3333px"
         x="1296.0024"
         y="2397.939"
         id="tspan70880-2"><tspan
   style="font-weight:bold"
   id="tspan195178">mistet</tspan>.</tspan></text>
    <text
       xml:space="preserve"
       style="font-style:normal;font-variant:normal;font-weight:normal;font-stretch:normal;font-size:45.3333px;line-height:125%;font-family:Lavi;-inkscape-font-specification:Lavi;text-align:center;letter-spacing:0px;word-spacing:0px;text-anchor:middle;fill:#000000;fill-opacity:1;stroke:none"
       x="1184.426"
       y="3080.6577"
       id="text4246-70-2-2-2-7-4-9-9-6-1-2-3-9-2-7"><tspan
         sodipodi:role="line"
         style="font-size:45.3333px"
         x="1184.426"
         y="3080.6577"
         id="tspan70880">Stadig ikke?</tspan></text>
    <text
       xml:space="preserve"
       style="font-style:normal;font-variant:normal;font-weight:normal;font-stretch:normal;font-size:45.3333px;line-height:125%;font-family:Lavi;-inkscape-font-specification:Lavi;text-align:center;letter-spacing:0px;word-spacing:0px;text-anchor:middle;fill:#000000;fill-opacity:1;stroke:none"
       x="1258.7228"
       y="3172.1897"
       id="text4246-70-2-2-2-7-4-9-9-6-1-2-3-9-2-7-9"><tspan
         sodipodi:role="line"
         style="font-size:45.3333px"
         x="1258.7228"
         y="3172.1897"
         id="tspan80607">Og <tspan
   style="font-weight:bold"
   id="tspan217058">forladte</tspan></tspan><tspan
         sodipodi:role="line"
         style="font-size:45.3333px"
         x="1258.7228"
         y="3228.8564"
         id="tspan215676"><tspan
   style="font-weight:bold"
   id="tspan217060">kæledyr</tspan>?!</tspan></text>
    <text
       xml:space="preserve"
       style="font-style:normal;font-variant:normal;font-weight:normal;font-stretch:normal;font-size:30.5428px;line-height:125%;font-family:Lavi;-inkscape-font-specification:Lavi;text-align:center;letter-spacing:0px;word-spacing:0px;text-anchor:middle;fill:#000000;fill-opacity:1;stroke:none;stroke-width:0.999999"
       x="1321.5493"
       y="3293.5981"
       id="text4246-70-2-2-2-7-4-9-9-6-1-2-3-9-2-7-9-1"><tspan
         sodipodi:role="line"
         style="font-size:30.5428px;stroke-width:0.999999"
         x="1321.5493"
         y="3293.5981"
         id="tspan115521">Det er <tspan
   style="font-style:italic"
   id="tspan707">så</tspan> sørgeligt,</tspan><tspan
         sodipodi:role="line"
         style="font-size:30.5428px;stroke-width:0.999999"
         x="1321.5493"
         y="3331.7766"
         id="tspan228157">når kæledyr bliver</tspan><tspan
         sodipodi:role="line"
         style="font-size:30.5428px;stroke-width:0.999999"
         x="1321.5493"
         y="3369.9551"
         id="tspan8859">forladt...</tspan></text>
    <text
       xml:space="preserve"
       style="font-style:normal;font-variant:normal;font-weight:normal;font-stretch:normal;font-size:45.3333px;line-height:125%;font-family:Lavi;-inkscape-font-specification:Lavi;text-align:center;letter-spacing:0px;word-spacing:0px;text-anchor:middle;fill:#000000;fill-opacity:1;stroke:none"
       x="2282.5342"
       y="3193.1409"
       id="text4246-70-2-2-2-7-4-9-9-6-1-2-3-9-2-7-9-5"><tspan
         sodipodi:role="line"
         style="font-size:45.3333px"
         x="2282.5342"
         y="3193.1409"
         id="tspan80607-3">...</tspan></text>
    <text
       xml:space="preserve"
       id="text217684"
       style="font-family:Ubuntu;font-size:12px;line-height:1.25;letter-spacing:0px;word-spacing:0px;-inkscape-font-specification:Ubuntu;white-space:pre;shape-inside:url(#rect217686)" />
  </g>
</svg>
