<?xml version="1.0" encoding="UTF-8" standalone="no"?>
<!-- Created with Inkscape (http://www.inkscape.org/) -->

<svg
   xmlns:dc="http://purl.org/dc/elements/1.1/"
   xmlns:cc="http://creativecommons.org/ns#"
   xmlns:rdf="http://www.w3.org/1999/02/22-rdf-syntax-ns#"
   xmlns:svg="http://www.w3.org/2000/svg"
   xmlns="http://www.w3.org/2000/svg"
   xmlns:xlink="http://www.w3.org/1999/xlink"
   xmlns:sodipodi="http://sodipodi.sourceforge.net/DTD/sodipodi-0.dtd"
   xmlns:inkscape="http://www.inkscape.org/namespaces/inkscape"
   id="svg2"
   version="1.1"
   inkscape:version="0.92.3 (2405546, 2018-03-11)"
   width="2481"
   height="663"
   sodipodi:docname="E20P00.svg">
  <metadata
     id="metadata8">
    <rdf:RDF>
      <cc:Work
         rdf:about="">
        <dc:format>image/svg+xml</dc:format>
        <dc:type
           rdf:resource="http://purl.org/dc/dcmitype/StillImage" />
        <dc:title />
      </cc:Work>
    </rdf:RDF>
  </metadata>
  <defs
     id="defs6" />
  <sodipodi:namedview
     pagecolor="#ffffff"
     bordercolor="#666666"
     borderopacity="1"
     objecttolerance="10"
     gridtolerance="10"
     guidetolerance="10"
     inkscape:pageopacity="0"
     inkscape:pageshadow="2"
     inkscape:window-width="1920"
     inkscape:window-height="935"
     id="namedview4"
     showgrid="false"
     inkscape:zoom="0.37134441"
     inkscape:cx="761.97534"
     inkscape:cy="-56.58034"
     inkscape:window-x="0"
     inkscape:window-y="118"
     inkscape:window-maximized="1"
     inkscape:current-layer="layer1" />
  <g
     inkscape:groupmode="layer"
     id="layer2"
     inkscape:label="artwork"
     sodipodi:insensitive="true">
    <image
       sodipodi:absref="/home/deevad/peppercarrot/webcomics/ep20_The-Picnic/lang/ja/../gfx_Pepper-and-Carrot_by-David-Revoy_E20P00.png"
       xlink:href="../gfx_Pepper-and-Carrot_by-David-Revoy_E20P00.png"
       y="0"
       x="0"
       id="image10"
       height="663"
       width="2481" />
  </g>
  <g
     inkscape:groupmode="layer"
     id="layer1"
     inkscape:label="txt"
     style="display:inline">
    <text
       xml:space="preserve"
       style="font-style:normal;font-variant:normal;font-weight:500;font-stretch:normal;line-height:0%;font-family:'Rounded M+ 1c';-inkscape-font-specification:'Rounded M+ 1c, Medium';text-align:start;letter-spacing:0px;word-spacing:0px;writing-mode:lr-tb;text-anchor:start;display:inline;fill:#2b1100;fill-opacity:1;stroke:#000000;stroke-width:2;stroke-miterlimit:4;stroke-dasharray:none;stroke-opacity:1"
       x="861.13171"
       y="582.47577"
       id="episode-title"><tspan
         sodipodi:role="line"
         id="tspan4140"
         x="861.13171"
         y="582.47577"
         style="font-size:72.5px;line-height:1.25">エピソード 20: ピクニック</tspan></text>
    <g
       style="display:inline"
       id="g1027-2"
       transform="matrix(0.6443472,0,0,0.6443472,433.51187,-22.455469)">
      <path
         sodipodi:nodetypes="ssccssssccsccs"
         inkscape:connector-curvature="0"
         id="path2985-3-0"
         d="m 2324.4685,479.66297 c 0.781,-15.4691 -0.6286,-24.96842 5,-31.42857 4.4916,-5.15525 11.394,-9.47046 17.3427,-6.90711 4.7113,-3.3286 9.9608,0.93671 13.4079,3.92066 11.2391,-2.07185 13.7184,4.9832 19.1779,10.1293 3.1779,2.99543 4.4172,9.94688 4.1249,11.75977 -0.9374,5.81267 -9.0809,4.52888 -10.9106,16.81166 -15.0599,101.09689 -10.6548,123.12772 -4.2857,215.28578 0.6241,9.0302 -8.3725,10.7445 -9.8675,-8.006 -5.678,4.7728 -6.0141,-5.1572 -6.7091,-9.2891 -2.4229,1.9182 -3.9521,12.7029 -5.6003,11.46 -4.286,-3.2322 -13.9613,-44.07365 -13.0711,-60.91227 -1.5476,0.62098 -3.286,10.98902 -4.2614,9.21722 -9.2222,-104.66449 -8.1046,-87.63269 -4.3477,-162.04134 z"
         style="color:#000000;display:inline;overflow:visible;visibility:visible;fill:#301b0b;fill-opacity:1;fill-rule:nonzero;stroke:none;stroke-width:3;marker:none;enable-background:accumulate" />
      <path
         sodipodi:nodetypes="csscsccscc"
         inkscape:connector-curvature="0"
         id="path2987-6-2"
         d="m 2349.7541,553.2344 c -0.5681,-20.32779 1.5784,-40.05633 9.8267,-31.71973 33.8028,34.16452 54.697,43.62426 90.8369,57.9797 21.974,8.72851 0.017,9.09901 -9.235,1.1686 4.7332,5.29864 9.915,8.93257 7.6776,11.37965 -1.9924,2.17906 -3.8222,0.0942 -9.4379,-0.1244 -0.147,9.23737 -19.2933,5.26479 -26.0968,2.17331 7.8185,9.15879 9.7071,11.05479 7.5902,11.36992 -2.3957,0.35664 -8.0519,-3.18115 -11.0242,-5.53308 -12.1644,1.84324 -44.4264,-24.94999 -60.1375,-46.69397 z"
         style="color:#000000;display:inline;overflow:visible;visibility:visible;fill:#301b0b;fill-opacity:1;fill-rule:nonzero;stroke:none;stroke-width:3;marker:none;enable-background:accumulate" />
      <path
         style="color:#000000;display:inline;overflow:visible;visibility:visible;fill:#301b0b;fill-opacity:1;fill-rule:nonzero;stroke:none;stroke-width:3;marker:none;enable-background:accumulate"
         d="m 68.082753,503.66224 c 21.8338,-11.8055 41.845297,-52.62176 83.142697,-39.99999 78.5315,24.00165 50.4297,142.6705 132.8564,189.44744 19.7091,11.18482 36.7994,23.61422 54.1281,27.70747 7.38004,1.7432 5.745,4.9191 -0.3298,4.6999 -2.8582,-0.1032 -1.3342,6.8177 -31.6554,-6.69305 3.3021,11.68315 -16.4092,-2.1702 -30.6979,-7.1894 4.5215,6.1685 18.289,14.01555 19.3556,16.75805 4.2337,10.8865 -31.3135,-11.45575 -33.6577,-13.85435 -0.7015,17.12035 -12.5446,1.4885 -32.8571,-17.14291 -38.2889,-35.12001 -52.7338,-150.92098 -89.1188,-151.96903 -23.9652,-0.69031 -35.7003,27.23221 -52.977397,44.29679 -5.2567,5.19207 -8.654,8.96361 -15.2767,11.77074 -2.0804,0.88179 -7.8438,0.0976 -10.0472,-1.28436 -2.2204,-1.39264 -0.8866,-3.38674 -4.4842,-3.44379 -7.1623,-0.11358 -14.4555,-12.48969 -9.5491,-19.45914 -3.7659,-5.72183 -7.5286,-18.89911 1.3024,-24.67195 -2.6324,-6.47532 13.1766,-5.35543 19.8661,-8.97242 z"
         id="path3137-7-3"
         inkscape:connector-curvature="0"
         sodipodi:nodetypes="sssssccscssssssccs" />
      <path
         style="color:#000000;display:inline;overflow:visible;visibility:visible;fill:#301b0b;fill-opacity:1;fill-rule:nonzero;stroke:none;stroke-width:3;marker:none;enable-background:accumulate"
         d="m 746.49909,475.14638 c -1.91639,10.18712 -5.89302,15.13319 -4.97166,22.38581 7.83088,61.64202 43.90913,146.16759 108.11928,194.72737 8.44938,6.39 -9.35738,1.3388 -18.25861,-3.5333 0.0913,0.939 -8.03441,-5.0652 -2.89529,1.1822 1.60023,1.9453 1.87762,4.5408 -1.07484,3.9954 -5.17333,-0.9555 -14.17404,-6.3224 -20.19767,-15.78645 0.78317,2.62625 1.87064,5.59905 -2.30509,4.08685 -4.55493,2.8185 3.43561,9.4971 0.21333,9.6136 -3.40138,0.1229 -12.16851,-8.2506 -20.48874,-18.81245 -0.65465,1.1456 -0.43513,3.052 -1.23909,3.047 -1.07332,-0.01 -3.27231,-2.1649 -5.07758,-1.9717 -3.72193,0.3983 -4.11139,1.1796 -6.57021,-0.958 -19.27916,-16.76054 -78.98689,-124.87915 -82.42654,-195.8095 -0.43797,-9.03149 -2.04393,-28.06928 7.78729,-27.62986 4.16358,-4.33711 8.88142,-5.60833 15.93586,-5.60833 4.8952,-5.555 13.52336,1.22611 18.31518,6.96041 2.64703,3.16764 4.8253,3.55919 2.89803,7.18173 4.57581,-2.58855 4.25345,4.29942 7.79794,7.44636 3.09194,2.74516 4.86838,7.19725 4.43841,9.48286 z"
         id="path3141-5-7"
         inkscape:connector-curvature="0"
         sodipodi:nodetypes="ssssscsccsscssccscss" />
      <path
         style="color:#000000;display:inline;overflow:visible;visibility:visible;fill:#301b0b;fill-opacity:1;fill-rule:nonzero;stroke:none;stroke-width:3;marker:none;enable-background:accumulate"
         d="m 588.0172,660.94482 c 31.83266,-37.55365 67.60968,-102.89567 74.9091,-149.46834 1.76484,-11.26022 3.88529,-19.40758 1.8625,-31.59008 -1.75209,-10.55213 -7.7216,-14.43031 -14.21766,-16.1201 -0.52622,-3.14269 -0.40945,-5.95142 -3.08176,-8.08581 -4.71693,-3.76745 -13.59009,-5.43389 -17.63911,-3.12739 -2.04223,-1.71924 -6.73393,-5.13913 -9.53732,-4.5877 -7.50571,1.47636 -13.93733,12.72748 -13.79383,20.22765 0.1693,8.84836 10.54615,16.82276 10.28743,27.35072 -1.66686,67.82811 -45.82362,129.71326 -90.40866,172.47214 -6.72044,6.4451 -23.55333,19.30595 -22.78118,24.47455 0.52776,3.5327 9.56359,-1.6057 19.33727,-7.7603 -1.76532,1.4132 -5.20489,10.3708 -3.4104,12.2249 2.2976,2.3737 14.83497,-6.8977 20.52727,-12.1956 -0.21738,3.2238 -0.16059,5.9257 6.12773,5.1065 5.28921,-0.689 21.23225,-18.16105 31.42123,-30.92658 -5.04532,11.57453 -7.52299,23.14648 10.39739,2.00544 z"
         id="path3143-3-5"
         inkscape:connector-curvature="0"
         sodipodi:nodetypes="ssscscssssscscscs" />
      <path
         sodipodi:nodetypes="cssscssssssccscscsscsssc"
         inkscape:connector-curvature="0"
         id="path3147-5-9"
         d="m 263.13755,500.81648 c -10.7302,-0.17081 -17.0867,-9.57804 -13.0796,-23.31567 4.8697,-3.65228 11.013,-9.44616 11.3735,-15.9229 0.078,-1.40803 -1.8142,-2.56289 -2.0782,-5.0213 -0.4033,-3.75568 0.3743,-8.88633 -2.7684,-9.5288 1.105,-3.5679 1.5487,-7.2269 -1.0453,-8.22905 -4.3983,-1.6992 -15.754,1.08357 -20.7431,6.49341 -2.974,3.22488 -2.0071,8.59357 -3.3105,10.45911 -5.0568,7.23777 -8.5427,14.80233 -8.7081,22.91042 -0.3587,17.58017 12.4976,44.06771 38.085,43.80485 22.6029,-0.2322 41.796,-17.10647 43.0956,-34.28336 1.7033,-22.5137 -15.1019,-40.54032 -20.3485,-39.11613 -3.88,-3.59207 -12.171,-5.82638 -12.4541,-3.04302 -8.4212,-2.68617 -17.2047,0.37309 -20.5292,3.04302 -4.6112,3.70332 6.4091,-1.51337 16.1754,0.002 -3.0365,0.68693 -4.1266,2.18508 -3.0075,2.56731 2.6211,0.89527 5.1513,2.09686 6.6703,3.62452 -1.6021,0.11555 -5.8487,0.14716 -4.1392,0.93114 1.7936,0.82258 8.0316,2.01855 12.3661,5.89973 2.6235,2.34916 8.4674,8.80577 8.4499,13.6275 -2.5082,-6.80975 -9.5071,-9.89665 -7.071,-5.10508 2.2631,4.45162 2.8189,8.9394 2.6364,12.74843 -0.4767,9.94535 -9.5195,17.614 -19.5695,17.45401 z"
         style="color:#000000;display:inline;overflow:visible;visibility:visible;fill:#301b0b;fill-opacity:1;fill-rule:nonzero;stroke:none;stroke-width:3;marker:none;enable-background:accumulate" />
      <path
         style="color:#000000;display:inline;overflow:visible;visibility:visible;fill:#301b0b;fill-opacity:1;fill-rule:nonzero;stroke:none;stroke-width:3;marker:none;enable-background:accumulate"
         d="m 1020.8999,576.31047 c -36.92529,0.44119 -65.80357,0.58713 -122.1428,6.42856 -8.27636,0.85812 -31.37229,13.86043 -39.58862,9.18871 -10.35424,-5.88731 -19.25141,-12.93718 -21.95053,-19.23591 -1.46814,-3.4261 0.85353,-7.69689 1.27804,-8.98625 -4.98776,-2.85277 -6.88239,-4.90134 -6.56902,-6.25986 0.70443,-3.05384 5.53252,-6.76642 9.1188,-9.80597 4.15513,-3.52169 19.08828,-7.18967 25.21788,-5.80127 4.02668,0.91207 6.36388,2.36071 9.77916,4.04341 74.50943,-9.4207 133.76419,-7.08036 174.28569,-7.85714 22.9305,-0.43957 38.4664,-0.28288 28.1537,4.15181 -2.78,1.19547 -18.8821,2.21004 -23.1537,3.6339 3.3066,0.95784 6.884,5.90675 0.8844,8.78264 -2.6329,1.26207 3.2063,7.23485 -6.2416,7.64594 0.7613,6.33262 -34.0499,2.404 -33.9604,4.0805 0.1026,1.9231 5.3494,3.01962 9.1766,3.48701 4.3941,0.53662 2.0996,6.42761 -4.2876,6.50392 z"
         id="path3158-6-2"
         inkscape:connector-curvature="0"
         sodipodi:nodetypes="sssscssscsscscsss" />
      <path
         sodipodi:nodetypes="sscscsssscscss"
         style="color:#000000;display:inline;overflow:visible;visibility:visible;fill:#301b0b;fill-opacity:1;fill-rule:nonzero;stroke:none;stroke-width:3;marker:none;enable-background:accumulate"
         d="m 1240.3492,582.35304 c 3.6041,-1.88945 4.6472,-10.81581 2.3204,-20.333 -7.0723,-28.92775 -20.5821,-48.02277 -28.9707,-55.19391 -3.1781,-2.71687 -7.5145,-4.90708 -11.2272,-5.01737 -1.457,-0.0433 -2.7015,0.60271 -3.6064,1.29365 -1.1538,-0.64946 -3.0534,-0.76128 -4.1688,-0.18837 -2.8961,1.48755 -5.6131,4.18634 -7.893,8.46139 -1.3134,0.13037 -4.0554,1.19621 -5.4418,2.94985 -2.7829,3.52024 -4.0439,11.50882 -1.1943,17.23929 0.924,1.85826 9.8086,4.11523 11.3377,6.52965 8.7367,6.22568 17.7851,15.02435 23.3948,22.00196 3.1606,3.93135 1.2865,-3.99764 0.3572,-6.78572 6.1613,5.32585 9.6207,13.70026 12.4536,21.81887 2.706,7.75515 9.9397,8.63853 12.6385,7.22371 z"
         id="path3160-2-2"
         inkscape:connector-curvature="0" />
      <path
         style="color:#000000;display:inline;overflow:visible;visibility:visible;fill:#301b0b;fill-opacity:1;fill-rule:nonzero;stroke:none;stroke-width:3;marker:none;enable-background:accumulate"
         d="m 1231.4066,558.94928 c 8.657,-5.62816 22.2992,-16.94075 27.1751,-27.8772 0.8366,-1.87653 1.3049,-5.96882 3.2194,-7.67559 4.1205,-3.67361 7.834,-4.08024 12.1518,-2.3592 2.0087,0.80067 4.9721,3.81006 6.5549,6.39627 1.4557,-4.50738 2.691,-8.87269 8.1759,-9.44184 2.7692,-0.28735 16.5982,1.06804 14.8187,7.79051 1.4682,0.10965 3.0709,1.36836 4.6758,2.85548 4.1142,3.81225 1.2945,9.15719 1.0467,11.10463 -2.0253,15.9183 -16.7663,27.13084 -24.1039,34.08504 -30.0582,28.48778 -123.8031,39.41283 -104.3626,73.20575 6.5676,11.41628 28.3192,15.18041 51.2858,15.24498 16.7085,0.047 49.7258,-3.19116 75.2986,-14.61113 3.9885,-1.78112 11.8628,-7.4662 10.8269,-3.43363 -0.7177,2.79445 -5.1475,7.18309 -14.1548,11.66777 -6.2442,3.10896 -16.8542,6.23218 -15.9454,6.8557 1.1744,0.80579 4.7229,0.57719 5.5851,1.44189 2.0405,2.0464 1.5109,9.1403 -7.0569,12.2822 -3.3118,1.2145 -1.8601,4.48945 -5.5085,6.73075 -3.1472,1.9334 -11.5573,2.042 -14.9255,2.6544 2.7076,2.1389 1.6454,4.9738 -6.9322,4.7798 0.3232,1.4985 2.8517,2.86 1.4486,3.76 -2.5118,1.6111 -10.1427,2.1363 -12.3845,2.1182 -51.7076,-0.4141 -104.3262,-4.6385 -107.1749,-56.09721 -2.4866,-44.91693 60.2576,-61.95533 90.2859,-81.47757 z"
         id="path3162-9-8"
         inkscape:connector-curvature="0"
         sodipodi:nodetypes="sssscscssssssssssssccssss" />
      <path
         style="color:#000000;display:inline;overflow:visible;visibility:visible;fill:#301b0b;fill-opacity:1;fill-rule:nonzero;stroke:none;stroke-width:3;marker:none;enable-background:accumulate"
         d="m 812.42326,510.81648 c -10.7302,-0.17081 -17.0867,-9.57804 -13.0796,-23.31567 4.8697,-3.65228 11.013,-9.44616 11.3735,-15.9229 0.078,-1.40803 -1.8142,-2.56289 -2.0782,-5.0213 -0.4033,-3.75568 0.3743,-8.88633 -2.7684,-9.5288 1.105,-3.5679 1.5487,-7.2269 -1.0453,-8.22905 -4.3983,-1.6992 -15.754,1.08357 -20.7431,6.49341 -2.974,3.22488 -2.0071,8.59357 -3.3105,10.45911 -5.0568,7.23777 -8.5427,14.80233 -8.7081,22.91042 -0.3587,17.58017 12.4976,44.06771 38.085,43.80485 22.6029,-0.2322 41.796,-17.10647 43.0956,-34.28336 1.7033,-22.5137 -15.1019,-40.54032 -20.3485,-39.11613 -3.88,-3.59207 -12.171,-5.82638 -12.4541,-3.04302 -8.4212,-2.68617 -17.2047,0.37309 -20.5292,3.04302 -4.6112,3.70332 6.4091,-1.51337 16.1754,0.002 -3.0365,0.68693 -4.1266,2.18508 -3.0075,2.56731 2.6211,0.89527 5.1513,2.09686 6.6703,3.62452 -1.6021,0.11555 -5.8487,0.14716 -4.1392,0.93114 1.7936,0.82258 8.0316,2.01855 12.3661,5.89973 2.6235,2.34916 8.4674,8.80577 8.4499,13.6275 -2.5082,-6.80975 -9.5071,-9.89665 -7.071,-5.10508 2.2631,4.45162 2.8189,8.9394 2.6364,12.74843 -0.4767,9.94535 -9.5195,17.614 -19.5695,17.45401 z"
         id="path3164-1-9"
         inkscape:connector-curvature="0"
         sodipodi:nodetypes="cssscssssssccscscsscsssc" />
      <path
         sodipodi:nodetypes="cssccscscsssscsc"
         inkscape:connector-curvature="0"
         id="path3166-2-7"
         d="m 2128.907,532.79114 c 11.3808,15.18347 21.4635,38.16195 23.8039,55.81092 1.1341,8.55214 0.2967,20.27719 3.7705,17.69794 2.4047,-1.78542 2.651,-4.89695 2.8279,-8.89945 1.3517,-0.4984 0.3574,-5.27339 0.2302,-6.65858 0.7214,0.25869 3.4188,7.24549 5.222,5.64613 1.2671,-1.12389 0.1375,-10.44221 -1.0045,-15.53715 2.4555,2.71259 3.1016,13.67372 5.2068,10.70884 1.5669,-2.20677 -0.5338,-22.0079 -0.875,-25.48622 1.4621,1.91617 2.9085,12.9177 4.5147,11.70094 3.8235,-2.89642 3.1208,-19.64327 2.7088,-23.18965 -1.1329,-9.75149 -4.996,-24.27457 -6.9298,-29.5537 -3.4801,-9.50024 -8.4139,-14.89469 -17.0618,-11.38303 -3.0734,1.24804 -8.9747,1.39228 -7.0856,5.8447 -2.4051,-0.216 -13.9129,0.7838 -15.8519,1.89495 -5.4039,3.09674 -4.8397,9.47522 0.5238,11.40336 z"
         style="color:#000000;display:inline;overflow:visible;visibility:visible;fill:#301b0b;fill-opacity:1;fill-rule:nonzero;stroke:none;stroke-width:3;marker:none;enable-background:accumulate" />
      <path
         sodipodi:nodetypes="cssccsccsscsc"
         inkscape:connector-curvature="0"
         id="path3168-7-3"
         d="m 2176.8283,524.20484 c 10.722,13.9159 17.3064,26.88965 20.7081,41.92133 0.3349,1.47952 2.5847,11.77119 4.2052,12.51726 1.8054,0.83122 2.9515,-8.23646 2.3265,-14.07651 0.8896,1.91232 5.6446,10.11088 6.482,1.49693 2.5293,5.03233 3.9538,1.75593 3.9643,-0.88458 0.012,-2.9095 -1.1744,-7.43697 -3.6434,-14.16417 1.3971,2.73517 5.3889,1.93945 3.8713,-6.63943 2.6339,1.84603 5.1663,5.69122 4.6604,2.78168 -2.7422,-15.76954 -2.1266,-27.28156 -11.6828,-38.18402 -3.9706,-4.52998 -17.8096,-6.12464 -19.2281,1.5097 -6.746,-2.59828 -12.1069,2.87327 -13.614,3.81343 -5.0682,3.16167 -1.0856,6.56542 1.9505,9.90838 z"
         style="color:#000000;display:inline;overflow:visible;visibility:visible;fill:#301b0b;fill-opacity:1;fill-rule:nonzero;stroke:none;stroke-width:3;marker:none;enable-background:accumulate" />
      <path
         sodipodi:nodetypes="sscscccssssccscsscs"
         inkscape:connector-curvature="0"
         id="path3170-0-6"
         d="m 2204.5694,655.01436 c 38.8586,-26.15273 83.8749,-68.38203 78.6404,-118.50411 -0.5189,-4.9678 -0.7141,-9.67617 -5.0466,-11.05016 0.5125,-4.06366 -3.0056,-6.09989 -7.0797,-8.86807 -1.8034,-1.22534 -8.1545,-4.247 -9.5659,-2.02385 -8.4937,-6.43259 -11.21,-9.68905 -21.0104,-3.02543 -1.3055,-1.18467 -11.3535,1.54558 -12.8239,6.46568 -4.4354,2.2633 -5.2539,6.41114 -2.1585,10.42665 7.0678,9.16843 11.7736,8.36445 11.826,14.40683 0.5771,66.5724 -68.2892,106.36611 -98.1026,122.87191 -0.8528,0.4722 -2.8849,2.6435 -3.5118,3.9913 -0.7258,1.5607 -2.0375,2.9053 -0.3466,3.6988 -3.0188,2.0022 8.227,-3.1173 15.0274,-5.6026 -2.4335,2.6775 -1.8415,3.7656 -0.6075,3.7 6.625,-0.3521 25.7092,-9.79222 42.8269,-21.62131 -0.9094,0.72099 -1.4453,2.09126 -4.4016,4.45696 -2.968,2.375 -2.5452,3.2199 -1.9974,3.8709 1.0875,1.2925 10.9702,-2.6538 12.6079,-3.3817 -2.4568,4.1499 4.2334,1.19135 5.7239,0.1882 z"
         style="color:#000000;display:inline;overflow:visible;visibility:visible;fill:#301b0b;fill-opacity:1;fill-rule:nonzero;stroke:none;stroke-width:3;marker:none;enable-background:accumulate" />
      <path
         style="color:#000000;display:inline;overflow:visible;visibility:visible;fill:#301b0b;fill-opacity:1;fill-rule:nonzero;stroke:none;stroke-width:3;marker:none;enable-background:accumulate"
         d="m 1403.5506,528.74378 c -1.9758,-0.31334 -5.4363,2.72749 -4.1414,6.14677 0.5396,1.42488 -0.7308,11.74372 3.0303,12.33915 -0.2205,3.49823 5.7855,5.67563 8.9825,5.64963 -2.1576,3.28798 -0.4316,5.61316 1.4254,7.68889 4.7112,5.2662 9.8335,6.73805 12.9609,3.52256 1.703,2.69541 4.4635,1.49398 7.3008,0.79816 6.3033,-1.5458 20.1703,-8.34885 23.7343,-9.62452 54.4246,-19.48043 79.1613,-33.72628 120.0616,-62.69382 4.3393,-3.07326 13.5204,-8.12876 6.5123,-10.38536 -1.6415,-0.52858 11.9582,-8.48718 9.7596,-13.48814 2.7923,-2.6459 6.1617,-3.91119 4.8861,-5.67813 -2.1061,-2.91752 -7.4517,0.64096 -9.2747,-0.57731 -1.3292,-0.88832 -0.7607,-2.15969 1.2303,-3.56169 1.5767,-1.11028 -4.2252,-1.28323 -6.9841,-1.25556 9.9335,-8.20759 31.0442,-29.52678 22.0421,-23.68059 -60.0486,41.29885 -106.8938,63.21743 -164.3272,82.99166 -7.1107,2.44818 -20.463,1.49803 -28.8954,1.91287 -5.7977,0.28523 -10.7848,6.77154 -8.3034,9.89543 z"
         id="path3172-9-1"
         inkscape:connector-curvature="0"
         sodipodi:nodetypes="csccscsssscsssccssc" />
      <path
         style="color:#000000;display:inline;overflow:visible;visibility:visible;fill:#301b0b;fill-opacity:1;fill-rule:nonzero;stroke:none;stroke-width:3;marker:none;enable-background:accumulate"
         d="m 1466.2203,613.19342 c 63.0355,-20.23825 112.9357,-46.1569 170.1699,-96.12781 4.1134,-3.59133 2.6969,2.34101 -4.83,9.6353 -2.799,2.7125 -6.7375,7.48145 -9.9585,9.03087 8.6423,-3.8404 4.1144,2.31477 3.0958,6.02187 3.7229,-1.78528 4.7723,0.86054 4.6124,2.35781 -0.4662,4.36532 -9.327,11.75446 -11.5969,14.62169 1.0724,2.30246 0.7052,6.14203 -2.1091,8.30622 -4.2804,3.29166 1.6573,5.72698 -5.8025,12.47578 10.2015,-3.83038 14.4041,-9.90917 15.615,-6.60254 0.9618,2.6267 -9.4491,9.81717 -13.0099,12.29713 -50.274,35.01404 -76.1011,43.65784 -112.6852,59.00748 -10.5544,4.42832 -49.1706,25.50599 -46.8893,9.81534 -1.6582,0.0675 -5.4936,1.04367 -6.9322,0.50703 -3.3391,-1.24551 -3.7383,-5.10135 -5.3908,-7.74516 -1.5484,0.50273 -4.5898,-1.71087 -5.6067,-2.87621 -3.0943,-3.54617 -6.1489,-6.73949 -2.551,-10.24194 -1.5099,-1.11026 -4.8539,-3.95377 -4.2047,-5.4501 2.0288,-4.67561 3.2707,-10.57233 6.8694,-9.13798 -0.075,-1.81136 3.4717,-3.93064 7.191,-3.86378 9.5506,0.17169 17.0215,0.21378 24.0133,-2.031 z"
         id="path3174-3-2"
         inkscape:connector-curvature="0"
         sodipodi:nodetypes="sssccscscssscscscscss" />
      <path
         style="color:#000000;display:inline;overflow:visible;visibility:visible;fill:#301b0b;fill-opacity:1;fill-rule:nonzero;stroke:none;stroke-width:3;marker:none;enable-background:accumulate"
         d="m 1496.198,452.38383 c -2.2597,-2.99557 -6.7493,-8.93915 -9.4394,-11.0749 -4.8596,-3.85812 -8.1114,-2.47566 -11.9866,0.19262 -4.5506,-4.53489 -13.6674,-2.90396 -20.5797,-0.85987 -3.2625,0.9648 -5.3756,7.15392 -6.4776,9.9406 -2.1207,5.36258 7.1643,21.303 11.9368,27.92439 16.8089,81.962 39.3645,128.74861 77.0931,189.39054 6.0466,9.7189 17.6307,27.22175 20.0662,26.43605 2.6403,-0.8518 -5.6711,-16.42545 -3.6852,-17.13515 2.9195,0.5085 7.9695,10.28225 13.5389,18.16695 3.0389,4.3022 7.7301,10.0931 8.8491,9.2818 1.3783,-0.9994 0.3021,-7.4957 -3.93,-13.9695 -4.1593,-6.3621 -0.6158,-6.3923 -4.3149,-11.29485 4.5894,3.26805 13.0416,24.28495 16.4361,21.78545 1.5869,-1.1687 1.1432,-2.9124 1.9061,-3.2906 2.5446,-1.2616 4.0935,4.2374 3.1148,-6.2569 2.4034,4.5936 8.2686,10.7992 11.3504,14.8574 2.9114,3.8338 5.6668,4.5443 4.2389,2.2363 -79.3966,-128.32784 -90.0259,-176.21259 -102.9209,-231.20045 -1.9197,-8.18622 5.6831,-24.61238 -5.1961,-25.12988 z"
         id="path3176-6-9"
         inkscape:connector-curvature="0"
         sodipodi:nodetypes="cscsscsscssscsscsssc" />
      <path
         style="color:#000000;display:inline;overflow:visible;visibility:visible;fill:#301b0b;fill-opacity:1;fill-rule:nonzero;stroke:none;stroke-width:3;marker:none;enable-background:accumulate"
         d="m 1672.7756,590.13189 c 46.6892,-19.20572 90.4203,-62.10793 141.7857,-75.35714 5.1528,-1.19445 21.1034,10.25749 21.6072,16.60715 1.7811,22.44863 -15.2902,53.06718 -27.6786,73.03571 -0.9292,1.49778 -4.2617,2.22185 -5.3746,0.32554 -2.7052,4.52314 -5.3677,6.92045 -4.4501,3.84529 1.3083,-4.38396 4.6355,-6.79805 9.8247,-17.74226 3.2881,-6.93482 -12.8855,13.34309 -12.9934,3.96561 -2.3643,0.17052 -4.3747,-6.24923 -9.1903,-1.34819 -4.4766,4.55607 -10.1579,5.95941 -0.9429,-9.84072 -1.1831,-4.69885 7.5721,-17.57017 7.948,-21.70527 -29.3043,12.30675 -71.2332,36.65344 -96.25,56.9643 -3.1938,2.59302 -7.9168,9.04529 -11.672,10.44559 -7.6697,2.85997 -20.7106,3.59503 -17.1636,-2.83247 -2.0122,-0.36353 -5.0512,-1.70821 -3.1287,-5.47028 -4.7741,2.66722 -13.2122,-6.03426 -15.0319,-10.5747 -3.1959,-3.02385 -0.5381,-6.9603 -0.6029,-8.60165 -0.1358,-3.43704 15.0934,-8.33519 23.3134,-11.71651 z"
         id="path3178-0-3"
         inkscape:connector-curvature="0"
         sodipodi:nodetypes="scsscsscsccsscccss" />
      <path
         style="color:#000000;display:inline;overflow:visible;visibility:visible;fill:#301b0b;fill-opacity:1;fill-rule:nonzero;stroke:none;stroke-width:3;marker:none;enable-background:accumulate"
         d="m 1688.4899,543.16762 c 18.4914,46.5222 28.6759,80.64322 55,118.74999 5.5776,8.0742 5.5933,-4.79421 8.75,-7.5 14.6816,10.0943 17.5,29.37905 17.5,5.00001 4.2252,9.98099 22.3272,22.78324 17.5,13.74999 -31.1508,-58.29327 -48.8588,-101.75361 -60.2652,-140.02537 -3.0329,-10.1762 0.051,-31.34984 -8.5151,-33.80648 -4.4483,-1.27575 -6.4212,-4.32061 -12.3904,-3.58947 -3.8003,0.46548 -16.7697,5.88792 -15.7481,9.3401 -7.0334,-2.45859 -10.4427,5.73314 -11.9182,9.166 -1.9589,4.55792 -7.5796,17.20656 -4.3114,21.01018 3.4746,4.04384 9.3234,4.09878 14.3984,7.90505 z"
         id="path3180-6-1"
         inkscape:connector-curvature="0"
         sodipodi:nodetypes="csccsssscssc" />
      <path
         style="color:#000000;display:inline;overflow:visible;visibility:visible;fill:#301b0b;fill-opacity:1;fill-rule:nonzero;stroke:none;stroke-width:3;marker:none;enable-background:accumulate"
         d="m 1877.7802,483.13717 c -7.0315,71.95073 -7.4309,90.16621 -2.0165,158.37843 0.3345,4.21378 2.2203,17.5261 2.682,18.78137 1.0155,2.76116 3.3169,-8.13367 2.2759,-19.17184 1.3369,-0.56835 7.5978,36.30118 11.3884,36.09008 8.0916,-0.4507 5.9464,18.20085 7.2297,12.16915 5.4052,9.8443 8.6514,-6.3627 9.8314,-2.2567 3.5656,12.4079 6.7711,14.5757 5.9632,8.3909 -10.9997,-84.19865 -7.3066,-136.90287 2.8571,-214.93846 0,0 -39.9536,-0.0791 -40.2112,2.55707 z"
         id="path3184-2-9"
         inkscape:connector-curvature="0"
         sodipodi:nodetypes="csscscsscc" />
      <path
         style="color:#000000;display:inline;overflow:visible;visibility:visible;fill:#301b0b;fill-opacity:1;fill-rule:nonzero;stroke:none;stroke-width:3;marker:none;enable-background:accumulate"
         d="m 1913.6654,460.09169 c 63.0271,1.66502 100.1957,-5.93508 150.5713,-9.81617 5.8442,-0.45026 14.3552,1.7965 18.0318,7.64686 0.8205,1.30552 2.6629,3.4475 2.9186,4.87588 2.0294,1.03796 2.3474,1.92993 3.7375,4.66129 1.2863,2.52732 5.0128,7.59531 5.1954,12.84619 0.1001,2.87634 -2.9414,6.52022 -3.1799,8.17483 -6.4955,45.07199 -16.6916,87.21109 -16.6916,151.5296 -10.6992,4.91125 -15.1436,5.16709 -20.7655,-4.11834 -2.1983,-3.63086 -3.0573,-18.40172 -4.8143,-20.38095 -0.9412,10.52709 -6.0845,9.07641 -5.9328,-0.64054 0.8534,-54.66727 6.0125,-106.69546 10.9586,-122.56309 -48.8623,7.51403 -114.5059,9.48813 -158.8351,9.32361 -13.4824,-0.05 -24.8866,-19.81739 -28.1585,-30.88824 -2.3767,-8.04193 6.563,-13.58491 10.1592,-17.87883 1.4879,-1.77649 7.3367,-3.12485 11.3938,-0.86874 -0.8103,-4.57575 5.324,-3.93457 7.7183,-2.66513 7.583,4.02051 15.9598,8.21609 17.6932,10.76177 z"
         id="path3186-6-4"
         inkscape:connector-curvature="0"
         sodipodi:nodetypes="csscssscscscssscsc" />
      <path
         style="color:#000000;display:inline;overflow:visible;visibility:visible;fill:#301b0b;fill-opacity:1;fill-rule:nonzero;stroke:none;stroke-width:3;marker:none;enable-background:accumulate"
         d="m 1896.6361,632.16389 c -5.9496,7.37996 -13.7779,31.52792 6.0609,40.34522 66.8046,-3.7162 122.7345,-6.1397 169.4083,-11.72375 0.84,-0.1005 8.1573,-1.18283 10.016,-2.65126 2.4854,-1.96367 -0.8454,-4.58115 -4.6065,-6.28095 5.7282,-2.43932 10.0873,-3.89235 11.1182,-6.7161 1.5732,-4.30922 -5.9085,-6.64033 -2.0791,-8.5373 7.7283,-3.82835 20.3409,-8.52861 6.9223,-9.43975 11.8148,-3.34359 22.2734,-8.00414 18.3629,-7.55666 -53.7006,6.14515 -129.473,19.12656 -215.203,12.56055 z"
         id="path3188-1-7"
         inkscape:connector-curvature="0"
         sodipodi:nodetypes="ccsscsccsc" />
      <path
         style="color:#000000;display:inline;overflow:visible;visibility:visible;fill:#301b0b;fill-opacity:1;fill-rule:nonzero;stroke:none;stroke-width:3;marker:none;enable-background:accumulate"
         d="m 364.90689,532.79114 c 11.3808,15.18347 21.4635,38.16195 23.8039,55.81092 1.1341,8.55214 0.2967,20.27719 3.7705,17.69794 2.4047,-1.78542 2.651,-4.89695 2.8279,-8.89945 1.3517,-0.4984 0.3574,-5.27339 0.2302,-6.65858 0.7214,0.25869 3.4188,7.24549 5.222,5.64613 1.2671,-1.12389 0.1375,-10.44221 -1.0045,-15.53715 2.4555,2.71259 3.1016,13.67372 5.2068,10.70884 1.5669,-2.20677 -0.5338,-22.0079 -0.875,-25.48622 1.4621,1.91617 2.9085,12.9177 4.5147,11.70094 3.8235,-2.89642 3.1208,-19.64327 2.7088,-23.18965 -1.1329,-9.75149 -4.996,-24.27457 -6.9298,-29.5537 -3.4801,-9.50024 -8.4139,-14.89469 -17.0618,-11.38303 -3.0734,1.24804 -8.9747,1.39228 -7.0856,5.8447 -2.4051,-0.216 -13.9129,0.7838 -15.8519,1.89495 -5.4039,3.09674 -4.8397,9.47522 0.5238,11.40336 z"
         id="path4062-8-8"
         inkscape:connector-curvature="0"
         sodipodi:nodetypes="cssccscscsssscsc" />
      <path
         style="color:#000000;display:inline;overflow:visible;visibility:visible;fill:#301b0b;fill-opacity:1;fill-rule:nonzero;stroke:none;stroke-width:3;marker:none;enable-background:accumulate"
         d="m 412.82819,524.20484 c 10.722,13.9159 17.3064,26.88965 20.7081,41.92133 0.3349,1.47952 2.5847,11.77119 4.2052,12.51726 1.8054,0.83122 2.9515,-8.23646 2.3265,-14.07651 0.8896,1.91232 5.6446,10.11088 6.482,1.49693 2.5293,5.03233 3.9538,1.75593 3.9643,-0.88458 0.012,-2.9095 -1.1744,-7.43697 -3.6434,-14.16417 1.3971,2.73517 5.3889,1.93945 3.8713,-6.63943 2.6339,1.84603 5.1663,5.69122 4.6604,2.78168 -2.7422,-15.76954 -2.1266,-27.28156 -11.6828,-38.18402 -3.9706,-4.52998 -17.8096,-6.12464 -19.2281,1.5097 -6.746,-2.59828 -12.1069,2.87327 -13.614,3.81343 -5.0682,3.16167 -1.0856,6.56542 1.9505,9.90838 z"
         id="path4064-7-4"
         inkscape:connector-curvature="0"
         sodipodi:nodetypes="cssccsccsscsc" />
      <path
         style="color:#000000;display:inline;overflow:visible;visibility:visible;fill:#301b0b;fill-opacity:1;fill-rule:nonzero;stroke:none;stroke-width:3;marker:none;enable-background:accumulate"
         d="m 440.56929,655.01436 c 38.8586,-26.15273 83.8749,-68.38203 78.6404,-118.50411 -0.5189,-4.9678 -0.7141,-9.67617 -5.0466,-11.05016 0.5125,-4.06366 -3.0056,-6.09989 -7.0797,-8.86807 -1.8034,-1.22534 -8.1545,-4.247 -9.5659,-2.02385 -8.4937,-6.43259 -11.21,-9.68905 -21.0104,-3.02543 -1.3055,-1.18467 -11.3535,1.54558 -12.8239,6.46568 -4.4354,2.2633 -5.2539,6.41114 -2.1585,10.42665 7.0678,9.16843 11.7736,8.36445 11.826,14.40683 0.5771,66.5724 -68.2892,106.36611 -98.1026,122.87191 -0.8528,0.4722 -2.8849,2.6435 -3.5118,3.9913 -0.7258,1.5607 -2.0375,2.9053 -0.3466,3.6988 -3.0188,2.0022 8.227,-3.1173 15.0274,-5.6026 -2.4335,2.6775 -1.8415,3.7656 -0.6075,3.7 6.625,-0.3521 25.7092,-9.79222 42.8269,-21.62131 -0.9094,0.72099 -1.4453,2.09126 -4.4016,4.45696 -2.968,2.375 -2.5452,3.2199 -1.9974,3.8709 1.0875,1.2925 10.9702,-2.6538 12.6079,-3.3817 -2.4568,4.1499 4.2334,1.19135 5.7239,0.1882 z"
         id="path4066-9-5"
         inkscape:connector-curvature="0"
         sodipodi:nodetypes="sscscccssssccscsscs" />
    </g>
  </g>
</svg>
