<?xml version="1.0" encoding="UTF-8" standalone="no"?>
<!-- Created with Inkscape (http://www.inkscape.org/) -->

<svg
   xmlns:dc="http://purl.org/dc/elements/1.1/"
   xmlns:cc="http://creativecommons.org/ns#"
   xmlns:rdf="http://www.w3.org/1999/02/22-rdf-syntax-ns#"
   xmlns:svg="http://www.w3.org/2000/svg"
   xmlns="http://www.w3.org/2000/svg"
   xmlns:xlink="http://www.w3.org/1999/xlink"
   xmlns:sodipodi="http://sodipodi.sourceforge.net/DTD/sodipodi-0.dtd"
   xmlns:inkscape="http://www.inkscape.org/namespaces/inkscape"
   id="svg2"
   version="1.1"
   inkscape:version="0.92.2 5c3e80d, 2017-08-06"
   width="2481"
   height="3503"
   sodipodi:docname="E29P03.svg">
  <metadata
     id="metadata8">
    <rdf:RDF>
      <cc:Work
         rdf:about="">
        <dc:format>image/svg+xml</dc:format>
        <dc:type
           rdf:resource="http://purl.org/dc/dcmitype/StillImage" />
        <dc:title />
      </cc:Work>
    </rdf:RDF>
  </metadata>
  <defs
     id="defs6" />
  <sodipodi:namedview
     pagecolor="#ffffff"
     bordercolor="#666666"
     borderopacity="1"
     objecttolerance="10"
     gridtolerance="10"
     guidetolerance="10"
     inkscape:pageopacity="0"
     inkscape:pageshadow="2"
     inkscape:window-width="1440"
     inkscape:window-height="855"
     id="namedview4"
     showgrid="false"
     inkscape:zoom="0.36246311"
     inkscape:cx="1062.7389"
     inkscape:cy="524.4473"
     inkscape:window-x="0"
     inkscape:window-y="1"
     inkscape:window-maximized="1"
     inkscape:current-layer="layer3"
     inkscape:snap-global="false" />
  <g
     inkscape:groupmode="layer"
     id="layer2"
     inkscape:label="artwork"
     sodipodi:insensitive="true">
    <image
       sodipodi:absref="/Users/almeida/Documents/git/webcomics/ep29_Destroyer-of-Worlds/lang/pt/../gfx_Pepper-and-Carrot_by-David-Revoy_E29P03.png"
       xlink:href="../gfx_Pepper-and-Carrot_by-David-Revoy_E29P03.png"
       width="2481"
       height="3503"
       id="image10"
       x="0"
       y="0" />
  </g>
  <g
     inkscape:groupmode="layer"
     id="layer3"
     inkscape:label="speechbubbles">
    <path
       style="color:#000000;display:inline;overflow:visible;visibility:visible;fill:#ffffff;fill-opacity:1;fill-rule:nonzero;stroke:none;stroke-width:1.03702748px;marker:none;enable-background:accumulate"
       d="m 164.56062,203.28558 c 3.80339,-26.62382 -1.34362,-57.915 43.12412,-72.94279 44.46774,-15.02779 138.55024,-17.7922 236.28341,-12.51509 52.35114,2.8267 138.93693,-0.0987 179.06092,15.19077 26.21525,9.98947 39.63902,33.31133 34.67555,72.31502 -4.96345,39.00365 -28.69215,59.31682 -77.123,68.66575 -48.43086,9.34893 -96.97671,9.03196 -139.25303,8.59783 -40.81919,-0.41917 -72.47651,3.12535 -126.77191,-2.15834 -54.2954,-5.28369 -108.09883,-14.11222 -123.82012,-27.42734 -9.84112,-8.33494 -16.64352,-16.64272 -20.85642,-24.9286 -4.2129,-8.28588 -5.83634,-16.54986 -5.31952,-24.79721 z"
       id="path4546-6"
       inkscape:connector-curvature="0"
       sodipodi:nodetypes="csssssssssc" />
    <path
       style="fill:#ffffff;stroke:none;stroke-width:1"
       d="m 240.20205,385.06686 c -58.13838,-27.45721 -59.25417,-104.2317 6.40363,-135.1495 33.25786,-15.66089 31.21798,-5.00947 31.21798,-5.00947 l -6.80518,-52.3863 c 0,0 17.27652,-20.93641 -34.72953,12.43271 -52.00605,33.36911 -110.96723,129.16604 3.9131,180.11256 z"
       id="path3063"
       inkscape:connector-curvature="0"
       sodipodi:nodetypes="cscczc" />
    <path
       style="color:#000000;display:inline;overflow:visible;visibility:visible;fill:#ffffff;fill-opacity:1;fill-rule:nonzero;stroke:none;stroke-width:1px;marker:none;enable-background:accumulate"
       d="m 1831.8907,161.70482 c 31.0929,-35.7225 436.178,-57.75144 492.3718,19.47099 35.6585,49.0024 21.7061,234.3177 -23.8244,269.827 -53.5847,41.79071 -353.0745,30.46494 -428.3962,7.17083 -71.661,-22.16198 -74.3081,-98.07112 -77.9222,-171.81292 -1.4751,-30.0969 6.6778,-88.9333 37.771,-124.6559 z"
       id="path4040-4"
       inkscape:connector-curvature="0"
       sodipodi:nodetypes="zssssz" />
    <path
       style="color:#000000;display:inline;overflow:visible;visibility:visible;fill:#ffffff;fill-opacity:1;fill-rule:nonzero;stroke:none;stroke-width:0.99999994px;marker:none;enable-background:accumulate"
       d="m 1521.7564,267.86763 c 32.5901,-37.14844 120.5249,-77.58678 199.7918,-73.40468 42.0311,2.21755 81.2853,18.77332 113.3871,43.73164 54.8474,16.58165 18.1095,-34.39627 18.1095,-34.39627 -9.1911,-10.4538 -45.1517,-22.91599 -79.6603,-28.40181 -77.1713,-12.26787 -186.4105,2.0063 -251.6281,92.47112 z"
       id="path3984"
       inkscape:connector-curvature="0"
       sodipodi:nodetypes="csccsc" />
    <path
       style="color:#000000;display:inline;overflow:visible;visibility:visible;fill:#ffffff;fill-opacity:1;fill-rule:nonzero;stroke:none;stroke-width:0.99999994px;marker:none;enable-background:accumulate"
       d="m 1899.5058,526.03993 c 3.1313,-27.92669 10.1908,-50.08154 49.0299,-62.36647 38.8392,-12.28493 109.458,-14.69995 199.051,-9.86734 47.9909,2.58861 112.0091,6.35815 150.2539,18.02744 38.245,11.6693 50.7165,31.23838 46.6866,72.1464 -4.0299,40.908 -18.1234,62.69956 -62.362,72.842 -44.2386,10.14243 -118.6224,8.63574 -134.8142,9.66758 -42.3371,-3.24918 -123.9719,1.35913 -175.8685,-7.24059 -51.8967,-8.59972 -74.0549,-30.40745 -71.9767,-93.20902 z"
       id="path4546-6-0"
       inkscape:connector-curvature="0"
       sodipodi:nodetypes="cssssscsc" />
    <path
       style="color:#000000;display:inline;overflow:visible;visibility:visible;fill:#ffffff;fill-opacity:1;fill-rule:nonzero;stroke:none;stroke-width:0.93025261px;marker:none;enable-background:accumulate"
       d="m 119.82018,1696.1732 c 3.61667,-31.3447 4.13581,-61.6062 51.97266,-80.005 47.83686,-18.3985 132.11247,-23.4923 237.96832,-18.9225 56.7021,2.448 128.13205,5.7472 173.34754,18.4699 45.21547,12.7227 64.21647,34.8688 59.57648,80.7788 -4.63998,45.9098 -29.67934,65.9679 -81.9111,77.7602 -52.23175,11.7924 -131.65593,15.3192 -150.78115,16.6298 -19.12521,1.3104 -78.44317,0.1812 -137.29519,-5.121 -58.85201,-5.302 -99.10649,-9.0092 -116.36801,-24.3913 -27.06025,-19.4799 -38.15512,-42.3842 -36.50955,-65.1989 z"
       id="path4546-6-2"
       inkscape:connector-curvature="0"
       sodipodi:nodetypes="cssssssscc" />
    <path
       style="color:#000000;display:inline;overflow:visible;visibility:visible;fill:#ffffff;fill-opacity:1;fill-rule:nonzero;stroke:none;stroke-width:1px;marker:none;enable-background:accumulate"
       d="m 521.869,1649.1001 c 16.11108,-12.2669 15.86616,-23.0299 15.86632,-28.1369 10e-5,-5.107 -4.54529,-18.6761 -3.34265,-24.7247 1.02193,-4.995 3.12956,-18.1154 7.70997,-16.7463 4.58049,1.369 41.01203,26.2432 51.36903,17.3665 10.35713,-8.8768 11.10734,-20.8369 5.69423,-31.5145 -5.41309,-10.6777 -12.30128,-24.7121 -5.30101,-32.1137 7.00027,-7.4017 18.59276,-5.447 23.97197,-2.6844 5.3792,2.7626 35.49917,23.7296 45.22292,25.6243 9.7237,1.8947 23.71407,1.7027 43.50196,-19.9526 -14.8657,10.0411 -26.23617,15.9908 -34.47171,12.561 -8.23568,-3.4298 -23.77359,-8.4777 -30.56794,-16.4657 -6.79439,-7.9881 -19.06179,-24.7851 -27.96463,-25.3584 -8.9028,-0.5734 -30.44585,-2.3321 -37.17011,6.2487 -6.72431,8.5806 -9.50599,21.5672 -1.38826,37.7993 4.40691,11.1306 5.56687,16.9279 3.01621,18.7834 -2.55071,1.8553 -15.98612,-1.694 -23.40319,-10.6812 -7.41712,-8.9873 -15.67928,-14.4795 -30.30826,-9.5821 -15.5687,3.9577 -23.51473,25.3051 -27.43064,29.9131 -2.73121,11.1832 -10.25128,59.7905 -19.09981,53.7189 z"
       id="path5058"
       inkscape:connector-curvature="0"
       sodipodi:nodetypes="cscsssssscssssccscccc" />
    <path
       style="color:#000000;display:inline;overflow:visible;visibility:visible;fill:#ffffff;fill-opacity:1;fill-rule:nonzero;stroke:none;stroke-width:0.94894391px;marker:none;enable-background:accumulate"
       d="m 1770.82,1053.2341 c 6.9771,-8.2073 23.6519,-16.1303 61.6045,-20.6081 37.9524,-4.478 84.7367,-3.4365 135.3015,-2.4845 50.5647,0.952 50.3614,0.2001 96.3517,0.2078 48.9442,0.01 73.7289,7.7221 102.9376,33.4038 29.2088,25.6816 43.5564,50.3168 43.3878,82.4557 -0.1687,32.139 -6.5451,55.2101 -33.5772,76.8531 -27.0322,21.6429 -67.6144,38.114 -120.1621,41.6713 -52.5477,3.5575 -176.4796,5.498 -240.2736,-16.6429 -63.7943,-22.1412 -67.41,-37.9122 -70.654,-105.6803 -1.3239,-27.659 -2.8244,-56.347 25.0838,-89.1759 z"
       id="path4040"
       inkscape:connector-curvature="0"
       sodipodi:nodetypes="sssszzzzsss" />
    <path
       style="color:#000000;display:inline;overflow:visible;visibility:visible;fill:#ffffff;fill-opacity:1;fill-rule:nonzero;stroke:none;stroke-width:1.0653249px;marker:none;enable-background:accumulate"
       d="m 1881.5529,1219.0726 c -41.8665,122.7323 -35.3869,185.6777 42.5567,264.4098 -47.4291,-53.5721 -48.443,-140.458 -27.8836,-196.5656 17.5953,-48.018 24.528,-47.5096 24.528,-47.5096 z"
       id="path4440"
       inkscape:connector-curvature="0"
       sodipodi:nodetypes="ccscc" />
    <path
       style="color:#000000;display:inline;overflow:visible;visibility:visible;fill:#ffffff;fill-opacity:1;fill-rule:nonzero;stroke:none;stroke-width:0.89331669px;marker:none;enable-background:accumulate"
       d="m 644.31316,1948.5938 c 31.30748,-17.1309 305.3979,-15.2068 352.97358,-9.6943 36.46466,4.225 79.76816,4.4857 108.50236,19.6223 28.734,15.1367 39.3022,38.4724 39.4461,86.0407 0.145,47.9387 -15.7295,90.6642 -49.7629,100.381 -47.035,13.4289 -98.53369,12.6913 -144.90449,13.21 -27.76299,0.3106 -225.30181,5.8721 -267.93315,-13.4407 -48.63926,-22.0345 -69.34146,-47.0384 -72.30306,-88.4612 -2.66739,-69.989 13.48511,-95.6319 33.98156,-107.6578 z"
       id="path4546-6-28"
       inkscape:connector-curvature="0"
       sodipodi:nodetypes="csssssscc" />
    <path
       style="color:#000000;display:inline;overflow:visible;visibility:visible;fill:#ffffff;fill-opacity:1;fill-rule:nonzero;stroke:none;stroke-width:1px;marker:none;enable-background:accumulate"
       d="m 876.44075,2262.2076 c 27.46212,-10.0522 29.72719,-13.3589 28.53705,-27.8918 -1.19034,-14.5328 -9.92446,-26.5364 7.13822,-46.8557 17.0627,-20.3194 23.42581,-21.4269 33.84191,-22.8653 -10.7962,-15.1116 -24.19769,-37.3822 -37.83781,-39.5812 -13.64004,-2.1992 45.1695,-29.6441 45.1695,-29.6441 0,0 22.75583,46.3627 21.99513,70.4189 -5.53179,28.827 -31.7847,25.0277 -45.6068,37.2789 -13.82198,12.2511 -2.66123,31.1992 -11.63877,43.0536 -8.97788,11.8543 -27.71027,14.1688 -41.59843,16.0867 z"
       id="path4538"
       inkscape:connector-curvature="0"
       sodipodi:nodetypes="cccccccscc" />
    <path
       style="fill:#ffffff;fill-rule:evenodd;stroke:none;stroke-width:1px;stroke-linecap:butt;stroke-linejoin:miter;stroke-opacity:1"
       d="m 1323.8016,1984.7216 c 28.8356,-4.5331 58.196,-6.8902 29.1661,-39.0973 40.2304,15.9013 101.614,24.7011 127.3674,-9.3315 21.0416,32.4151 72.5215,18.1393 103.6089,9.2863 -22.7459,39.1099 18.3414,35.1498 48.6838,26.2972 -58.1387,44.4003 -27.6095,58.521 -4.7008,75.2441 -57.1366,-12.3727 -96.278,-0.2731 -77.1628,27.9538 -47.2189,-29.2045 -101.7044,-23.5745 -85.7998,4.2937 -11.7134,-13.2298 -10.4746,-40.9431 -73.6465,1.7915 19.9656,-44.5555 -6.2049,-39.8788 -48.5754,-17.9152 6.6404,-15.1762 46.1072,-38.2538 -20.3703,-35.8306 41.5231,-14.4273 55.9482,-25.3946 1.4294,-42.692 z"
       id="path4584"
       inkscape:connector-curvature="0"
       sodipodi:nodetypes="cccccccccccc" />
    <path
       style="color:#000000;display:inline;overflow:visible;visibility:visible;fill:#ffffff;fill-opacity:1;fill-rule:nonzero;stroke:none;stroke-width:1px;marker:none;enable-background:accumulate"
       d="m 1472.7384,2047.3416 c 0.2312,29.9074 3.2778,68.8487 8.7074,74.7102 -9.1366,-3.6864 -17.8817,-5.2616 -24.6773,-6.6173 -2.08,14.7875 9.0067,61.8116 14.5567,88.5609 -25.1053,-37.9041 -39.0273,-94.4 -38.8725,-117.7051 8.4834,5.8822 16.5056,8.882 21.4065,8.8433 5.497,-10.4938 -6.7061,-51.3933 -7.3939,-51.6226 z"
       id="path5066"
       inkscape:connector-curvature="0"
       sodipodi:nodetypes="cccccccc" />
    <path
       style="color:#000000;display:inline;overflow:visible;visibility:visible;fill:#ffffff;fill-opacity:1;fill-rule:nonzero;stroke:none;stroke-width:1px;marker:none;enable-background:accumulate"
       d="m 226.06862,2871.1843 c 32.22727,-24.4433 452.09061,-39.5168 510.33447,13.3232 36.95935,33.5303 22.49799,160.3336 -24.6936,184.631 -55.53956,28.5956 -365.95535,20.846 -444.02488,4.9068 -74.27529,-15.1645 -77.01903,-67.106 -80.76496,-117.5643 -1.5289,-20.594 6.92144,-60.8532 39.14897,-85.2967 z"
       id="path4040-4-0"
       inkscape:connector-curvature="0"
       sodipodi:nodetypes="zssssz" />
    <path
       style="color:#000000;display:inline;overflow:visible;visibility:visible;fill:#ffffff;fill-opacity:1;fill-rule:nonzero;stroke:none;stroke-width:0.90364814px;marker:none;enable-background:accumulate"
       d="m 230.18052,3075.0205 c 51.81298,-20.3173 433.89309,-47.0203 511.34792,0.6945 62.1627,38.2944 39.62389,183.1142 -26.01084,210.864 -63.23442,26.735 -385.47668,23.8079 -467.71071,5.604 -78.23739,-17.3192 -81.26914,-58.9257 -85.07324,-114.6649 -1.73597,-25.4362 15.63389,-82.1804 67.44687,-102.4976 z"
       id="path4040-4-0-6"
       inkscape:connector-curvature="0"
       sodipodi:nodetypes="zssssz" />
    <path
       style="color:#000000;display:inline;overflow:visible;visibility:visible;fill:#ffffff;fill-opacity:1;fill-rule:nonzero;stroke:none;stroke-width:1.00305235px;marker:none;enable-background:accumulate"
       d="m 1737.3387,2896.9818 c 48.4101,-45.608 497.4949,-64.4139 581.2444,17.4157 57.3941,56.0783 42.8441,209.584 -28.1248,241.3451 -68.3733,30.5996 -416.8041,27.2493 -505.7212,6.4141 -84.5957,-19.8228 -87.7207,-87.7192 -91.9871,-153.6772 -1.7413,-26.9199 -3.8214,-65.8897 44.5887,-111.4977 z"
       id="path4040-4-0-6-3"
       inkscape:connector-curvature="0"
       sodipodi:nodetypes="zssssz" />
    <path
       style="display:inline;fill:#ffffff;fill-rule:evenodd;stroke:none;stroke-width:1.15691984px;stroke-linecap:butt;stroke-linejoin:miter;stroke-opacity:1"
       d="m 1752.8964,3146.6884 c 56.1533,31.0625 70.2972,24.0525 69.3334,-48.1516 26.7903,78.0253 66.4225,80.4845 77.4485,42.0409 35.4686,33.0438 57.6217,23.7749 75.2099,0 6.5554,30.576 20.6142,18.2374 32.7808,16.7187 4.0073,6.9177 40.1253,22.2302 95.7291,-0.6682 3.6016,9.1562 8.4537,17.0412 41.0235,-3.2589 8.4379,37.1639 35.5104,-2.0597 63.2449,-43.9964 -17.2794,51.5576 -10.1142,58.8398 11.9653,39.1079 -10.0946,21.2317 -16.1323,37.6676 22.2209,1.6295 -13.13,39.1895 21.317,12.29 76.9195,-43.9962 -27.8132,41.6064 -101.5675,111.7309 -52.9888,105.9169 -6.7746,12.2656 -30.9393,22.9525 41.0235,42.3669 -13.4345,8.3231 -54.4495,-3.8396 -20.2356,31.4012 4.584,4.1194 -10.7621,6.6351 18.5264,17.4834 -17.2893,-0.738 -27.8924,1.8985 -11.9653,17.9244 -31.5592,-0.8666 -19.751,15.9849 3.4186,37.4783 -45.7023,-27.5699 -48.2172,-17.5498 -49.5702,-6.5179 -57.2783,-37.5871 -76.3925,-23.8792 -64.4347,6.4364 -25.2934,-40.9327 -84.7163,-19.4314 -87.6947,13.1176 -8.8257,-31.4757 -107.1082,-37.9839 -129.6998,-3.3406 14.0022,-36.9161 -15.4034,-19.5322 -44.9616,-5.8662 16.1867,-41.4354 -24.8928,-29.2328 -76.9194,11.0806 29.1347,-45.7565 -3.9554,-29.228 -52.9889,3.259 18.5265,-44.951 -11.6454,-66.6898 -83.7565,-68.4387 34.5145,-16.2144 54.6414,-36.6198 18.8028,-73.3271 40.4005,10.8086 30.1361,-19.8442 1.6149,-59.721 44.0666,32.7305 43.1472,15.2393 25.9535,-28.6789 z"
       id="path4508"
       inkscape:connector-curvature="0"
       sodipodi:nodetypes="cccccccccccccccccccccccccccc" />
    <path
       style="color:#000000;display:inline;overflow:visible;visibility:visible;fill:#ffffff;fill-opacity:1;fill-rule:nonzero;stroke:none;stroke-width:1px;marker:none;enable-background:accumulate"
       d="m 731.14816,2946.5981 c 58.74459,-31.8831 133.6737,-22.4689 151.46532,-4.8409 -26.0629,-31.5484 -110.87474,-48.9787 -156.02352,-29.9411 -36.86673,19.522 4.5582,34.782 4.5582,34.782 z"
       id="path4480"
       inkscape:connector-curvature="0"
       sodipodi:nodetypes="cccc" />
    <path
       style="color:#000000;display:inline;overflow:visible;visibility:visible;fill:#ffffff;fill-opacity:1;fill-rule:nonzero;stroke:none;stroke-width:0.99999994px;marker:none;enable-background:accumulate"
       d="m 1721.525,3105.1967 c -45.0341,26.3761 -102.4755,18.588 -116.1149,4.0048 19.9802,26.0992 84.9979,40.5188 119.6093,24.7695 28.2623,-16.1501 -3.4944,-28.7743 -3.4944,-28.7743 z"
       id="path4480-2"
       inkscape:connector-curvature="0"
       sodipodi:nodetypes="cccc"
       inkscape:transform-center-x="-155.62645"
       inkscape:transform-center-y="34.210293" />
  </g>
  <g
     inkscape:groupmode="layer"
     id="layer1"
     inkscape:label="txt">
    <text
       xml:space="preserve"
       style="font-style:normal;font-variant:normal;font-weight:normal;font-stretch:normal;line-height:0%;font-family:Lavi;-inkscape-font-specification:Lavi;text-align:center;letter-spacing:0px;word-spacing:0px;text-anchor:middle;fill:#000000;fill-opacity:1;stroke:none"
       x="410.53223"
       y="185.28159"
       id="text4246"><tspan
         sodipodi:role="line"
         style="font-size:45px;line-height:1.20000005"
         x="410.53223"
         y="185.28159"
         id="tspan7230">Haha, é meio difícil</tspan><tspan
         sodipodi:role="line"
         style="font-size:45px;line-height:1.20000005"
         x="410.53223"
         y="239.28159"
         id="tspan7234">de explicar.</tspan></text>
    <text
       xml:space="preserve"
       style="font-style:normal;font-variant:normal;font-weight:normal;font-stretch:normal;line-height:0%;font-family:Lavi;-inkscape-font-specification:Lavi;text-align:center;letter-spacing:0px;word-spacing:0px;text-anchor:middle;fill:#000000;fill-opacity:1;stroke:none"
       x="2066.687"
       y="206.01216"
       id="text4246-3"><tspan
         sodipodi:role="line"
         style="font-size:45px;line-height:1.20000005"
         x="2066.687"
         y="206.01216"
         id="tspan854">Bem, daria pra dizer</tspan><tspan
         sodipodi:role="line"
         style="font-size:45px;line-height:1.20000005"
         x="2073.7183"
         y="260.01218"
         id="tspan910">que é baseada no</tspan><tspan
         sodipodi:role="line"
         style="font-size:45px;line-height:1.20000005"
         x="2066.687"
         y="314.01218"
         id="tspan7238">entendimento das leis</tspan><tspan
         sodipodi:role="line"
         style="font-size:45px;line-height:1.20000005"
         x="2066.687"
         y="368.01218"
         id="tspan914">fundamentais de</tspan><tspan
         sodipodi:role="line"
         style="font-size:45px;line-height:1.20000005"
         x="2066.687"
         y="422.01218"
         id="tspan920">sistemas caóticos…</tspan></text>
    <text
       xml:space="preserve"
       style="font-style:normal;font-variant:normal;font-weight:normal;font-stretch:normal;line-height:0%;font-family:Lavi;-inkscape-font-specification:Lavi;text-align:center;letter-spacing:0px;word-spacing:0px;text-anchor:middle;fill:#000000;fill-opacity:1;stroke:none"
       x="2118.9529"
       y="529.94165"
       id="text4246-3-5"><tspan
         sodipodi:role="line"
         style="font-size:45px;line-height:1.20000005"
         x="2118.9529"
         y="529.94165"
         id="tspan900">…do menor até</tspan><tspan
         sodipodi:role="line"
         style="font-size:45px;line-height:1.20000005"
         x="2118.9529"
         y="583.94165"
         id="tspan924">o maior.</tspan></text>
    <text
       xml:space="preserve"
       style="font-style:normal;font-variant:normal;font-weight:normal;font-stretch:normal;line-height:0%;font-family:Lavi;-inkscape-font-specification:Lavi;text-align:center;letter-spacing:0px;word-spacing:0px;text-anchor:middle;fill:#000000;fill-opacity:1;stroke:none"
       x="381.26578"
       y="1664.55"
       id="text4246-3-5-1"><tspan
         sodipodi:role="line"
         style="font-size:45px;line-height:1.20000005"
         x="381.26578"
         y="1664.55"
         id="tspan927">Bem, certamente isso</tspan><tspan
         sodipodi:role="line"
         style="font-size:45px;line-height:1.20000005"
         x="381.26578"
         y="1718.55"
         id="tspan931">esclarece um pouco</tspan><tspan
         sodipodi:role="line"
         style="font-size:45px;line-height:1.20000005"
         x="381.26578"
         y="1772.55"
         id="tspan74">as coisas.</tspan></text>
    <text
       xml:space="preserve"
       style="font-style:normal;font-variant:normal;font-weight:normal;font-stretch:normal;line-height:0%;font-family:Lavi;-inkscape-font-specification:Lavi;text-align:center;letter-spacing:0px;word-spacing:0px;text-anchor:middle;fill:#000000;fill-opacity:1;stroke:none"
       x="1979.5531"
       y="1105.5421"
       id="text4246-3-5-1-0"><tspan
         sodipodi:role="line"
         style="font-size:45px;line-height:1.20000005"
         x="1979.5531"
         y="1105.5421"
         id="tspan77">Espera aí,</tspan><tspan
         sodipodi:role="line"
         style="font-size:45px;line-height:1.20000005"
         x="1979.5531"
         y="1159.5421"
         id="tspan80">deixe-me mostrar um</tspan><tspan
         sodipodi:role="line"
         style="font-size:45px;line-height:1.20000005"
         x="1979.5531"
         y="1213.5421"
         id="tspan7258">exemplo simples.</tspan></text>
    <text
       xml:space="preserve"
       style="font-style:normal;font-variant:normal;font-weight:normal;font-stretch:normal;line-height:0%;font-family:Lavi;-inkscape-font-specification:Lavi;text-align:center;letter-spacing:0px;word-spacing:0px;text-anchor:middle;fill:#000000;fill-opacity:1;stroke:none"
       x="877.14471"
       y="2010.6261"
       id="text4246-3-5-1-0-0"><tspan
         sodipodi:role="line"
         style="font-size:45px;line-height:1.20000005"
         x="877.14471"
         y="2010.6261"
         id="tspan7275">Deixe-me pensar como</tspan><tspan
         sodipodi:role="line"
         style="font-size:45px;line-height:1.20000005"
         x="877.14471"
         y="2064.6262"
         id="tspan890">com uma velha sábia</tspan><tspan
         sodipodi:role="line"
         style="font-size:45px;line-height:1.20000005"
         x="877.14471"
         y="2118.6262"
         id="tspan87">de Chaosah…</tspan></text>
    <text
       xml:space="preserve"
       style="font-style:normal;font-variant:normal;font-weight:normal;font-stretch:normal;line-height:0%;font-family:Lavi;-inkscape-font-specification:Lavi;text-align:center;letter-spacing:0px;word-spacing:0px;text-anchor:middle;fill:#000000;fill-opacity:1;stroke:none"
       x="1475.0964"
       y="2022.1494"
       id="text4246-3-5-1-0-0-8"><tspan
         sodipodi:role="line"
         style="font-size:45px;line-height:1.20000005"
         x="1475.0964"
         y="2022.1494"
         id="tspan1006-2">Já sei!</tspan></text>
    <text
       xml:space="preserve"
       style="font-style:normal;font-variant:normal;font-weight:normal;font-stretch:normal;font-size:10.15074348px;line-height:0%;font-family:Lavi;-inkscape-font-specification:Lavi;text-align:center;letter-spacing:0px;word-spacing:0px;text-anchor:middle;opacity:0.5;fill:#000000;fill-opacity:1;stroke:none;stroke-width:1"
       x="1577.2253"
       y="1765.9481"
       id="text4246-37"
       transform="matrix(0.95687977,-0.3398346,0.04566864,1.0288442,0,0)"><tspan
         sodipodi:role="line"
         style="font-style:normal;font-variant:normal;font-weight:bold;font-stretch:normal;font-size:38.06529236px;line-height:1.20000005;font-family:Lavi;-inkscape-font-specification:'Lavi Bold';stroke-width:1"
         x="1577.2253"
         y="1765.9481"
         id="tspan4252-5">COÇA</tspan></text>
    <text
       xml:space="preserve"
       style="font-style:normal;font-variant:normal;font-weight:normal;font-stretch:normal;font-size:8.87699509px;line-height:0%;font-family:Lavi;-inkscape-font-specification:Lavi;text-align:center;letter-spacing:0px;word-spacing:0px;text-anchor:middle;opacity:0.5;fill:#000000;fill-opacity:1;stroke:none;stroke-width:0.99999994"
       x="1903.3949"
       y="1544.0555"
       id="text4246-37-9"
       transform="matrix(0.93691978,-0.1877366,-0.11760016,1.0908915,0,0)"><tspan
         sodipodi:role="line"
         style="font-style:normal;font-variant:normal;font-weight:bold;font-stretch:normal;font-size:33.28873062px;line-height:1.20000005;font-family:Lavi;-inkscape-font-specification:'Lavi Bold';stroke-width:0.99999994"
         x="1903.3949"
         y="1544.0555"
         id="tspan4252-5-2">COÇA</tspan></text>
    <text
       xml:space="preserve"
       style="font-style:normal;font-variant:normal;font-weight:normal;font-stretch:normal;line-height:0%;font-family:Lavi;-inkscape-font-specification:Lavi;text-align:center;letter-spacing:0px;word-spacing:0px;text-anchor:middle;fill:#000000;fill-opacity:1;stroke:none"
       x="468.62018"
       y="2927.6206"
       id="text4246-3-5-1-0-0-8-9"><tspan
         sodipodi:role="line"
         style="font-size:45px;line-height:1.20000005"
         x="468.62018"
         y="2927.6206"
         id="tspan991">Está vendo este espeto</tspan><tspan
         sodipodi:role="line"
         style="font-size:45px;line-height:1.20000005"
         x="468.62018"
         y="2981.6206"
         id="tspan7282">que estava preso nos</tspan><tspan
         sodipodi:role="line"
         style="font-size:45px;line-height:1.20000005"
         x="468.62018"
         y="3035.6206"
         id="tspan7284">paralelepípedos?</tspan></text>
    <text
       xml:space="preserve"
       style="font-style:normal;font-variant:normal;font-weight:normal;font-stretch:normal;line-height:0%;font-family:Lavi;-inkscape-font-specification:Lavi;text-align:center;letter-spacing:0px;word-spacing:0px;text-anchor:middle;fill:#000000;fill-opacity:1;stroke:none"
       x="467.67493"
       y="3142.5361"
       id="text4246-3-5-1-0-0-8-9-3"><tspan
         sodipodi:role="line"
         style="font-size:45px;line-height:1.20000005"
         x="467.67493"
         y="3142.5361"
         id="tspan1009">Pegando ele do chão, eu</tspan><tspan
         sodipodi:role="line"
         style="font-size:45px;line-height:1.20000005"
         x="467.67493"
         y="3196.5361"
         id="tspan7301">certamente evitei que</tspan><tspan
         sodipodi:role="line"
         style="font-size:45px;line-height:1.20000005"
         x="467.67493"
         y="3250.5361"
         id="tspan7303">alguém pisasse.</tspan></text>
    <text
       xml:space="preserve"
       style="font-style:normal;font-variant:normal;font-weight:normal;font-stretch:normal;line-height:0%;font-family:Lavi;-inkscape-font-specification:Lavi;text-align:center;letter-spacing:0px;word-spacing:0px;text-anchor:middle;fill:#000000;fill-opacity:1;stroke:none"
       x="2024.1924"
       y="2936.925"
       id="text4246-3-5-1-0-0-8-9-3-9"><tspan
         sodipodi:role="line"
         style="font-size:45px;line-height:1.20000005"
         x="2024.1924"
         y="2936.925"
         id="tspan1025">Uma pequena, porém</tspan><tspan
         sodipodi:role="line"
         style="font-size:45px;line-height:1.20000005"
         x="2024.1924"
         y="2990.925"
         id="tspan1029">positiva, mudança no grande</tspan><tspan
         sodipodi:role="line"
         style="font-size:45px;line-height:1.20000005"
         x="2024.1924"
         y="3044.925"
         id="tspan1031">sistema caótico que estamos</tspan><tspan
         sodipodi:role="line"
         style="font-size:45px;line-height:1.20000005"
         x="2024.1924"
         y="3098.925"
         id="tspan94">pode ter tremendas</tspan><tspan
         sodipodi:role="line"
         style="font-size:45px;line-height:1.20000005"
         x="2024.1924"
         y="3152.925"
         id="tspan1037">consequências.</tspan></text>
    <text
       xml:space="preserve"
       style="font-style:normal;font-variant:normal;font-weight:normal;font-stretch:normal;font-size:53.33333206px;line-height:0%;font-family:Lavi;-inkscape-font-specification:Lavi;text-align:center;letter-spacing:0px;word-spacing:0px;text-anchor:middle;fill:#000000;fill-opacity:1;stroke:none"
       x="2000.7581"
       y="3233.9844"
       id="text4246-3-5-1-0-0-8-9-3-9-8"><tspan
         sodipodi:role="line"
         style="font-size:53.33333206px;line-height:1.20000005"
         x="2000.7581"
         y="3233.9844"
         id="tspan1289-6">É sobre isso que</tspan><tspan
         sodipodi:role="line"
         style="font-size:53.33333206px;line-height:1.20000005"
         x="2000.7581"
         y="3297.9844"
         id="tspan1041">Chaosah se trata!</tspan></text>
  </g>
</svg>
