<?xml version="1.0" encoding="UTF-8" standalone="no"?>
<svg
   id="svg2"
   version="1.1"
   inkscape:version="1.1 (c4e8f9ed74, 2021-05-24)"
   width="2481"
   height="3503"
   sodipodi:docname="E35P09.svg"
   xmlns:inkscape="http://www.inkscape.org/namespaces/inkscape"
   xmlns:sodipodi="http://sodipodi.sourceforge.net/DTD/sodipodi-0.dtd"
   xmlns:xlink="http://www.w3.org/1999/xlink"
   xmlns="http://www.w3.org/2000/svg"
   xmlns:svg="http://www.w3.org/2000/svg"
   xmlns:rdf="http://www.w3.org/1999/02/22-rdf-syntax-ns#"
   xmlns:cc="http://creativecommons.org/ns#"
   xmlns:dc="http://purl.org/dc/elements/1.1/">
  <metadata
     id="metadata8">
    <rdf:RDF>
      <cc:Work
         rdf:about="">
        <dc:format>image/svg+xml</dc:format>
        <dc:type
           rdf:resource="http://purl.org/dc/dcmitype/StillImage" />
        <dc:title />
      </cc:Work>
    </rdf:RDF>
  </metadata>
  <defs
     id="defs6">
    <filter
       style="color-interpolation-filters:sRGB"
       id="filter4375-4-1-1-1-9-5-8-8-5-5-3-3"
       inkscape:label="soundFX1"
       x="-0.025448373"
       y="-0.0012988868"
       width="1.0263218"
       height="1.0039648">
      <feFlood
         id="feFlood4377-7-9-0-8-1-7-3-1-2-7-6-6"
         flood-opacity="1"
         flood-color="rgb(52,52,52)"
         result="flood" />
      <feComposite
         id="feComposite4379-3-8-8-2-77-4-1-0-6-4-7-7"
         in2="SourceGraphic"
         in="flood"
         operator="in"
         result="composite1"
         baseFrequency="0.053999999999999999 0.053999999999999999" />
      <feMorphology
         id="feMorphology4393-1-0-49-8-9-3-0-1-9-9-5-5"
         operator="dilate"
         radius="4.0330969769021738"
         result="result3" />
      <feComposite
         id="feComposite4385-9-5-7-0-8-8-7-5-4-9-3-3"
         in2="result3"
         in="SourceGraphic"
         operator="over"
         result="fbSourceGraphic" />
      <feColorMatrix
         result="fbSourceGraphicAlpha"
         in="fbSourceGraphic"
         values="0 0 0 -1 0 0 0 0 -1 0 0 0 0 -1 0 0 0 0 1 0"
         id="feColorMatrix4544-9-4-4-5-5" />
      <feTurbulence
         id="feTurbulence4546-3-6-5-6-6"
         type="fractalNoise"
         numOctaves="4"
         seed="147"
         baseFrequency="0.053999999999999999 0.054054054054054057"
         result="turbulence" />
      <feDisplacementMap
         id="feDisplacementMap4548-8-0-9-2-2"
         in2="turbulence"
         in="fbSourceGraphic"
         scale="10.561763"
         yChannelSelector="G"
         xChannelSelector="R"
         result="fbSourceGraphic" />
      <feColorMatrix
         result="fbSourceGraphicAlpha"
         in="fbSourceGraphic"
         values="0 0 0 -1 0 0 0 0 -1 0 0 0 0 -1 0 0 0 0 1 0"
         id="feColorMatrix4670-7-7-3-9-9" />
      <feFlood
         id="feFlood4672-4-4-5-1-1"
         flood-opacity="1"
         flood-color="rgb(28,28,28)"
         result="flood"
         in="fbSourceGraphic" />
      <feComposite
         id="feComposite4674-8-3-7-2-2"
         in2="fbSourceGraphic"
         in="flood"
         operator="in"
         result="composite1" />
      <feGaussianBlur
         id="feGaussianBlur4676-3-7-08-7-7"
         in="composite1"
         stdDeviation="0"
         result="blur" />
      <feOffset
         id="feOffset4678-6-9-1-0-0"
         dx="-10.48377497279229"
         dy="0.39217365321829334"
         result="offset" />
      <feComposite
         id="feComposite4680-4-0-9-9-9"
         in2="offset"
         in="fbSourceGraphic"
         operator="over"
         result="composite2" />
    </filter>
  </defs>
  <sodipodi:namedview
     pagecolor="#ffffff"
     bordercolor="#666666"
     borderopacity="1"
     objecttolerance="10"
     gridtolerance="10"
     guidetolerance="10"
     inkscape:pageopacity="0"
     inkscape:pageshadow="2"
     inkscape:window-width="2560"
     inkscape:window-height="1390"
     id="namedview4"
     showgrid="false"
     inkscape:zoom="0.49190039"
     inkscape:cx="860.94666"
     inkscape:cy="1912.9889"
     inkscape:window-x="0"
     inkscape:window-y="24"
     inkscape:window-maximized="1"
     inkscape:current-layer="layer3"
     inkscape:document-rotation="0"
     inkscape:snap-global="false"
     inkscape:pagecheckerboard="0" />
  <g
     inkscape:groupmode="layer"
     id="layer2"
     inkscape:label="artwork"
     sodipodi:insensitive="true">
    <image
       xlink:href="../gfx_Pepper-and-Carrot_by-David-Revoy_E35P09.png"
       width="2481"
       height="3503"
       id="image10"
       x="0"
       y="0" />
  </g>
  <g
     inkscape:groupmode="layer"
     id="layer3"
     inkscape:label="speechbubbles">
    <path
       style="display:inline;fill:#ffffff;fill-rule:evenodd;stroke:none;stroke-width:1.24552px;stroke-linecap:butt;stroke-linejoin:miter;stroke-opacity:1"
       d="m 293.51608,814.38125 c 50.0028,13.12958 53.69208,24.23792 9.08857,33.23954 47.94885,4.09246 39.64086,10.95001 18.21068,18.45118 70.78738,40.40127 61.90566,71.34297 51.15016,102.06212 59.56139,-19.49539 66.64683,2.16338 66.36018,23.34222 17.12829,-29.97327 38.51703,-13.89562 37.01127,12.16329 17.72914,-30.19616 42.41956,-45.70038 44.34432,-15.55465 22.12821,-24.27406 21.3847,-34.33732 45.77641,-27.43044 35.28279,-30.04752 59.91793,4.07493 87.99421,17.45682 2.99168,-30.18086 21.86571,-32.90467 45.80341,-26.87305 7.63454,-13.38319 11.49798,-32.15342 45.19043,-8.30877 1.01455,-24.77738 18.79703,-9.03127 31.42692,-5.73833 -17.22969,-12.31681 6.55601,-18.57917 77.51989,-17.87959 -28.39298,-4.55937 -45.09907,-27.77411 5.02771,-50.78848 -69.07172,14.49855 -45.86739,-2.82895 -27.58838,-21.02165 -51.34092,-19.52935 -10.27231,-47.15383 7.73828,-72.75806 -51.4878,16.01187 -117.42585,20.72347 -97.85763,-15.48361 -65.00127,34.4931 -57.70223,18.35889 -53.69971,4.53281 -36.84592,37.48512 -40.58489,8.08614 -54.18285,-1.39584 -111.93749,52.74884 -116.55027,10.54099 -146.27098,-9.45209 0.29711,48.85578 -29.02541,32.96535 -58.47048,16.80787 9.55636,40.36146 -8.32141,30.15787 -25.62559,21.01189 1.78522,17.65047 -12.06482,24.2572 -46.99553,15.97278 26.22803,11.94797 12.43372,15.87107 -61.95129,7.64404 z"
       id="path4289-9-2"
       inkscape:connector-curvature="0"
       sodipodi:nodetypes="cccccccccccccccccccccccc" />
    <path
       style="display:inline;fill:#ffffff;fill-rule:evenodd;stroke:none;stroke-width:0.988989px;stroke-linecap:butt;stroke-linejoin:miter;stroke-opacity:1"
       d="M 963.27671,1015.5732 C 855.1456,974.16786 728.54706,920.87912 712.01736,938.41898 l -4.63952,-34.71076 c 24.01825,-8.63206 180.13442,72.14698 255.89887,111.86498 z"
       id="path1881"
       sodipodi:nodetypes="cccc" />
    <text
       xml:space="preserve"
       style="font-style:normal;font-variant:normal;font-weight:normal;font-stretch:normal;font-size:145.675px;line-height:1.25;font-family:Lavi;-inkscape-font-specification:Lavi;letter-spacing:0px;word-spacing:0px;fill:#ffffff;fill-opacity:1;stroke:#ffffff;stroke-width:0.74524;stroke-miterlimit:4;stroke-dasharray:none;stroke-opacity:1;filter:url(#filter4375-4-1-1-1-9-5-8-8-5-5-3-3)"
       id="text4580-6-0-0-0-9-3-3"
       transform="matrix(0.6234491,0.267428,-0.65521393,1.0449346,2153.6335,-849.35717)"
       x="662.92181"
       y="1440.271"
       inkscape:transform-center-x="-7.7973551"
       inkscape:transform-center-y="-49.154777"><tspan
         style="font-size:145.675px;fill:#ffffff;fill-opacity:1;stroke:#ffffff;stroke-width:0.74524;stroke-miterlimit:4;stroke-dasharray:none;stroke-opacity:1"
         id="tspan876-6-6"
         rotate="0 0 0 0 0 0 0 0"><tspan
           id="tspan2853"
           style="font-size:117.986px;stroke-width:0.74524"
           dy="0 20 25 30 35 40 50">BAlaaa !</tspan></tspan><textPath
         xlink:href="#path974"
         id="textPath2837"
         style="stroke-width:0.74524" /></text>
    <path
       style="display:inline;fill:#ffffff;fill-rule:evenodd;stroke:none;stroke-width:1.06911px;stroke-linecap:butt;stroke-linejoin:miter;stroke-opacity:1"
       d="m 817.9375,1469.8029 c -102.88483,59.6481 -97.04504,47.6179 -76.548,-5.9733 -70.76622,65.4772 -73.11324,40.2091 -62.14519,10.0029 -46.43819,49.4268 -66.93525,39.2386 -72.65263,0.4461 -0.28298,53.4934 -22.03595,32.5037 -31.62955,16.4964 -2.899,15.8163 -18.05334,44.0053 -44.28619,1.4481 0.23062,13.8906 14.45188,46.9079 -39.6357,-2.9345 13.59232,55.0382 -34.30742,-1.7984 -61.1904,-42.5255 16.80438,50.1704 9.89887,57.3143 -11.47301,38.2053 9.79777,20.6429 15.66595,36.6339 -21.46183,1.7201 12.76924,38.1353 -5.36998,33.5754 -45.41755,-7.2334 26.89051,40.4758 61.69444,81.0472 22.43592,67.7541 6.57099,11.92 29.93725,22.1971 -39.53611,41.5547 12.99575,8.0369 52.58966,-4.0668 19.616,30.4996 -4.41907,4.0439 10.41064,6.4062 -17.85816,17.1582 16.69973,-0.8233 26.94803,1.6857 11.59753,17.4061 30.48425,-1.0312 19.11448,15.4705 -3.22063,36.5651 44.08802,-27.1542 94.04468,-50.3876 62.79434,-11.0192 55.24853,-36.9914 61.11946,-10.3542 51.19324,7.1441 33.11978,-29.855 53.82089,-25.3179 80.88204,15.3904 7.00605,-25.4658 21.12262,-45.1218 80.84795,-27.5077 -26.27871,-32.1822 11.04932,-11.8048 39.63218,1.3451 -15.72664,-40.3078 24.0153,-14.0347 74.36079,24.9663 -28.24386,-44.4441 4.01992,-49.0263 51.45697,-17.6393 -25.03967,-47.0261 -41.05347,-57.1918 80.62239,-13.7994 -102.79603,-44.0942 -81.04898,-73.128 -18.44941,-104.3178 -63.79996,-1.7261 -68.83671,-8.1023 -23.20211,-37.9922 -89.71347,7.9176 -35.44344,-20.5002 -6.73288,-57.1603 z"
       id="path4508-2"
       inkscape:connector-curvature="0"
       sodipodi:nodetypes="cccccccccccccccccccccccccccc" />
    <path
       style="fill:#ffffff;fill-rule:evenodd;stroke:none;stroke-width:0.999998px;stroke-linecap:butt;stroke-linejoin:miter;stroke-opacity:1"
       d="m 981.01706,1712.6543 -82.47964,-69.3619 -21.73828,-20.9157 -3.89619,33.8993 c -113.19185,-60.793 -107.41261,-104.6482 -123.16199,-63.0392 -19.42613,51.3227 45.72551,35.5105 135.52361,93.9205 4.43214,-8.2819 5.06237,-18.0952 6.91438,-27.2171 z"
       id="path1111-3-3"
       inkscape:connector-curvature="0"
       sodipodi:nodetypes="ccccsccc" />
  </g>
  <g
     inkscape:groupmode="layer"
     id="layer1"
     inkscape:label="txt">
    <text
       xml:space="preserve"
       style="font-style:normal;font-variant:normal;font-weight:normal;font-stretch:normal;font-size:64.9135px;line-height:1.25;font-family:Lavi;-inkscape-font-specification:Lavi;text-align:center;letter-spacing:0px;word-spacing:0px;text-anchor:middle;fill:#ffffff;fill-opacity:1;stroke:none;stroke-width:1.44252"
       x="330.38358"
       y="306.20593"
       id="text4246-3-2-2"
       transform="scale(0.96891819,1.0320789)"><tspan
         style="font-style:normal;font-variant:normal;font-weight:bold;font-stretch:normal;font-size:64.9135px;font-family:Lavi;-inkscape-font-specification:'Lavi Bold';fill:#ffffff;stroke-width:1.44252"
         sodipodi:role="line"
         x="330.38358"
         y="306.20593"
         id="tspan915">NE !</tspan><tspan
         style="font-style:normal;font-variant:normal;font-weight:bold;font-stretch:normal;font-size:64.9135px;font-family:Lavi;-inkscape-font-specification:'Lavi Bold';fill:#ffffff;stroke-width:1.44252"
         sodipodi:role="line"
         x="330.38358"
         y="387.34781"
         id="tspan905" /></text>
    <text
       xml:space="preserve"
       style="font-style:normal;font-variant:normal;font-weight:normal;font-stretch:normal;font-size:45px;line-height:1.25;font-family:Lavi;-inkscape-font-specification:Lavi;text-align:center;letter-spacing:0px;word-spacing:0px;text-anchor:middle;fill:#ffffff;fill-opacity:1;stroke:none"
       x="2086.762"
       y="319.48114"
       id="text4246-3-2-2-3"><tspan
         style="font-style:normal;font-variant:normal;font-weight:bold;font-stretch:normal;font-size:45px;font-family:Lavi;-inkscape-font-specification:'Lavi Bold';fill:#ffffff"
         sodipodi:role="line"
         x="2086.762"
         y="319.48114"
         id="tspan906">Ne tio</tspan><tspan
         style="font-style:normal;font-variant:normal;font-weight:bold;font-stretch:normal;font-size:45px;font-family:Lavi;-inkscape-font-specification:'Lavi Bold';fill:#ffffff"
         sodipodi:role="line"
         x="2086.762"
         y="375.73114"
         id="tspan1788">mi estas !</tspan></text>
    <text
       xml:space="preserve"
       style="font-style:normal;font-variant:normal;font-weight:normal;font-stretch:normal;font-size:68.846px;line-height:1.25;font-family:Lavi;-inkscape-font-specification:Lavi;text-align:center;letter-spacing:0px;word-spacing:0px;text-anchor:middle;fill:#000000;fill-opacity:1;stroke:none;stroke-width:0.956195"
       x="615.79883"
       y="896.21271"
       id="text4246-3-2-2-3-5"
       transform="matrix(0.95619489,-0.06824752,0,1.0458119,0,0)"><tspan
         sodipodi:role="line"
         x="626.55603"
         y="896.21271"
         id="tspan906-6"
         style="font-style:normal;font-variant:normal;font-weight:bold;font-stretch:normal;font-size:68.846px;font-family:Lavi;-inkscape-font-specification:'Lavi Bold';stroke-width:0.956195">HAAAALT !!! </tspan></text>
    <text
       xml:space="preserve"
       style="font-style:normal;font-variant:normal;font-weight:normal;font-stretch:normal;font-size:56.8892px;line-height:1.25;font-family:Lavi;-inkscape-font-specification:Lavi;text-align:center;letter-spacing:0px;word-spacing:0px;text-anchor:middle;fill:#000000;fill-opacity:1;stroke:none;stroke-width:1.20164"
       x="592.07495"
       y="1609.231"
       id="text4246-3-2-2-3-1"><tspan
         style="font-style:normal;font-variant:normal;font-weight:bold;font-stretch:normal;font-size:56.8892px;font-family:Lavi;-inkscape-font-specification:'Lavi Bold';stroke-width:1.20164"
         sodipodi:role="line"
         x="592.07495"
         y="1609.231"
         id="tspan1006">MI CEDAS !</tspan></text>
  </g>
</svg>
