<?xml version="1.0" encoding="UTF-8" standalone="no"?>
<svg
   xmlns:dc="http://purl.org/dc/elements/1.1/"
   xmlns:cc="http://creativecommons.org/ns#"
   xmlns:rdf="http://www.w3.org/1999/02/22-rdf-syntax-ns#"
   xmlns:svg="http://www.w3.org/2000/svg"
   xmlns="http://www.w3.org/2000/svg"
   xmlns:xlink="http://www.w3.org/1999/xlink"
   xmlns:sodipodi="http://sodipodi.sourceforge.net/DTD/sodipodi-0.dtd"
   xmlns:inkscape="http://www.inkscape.org/namespaces/inkscape"
   id="svg2"
   version="1.1"
   inkscape:version="1.0.2 (e86c870879, 2021-01-15)"
   width="2481"
   height="3503"
   sodipodi:docname="E35P08.svg">
  <metadata
     id="metadata8">
    <rdf:RDF>
      <cc:Work
         rdf:about="">
        <dc:format>image/svg+xml</dc:format>
        <dc:type
           rdf:resource="http://purl.org/dc/dcmitype/StillImage" />
        <dc:title />
      </cc:Work>
    </rdf:RDF>
  </metadata>
  <defs
     id="defs6" />
  <sodipodi:namedview
     pagecolor="#ffffff"
     bordercolor="#666666"
     borderopacity="1"
     objecttolerance="10"
     gridtolerance="10"
     guidetolerance="10"
     inkscape:pageopacity="0"
     inkscape:pageshadow="2"
     inkscape:window-width="1024"
     inkscape:window-height="546"
     id="namedview4"
     showgrid="false"
     inkscape:zoom="0.26450001"
     inkscape:cx="1419.9656"
     inkscape:cy="2130.1135"
     inkscape:window-x="0"
     inkscape:window-y="25"
     inkscape:window-maximized="1"
     inkscape:current-layer="layer3"
     inkscape:document-rotation="0"
     inkscape:snap-global="false"
     inkscape:pagecheckerboard="0" />
  <g
     inkscape:groupmode="layer"
     id="layer2"
     inkscape:label="artwork"
     sodipodi:insensitive="true">
    <image
       sodipodi:absref="/home/twilight/Descargas/ep35/lang/gfx_Pepper-and-Carrot_by-David-Revoy_E35P08.png"
       xlink:href="../gfx_Pepper-and-Carrot_by-David-Revoy_E35P08.png"
       y="0"
       x="0"
       id="image10"
       height="3503"
       width="2481" />
  </g>
  <g
     inkscape:groupmode="layer"
     id="layer3"
     inkscape:label="speechbubbles">
    <path
       style="color:#000000;display:inline;overflow:visible;visibility:visible;fill:#ffffff;fill-opacity:1;fill-rule:nonzero;stroke:none;stroke-width:1.04526px;marker:none;enable-background:accumulate"
       d="m 883.75657,252.15708 c -41.28009,0.41414 -81.33243,13.8699 -109.67949,34.99814 -22.63872,16.16841 -36.54164,37.86075 -41.42193,60.28047 -8.78754,30.91547 -7.75673,63.81013 7.93453,93.54603 13.29103,22.89404 40.6321,40.88379 72.55369,50.35375 45.01821,13.58868 96.01753,18.59646 144.0113,10.76869 25.82314,-4.29437 49.35913,-14.76093 66.57533,-29.06431 23.7286,-19.05605 36.8791,-43.8672 40.8903,-68.95875 4.9968,-27.22256 2.6939,-55.60271 -11.2587,-81.39267 -10.564,-18.74113 -29.1348,-35.25833 -53.1695,-46.11195 -34.06963,-16.37364 -75.35241,-24.90628 -116.43553,-24.4194 z"
       id="path3525-27"
       inkscape:connector-curvature="0" />
    <path
       style="color:#000000;display:inline;overflow:visible;visibility:visible;fill:#ffffff;fill-opacity:1;fill-rule:nonzero;stroke:none;stroke-width:0.951293px;marker:none;enable-background:accumulate"
       d="m 1599.0666,336.06836 c -36,0.677 -71.8973,11.37569 -96.7763,30.47271 -29.3181,21.7159 -46.1776,51.70087 -47.5096,82.01557 -2.0549,30.60725 7.0044,62.16163 30.059,88.11317 12.2279,13.84462 29.452,25.49035 50.0717,32.45778 27.7267,9.7403 59.7637,11.96831 89.9095,8.02625 23.1216,-2.46756 47.1251,-5.09853 67.3465,-14.19201 34.51,-15.97955 56.9808,-44.99646 57.1576,-74.77429 0.2833,-11.69295 -0.92,-23.37227 -1.7761,-35.04105 -1.9426,-18.68432 -5.0183,-37.55476 -13.7053,-55.29856 -10.451,-20.74795 -30.5015,-39.42842 -57.8114,-49.6645 -23.561,-8.92511 -50.5444,-12.49353 -76.9656,-12.11507 z"
       id="path4040-4-5-3-4"
       inkscape:connector-curvature="0"
       sodipodi:nodetypes="zssssz" />
    <path
       style="fill:#ffffff;fill-rule:evenodd;stroke:none;stroke-width:1.14277px;stroke-linecap:butt;stroke-linejoin:miter;stroke-opacity:1"
       d="m 1570.0144,465.67649 c 3.0987,30.83741 11.5856,59.47611 3.7889,66.37874 -5.2069,29.42714 10.8845,84.76829 -27.9726,97.2687 63.0766,-0.64746 49.4439,-89.40053 58.0802,-122.83664 -1.084,-48.93169 -33.8965,-40.8108 -33.8965,-40.8108 z"
       id="path1085"
       inkscape:connector-curvature="0"
       sodipodi:nodetypes="ccccc" />
    <path
       style="fill:#ffffff;fill-rule:evenodd;stroke:none;stroke-width:1.11846px;stroke-linecap:butt;stroke-linejoin:miter;stroke-opacity:1"
       d="m 1539.0397,1344.4833 c -45.6084,1.8069 -89.6921,22.3731 -114.3197,53.7713 -9.7747,17.3661 -6.6326,36.9437 -9.898,55.3743 -4.3368,45.952 -3.7312,93.0297 11.9655,137.6342 5.3196,12.3277 17.4508,21.8105 31.1301,28.1602 31.085,16.5176 69.9802,21.0951 106.233,16.4596 37.4019,-3.1076 75.6664,-12.1404 104.4548,-32.688 19.3656,-13.5661 28.848,-35.0643 26.8473,-55.6222 -0.2914,-26.7261 -4.434,-53.3202 -4.5096,-80.0534 -1.3435,-27.0139 -7.011,-55.4817 -27.7175,-77.4738 -19.3117,-20.1151 -48.5459,-31.825 -77.7632,-39.5374 -14.9884,-3.8106 -30.6597,-6.4079 -46.4227,-6.0248 z"
       id="path1299"
       inkscape:connector-curvature="0" />
    <path
       style="color:#000000;display:inline;overflow:visible;visibility:visible;fill:#ffffff;fill-opacity:1;fill-rule:nonzero;stroke:none;stroke-width:0.926478px;marker:none;enable-background:accumulate"
       d="m 1531.0092,1596.1183 c -0.6222,20.1649 6.6736,27.0756 10.0721,30.442 3.3984,3.3662 14.9068,8.9022 18.2764,13.791 2.7667,4.0585 10.3483,14.2867 6.9395,16.8185 -3.4088,2.5318 -39.8279,13.4508 -39.569,27.0665 0.2595,13.6163 7.8094,22.062 17.8671,25.0419 10.0575,2.9799 23.1527,7.0659 24.2613,17.1932 1.1078,10.1267 -6.514,17.5302 -11.286,19.742 -27.1053,5.2092 -47.6616,41.4987 -47.6616,41.4987 45.0114,-39.4077 48.8502,-21.7092 63.1997,-38.3236 5.2367,-6.2965 13.2746,-11.5246 11.2311,-22.2221 -2.0434,-10.6976 -1.7938,-21.9409 -17.0229,-26.5544 -9.8097,-4.0323 -14.2999,-6.9835 -14.1441,-10.1193 0.1565,-3.135 5.2164,-10.9397 15.2416,-10.5769 10.0258,0.3634 16.1869,-6.8408 20.9047,-21.0372 5.8565,-14.2808 -11.3944,-28.3269 -12.3251,-34.3003 -5.9525,-9.4188 -20.1936,-48.378 -11.3283,-51.0106 z"
       id="path5058-2"
       inkscape:connector-curvature="0"
       sodipodi:nodetypes="cscsssscccsccscccc" />
    <path
       style="display:inline;fill:#ffffff;fill-rule:evenodd;stroke:none;stroke-width:0.7824px;stroke-linecap:butt;stroke-linejoin:miter;stroke-opacity:1"
       d="m 877.968,2870.1388 -20.1414,-103.137 -20.06484,17.4342 -15.86649,-70.2389 -20.49195,11.5133 26.36659,82.3695 23.57881,-19.15 z"
       id="path4667-2"
       inkscape:connector-curvature="0" />
    <path
       style="display:inline;fill:#ffffff;fill-rule:evenodd;stroke:none;stroke-width:0.800756px;stroke-linecap:butt;stroke-linejoin:miter;stroke-opacity:1"
       d="m 682.33117,2721.47 c 17.58658,-9.7562 33.39725,-42.5286 -3.6892,-77.162 42.20071,11.8434 59.77352,-10.1068 73.68241,-92.6185 34.06991,72.3546 48.80253,51.3106 58.048,24.8341 -2.5869,49.2768 33.04814,42.2858 48.31129,16.0446 -4.9577,76.3831 20.63384,79.0172 43.5994,87.989 -39.26404,11.119 -16.2116,33.6361 -11.28843,52.8383 -46.88903,-15.0176 -61.9634,9.436 -59.2279,55.9848 -18.13836,-12.0405 -41.31769,-48.333 -39.71646,34.5863 -16.29453,-59.6942 -27.92724,-42.7914 -37.92314,1.0069 -5.63912,-20.2619 2.06382,-64.0489 -33.29199,-31.9099 14.15398,-34.8193 6.97849,-60.982 -38.50398,-71.5936 z"
       id="path4584-9"
       inkscape:connector-curvature="0"
       sodipodi:nodetypes="cccccccccccc" />
    <path
       style="color:#000000;display:inline;overflow:visible;visibility:visible;fill:#ffffff;fill-opacity:1;fill-rule:nonzero;stroke:none;stroke-width:1.01599px;marker:none;enable-background:accumulate"
       d="m 915.25633,477.71228 c -4.04952,48.32505 20.65484,106.85492 115.89287,109.89183 -80.33867,-15.35995 -92.0301,-64.16762 -83.52693,-109.83472 7.34037,-39.42391 8.64622,-57.69856 8.64622,-57.69856 z"
       id="path4440-3"
       inkscape:connector-curvature="0"
       sodipodi:nodetypes="ccscc" />
  </g>
  <g
     inkscape:groupmode="layer"
     id="layer1"
     inkscape:label="txt">
    <text
       xml:space="preserve"
       style="font-style:normal;font-variant:normal;font-weight:normal;font-stretch:normal;font-size:45px;line-height:1.25;font-family:Lavi;-inkscape-font-specification:Lavi;text-align:center;letter-spacing:0px;word-spacing:0px;text-anchor:middle;fill:#000000;fill-opacity:1;stroke:none"
       x="897.05707"
       y="337.07599"
       id="text4246-3-2-2-3"><tspan
         style="font-size:45px"
         sodipodi:role="line"
         x="897.05707"
         y="337.07599"
         id="tspan877-5">¡Espera! </tspan><tspan
         style="font-size:45px"
         sodipodi:role="line"
         x="897.05707"
         y="393.32599"
         id="tspan35">¿En qué me he </tspan><tspan
         style="font-size:45px"
         sodipodi:role="line"
         x="897.05707"
         y="449.57599"
         id="tspan37">convertido?</tspan></text>
    <text
       xml:space="preserve"
       style="font-style:normal;font-variant:normal;font-weight:normal;font-stretch:normal;font-size:56px;line-height:1.25;font-family:Lavi;-inkscape-font-specification:Lavi;text-align:center;letter-spacing:0px;word-spacing:0px;text-anchor:middle;fill:#000000;fill-opacity:1;stroke:none"
       x="1602.5607"
       y="443.04697"
       id="text4246-3-2-2-3-3"><tspan
         sodipodi:role="line"
         x="1602.5607"
         y="443.04697"
         id="tspan877-5-2"
         style="font-style:normal;font-variant:normal;font-weight:bold;font-stretch:normal;font-size:56px;font-family:Lavi;-inkscape-font-specification:'Lavi Bold'">¿En una</tspan><tspan
         sodipodi:role="line"
         x="1602.5607"
         y="513.047"
         id="tspan957"
         style="font-style:normal;font-variant:normal;font-weight:bold;font-stretch:normal;font-size:56px;font-family:Lavi;-inkscape-font-specification:'Lavi Bold'">asesina?</tspan></text>
    <text
       xml:space="preserve"
       style="font-style:normal;font-variant:normal;font-weight:normal;font-stretch:normal;font-size:53.3405px;line-height:1.25;font-family:Lavi;-inkscape-font-specification:Lavi;text-align:center;letter-spacing:0px;word-spacing:0px;text-anchor:middle;fill:#000000;fill-opacity:1;stroke:none;stroke-width:1.18534"
       x="1550.5575"
       y="1439.3575"
       id="text4246-3-2-2-3-9"><tspan
         style="font-size:53.3405px;stroke-width:1.18534"
         sodipodi:role="line"
         x="1550.5575"
         y="1439.3575"
         id="tspan877-5-7">¿En una</tspan><tspan
         style="font-size:53.3405px;stroke-width:1.18534"
         sodipodi:role="line"
         x="1550.5575"
         y="1506.0332"
         id="tspan41">bruja </tspan><tspan
         style="font-size:53.3405px;stroke-width:1.18534"
         sodipodi:role="line"
         x="1550.5575"
         y="1572.7087"
         id="tspan998"><tspan
   id="tspan43"
   style="font-style:normal;font-variant:normal;font-weight:bold;font-stretch:normal;font-size:53.3405px;font-family:Lavi;-inkscape-font-specification:'Lavi Bold';stroke-width:1.18534">malvada</tspan>?</tspan></text>
    <text
       xml:space="preserve"
       style="font-style:normal;font-variant:normal;font-weight:normal;font-stretch:normal;font-size:104.682px;line-height:1.25;font-family:Lavi;-inkscape-font-specification:Lavi;text-align:center;letter-spacing:0px;word-spacing:0px;text-anchor:middle;fill:#000000;fill-opacity:1;stroke:none;stroke-width:1.18634"
       x="1226.4388"
       y="2652.8953"
       id="text4246-3-2-2-3-9-0"
       transform="matrix(0.90421598,-0.22651773,-0.12390474,1.1369702,0,0)"><tspan
         style="font-style:normal;font-variant:normal;font-weight:bold;font-stretch:normal;font-size:104.682px;font-family:Lavi;-inkscape-font-specification:'Lavi Bold';stroke-width:1.18634"
         sodipodi:role="line"
         x="1226.4388"
         y="2652.8953"
         id="tspan998-6"><tspan
   style="font-size:79.44px;stroke-width:1.18634"
   id="tspan1037">!</tspan><tspan
   id="tspan1045"
   style="font-size:91.8525px;stroke-width:1.18634">!</tspan>!</tspan></text>
  </g>
</svg>
