<?xml version="1.0" encoding="UTF-8" standalone="no"?>
<svg
   xmlns:dc="http://purl.org/dc/elements/1.1/"
   xmlns:cc="http://creativecommons.org/ns#"
   xmlns:rdf="http://www.w3.org/1999/02/22-rdf-syntax-ns#"
   xmlns:svg="http://www.w3.org/2000/svg"
   xmlns="http://www.w3.org/2000/svg"
   xmlns:xlink="http://www.w3.org/1999/xlink"
   xmlns:sodipodi="http://sodipodi.sourceforge.net/DTD/sodipodi-0.dtd"
   xmlns:inkscape="http://www.inkscape.org/namespaces/inkscape"
   sodipodi:docname="E36P12.svg"
   height="3503"
   width="2481"
   inkscape:version="1.0 (4035a4fb49, 2020-05-01)"
   version="1.1"
   id="svg2">
  <metadata
     id="metadata8">
    <rdf:RDF>
      <cc:Work
         rdf:about="">
        <dc:format>image/svg+xml</dc:format>
        <dc:type
           rdf:resource="http://purl.org/dc/dcmitype/StillImage" />
        <dc:title />
      </cc:Work>
    </rdf:RDF>
  </metadata>
  <defs
     id="defs6">
    <filter
       height="1.0154417"
       width="1.0023164"
       y="-0.0077208326"
       x="-0.0011581863"
       inkscape:label="Roughen"
       id="filter5561-7"
       style="color-interpolation-filters:sRGB">
      <feFlood
         result="flood"
         flood-color="rgb(65,124,138)"
         flood-opacity="1"
         id="feFlood5563-4" />
      <feComposite
         result="composite1"
         operator="in"
         in="flood"
         in2="SourceGraphic"
         id="feComposite5565-6" />
      <feMorphology
         result="result3"
         radius="4.7000000000000002"
         operator="dilate"
         id="feMorphology5567-3" />
      <feComposite
         radius="3.3999999999999999"
         result="fbSourceGraphic"
         operator="over"
         in="SourceGraphic"
         in2="result3"
         id="feComposite5569-6" />
      <feColorMatrix
         id="feColorMatrix4681"
         values="0 0 0 -1 0 0 0 0 -1 0 0 0 0 -1 0 0 0 0 1 0"
         in="fbSourceGraphic"
         result="fbSourceGraphicAlpha" />
      <feTurbulence
         result="turbulence"
         baseFrequency="0.0080000000000000002 0.044999999999999998"
         seed="33"
         numOctaves="1"
         type="fractalNoise"
         id="feTurbulence4683" />
      <feDisplacementMap
         xChannelSelector="R"
         yChannelSelector="G"
         scale="37.8"
         in="fbSourceGraphic"
         in2="turbulence"
         id="feDisplacementMap4685" />
    </filter>
    <filter
       height="1.07516"
       width="1.0236318"
       y="-0.0041980981"
       x="-0.0013199663"
       inkscape:label="Drop Shadow"
       id="filter4375-4-1-1-1-9-5-8-87"
       style="color-interpolation-filters:sRGB">
      <feFlood
         result="flood"
         flood-color="rgb(165,138,223)"
         flood-opacity="1"
         id="feFlood4377-7-9-0-8-1-7-3-9" />
      <feComposite
         result="composite1"
         operator="in"
         in="flood"
         in2="SourceGraphic"
         id="feComposite4379-3-8-8-2-77-4-1-2" />
      <feMorphology
         result="result3"
         radius="6.2000000000000002"
         operator="dilate"
         id="feMorphology4393-1-0-49-8-9-3-0-0" />
      <feComposite
         result="fbSourceGraphic"
         operator="over"
         in="SourceGraphic"
         in2="result3"
         id="feComposite4385-9-5-7-0-8-8-7-2" />
      <feColorMatrix
         id="feColorMatrix4544-3"
         values="0 0 0 -1 0 0 0 0 -1 0 0 0 0 -1 0 0 0 0 1 0"
         in="fbSourceGraphic"
         result="fbSourceGraphicAlpha" />
      <feTurbulence
         result="turbulence"
         baseFrequency="0.129 0.0050000000000000001"
         seed="37"
         numOctaves="3"
         type="fractalNoise"
         id="feTurbulence4546-7" />
      <feDisplacementMap
         result="fbSourceGraphic"
         xChannelSelector="R"
         yChannelSelector="G"
         scale="6.6"
         in="fbSourceGraphic"
         in2="turbulence"
         id="feDisplacementMap4548-5" />
      <feColorMatrix
         id="feColorMatrix4670-9"
         values="0 0 0 -1 0 0 0 0 -1 0 0 0 0 -1 0 0 0 0 1 0"
         in="fbSourceGraphic"
         result="fbSourceGraphicAlpha" />
      <feFlood
         in="fbSourceGraphic"
         result="flood"
         flood-color="rgb(48,14,7)"
         flood-opacity="1"
         id="feFlood4672-2" />
      <feComposite
         result="composite1"
         operator="in"
         in="flood"
         in2="fbSourceGraphic"
         id="feComposite4674-2" />
      <feGaussianBlur
         result="blur"
         stdDeviation="0"
         in="composite1"
         id="feGaussianBlur4676-8" />
      <feOffset
         result="offset"
         dy="6"
         dx="6"
         id="feOffset4678-9" />
      <feComposite
         result="composite2"
         operator="over"
         in="fbSourceGraphic"
         in2="offset"
         id="feComposite4680-7" />
    </filter>
    <filter
       x="-0.014281866"
       width="1.0285637"
       y="-0.021884987"
       height="1.04377"
       inkscape:menu-tooltip="Something like a water noise"
       inkscape:menu="Distort"
       inkscape:label="Lapping"
       id="filter3018-3-2-2-7-3"
       style="color-interpolation-filters:sRGB">
      <feTurbulence
         result="result1"
         baseFrequency="0.1"
         type="fractalNoise"
         seed="0"
         numOctaves="5"
         id="feTurbulence3020-6-9-0-4-7" />
      <feGaussianBlur
         result="result2"
         stdDeviation="2"
         id="feGaussianBlur3022-7-1-2-4-5" />
      <feDisplacementMap
         in="SourceGraphic"
         xChannelSelector="R"
         yChannelSelector="B"
         scale="50"
         in2="result2"
         id="feDisplacementMap3024-5-2-3-3-9" />
    </filter>
    <filter
       x="-0.0089622212"
       width="1.0179244"
       y="-0.023487931"
       height="1.0469759"
       inkscape:menu-tooltip="Something like a water noise"
       inkscape:menu="Distort"
       inkscape:label="Lapping"
       id="filter3018-3-2-2-7-3-3"
       style="color-interpolation-filters:sRGB">
      <feTurbulence
         result="result1"
         baseFrequency="0.1"
         type="fractalNoise"
         seed="0"
         numOctaves="5"
         id="feTurbulence3020-6-9-0-4-7-6" />
      <feGaussianBlur
         result="result2"
         stdDeviation="2"
         id="feGaussianBlur3022-7-1-2-4-5-1" />
      <feDisplacementMap
         in="SourceGraphic"
         xChannelSelector="R"
         yChannelSelector="B"
         scale="50"
         in2="result2"
         id="feDisplacementMap3024-5-2-3-3-9-0" />
    </filter>
    <filter
       x="-0.0097521289"
       width="1.0195043"
       y="-0.023505455"
       height="1.0470109"
       inkscape:menu-tooltip="Something like a water noise"
       inkscape:menu="Distort"
       inkscape:label="Lapping"
       id="filter3018-3-2-2-7-3-32"
       style="color-interpolation-filters:sRGB">
      <feTurbulence
         result="result1"
         baseFrequency="0.1"
         type="fractalNoise"
         seed="0"
         numOctaves="5"
         id="feTurbulence3020-6-9-0-4-7-0" />
      <feGaussianBlur
         result="result2"
         stdDeviation="2"
         id="feGaussianBlur3022-7-1-2-4-5-6" />
      <feDisplacementMap
         in="SourceGraphic"
         xChannelSelector="R"
         yChannelSelector="B"
         scale="50"
         in2="result2"
         id="feDisplacementMap3024-5-2-3-3-9-1" />
    </filter>
    <filter
       x="-0.011100205"
       width="1.0222004"
       y="-0.026812465"
       height="1.0536249"
       inkscape:menu-tooltip="Something like a water noise"
       inkscape:menu="Distort"
       inkscape:label="Lapping"
       id="filter3018-3-2-2-7-3-32-5"
       style="color-interpolation-filters:sRGB">
      <feTurbulence
         result="result1"
         baseFrequency="0.1"
         type="fractalNoise"
         seed="0"
         numOctaves="5"
         id="feTurbulence3020-6-9-0-4-7-0-4" />
      <feGaussianBlur
         result="result2"
         stdDeviation="2"
         id="feGaussianBlur3022-7-1-2-4-5-6-7" />
      <feDisplacementMap
         in="SourceGraphic"
         xChannelSelector="R"
         yChannelSelector="B"
         scale="50"
         in2="result2"
         id="feDisplacementMap3024-5-2-3-3-9-1-6" />
    </filter>
    <filter
       x="-0.013184857"
       width="1.0263697"
       y="-0.021608322"
       height="1.0432166"
       inkscape:menu-tooltip="Something like a water noise"
       inkscape:menu="Distort"
       inkscape:label="Lapping"
       id="filter3018-3-2-2-2-0-0-2"
       style="color-interpolation-filters:sRGB">
      <feTurbulence
         result="result1"
         baseFrequency="0.1"
         type="fractalNoise"
         seed="0"
         numOctaves="5"
         id="feTurbulence3020-6-9-0-9-9-6-2" />
      <feGaussianBlur
         result="result2"
         stdDeviation="2"
         id="feGaussianBlur3022-7-1-2-3-3-2-8" />
      <feDisplacementMap
         in="SourceGraphic"
         xChannelSelector="R"
         yChannelSelector="B"
         scale="50"
         in2="result2"
         id="feDisplacementMap3024-5-2-3-1-6-6-9" />
    </filter>
    <filter
       x="-0.015935903"
       width="1.0318718"
       y="-0.039476093"
       height="1.0789522"
       inkscape:menu-tooltip="Something like a water noise"
       inkscape:menu="Distort"
       inkscape:label="Lapping"
       id="filter3018-3-2-2-7-3-32-9"
       style="color-interpolation-filters:sRGB">
      <feTurbulence
         result="result1"
         baseFrequency="0.1"
         type="fractalNoise"
         seed="0"
         numOctaves="5"
         id="feTurbulence3020-6-9-0-4-7-0-3" />
      <feGaussianBlur
         result="result2"
         stdDeviation="2"
         id="feGaussianBlur3022-7-1-2-4-5-6-74" />
      <feDisplacementMap
         in="SourceGraphic"
         xChannelSelector="R"
         yChannelSelector="B"
         scale="50"
         in2="result2"
         id="feDisplacementMap3024-5-2-3-3-9-1-5" />
    </filter>
    <filter
       x="-0.011395685"
       width="1.0227914"
       y="-0.027640256"
       height="1.0552805"
       inkscape:menu-tooltip="Something like a water noise"
       inkscape:menu="Distort"
       inkscape:label="Lapping"
       id="filter3018-3-2-2-7-3-32-9-5"
       style="color-interpolation-filters:sRGB">
      <feTurbulence
         result="result1"
         baseFrequency="0.1"
         type="fractalNoise"
         seed="0"
         numOctaves="5"
         id="feTurbulence3020-6-9-0-4-7-0-3-4" />
      <feGaussianBlur
         result="result2"
         stdDeviation="2"
         id="feGaussianBlur3022-7-1-2-4-5-6-74-7" />
      <feDisplacementMap
         in="SourceGraphic"
         xChannelSelector="R"
         yChannelSelector="B"
         scale="50"
         in2="result2"
         id="feDisplacementMap3024-5-2-3-3-9-1-5-4" />
    </filter>
  </defs>
  <sodipodi:namedview
     inkscape:document-rotation="0"
     inkscape:snap-global="false"
     inkscape:pagecheckerboard="0"
     inkscape:current-layer="layer1"
     inkscape:window-maximized="1"
     inkscape:window-y="-8"
     inkscape:window-x="-8"
     inkscape:cy="2652.7177"
     inkscape:cx="1194.972"
     inkscape:zoom="0.45"
     showgrid="false"
     id="namedview4"
     inkscape:window-height="715"
     inkscape:window-width="1366"
     inkscape:pageshadow="2"
     inkscape:pageopacity="0"
     guidetolerance="10"
     gridtolerance="10"
     objecttolerance="10"
     borderopacity="1"
     bordercolor="#111111"
     pagecolor="#1e1e1e" />
  <g
     sodipodi:insensitive="true"
     inkscape:label="artwork"
     id="layer2"
     inkscape:groupmode="layer">
    <image
       sodipodi:absref="D:\Pepper&amp;Carrot translation\ep36_the-suprise-attack\lang\gfx_Pepper-and-Carrot_by-David-Revoy_E36P12.png"
       xlink:href="../gfx_Pepper-and-Carrot_by-David-Revoy_E36P12.png"
       y="0"
       x="0"
       id="image10"
       height="3503"
       width="2481" />
  </g>
  <g
     style="display:inline"
     inkscape:label="speechbubbles"
     id="layer3"
     inkscape:groupmode="layer">
    <path
       transform="matrix(0.977391,0,0,1.1073997,447.90221,429.81719)"
       sodipodi:nodetypes="csssssccccccccc"
       inkscape:connector-curvature="0"
       id="path3986-3-7-0"
       d="m 394.27091,240.75553 c -44.20675,2.16367 -88.76166,3.35218 -132.26278,18.34295 -19.44424,6.02269 -34.48216,36.29932 -36.91173,69.12349 -1.44834,25.61851 1.22823,51.92051 7.59122,75.26771 4.04411,14.38623 9.38418,28.0579 16.52915,38.51321 9.06455,12.62057 20.98356,17.68772 32.52115,17.7431 22.08231,1.59729 44.13806,-3.33707 66.2205,-1.36755 24.34658,0.90935 48.7846,2.59053 73.05417,-1.86016 17.58351,-3.33091 35.33626,-1.48685 52.85669,1.98233 23.72822,2.19967 48.34399,-7.12988 67.86212,-30.87085 11.36614,-13.5175 18.46507,-36.51271 18.93734,-60.03839 1.28767,-31.45154 -6.72232,-64.57301 -22.14782,-82.7878 -11.73966,-13.16819 -25.85832,-17.32898 -39.34818,-22.34896 -22.63857,-7.23925 -45.34065,-14.19097 -68.24828,-18.47185 -12.17352,-2.1549 -24.41136,-3.38894 -36.65355,-3.22723 z"
       style="color:#000000;display:inline;overflow:visible;visibility:visible;fill:#000000;fill-opacity:1;fill-rule:nonzero;stroke:none;stroke-width:1.03417px;marker:none;filter:url(#filter3018-3-2-2-7-3);enable-background:accumulate" />
    <path
       transform="matrix(1.1879498,0,0,1.0374458,-148.61992,1421.7426)"
       sodipodi:nodetypes="csssssc"
       inkscape:connector-curvature="0"
       id="path3986-3-7-0-5"
       d="m 483.60742,227.74023 c -54.14135,1.05773 -108.20506,4.31462 -162.2951,6.71386 -19.62712,1.33102 -39.5476,2.71284 -58.37097,8.82813 -16.44292,6.59375 -28.23942,21.59597 -34.12924,37.94814 -7.60017,20.07178 -7.36258,42.01634 -5.47413,63.08638 2.1488,21.46698 8.92992,43.02618 22.66931,59.96918 13.74988,17.68239 36.24147,27.28249 58.38924,27.49021 17.05582,0.57 34.10602,-0.58887 51.16219,-0.60626 36.27964,-0.77176 72.5833,-0.9846 108.85492,0.23864 36.78687,0.14467 73.46244,-3.89209 110.2513,-3.46044 26.70089,0.7616 54.00496,3.50958 80.15977,-3.49662 19.83236,-5.48613 38.18215,-18.40639 47.61186,-37.01103 8.30507,-15.97092 9.67226,-34.27431 11.24938,-51.88951 1.19167,-16.27948 1.31859,-32.89345 -2.46837,-48.86021 -4.27745,-13.87002 -15.60219,-25.33813 -29.50874,-29.59023 -15.65777,-5.79948 -32.25697,-8.23714 -48.43145,-12.12631 -47.64649,-9.86713 -96.10065,-16.75575 -144.82324,-17.24842 -1.61557,6.1e-4 -3.23116,0.0103 -4.84673,0.0145 z"
       style="color:#000000;display:inline;overflow:visible;visibility:visible;fill:#000000;fill-opacity:1;fill-rule:nonzero;stroke:none;stroke-width:1.03417px;marker:none;filter:url(#filter3018-3-2-2-7-3-32);enable-background:accumulate" />
    <path
       transform="matrix(1.2009221,0,0,1.0371677,1021.5406,1934.0842)"
       sodipodi:nodetypes="cssssscccccccccccsc"
       inkscape:connector-curvature="0"
       id="path3986-3-7-0-5-2"
       d="m 382.61236,227.73437 c -33.13231,0.62981 -66.21712,2.56907 -99.31804,3.99767 -12.01101,0.79253 -24.20154,1.61532 -35.72068,5.25658 -10.0624,3.92615 -17.28138,12.859 -20.88571,22.59565 -4.651,11.95145 -4.50561,25.01801 -3.34995,37.56385 1.31498,12.7822 5.46475,25.61931 13.8727,35.70776 8.41437,10.52872 22.17832,16.24496 35.73186,16.36864 10.43747,0.3394 20.87151,-0.35063 31.30919,-0.36099 22.20168,-0.45953 44.41805,-0.58626 66.61482,0.1421 22.51207,0.0861 44.95604,-2.31749 67.46934,-2.06047 16.33986,0.45348 33.04885,2.08973 49.05454,-2.08201 12.1366,-3.26663 23.36593,-10.95981 29.13654,-22.03767 5.08236,-9.50965 5.91903,-20.40813 6.88416,-30.89684 0.72926,-9.69337 0.80693,-19.58592 -1.51054,-29.09309 -2.61763,-8.2587 -9.54791,-15.08721 -18.05816,-17.61906 -9.58192,-3.45322 -19.73996,-4.90469 -29.63809,-7.22043 -29.15773,-5.87524 -58.80972,-9.97697 -88.62597,-10.27032 -0.98867,3.6e-4 -2.96601,1.1534 -2.96601,0.009 z"
       style="color:#000000;display:inline;overflow:visible;visibility:visible;fill:#000000;fill-opacity:1;fill-rule:nonzero;stroke:none;stroke-width:1.03417px;marker:none;filter:url(#filter3018-3-2-2-7-3-32-9);enable-background:accumulate" />
    <path
       transform="matrix(1.1995702,0,0,1.1512842,982.03489,2000.0431)"
       sodipodi:nodetypes="cssssscccccccccccsc"
       inkscape:connector-curvature="0"
       id="path3986-3-7-0-5-2-4"
       d="M 526.69141 225.37109 C 497.52085 226.3997 468.36568 228.78165 439.15794 227.97533 C 408.06581 228.63342 377.00645 230.28231 345.93587 231.54786 C 321.4752 232.73593 296.96478 233.8309 272.66159 236.96786 C 260.23663 239.06532 247.51355 243.82979 239.20768 253.73459 C 228.12215 266.3067 223.4627 283.2723 222.73105 299.73044 C 221.5357 320.38672 224.31945 341.59536 232.93945 360.53125 C 240.72627 376.3876 254.3449 389.96223 271.47844 395.21278 C 286.23836 400.0142 301.97111 399.1442 317.25148 398.56128 C 359.96214 397.55783 402.68827 398.0544 445.40453 398 C 481.86837 396.98361 518.36701 394.33177 554.84293 396.42012 C 572.80668 396.57294 591.46733 394.59768 607.46616 385.82 C 625.67467 375.68026 637.37856 355.89966 639.64286 335.41528 C 643.28319 315.59696 645.73232 294.97546 641.28151 275.07706 C 637.63631 262.48083 627.48317 252.53634 615.63206 247.38529 C 601.74385 240.29589 586.99432 234.97142 571.98242 230.82031 C 557.19668 227.09873 541.93955 225.2423 526.69141 225.37109 z "
       style="color:#000000;display:inline;overflow:visible;visibility:visible;fill:#000000;fill-opacity:1;fill-rule:nonzero;stroke:none;stroke-width:1.03417px;marker:none;filter:url(#filter3018-3-2-2-7-3-32-9-5);enable-background:accumulate" />
    <path
       transform="matrix(0.97232627,0,0,1.0430277,-32.634189,1543.0251)"
       sodipodi:nodetypes="csssssc"
       inkscape:connector-curvature="0"
       id="path3986-3-7-0-5-5"
       d="m 485.14062,228.50977 c -22.38898,0.44871 -44.77247,1.24013 -67.15981,1.80784 -50.85134,1.54788 -101.89817,3.80139 -152.10348,12.50834 -22.02613,6.67655 -37.40751,28.58062 -38.87616,51.17478 -1.73915,21.58426 2.61507,43.86953 13.36769,62.74554 9.76127,16.84459 25.61239,30.54258 44.57758,35.73469 16.98495,5.12056 34.89855,4.19682 52.41235,4.56815 27.72829,1.1386 55.06982,6.21507 82.53526,9.77246 32.5238,2.69736 64.97641,-2.79577 96.80939,-8.91434 23.65027,-4.01615 47.6143,-5.94722 71.58416,-6.47147 13.4477,-0.82319 27.78354,-2.04139 39.20654,-9.8967 10.52685,-8.15757 14.97614,-21.668 16.15463,-34.48938 2.88348,-20.9783 3.64122,-42.28844 8.63485,-62.94187 2.17299,-10.35693 5.42997,-20.55319 6.77061,-31.04337 -1.18612,-10.24153 -12.01325,-17.27664 -21.90218,-16.04479 -19.02938,-1.11783 -38.09258,-1.74655 -57.07315,-3.58049 -31.6047,-2.29645 -63.22217,-5.06553 -94.93828,-4.92939 z"
       style="color:#000000;display:inline;overflow:visible;visibility:visible;fill:#000000;fill-opacity:1;fill-rule:nonzero;stroke:none;stroke-width:1.03417px;marker:none;filter:url(#filter3018-3-2-2-7-3-32-5);enable-background:accumulate" />
    <path
       transform="matrix(1.103986,0,0,0.99805765,428.52599,659.52827)"
       sodipodi:nodetypes="csssssc"
       inkscape:connector-curvature="0"
       id="path3986-3-7-0-6"
       d="m 485.59961,227.56836 c -66.3276,1.85011 -133.00996,3.3729 -198.50586,15 -13.15073,2.31931 -26.71205,5.48782 -37.61053,13.62074 -23.79957,16.99286 -36.19737,47.95357 -31.81143,76.72663 2.56369,29.64398 14.6898,58.89722 35.90155,80.04652 14.20922,12.78922 33.56971,18.76037 52.47447,18.83295 14.62789,0.26604 29.26134,0.10128 43.88461,-0.35687 24.36501,-0.73229 48.7551,-1.72186 73.12635,-0.66234 32.30278,0.76006 64.6731,1.32632 96.9226,-1.11864 19.7921,-1.30575 39.66073,-3.31603 59.49608,-1.6224 23.93116,1.4757 48.09529,4.469 71.97622,0.76856 27.33138,-4.06158 54.07228,-14.50139 75.59246,-32.0551 15.13492,-13.61496 23.52396,-33.71574 24.63916,-53.8616 2.02917,-22.09572 -0.15185,-45.06224 -9.55443,-65.37509 -5.7855,-11.19359 -16.8051,-19.63772 -29.27022,-21.81894 -15.13386,-3.92338 -30.16533,-8.23511 -45.18594,-12.56003 -21.5419,-4.95867 -43.88723,-0.44025 -65.53525,-4.50396 -28.39082,-4.34291 -56.83257,-8.78797 -85.55088,-10.24423 -10.31828,-0.58764 -20.65394,-0.86681 -30.98896,-0.8162 z"
       style="color:#000000;display:inline;overflow:visible;visibility:visible;fill:#000000;fill-opacity:1;fill-rule:nonzero;stroke:none;stroke-width:1.03417px;marker:none;filter:url(#filter3018-3-2-2-7-3-3);enable-background:accumulate" />
    <path
       sodipodi:nodetypes="cccccc"
       inkscape:connector-curvature="0"
       id="path5066-3"
       d="m 860.53788,799.2116 c 39.48467,-52.05686 65.27173,-86.69602 11.91641,-106.52394 -77.03525,-23.94301 -23.10751,-93.27323 36.75456,-120.24803 -136.71158,39.38859 -109.94782,130.56148 -51.64967,144.80872 36.72519,2.71507 -15.97284,60.10777 -31.58689,82.35485 z"
       style="color:#000000;display:inline;overflow:visible;visibility:visible;fill:#000000;fill-opacity:1;fill-rule:nonzero;stroke:none;stroke-width:0.968079px;marker:none;enable-background:accumulate" />
    <path
       inkscape:transform-center-y="94.194949"
       inkscape:transform-center-x="-104.49324"
       sodipodi:nodetypes="zssssz"
       inkscape:connector-curvature="0"
       id="path4040-5"
       d="m 222.02216,149.85113 c 16.24048,-21.95259 216.58085,-37.58634 262.86166,12.06235 32.25316,34.59978 19.81086,100.95226 -7.83422,118.22442 -27.64508,17.27303 -161.11359,22.138 -199.04765,13.3412 -34.11229,-7.90958 -69.91823,-24.93568 -71.80597,-70.25139 -0.77043,-18.49469 -0.4143,-51.42487 15.82618,-73.37658 z"
       style="color:#000000;display:inline;overflow:visible;visibility:visible;fill:#ffffff;fill-opacity:1;fill-rule:nonzero;stroke:none;stroke-width:0.748295px;marker:none;enable-background:accumulate" />
    <path
       inkscape:connector-curvature="0"
       id="path3100-2"
       d="m 1985.4063,109.34182 c -42.1135,0.60309 -84.6831,3.19833 -125.5304,16.80058 -19.9421,6.65461 -39.0804,19.35905 -52.5331,38.96 -13.896,20.43402 -19.8112,47.72366 -19.1388,74.03714 0.5928,18.68593 3.9994,37.26411 9.9797,54.46012 7.3224,20.80801 18.696,39.86834 33.8683,52.99058 14.2327,11.76504 31.43,15.85907 48.0856,19.05272 77.126,15.61726 156.0443,22.69998 233.8793,10.97952 19.823,-3.08058 40.0504,-7.11813 57.9337,-18.68187 28.5167,-17.82441 50.8047,-50.70852 58.754,-88.95007 6.1557,-28.5201 4.7946,-60.07819 -6.3527,-86.518 -10.2449,-24.06774 -28.7296,-41.74667 -49.2418,-51.11517 -22.2338,-10.31626 -45.7643,-15.82441 -69.3896,-18.36175 -32.7391,-3.47308 -65.6344,-2.96252 -98.462,-3.44434 -7.2841,-0.0533 -14.568,-0.20962 -21.8522,-0.20946 z"
       style="fill:#ffffff;stroke:none;stroke-width:1.12249" />
    <path
       inkscape:connector-curvature="0"
       id="path3072-6"
       d="m 1920.8179,446.42592 c -26.0571,-33.37163 -33.4024,-46.80656 -9.6016,-92.39578 23.8009,-45.58921 7.2022,-53.27962 7.2022,-53.27962 l -29.7869,18.08107 c 0,0 -44.2031,100.44862 32.1863,127.59433 z"
       style="color:#000000;display:inline;overflow:visible;visibility:visible;fill:#ffffff;fill-opacity:1;fill-rule:nonzero;stroke:none;stroke-width:1px;marker:none;enable-background:accumulate" />
    <path
       sodipodi:nodetypes="csssc"
       inkscape:connector-curvature="0"
       id="path3280-64"
       d="m 1971.2505,856.25973 c -29.0443,0.33199 -58.0595,1.96493 -87.0061,4.15358 -23.3172,1.97922 -46.8241,3.50201 -69.6505,8.64062 -13.2676,2.83982 -25.9117,8.19491 -36.7634,15.89357 -19.3252,13.40656 -32.8706,33.66778 -37.6527,55.67854 -4.2266,19.36812 -2.7136,39.79163 4.0147,58.51336 4.3272,11.5861 10.7444,22.713 19.9275,31.5714 15.0415,13.6474 36.024,20.1457 56.631,21.3959 28.3945,2.3731 56.9016,0.2824 85.346,0.3828 55.3927,-0.7632 110.8043,0.3001 166.187,-1.2188 24.7721,-0.5344 49.5688,-0.686 74.3231,0.4987 26.5371,0.8551 53.7876,0.894 79.2349,-7.137 18.8943,-5.9017 37.2675,-15.7118 48.869,-31.2407 20.3624,-26.96772 22.4914,-64.45824 6.4851,-93.71972 -8.9137,-16.64205 -23.7143,-30.74143 -42.142,-38.10873 -17.0653,-7.12606 -35.4413,-10.80138 -53.5361,-14.85442 -55.4471,-11.45731 -112.5494,-7.7482 -168.8639,-9.70758 -15.1319,-0.36328 -30.265,-0.79629 -45.4036,-0.74152 z"
       style="display:inline;fill:#ffffff;stroke:none;stroke-width:1.39034" />
    <path
       sodipodi:nodetypes="ccszc"
       inkscape:connector-curvature="0"
       id="path4064-5"
       d="m 2192.2255,866.90962 c 36.7612,6.11688 106.2222,-53.88927 42.7129,-111.31616 32.1329,25.74735 89.1166,71.19017 -7.0479,144.58617 -25.1788,19.21727 -22.5153,3.48316 -27.9516,-1.52572 -5.4365,-5.00906 -30.6812,-42.4713 -7.7134,-31.74429 z"
       style="color:#000000;display:inline;overflow:visible;visibility:visible;fill:#ffffff;fill-opacity:1;fill-rule:nonzero;stroke:none;stroke-width:1px;marker:none;enable-background:accumulate" />
    <path
       transform="matrix(2.0241966,-0.1146141,0.08359054,1.0336658,-511.19234,1648.2299)"
       sodipodi:nodetypes="ccsccssssssssccsssssssc"
       inkscape:connector-curvature="0"
       id="path3986-3-7-9-1"
       d="m 445.23438,278.21484 c -7.6012,3.03495 -11.23207,11.0488 -13.96051,18.20728 -3.48892,8.53777 -7.13147,17.21842 -13.10199,24.36499 -7.23454,-0.0849 -12.43587,-6.39705 -15.04212,-12.55504 -5.71848,-9.3241 -10.70604,-19.33954 -18.64734,-27.04457 -7.80086,-0.67853 -13.72969,8.3208 -11.3589,15.43421 -0.45655,7.72029 -0.42994,15.68229 -3.29344,22.99157 -7.63802,2.95843 -15.60138,-0.54968 -22.9682,-2.65044 -20.65563,-6.22556 -40.93967,-13.69624 -61.86579,-19.00972 2.62765,8.18244 11.18563,12.19383 15.07001,19.60035 4.90818,6.74432 8.95075,15.2654 7.09954,23.76586 -2.82331,4.29528 -9.48188,3.67361 -12.73601,0.23656 -3.6869,-1.81352 -7.93141,-4.2535 -12.12104,-2.61644 -2.41442,4.45048 0.9327,9.51169 4.62332,12.02276 5.52504,7.01436 10.80447,15.49104 9.7634,24.80927 -3.37932,11.3775 -13.55559,18.56601 -19.72851,28.25586 -0.27286,3.4766 3.96465,4.22877 6.6048,4.25937 13.1686,2.84163 27.34053,3.83906 38.89465,11.41793 5.2602,5.5489 3.67727,14.85551 -1.42606,19.95678 -3.69296,5.97403 -8.33119,12.27074 -7.75699,19.67452 2.68803,4.50147 8.90433,4.41941 13.24036,2.69779 21.20995,-4.13531 42.64145,-10.0627 64.44714,-7.70951 5.91308,0.31573 12.25648,5.12389 11.18436,11.60473 -0.0989,3.46637 1.16271,7.63246 4.93869,8.59058 7.80829,3.20914 16.35038,1.10426 24.46632,0.80363 20.83029,-2.35516 41.0182,-10.49745 62.2265,-9.04321 12.43616,2.63715 21.72741,11.91744 31.50925,19.34705 8.79287,6.91465 18.57783,14.05106 30.14622,14.71217 6.24098,-1.00704 8.48122,-9.69215 4.4939,-14.20055 -2.53773,-5.08815 -0.17045,-12.20624 5.46076,-13.96379 7.11779,-3.13234 15.08625,-2.58442 22.61994,-3.82415 14.00423,-1.45195 28.75596,-3.14593 40.76461,-11.12607 1.76348,-1.54583 0.22406,-4.06425 -1.86133,-4.10547 -2.92322,-0.23505 -5.58108,2.28463 -8.53783,0.96909 -4.86096,-1.37691 -7.86341,-6.5983 -7.25223,-11.5038 -0.44714,-10.98304 4.00671,-21.74889 10.61782,-30.34566 5.36239,-6.63928 12.50326,-11.53748 18.88168,-17.04628 1.75427,-5.72027 -2.87814,-11.16451 -7.82818,-13.3881 -6.92906,-4.9163 -15.59376,-8.503 -19.71326,-16.38584 -1.28579,-8.42229 3.75879,-15.93157 5.23913,-23.96483 4.38126,-14.06101 9.78027,-28.11383 10.36631,-42.99474 -3.20618,-3.5627 -8.50834,-1.89399 -12.23908,-0.18939 -22.6594,7.21134 -45.89551,12.44027 -68.53045,19.73236 -3.68119,-4.65122 -3.66572,-10.92952 -6.12038,-16.15951 -2.48651,-7.60237 -5.26522,-15.82256 -11.74658,-20.96553 -5.20569,-1.73822 -9.98359,2.28752 -13.2247,5.9126 -9.52686,9.55047 -16.72819,21.8966 -28.90323,28.45422 -7.03717,1.82113 -13.80922,-3.21424 -17.27216,-8.99507 -7.12759,-9.87825 -13.03699,-21.47028 -23.97319,-27.74085 -0.43736,-0.24908 -0.95049,-0.3411 -1.44921,-0.29297 z"
       style="color:#000000;display:inline;overflow:visible;visibility:visible;fill:#000000;fill-opacity:1;fill-rule:nonzero;stroke:none;stroke-width:0.712918px;marker:none;filter:url(#filter3018-3-2-2-2-0-0-2);enable-background:accumulate" />
    <path
       sodipodi:nodetypes="cccccccccccsc"
       inkscape:connector-curvature="0"
       id="path5050-7"
       d="m 448.58136,1665.0588 c 22.51508,-4.9921 33.68159,7.6862 53.69484,-12.5268 3.48206,-4.1494 9.16655,-47.7155 16.22548,-50.3156 7.05887,-2.6 24.35468,8.4904 28.17932,5.5181 3.82411,-2.9724 7.57802,-29.4608 13.36206,-31.07 5.78414,-1.6092 38.19373,5.9123 41.0541,3.2083 2.86028,-2.7043 18.43669,-17.2156 38.02784,-23.3024 -28.88204,29.663 -28.38035,40.3372 -35.43945,42.9374 -7.05897,2.6001 -27.52591,-5.0638 -32.93567,-0.3781 -5.41013,4.6856 -9.50636,29.9972 -17.21855,32.1428 -7.71222,2.1457 -21.05686,-4.3192 -21.05686,-4.3192 2.08702,8.9611 7.07999,56.5518 -29.08359,75.5186 -36.16337,18.9667 -54.80952,-37.4131 -54.80952,-37.4131 z"
       style="color:#000000;display:inline;overflow:visible;visibility:visible;fill:#000000;fill-opacity:1;fill-rule:nonzero;stroke:none;stroke-width:0.854261px;marker:none;enable-background:accumulate" />
    <path
       sodipodi:nodetypes="csssc"
       inkscape:connector-curvature="0"
       id="path3280-64-6"
       d="m 991.33696,1929.4858 c -0.60116,-44.9273 36.77664,-85.3242 213.60474,-78.1138 176.8281,7.2104 234.9877,12.0511 237.6044,73.3071 2.7385,64.1075 -84.507,79.1855 -218.0569,81.667 -137.6757,2.5578 -230.64203,-23.4947 -233.15224,-76.8603 z"
       style="display:inline;fill:#ffffff;stroke:none;stroke-width:1.28271" />
    <path
       inkscape:transform-center-y="41.785498"
       inkscape:transform-center-x="5.2592053"
       inkscape:connector-curvature="0"
       id="path4496-9"
       d="m 1426.0186,1758.7864 c -12.4926,-4.8792 -25.4537,-10.1778 -38.987,-7.893 -3.8423,0.7542 -7.7952,1.882 -11.3121,4.2458 -3.2907,3.4887 -4.1216,9.4086 -3.172,14.3064 0.9846,7.2303 4.3512,14.0959 2.9585,21.8078 -1.1166,5.5901 -5.4657,8.179 -8.9847,10.7586 -9.0575,6.352 -18.7482,11.1925 -27.0754,19.3375 -9.7933,8.4112 -19.6759,18.1523 -25.3728,31.8688 -2.1869,5.4703 -3.9073,11.5436 -3.4081,17.6061 0.7353,15.6734 8.4106,30.4397 19.8543,35.2524 7.5688,2.1454 16.8148,-4.6539 18.4926,-15.1446 0.9487,-5.5252 -1.0768,-10.7544 -3.86,-14.4303 -4.0853,-8.0909 -4.1532,-19.1142 -0.8648,-28.2774 2.6223,-7.6114 6.9974,-14.2227 12.2261,-19.0745 5.8954,-8.9424 14.9525,-11.3767 22.7948,-15.7491 3.5641,-2.0626 7.2622,-4.57 9.7942,-8.5826 2.6223,-6.7563 0.4693,-14.0496 -1.9118,-19.897 -2.3328,-6.1252 -5.5866,-12.8392 -3.8859,-20.245 0.6593,-5.3027 5.4624,-5.6417 8.5486,-7.3336 10.3985,-3.7958 21.3626,-3.37 31.4299,0 0.9358,0.4156 1.8354,0.9293 2.7356,1.4478 z"
       style="color:#000000;display:inline;overflow:visible;visibility:visible;fill:#ffffff;fill-opacity:1;fill-rule:nonzero;stroke:none;stroke-width:0.861105px;marker:none;enable-background:accumulate" />
    <path
       sodipodi:nodetypes="cssssc"
       inkscape:connector-curvature="0"
       id="path4546-7"
       d="m 298.84347,2157.1047 c -39.86889,0.4893 -80.4668,6.2694 -115.792,21.5539 -35.12124,15.5531 -61.19906,42.1509 -75.62092,71.7249 -19.494885,39.7761 -19.842117,85.7766 1.79147,125.0631 11.98922,22.6516 33.26392,42.4721 60.81154,53.8994 24.0185,10.3634 50.48341,16.3308 76.68419,22.0847 51.19876,10.4655 104.1824,13.9829 156.89506,14.8046 71.38062,1.9599 143.20061,4.2891 214.25658,-2.9785 39.48594,-4.2997 78.9401,-13.654 111.96532,-31.8781 26.94662,-14.7096 48.38714,-35.9477 59.55179,-60.4581 12.1482,-25.883 13.85222,-54.1373 10.37154,-81.4069 -3.47067,-25.6135 -14.04636,-51.1692 -34.39167,-71.5033 -21.11742,-21.4455 -51.43164,-36.5297 -84.15402,-44.0841 -20.31523,-4.7314 -41.28134,-7.3949 -62.20662,-9.7463 -34.7171,-3.6868 -69.70786,-5.5912 -104.70548,-6.435 -64.5396,-0.967 -129.10076,1.306 -193.62945,-0.4721 -7.27454,-0.1312 -14.5509,-0.1949 -21.82733,-0.1682 z"
       style="color:#000000;display:inline;overflow:visible;visibility:visible;fill:#ffffff;fill-opacity:1;fill-rule:nonzero;stroke:none;stroke-width:1.37689px;marker:none;enable-background:accumulate" />
    <path
       sodipodi:nodetypes="cssssc"
       inkscape:connector-curvature="0"
       id="path4546-6-21"
       d="m 266.05401,2510.8443 c 4.1635,-45.807 62.43491,-79.961 215.30203,-73.1252 81.88395,3.661 174.83339,5.6072 169.68341,72.6995 -5.15008,67.0924 -138.71324,66.9186 -166.2602,68.8053 -27.54708,1.8876 -171.22673,-3.4751 -196.64641,-25.9826 -15.91218,-14.089 -22.33647,-28.2226 -22.07883,-42.397 z"
       style="color:#000000;display:inline;overflow:visible;visibility:visible;fill:#ffffff;fill-opacity:1;fill-rule:nonzero;stroke:none;stroke-width:1.01223px;marker:none;enable-background:accumulate" />
    <path
       sodipodi:nodetypes="ccccc"
       inkscape:transform-center-y="1.9711227"
       inkscape:transform-center-x="29.490859"
       inkscape:connector-curvature="0"
       id="path3072-56"
       d="m 324.06146,2661.634 c -3.53584,-28.3889 -4.23254,-71.3083 42.14279,-95.9562 33.63259,-33.3725 13.77107,-44.4282 13.77107,-44.4282 l -27.53754,23.6383 c 0,0 -78.26131,47.7819 -28.37632,116.7461 z"
       style="color:#000000;display:inline;overflow:visible;visibility:visible;fill:#ffffff;fill-opacity:1;fill-rule:nonzero;stroke:none;stroke-width:1px;marker:none;enable-background:accumulate" />
    <path
       sodipodi:nodetypes="cssssc"
       inkscape:connector-curvature="0"
       id="path4546-2"
       d="m 519.63737,3120.0564 c 5.94399,-48.7595 55.79887,-84.433 181.29009,-75.2589 67.2199,4.9144 143.64501,8.1364 135.71983,79.566 -7.92528,71.4295 -117.88799,69.5928 -140.67306,71.2633 -22.78519,1.6705 -140.79254,-5.8203 -160.48631,-30.118 -12.32784,-15.2107 -16.8412,-30.3516 -15.85055,-45.4524 z"
       style="color:#000000;display:inline;overflow:visible;visibility:visible;fill:#ffffff;fill-opacity:1;fill-rule:nonzero;stroke:none;stroke-width:1.18669px;marker:none;enable-background:accumulate" />
    <path
       inkscape:transform-center-y="0.80191812"
       inkscape:transform-center-x="4.4254168"
       sodipodi:nodetypes="ccscc"
       inkscape:connector-curvature="0"
       id="path4248"
       d="m 696.11417,3049.1859 c 8.73312,-27.1543 2.7226,-56.019 -34.57194,-93.5591 21.64595,12.3853 54.01582,40.8949 57.79628,74.5472 5.90008,52.5208 -21.4439,21.9642 -21.4439,21.9642 z"
       style="fill:#ffffff;fill-rule:evenodd;stroke:none;stroke-width:1.36254px;stroke-linecap:butt;stroke-linejoin:miter;stroke-opacity:1" />
    <path
       sodipodi:nodetypes="cccccccc"
       inkscape:connector-curvature="0"
       id="path5066"
       d="m 1619.7281,2420.5906 c -13.7939,34.2699 -25.0651,71.7917 -27.1151,85.5938 16.9838,-5.9635 32.7895,-8.2946 45.102,-10.3336 -6.0874,25.4983 -41.9588,105.9081 -58.432,123.6481 42.621,-42.5459 82.7489,-106.1707 89.4017,-148.3756 -16.4607,-0.1375 -24.5111,0.6902 -33.1563,0.4035 2.2456,-21.1387 26.2653,-51.2278 26.2653,-51.2278 z"
       style="color:#000000;display:inline;overflow:visible;visibility:visible;fill:#000000;fill-opacity:1;fill-rule:nonzero;stroke:none;stroke-width:1.39871px;marker:none;enable-background:accumulate" />
    <path
       sodipodi:nodetypes="cssssscc"
       inkscape:connector-curvature="0"
       id="path4272-2"
       d="m 428.70347,402.65363 c 31.42908,-18.28023 37.24768,-32.63495 33.46304,-45.79307 -3.15723,-10.97681 -43.23831,-10.20186 -44.21149,-21.21007 -0.97318,-11.00821 28.75956,-22.61856 22.77163,-65.30275 -2.37802,-16.95137 -37.05217,-5.30261 -31.61889,13.28685 10.45812,35.78146 -18.21243,42.79199 -13.06977,57.71454 8.57685,24.88621 38.9953,15.31251 49.10045,20.55083 5.88951,6.40885 12.5681,3.87537 -16.43497,40.75367 z"
       style="fill:#ffffff;fill-rule:evenodd;stroke:none;stroke-width:1.06598px;stroke-linecap:butt;stroke-linejoin:miter;stroke-opacity:1" />
  </g>
  <g
     style="display:inline"
     inkscape:label="txt"
     id="layer1"
     inkscape:groupmode="layer">
    <text
       xml:space="preserve"
       style="font-style:normal;font-variant:normal;font-weight:normal;font-stretch:normal;line-height:0%;font-family:'Xiaolai SC';-inkscape-font-specification:'Xiaolai SC';text-align:center;letter-spacing:0px;word-spacing:0px;text-anchor:middle;fill:#000000;fill-opacity:1;stroke:none"
       x="354.28757"
       y="198.125"
       id="text4246-4-2-7"><tspan
         id="tspan5205"
         sodipodi:role="line"
         style="font-style:normal;font-variant:normal;font-weight:normal;font-stretch:normal;font-size:45px;line-height:1.25;font-family:'Xiaolai SC';-inkscape-font-specification:'Xiaolai SC'"
         x="354.28757"
         y="198.125">可是，</tspan><tspan
         id="tspan131"
         sodipodi:role="line"
         style="font-style:normal;font-variant:normal;font-weight:normal;font-stretch:normal;font-size:45px;line-height:1.25;font-family:'Xiaolai SC';-inkscape-font-specification:'Xiaolai SC'"
         x="354.28757"
         y="254.375">你想怎么办？</tspan></text>
    <text
       xml:space="preserve"
       style="font-style:normal;font-variant:normal;font-weight:normal;font-stretch:normal;font-size:50.816px;line-height:0%;font-family:'Xiaolai SC';-inkscape-font-specification:'Xiaolai SC';text-align:center;letter-spacing:0px;word-spacing:0px;text-anchor:middle;fill:#ffffff;fill-opacity:1;stroke:none;stroke-width:0.97723"
       x="845.83923"
       y="766.54706"
       id="text4246-4-2-7-3"><tspan
         id="tspan10289"
         sodipodi:role="line"
         style="font-style:normal;font-variant:normal;font-weight:normal;font-stretch:normal;font-size:50.816px;line-height:1.25;font-family:'Xiaolai SC';-inkscape-font-specification:'Xiaolai SC';fill:#ffffff;stroke-width:0.97723"
         x="845.83923"
         y="766.54706">是的，</tspan><tspan
         id="tspan139"
         sodipodi:role="line"
         style="font-style:normal;font-variant:normal;font-weight:normal;font-stretch:normal;font-size:50.816px;line-height:1.25;font-family:'Xiaolai SC';-inkscape-font-specification:'Xiaolai SC';fill:#ffffff;stroke-width:0.97723"
         x="845.83923"
         y="830.06708">你想如何，</tspan><tspan
         id="tspan147"
         sodipodi:role="line"
         style="font-style:normal;font-variant:normal;font-weight:normal;font-stretch:normal;font-size:50.816px;line-height:1.25;font-family:'Xiaolai SC';-inkscape-font-specification:'Xiaolai SC';fill:#ffffff;stroke-width:0.97723"
         x="845.83923"
         y="893.58704">小女巫？</tspan></text>
    <text
       xml:space="preserve"
       style="font-style:normal;font-variant:normal;font-weight:normal;font-stretch:normal;font-size:50.816px;line-height:0%;font-family:'Xiaolai SC';-inkscape-font-specification:'Xiaolai SC';text-align:center;letter-spacing:0px;word-spacing:0px;text-anchor:middle;fill:#ffffff;fill-opacity:1;stroke:none;stroke-width:0.97723"
       x="962.81244"
       y="981.29883"
       id="text4246-4-2-7-3-5"><tspan
         id="tspan14613"
         sodipodi:role="line"
         style="font-style:normal;font-variant:normal;font-weight:normal;font-stretch:normal;font-size:50.816px;line-height:1.25;font-family:'Xiaolai SC';-inkscape-font-specification:'Xiaolai SC';fill:#ffffff;stroke-width:0.97723"
         x="962.81244"
         y="981.29883">我能感到你尚且</tspan><tspan
         id="tspan143"
         sodipodi:role="line"
         style="font-style:normal;font-variant:normal;font-weight:normal;font-stretch:normal;font-size:50.816px;line-height:1.25;font-family:'Xiaolai SC';-inkscape-font-specification:'Xiaolai SC';fill:#ffffff;stroke-width:0.97723"
         x="962.81244"
         y="1044.8188">没有恢复多少魔法值。</tspan></text>
    <text
       xml:space="preserve"
       style="font-style:normal;font-variant:normal;font-weight:normal;font-stretch:normal;line-height:0%;font-family:'Xiaolai SC';-inkscape-font-specification:'Xiaolai SC';text-align:center;letter-spacing:0px;word-spacing:0px;text-anchor:middle;fill:#000000;fill-opacity:1;stroke:none"
       x="2017.4099"
       y="170.41145"
       id="text4246-4-2-7-3-5-6"><tspan
         id="tspan17187"
         sodipodi:role="line"
         style="font-style:normal;font-variant:normal;font-weight:normal;font-stretch:normal;font-size:45px;line-height:1.25;font-family:'Xiaolai SC';-inkscape-font-specification:'Xiaolai SC'"
         x="2017.4099"
         y="170.41145">你说的没错，</tspan><tspan
         id="tspan155"
         sodipodi:role="line"
         style="font-style:normal;font-variant:normal;font-weight:normal;font-stretch:normal;font-size:45px;line-height:1.25;font-family:'Xiaolai SC';-inkscape-font-specification:'Xiaolai SC'"
         x="2017.4099"
         y="226.66145">但我还保留了</tspan><tspan
         id="tspan157"
         sodipodi:role="line"
         style="font-style:normal;font-variant:normal;font-weight:normal;font-stretch:normal;font-size:45px;line-height:1.25;font-family:'Xiaolai SC';-inkscape-font-specification:'Xiaolai SC'"
         x="2017.4099"
         y="282.91147">一个可以彻底解决</tspan><tspan
         id="tspan159"
         sodipodi:role="line"
         style="font-style:normal;font-variant:normal;font-weight:normal;font-stretch:normal;font-size:45px;line-height:1.25;font-family:'Xiaolai SC';-inkscape-font-specification:'Xiaolai SC'"
         x="2017.4099"
         y="339.16147">问题的魔法。</tspan></text>
    <text
       xml:space="preserve"
       style="font-style:normal;font-variant:normal;font-weight:normal;font-stretch:normal;line-height:0%;font-family:'Xiaolai SC';-inkscape-font-specification:'Xiaolai SC';text-align:center;letter-spacing:0px;word-spacing:0px;text-anchor:middle;fill:#000000;fill-opacity:1;stroke:none"
       x="2001.3864"
       y="915.82996"
       id="text4246-4-2-7-3-5-6-2"><tspan
         id="tspan23540"
         sodipodi:role="line"
         style="font-style:normal;font-variant:normal;font-weight:normal;font-stretch:normal;font-size:45px;line-height:1.25;font-family:'Xiaolai SC';-inkscape-font-specification:'Xiaolai SC'"
         x="2001.3864"
         y="915.82996">我唯一需要的</tspan><tspan
         id="tspan165"
         sodipodi:role="line"
         style="font-style:normal;font-variant:normal;font-weight:normal;font-stretch:normal;font-size:45px;line-height:1.25;font-family:'Xiaolai SC';-inkscape-font-specification:'Xiaolai SC'"
         x="2001.3864"
         y="972.07996">就是借用一下你的魔法</tspan><tspan
         id="tspan167"
         sodipodi:role="line"
         style="font-style:normal;font-variant:normal;font-weight:normal;font-stretch:normal;font-size:45px;line-height:1.25;font-family:'Xiaolai SC';-inkscape-font-specification:'Xiaolai SC'"
         x="2001.3864"
         y="1028.33">能力来实现这一切。</tspan></text>
    <text
       xml:space="preserve"
       style="font-style:normal;font-variant:normal;font-weight:normal;font-stretch:normal;font-size:58.5163px;line-height:0%;font-family:'Xiaolai SC';-inkscape-font-specification:'Xiaolai SC';text-align:center;letter-spacing:0px;word-spacing:0px;text-anchor:middle;fill:#000000;fill-opacity:1;stroke:none;stroke-width:1.12532"
       x="404.69937"
       y="1747.1217"
       id="text4246-4-2-7-3-5-6-2-0"><tspan
         id="tspan27381"
         sodipodi:role="line"
         style="font-style:normal;font-variant:normal;font-weight:normal;font-stretch:normal;font-size:58.5163px;line-height:1.25;font-family:'Xiaolai SC';-inkscape-font-specification:'Xiaolai SC';fill:#ffffff;stroke-width:1.12532"
         x="404.69937"
         y="1747.1217">把能力传送给</tspan><tspan
         id="tspan175"
         sodipodi:role="line"
         style="font-style:normal;font-variant:normal;font-weight:normal;font-stretch:normal;font-size:58.5163px;line-height:1.25;font-family:'Xiaolai SC';-inkscape-font-specification:'Xiaolai SC';fill:#ffffff;stroke-width:1.12532"
         x="404.69937"
         y="1820.2671">一个女巫？</tspan></text>
    <text
       xml:space="preserve"
       style="font-style:normal;font-variant:normal;font-weight:normal;font-stretch:normal;font-size:64.1327px;line-height:0%;font-family:'Xiaolai SC';-inkscape-font-specification:'Xiaolai SC';text-align:center;letter-spacing:0px;word-spacing:0px;text-anchor:middle;fill:#000000;fill-opacity:1;stroke:none;stroke-width:1.23332"
       x="412.52005"
       y="1914.4156"
       id="text4246-4-2-7-3-5-6-2-0-7"><tspan
         id="tspan27381-2"
         sodipodi:role="line"
         style="font-style:normal;font-variant:normal;font-weight:normal;font-stretch:normal;font-size:64.1327px;line-height:1.25;font-family:'Xiaolai SC';-inkscape-font-specification:'Xiaolai SC';fill:#ffffff;stroke-width:1.23332"
         x="412.52005"
         y="1914.4156">这是禁忌！</tspan></text>
    <text
       xml:space="preserve"
       style="font-style:normal;font-variant:normal;font-weight:normal;font-stretch:normal;font-size:60px;line-height:0%;font-family:'Xiaolai SC';-inkscape-font-specification:'Xiaolai SC';text-align:center;letter-spacing:0px;word-spacing:0px;text-anchor:middle;fill:#000000;fill-opacity:1;stroke:none;stroke-width:2.1;stroke-miterlimit:4;stroke-dasharray:none"
       x="474.00137"
       y="2014.9299"
       id="text4246-4-2-7-3-5-6-2-0-7-0"><tspan
         id="tspan27381-2-2"
         sodipodi:role="line"
         style="font-style:normal;font-variant:normal;font-weight:normal;font-stretch:normal;font-size:60px;line-height:1.25;font-family:'Xiaolai SC';-inkscape-font-specification:'Xiaolai SC';fill:#ffffff;fill-opacity:1;stroke:#ffffff;stroke-width:2.1;stroke-miterlimit:4;stroke-dasharray:none;stroke-opacity:1"
         x="474.00137"
         y="2014.9299">想都别想！绝不可能！</tspan></text>
    <text
       xml:space="preserve"
       style="font-style:normal;font-variant:normal;font-weight:normal;font-stretch:normal;line-height:0%;font-family:'Xiaolai SC';-inkscape-font-specification:'Xiaolai SC';text-align:center;letter-spacing:0px;word-spacing:0px;text-anchor:middle;fill:#000000;fill-opacity:1;stroke:none"
       x="1217.2202"
       y="1916.907"
       id="text4246-4-2-7-3-5-6-2-3"><tspan
         id="tspan183"
         sodipodi:role="line"
         style="font-style:normal;font-variant:normal;font-weight:normal;font-stretch:normal;font-size:45px;line-height:1.25;font-family:'Xiaolai SC';-inkscape-font-specification:'Xiaolai SC'"
         x="1217.2202"
         y="1916.907">难道你更乐意</tspan><tspan
         id="tspan219"
         sodipodi:role="line"
         style="font-style:normal;font-variant:normal;font-weight:normal;font-stretch:normal;font-size:45px;line-height:1.25;font-family:'Xiaolai SC';-inkscape-font-specification:'Xiaolai SC'"
         x="1217.2202"
         y="1973.157">放任这场屠杀？</tspan></text>
    <text
       xml:space="preserve"
       style="font-style:normal;font-variant:normal;font-weight:normal;font-stretch:normal;line-height:0%;font-family:'Xiaolai SC';-inkscape-font-specification:'Xiaolai SC';text-align:center;letter-spacing:0px;word-spacing:0px;text-anchor:middle;fill:#000000;fill-opacity:1;stroke:none"
       x="448.02759"
       y="2253.4907"
       id="text4246-4-2-7-3-5-6-2-3-8"><tspan
         id="tspan90999"
         sodipodi:role="line"
         style="font-style:normal;font-variant:normal;font-weight:normal;font-stretch:normal;font-size:45px;line-height:1.25;font-family:'Xiaolai SC';-inkscape-font-specification:'Xiaolai SC'"
         x="448.02759"
         y="2253.4907">求你了，阿婼。就破例一回吧。</tspan><tspan
         id="tspan193"
         sodipodi:role="line"
         style="font-style:normal;font-variant:normal;font-weight:normal;font-stretch:normal;font-size:45px;line-height:1.25;font-family:'Xiaolai SC';-inkscape-font-specification:'Xiaolai SC'"
         x="448.02759"
         y="2309.7407">这些战场上的女孩子和龙</tspan><tspan
         id="tspan195"
         sodipodi:role="line"
         style="font-style:normal;font-variant:normal;font-weight:normal;font-stretch:normal;font-size:45px;line-height:1.25;font-family:'Xiaolai SC';-inkscape-font-specification:'Xiaolai SC'"
         x="448.02759"
         y="2365.9907">都是咱们的校友，</tspan><tspan
         id="tspan197"
         sodipodi:role="line"
         style="font-style:normal;font-variant:normal;font-weight:normal;font-stretch:normal;font-size:45px;line-height:1.25;font-family:'Xiaolai SC';-inkscape-font-specification:'Xiaolai SC'"
         x="448.02759"
         y="2422.2407">就像咱们的家人一样啊。</tspan></text>
    <text
       xml:space="preserve"
       style="font-style:normal;font-variant:normal;font-weight:normal;font-stretch:normal;line-height:0%;font-family:'Xiaolai SC';-inkscape-font-specification:'Xiaolai SC';text-align:center;letter-spacing:0px;word-spacing:0px;text-anchor:middle;fill:#000000;fill-opacity:1;stroke:none"
       x="467.07864"
       y="2527.0308"
       id="text4246-4-2-7-3-5-6-2-3-8-6"><tspan
         id="tspan90999-1"
         sodipodi:role="line"
         style="font-style:normal;font-variant:normal;font-weight:normal;font-stretch:normal;font-size:45px;line-height:1.25;font-family:'Xiaolai SC';-inkscape-font-specification:'Xiaolai SC'"
         x="467.07864"
         y="2527.0308">你不这么认为么？</tspan></text>
    <text
       xml:space="preserve"
       style="font-style:normal;font-variant:normal;font-weight:normal;font-stretch:normal;font-size:10.9177px;line-height:0%;font-family:'Xiaolai SC';-inkscape-font-specification:'Xiaolai SC';text-align:center;letter-spacing:0px;word-spacing:0px;text-anchor:middle;fill:#000000;fill-opacity:1;stroke:none;stroke-width:0.909808"
       x="701.19684"
       y="3119.8652"
       id="text4246-4-2-7-3-5-6-2-3-8-6-9"><tspan
         id="tspan103793"
         sodipodi:role="line"
         style="font-style:normal;font-variant:normal;font-weight:normal;font-stretch:normal;font-size:40.9413px;line-height:1.25;font-family:'Xiaolai SC';-inkscape-font-specification:'Xiaolai SC';stroke-width:0.909808"
         x="701.19684"
         y="3119.8652">是啊，求你了，</tspan><tspan
         id="tspan201"
         sodipodi:role="line"
         style="font-style:normal;font-variant:normal;font-weight:normal;font-stretch:normal;font-size:40.9413px;line-height:1.25;font-family:'Xiaolai SC';-inkscape-font-specification:'Xiaolai SC';stroke-width:0.909808"
         x="701.19684"
         y="3171.0417">阿婼。</tspan></text>
    <text
       xml:space="preserve"
       style="font-style:normal;font-variant:normal;font-weight:normal;font-stretch:normal;font-size:58.3096px;line-height:0%;font-family:'Xiaolai SC';-inkscape-font-specification:'Xiaolai SC';text-align:center;letter-spacing:0px;word-spacing:0px;text-anchor:middle;fill:#ffffff;fill-opacity:1;stroke:none;stroke-width:1.12134"
       x="1475.6832"
       y="2249.8684"
       id="text4246-4-2-7-3-7"><tspan
         id="tspan10289-4"
         sodipodi:role="line"
         style="font-style:normal;font-variant:normal;font-weight:normal;font-stretch:normal;font-size:58.3096px;line-height:1.25;font-family:'Xiaolai SC';-inkscape-font-specification:'Xiaolai SC';fill:#ffffff;stroke-width:1.12134"
         x="1475.6832"
         y="2249.8684">哎…好吧！</tspan></text>
    <text
       xml:space="preserve"
       style="font-style:normal;font-variant:normal;font-weight:normal;font-stretch:normal;font-size:58.3096px;line-height:0%;font-family:'Xiaolai SC';-inkscape-font-specification:'Xiaolai SC';text-align:center;letter-spacing:0px;word-spacing:0px;text-anchor:middle;fill:#ffffff;fill-opacity:1;stroke:none;stroke-width:1.12134"
       x="1506.9569"
       y="2343.3735"
       id="text4246-4-2-7-3-7-5"><tspan
         id="tspan110466"
         sodipodi:role="line"
         style="font-style:normal;font-variant:normal;font-weight:normal;font-stretch:normal;font-size:58.3096px;line-height:1.25;font-family:'Xiaolai SC';-inkscape-font-specification:'Xiaolai SC';fill:#ffffff;stroke-width:1.12134"
         x="1506.9569"
         y="2343.3735">但是一切责任</tspan><tspan
         id="tspan205"
         sodipodi:role="line"
         style="font-style:normal;font-variant:normal;font-weight:normal;font-stretch:normal;font-size:58.3096px;line-height:1.25;font-family:'Xiaolai SC';-inkscape-font-specification:'Xiaolai SC';fill:#ffffff;stroke-width:1.12134"
         x="1506.9569"
         y="2416.2605">全由她承担！</tspan></text>
  </g>
</svg>
