<?xml version="1.0" encoding="UTF-8" standalone="no"?>
<svg
   xmlns:dc="http://purl.org/dc/elements/1.1/"
   xmlns:cc="http://creativecommons.org/ns#"
   xmlns:rdf="http://www.w3.org/1999/02/22-rdf-syntax-ns#"
   xmlns:svg="http://www.w3.org/2000/svg"
   xmlns="http://www.w3.org/2000/svg"
   xmlns:xlink="http://www.w3.org/1999/xlink"
   xmlns:sodipodi="http://sodipodi.sourceforge.net/DTD/sodipodi-0.dtd"
   xmlns:inkscape="http://www.inkscape.org/namespaces/inkscape"
   id="svg2"
   version="1.1"
   inkscape:version="0.92.5 (2060ec1f9f, 2020-04-08)"
   width="2481"
   height="3503"
   sodipodi:docname="E34P04.svg">
  <metadata
     id="metadata8">
    <rdf:RDF>
      <cc:Work
         rdf:about="">
        <dc:format>image/svg+xml</dc:format>
        <dc:type
           rdf:resource="http://purl.org/dc/dcmitype/StillImage" />
        <dc:title />
      </cc:Work>
    </rdf:RDF>
  </metadata>
  <defs
     id="defs6">
    <filter
       style="color-interpolation-filters:sRGB"
       id="filter4375-4-1-1-1-9-5-8-8-5-5-3-8"
       inkscape:label="soundFX1">
      <feFlood
         id="feFlood4377-7-9-0-8-1-7-3-1-2-7-6-7"
         flood-opacity="1"
         flood-color="rgb(255,255,255)"
         result="flood" />
      <feComposite
         id="feComposite4379-3-8-8-2-77-4-1-0-6-4-7-9"
         in2="SourceGraphic"
         in="flood"
         operator="in"
         result="composite1"
         baseFrequency="0.053999999999999999 0.053999999999999999" />
      <feMorphology
         id="feMorphology4393-1-0-49-8-9-3-0-1-9-9-5-2"
         operator="dilate"
         radius="2.9756367599225957"
         result="result3" />
      <feComposite
         id="feComposite4385-9-5-7-0-8-8-7-5-4-9-3-0"
         in2="result3"
         in="SourceGraphic"
         operator="over"
         result="fbSourceGraphic" />
      <feColorMatrix
         result="fbSourceGraphicAlpha"
         in="fbSourceGraphic"
         values="0 0 0 -1 0 0 0 0 -1 0 0 0 0 -1 0 0 0 0 1 0"
         id="feColorMatrix4544-9-4-4-5-2" />
      <feTurbulence
         id="feTurbulence4546-3-6-5-6-3"
         type="fractalNoise"
         numOctaves="5"
         seed="174"
         baseFrequency="0.053999999999999999 0.054054054054054057"
         result="turbulence" />
      <feDisplacementMap
         id="feDisplacementMap4548-8-0-9-2-7"
         in2="turbulence"
         in="fbSourceGraphic"
         scale="6.6"
         yChannelSelector="G"
         xChannelSelector="R"
         result="fbSourceGraphic" />
      <feColorMatrix
         result="fbSourceGraphicAlpha"
         in="fbSourceGraphic"
         values="0 0 0 -1 0 0 0 0 -1 0 0 0 0 -1 0 0 0 0 1 0"
         id="feColorMatrix4670-7-7-3-9-5" />
      <feFlood
         id="feFlood4672-4-4-5-1-9"
         flood-opacity="1"
         flood-color="rgb(255,255,255)"
         result="flood"
         in="fbSourceGraphic" />
      <feComposite
         id="feComposite4674-8-3-7-2-22"
         in2="fbSourceGraphic"
         in="flood"
         operator="in"
         result="composite1" />
      <feGaussianBlur
         id="feGaussianBlur4676-3-7-08-7-8"
         in="composite1"
         stdDeviation="0"
         result="blur" />
      <feOffset
         id="feOffset4678-6-9-1-0-9"
         dx="-6.3258232761971414"
         dy="6"
         result="offset" />
      <feComposite
         id="feComposite4680-4-0-9-9-7"
         in2="offset"
         in="fbSourceGraphic"
         operator="over"
         result="composite2" />
    </filter>
  </defs>
  <sodipodi:namedview
     pagecolor="#ffffff"
     bordercolor="#666666"
     borderopacity="1"
     objecttolerance="10"
     gridtolerance="10"
     guidetolerance="10"
     inkscape:pageopacity="0"
     inkscape:pageshadow="2"
     inkscape:window-width="1920"
     inkscape:window-height="1023"
     id="namedview4"
     showgrid="false"
     inkscape:zoom="0.52900002"
     inkscape:cx="876.53258"
     inkscape:cy="1321.3421"
     inkscape:window-x="0"
     inkscape:window-y="0"
     inkscape:window-maximized="1"
     inkscape:current-layer="layer3"
     inkscape:document-rotation="0"
     borderlayer="true"
     inkscape:snap-global="false" />
  <g
     inkscape:groupmode="layer"
     id="layer2"
     inkscape:label="artwork"
     sodipodi:insensitive="true">
    <image
       sodipodi:absref="/home/peppercarrot/webcomics/"
       xlink:href="../gfx_Pepper-and-Carrot_by-David-Revoy_E34P04.png"
       width="2481"
       height="3503"
       id="image10"
       x="0"
       y="0" />
  </g>
  <g
     inkscape:groupmode="layer"
     id="layer3"
     inkscape:label="speechbubbles"
     style="display:inline">
    <path
       style="color:#000000;display:inline;overflow:visible;visibility:visible;fill:#ffffff;fill-opacity:1;fill-rule:nonzero;stroke:none;stroke-width:0.865993px;marker:none;enable-background:accumulate"
       d="m 942.60024,140.18951 c -31.91919,0.211 -64.48071,4.95609 -93.3829,19.12925 -21.5604,10.86216 -37.65135,31.38351 -44.08438,54.55007 -6.35327,20.15773 -6.97011,42.87106 1.87995,62.39202 9.00782,18.72527 27.00418,31.94083 46.55449,38.04613 40.78419,14.89576 84.4479,20.28572 127.68419,20.64969 34.39011,-0.54015 69.30881,-9.23071 98.03251,-28.62612 14.0693,-9.8231 25.0342,-24.39462 29.279,-41.1365 7.5949,-26.96895 1.7202,-57.18896 -14.7554,-79.74789 -10.7189,-14.33495 -26.2154,-24.94169 -43.4158,-29.86718 -18.618,-6.06677 -38.0268,-9.15884 -57.32486,-12.16095 -16.72361,-2.21837 -33.59579,-3.32292 -50.4668,-3.22852 z"
       id="path4040-4-5-3-5"
       inkscape:connector-curvature="0"
       sodipodi:nodetypes="zssssz" />
    <path
       style="color:#000000;display:inline;overflow:visible;visibility:visible;fill:#ffffff;fill-opacity:1;fill-rule:nonzero;stroke:none;stroke-width:1.30807626px;marker:none;enable-background:accumulate"
       d="m 974.81802,266.35215 c -42.97775,1.77923 -85.33013,11.52641 -127.00776,23.04758 -23.89962,7.77245 -46.01088,22.5884 -63.39617,42.83984 -20.23689,22.44239 -45.82423,51.52359 -49.68643,83.78908 -4.45458,36.46286 -1.73193,75.67671 22.13153,101.01789 20.01379,21.63746 65.06185,33.13497 92.35214,35.24138 52.39973,5.97778 104.99641,10.07692 157.67057,10.63595 31.3971,0.34785 62.8329,-0.12579 94.1592,-2.66689 28.7459,-3.54857 57.3934,-11.81891 82.9601,-27.49338 21.3769,-15.07921 34.2006,-43.51892 34.1951,-71.92717 0.6228,-32.63912 -6.8723,-65.60053 -22.3529,-93.18485 -12.7589,-22.84688 -28.2733,-44.3753 -48.3237,-59.35494 -16.5224,-12.50023 -35.8581,-18.86047 -54.948,-24.13612 -20.3871,-5.30118 -40.8365,-10.46674 -61.5929,-13.53531 -18.6062,-2.86692 -37.37986,-4.43135 -56.16078,-4.27306 z"
       id="path4040-4-5-3"
       inkscape:connector-curvature="0"
       sodipodi:nodetypes="csssszccccccccc" />
    <path
       style="color:#000000;display:inline;overflow:visible;visibility:visible;fill:#ffffff;fill-opacity:1;fill-rule:nonzero;stroke:none;stroke-width:1px;marker:none;enable-background:accumulate"
       d="m 907.21667,619.60054 c 72.99905,-2.53565 65.7638,-63.19299 71.48587,-78.47444 l 37.78086,7.15422 c 0,0 -26.16471,95.6219 -109.26673,71.32022 z"
       id="path3072-5-5"
       inkscape:connector-curvature="0"
       sodipodi:nodetypes="cccc" />
    <path
       style="display:inline;fill:#ffffff;fill-rule:evenodd;stroke:none;stroke-width:1.408px;stroke-linecap:butt;stroke-linejoin:miter;stroke-opacity:1"
       d="m 1729.4941,1533.8343 c -263.4619,-188.6648 -719.6026,-198.4778 -988.12534,-169.638 l -8.73311,23.8296 c 289.95695,-44.5653 772.14605,6.8513 996.85845,145.8084 z"
       id="path1094"
       inkscape:connector-curvature="0"
       sodipodi:nodetypes="cccc" />
    <path
       style="color:#000000;display:inline;overflow:visible;visibility:visible;fill:#ffffff;fill-opacity:1;fill-rule:nonzero;stroke:none;stroke-width:1.57702088px;marker:none;enable-background:accumulate"
       d="m 1205.5884,1266.2922 c -50.5555,-0.3816 -101.7211,4.8195 -148.3605,19.5414 -29.6152,9.4193 -56.7836,24.2038 -75.17299,44.267 -21.8969,23.7097 -27.92221,55.9651 -13.33194,83.282 14.25088,26.6766 42.10103,48.5348 74.90693,62.7833 27.2761,11.6378 58.4619,16.5657 89.253,18.4648 40.3644,2.7635 80.9475,1.9619 121.1655,-0.7835 21.1648,-1.4485 42.3068,-3.1683 63.3117,-5.5244 32.4836,-4.2604 64.2928,-13.9643 88.7967,-30.7674 22.7893,-15.2433 41.3462,-34.8558 49.1287,-57.3833 6.5715,-20.4847 -0.5586,-43.2945 -18.6842,-59.6216 -27.8957,-27.9173 -67.3933,-48.9585 -111.0358,-60.1932 -38.571,-10.0817 -79.4973,-13.7815 -119.9771,-14.0651 z"
       id="path3365-3"
       inkscape:connector-curvature="0"
       sodipodi:nodetypes="cssccc" />
    <path
       style="fill:#ffffff;fill-rule:evenodd;stroke:none;stroke-width:1.00745869px;stroke-linecap:butt;stroke-linejoin:miter;stroke-opacity:1"
       d="m 505.16385,1252.2611 c -44.23735,0.5456 -88.53816,-0.1601 -132.70338,2.7025 -24.53356,2.4118 -49.27352,4.8643 -72.98781,11.5536 -24.40722,8.6021 -47.91952,20.948 -65.75241,39.132 -14.20099,15.1892 -24.2599,34.3341 -26.1167,54.6549 -0.74862,14.7253 5.01973,28.9118 12.23632,41.7104 10.87079,19.6083 27.17534,36.9615 48.03891,47.4662 17.94927,9.187 38.21572,13.1771 58.21235,16.1652 23.09905,3.2633 46.45498,4.4286 69.75993,5.5332 69.17059,2.56 138.41276,-1.41 207.24564,-7.7318 27.28524,-2.8808 54.72601,-6.3476 80.93794,-14.328 19.64622,-6.7217 38.02491,-18.2987 49.6428,-34.9327 9.46423,-13.9196 14.69213,-29.8869 19.43555,-45.666 2.48489,-12.0947 -1.59208,-24.3239 -6.77779,-35.293 -6.72656,-14.34 -15.77086,-27.7756 -27.01307,-39.3517 -7.82975,-7.6718 -17.61384,-13.3637 -28.04866,-17.3342 -15.84265,-6.4671 -32.44323,-11.1003 -49.07607,-15.3709 -25.62756,-6.1388 -52.1162,-8.8993 -78.54426,-8.6266 -19.49409,-0.3475 -38.99273,-0.282 -58.48929,-0.2831 z"
       id="path1079"
       inkscape:connector-curvature="0" />
    <path
       id="path5050-5"
       style="color:#000000;display:inline;overflow:visible;visibility:visible;fill:#ffffff;fill-opacity:1;fill-rule:nonzero;stroke:none;stroke-width:1.10541999px;marker:none;enable-background:accumulate"
       d="m 1055.3066,2333.9473 c -6.7695,3.1849 -13.5391,6.3698 -20.3086,9.5547 -5.4515,8.7234 -8.4665,18.631 -12.08,28.1855 0.2877,8.9888 4.778,17.1081 7.4112,25.5492 4.8043,13.3509 10.142,27.6669 6.8338,42.0256 -3.4158,16.5674 -11.898,31.5008 -16.4345,47.7397 -0.956,12.8214 5.6959,25.4955 16.2957,32.604 7.6345,5.5383 17.8577,10.6572 22.2668,17.4448 4.4091,6.7876 3.9198,12.9565 3.0275,20.0069 -0.8923,7.0504 -6.8233,13.4216 -10.106,20.1773 -2.5543,5.2297 -6.5724,10.2065 -4.8898,16.3644 0.5485,8.6419 3.5528,16.9498 8.2569,24.18 1.9155,5.167 7.5375,11.5732 1.5157,15.9953 -3.2977,3.3341 -6.6403,6.6236 -10.0035,9.8933 6.6199,-4.2691 13.2848,-8.7213 18.4668,-14.7364 2.2175,-7.1316 -0.2102,-14.5787 -3.3587,-21.0008 -3.3881,-9.4513 -0.8017,-19.8562 4.2602,-28.1901 5.6073,-9.9289 13.8919,-19.3951 13.8982,-31.4245 0.5595,-12.2965 -5.2038,-24.6049 -15.0512,-32.0084 -6.3523,-5.6552 -13.9693,-10.3956 -18.4457,-17.7889 -5.2096,-11.3685 -1.3783,-24.1347 3.0069,-35.0894 5.3982,-14.2627 13.5704,-28.4586 12.1858,-44.2358 -1.3898,-17.7099 -13.4465,-33.5966 -10.8255,-51.7808 1.5634,-10.2967 5.5548,-20.0386 7.2382,-30.3113 -0.044,-1.6098 -1.4268,-3.3809 -3.1602,-3.1543 z"
       sodipodi:nodetypes="ccccccczzcccccccccccccccc"
       inkscape:connector-curvature="0" />
    <path
       id="path1086-2"
       style="display:inline;fill:#ffffff;fill-rule:evenodd;stroke:none;stroke-width:1.94407451px;stroke-linecap:butt;stroke-linejoin:miter;stroke-opacity:1"
       d="m 968.8578,2352.7922 c -23.06651,2.5258 -45.07824,13.7581 -68.52969,12.4222 -16.9264,-0.056 -34.89883,-3.9759 -50.74401,5.0939 -12.32298,7.0294 -25.2824,15.5441 -32.32768,29.8329 -7.73253,17.7031 -10.37529,40.3629 -0.80004,57.8807 12.97635,23.9331 36.72735,39.6717 61.12033,39.5662 20.70484,0.1489 41.4275,2.5592 61.50298,8.6369 16.01357,4.3766 32.88335,6.5834 48.97828,1.3751 15.60423,-4.3446 31.68433,-9.4971 47.81693,-6.0137 20.3287,3.4996 40.6333,10.7175 61.3795,7.2355 25.561,-3.491 50.5099,-14.9445 76.5808,-11.5758 15.384,1.3853 32.3136,2.7261 45.5664,-8.3501 21.6991,-16.6467 30.0988,-53.3713 18.2355,-80.2949 -9.1057,-16.359 -25.6039,-24.1678 -40.8887,-30.0011 -23.1424,-8.3767 -48.1332,-2.3522 -71.1789,-11.4154 -14.3296,-5.1941 -29.1224,-9.9388 -44.2885,-8.4426 -27.0652,1.3931 -54.5912,7.592 -81.33955,-0.4018 -10.24534,-2.5608 -20.54292,-5.4999 -31.08367,-5.548 z"
       inkscape:connector-curvature="0" />
    <path
       id="path1086"
       style="display:inline;fill:#ffffff;fill-rule:evenodd;stroke:none;stroke-width:1.00718999px;stroke-linecap:butt;stroke-linejoin:miter;stroke-opacity:1"
       d="m 947.43359,2271.7817 c 8.82004,-13.0131 23.57274,-20.4085 38.14551,-25.1206 15.0538,-4.8304 30.8852,-6.7484 46.6522,-6.9132 14.578,-0.3452 29.6546,-1.505 43.7023,3.2629 6.7924,2.5751 13.0533,6.3476 19.4048,9.8373 8.4831,5.0191 17.3386,11.2049 20.7323,20.9226 2.2132,6.2472 0.5455,12.8861 0.5676,19.3176 -0.4021,9.8612 -0.9237,20.7155 -7.6676,28.5913 -6.5316,8.1476 -16.9354,11.2975 -26.5148,14.2544 -15.8254,4.4306 -32.0655,7.4298 -48.4168,9.0531 -10.5283,1.0974 -21.2935,2.1776 -31.7308,-0.2271 -12.51679,-2.6873 -23.76377,-9.3127 -34.18732,-16.513 -8.39648,-6.1764 -16.72503,-13.394 -20.85941,-23.2141 -2.47795,-7.1043 -1.99245,-14.833 -1.463,-22.2214 0.3553,-3.7008 0.87341,-7.3899 1.63502,-11.0298 z"
       inkscape:connector-curvature="0" />
    <path
       style="color:#000000;display:inline;overflow:visible;visibility:visible;fill:#ffffff;fill-opacity:1;fill-rule:nonzero;stroke:none;stroke-width:1.00142px;marker:none;enable-background:accumulate"
       d="m 1551.4802,2844.6354 c -29.2718,23.6335 -49.9774,61.4772 -38.0228,102.9845 11.9549,41.5072 -6.8025,41.4052 -6.8025,41.4052 l -37.425,-15.5296 c 0,0 -6.4717,-90.5725 82.2503,-128.8601 z"
       id="path3072-6"
       inkscape:connector-curvature="0"
       sodipodi:nodetypes="csccc" />
    <path
       style="display:inline;fill:#ffffff;stroke:none;stroke-width:0.76161802"
       d="m 1484.1015,3073.9932 c -42.8544,0.8465 -86.0116,10.7042 -122.3704,31.2547 -28.5388,16.7488 -50.306,43.2844 -56.9892,73.3156 -3.9631,19.6687 0.1787,39.6523 4.6976,58.9434 5.8664,24.5628 21.2003,47.3104 43.1979,63.1191 15.0654,10.8716 32.743,18.6069 51.0454,24.143 23.0562,6.8736 47.4219,9.5931 71.6602,10.0138 40.0231,1.4504 80.0955,0.6618 120.1182,-0.3562 34.094,-1.4397 68.6545,-5.3895 100.3447,-17.2386 32.8096,-12.4491 61.2873,-35.0047 76.5369,-63.9052 13.9878,-26.6043 16.1582,-58.417 3.734,-85.8203 -10.9189,-22.9661 -31.7174,-41.1685 -55.0719,-54.4182 -22.7143,-12.8756 -48.6761,-20.5678 -75.0428,-24.9178 -29.0934,-5.1345 -58.593,-8.1093 -88.025,-11.2172 -24.5267,-2.178 -49.1885,-3.1422 -73.8356,-2.9161 z"
       id="path3280-5"
       inkscape:connector-curvature="0"
       sodipodi:nodetypes="csssc" />
    <path
       style="fill:#ffffff;stroke:none;stroke-width:0.474903"
       d="m 1461.4846,2953.7552 c -25.9687,0.633 -52.3735,3.7032 -76.7027,13.9642 -13.6803,5.798 -27.1481,13.0877 -37.815,23.9528 -6.6476,6.773 -11.6982,15.2426 -14.2784,24.549 -3.6597,12.6449 -3.8962,26.2476 -1.277,39.0708 2.1286,9.4931 7.3905,18.4033 15.3984,23.6259 10.7389,7.6321 23.364,11.6508 35.8122,15.1757 25.1016,6.2355 51.1315,5.9742 76.8211,6.4885 29.4733,0.4309 59.0293,0.7796 88.4281,-2.3138 17.0422,-1.8784 34.4614,-3.6385 50.4618,-10.6108 10.0949,-4.4913 19.1189,-12.0982 24.4397,-22.2255 10.1028,-18.5058 9.09,-43.3427 -3.7441,-59.9401 -10.4112,-13.69 -25.4102,-22.4891 -40.6278,-29.2278 -27.1512,-12.2593 -56.3454,-19.5362 -85.9231,-21.7936 -10.3051,-0.8261 -20.6537,-0.9812 -30.9932,-0.7153 z"
       id="path3280-8-0"
       inkscape:connector-curvature="0"
       sodipodi:nodetypes="csssc" />
  </g>
  <g
     inkscape:groupmode="layer"
     id="layer1"
     inkscape:label="txt">
    <text
       xml:space="preserve"
       style="font-style:normal;font-variant:normal;font-weight:normal;font-stretch:normal;font-size:45px;line-height:1.25;font-family:Lavi;-inkscape-font-specification:Lavi;text-align:center;letter-spacing:0px;word-spacing:0px;text-anchor:middle;fill:#000000;fill-opacity:1;stroke:none"
       x="961.93353"
       y="204.39328"
       id="text4246-3-2-2-6-3-7-9-3"><tspan
         style="font-size:45px"
         sodipodi:role="line"
         x="968.96478"
         y="204.39328"
         id="tspan850">’S e, </tspan><tspan
         style="font-size:45px"
         sodipodi:role="line"
         x="961.93353"
         y="260.64328"
         id="tspan876">a Mhòrachd.</tspan></text>
    <text
       xml:space="preserve"
       style="font-style:normal;font-variant:normal;font-weight:normal;font-stretch:normal;font-size:45px;line-height:1.25;font-family:Lavi;-inkscape-font-specification:Lavi;text-align:center;letter-spacing:0px;word-spacing:0px;text-anchor:middle;fill:#000000;fill-opacity:1;stroke:none"
       x="979.35199"
       y="344.5528"
       id="text4246-3-2-2-6-3-7-9-3-3"><tspan
         style="font-size:45px"
         sodipodi:role="line"
         x="986.38324"
         y="344.5528"
         id="tspan896">’S e Peabar an </tspan><tspan
         style="font-size:45px"
         sodipodi:role="line"
         x="986.38324"
         y="400.8028"
         id="tspan883">t-ainm a th’ oirre is </tspan><tspan
         style="font-size:45px"
         sodipodi:role="line"
         x="986.38324"
         y="457.0528"
         id="tspan887">buinidh i do Sgoil na </tspan><tspan
         style="font-size:45px"
         sodipodi:role="line"
         x="979.35199"
         y="513.3028"
         id="tspan885">Dubh-choimeasgachd.</tspan></text>
    <text
       xml:space="preserve"
       style="font-style:normal;font-variant:normal;font-weight:normal;font-stretch:normal;font-size:45px;line-height:1.25;font-family:Lavi;-inkscape-font-specification:Lavi;text-align:center;letter-spacing:0px;word-spacing:0px;text-anchor:middle;fill:#000000;fill-opacity:1;stroke:none"
       x="481.4118"
       y="1326.5137"
       id="text4246-3-2-2-6-3-7-9-3-3-3"><tspan
         style="font-size:45px"
         sodipodi:role="line"
         x="488.44305"
         y="1326.5137"
         id="tspan909">Tha a làthaireachd </tspan><tspan
         style="font-size:45px"
         sodipodi:role="line"
         x="488.44305"
         y="1382.7637"
         id="tspan877">a’ truailleadh naomhachd </tspan><tspan
         style="font-size:45px"
         sodipodi:role="line"
         x="481.4118"
         y="1439.0137"
         id="tspan884">ar sgoile.</tspan></text>
    <text
       xml:space="preserve"
       style="font-style:normal;font-variant:normal;font-weight:normal;font-stretch:normal;font-size:45px;line-height:1.25;font-family:Lavi;-inkscape-font-specification:Lavi;text-align:center;letter-spacing:0px;word-spacing:0px;text-anchor:middle;fill:#000000;fill-opacity:1;stroke:none"
       x="1207.9652"
       y="1348.095"
       id="text4246-3-2-2-6-3-7-9-3-3-3-9"><tspan
         style="font-size:45px"
         sodipodi:role="line"
         x="1214.9965"
         y="1348.095"
         id="tspan905">Gun cuireadh tu </tspan><tspan
         style="font-size:45px"
         sodipodi:role="line"
         x="1214.9965"
         y="1404.345"
         id="tspan893">a-mach à mo shealladh </tspan><tspan
         style="font-size:45px"
         sodipodi:role="line"
         x="1207.9652"
         y="1460.595"
         id="tspan914">i gun dàil.</tspan></text>
    <text
       xml:space="preserve"
       style="font-style:normal;font-variant:normal;font-weight:normal;font-stretch:normal;font-size:45px;line-height:1.25;font-family:Lavi;-inkscape-font-specification:Lavi;text-align:center;letter-spacing:0px;word-spacing:0px;text-anchor:middle;fill:#000000;fill-opacity:1;stroke:none"
       x="1035.905"
       y="2320.762"
       id="text4246-3-2-2-6-3-7-9-3-3-3-9-0-0"><tspan
         style="font-size:45px;text-align:center;text-anchor:middle"
         sodipodi:role="line"
         x="1035.905"
         y="2320.762"
         id="tspan1031-6-6">Ach…</tspan></text>
    <text
       xml:space="preserve"
       style="font-style:normal;font-variant:normal;font-weight:normal;font-stretch:normal;font-size:45px;line-height:1.25;font-family:Lavi;-inkscape-font-specification:Lavi;text-align:center;letter-spacing:0px;word-spacing:0px;text-anchor:middle;fill:#000000;fill-opacity:1;stroke:none"
       x="1028.5508"
       y="2430.2068"
       id="text4246-3-2-2-6-3-7-9-3-3-3-9-0"><tspan
         style="font-size:45px"
         sodipodi:role="line"
         x="1035.582"
         y="2430.2068"
         id="tspan1031-6">A’ bhana-mhaighstir </tspan><tspan
         style="font-size:45px"
         sodipodi:role="line"
         x="1028.5508"
         y="2486.4568"
         id="tspan916">Raidis…</tspan></text>
    <text
       xml:space="preserve"
       style="font-style:normal;font-variant:normal;font-weight:normal;font-stretch:normal;font-size:45px;line-height:1.25;font-family:Lavi;-inkscape-font-specification:Lavi;text-align:center;letter-spacing:0px;word-spacing:0px;text-anchor:middle;fill:#000000;fill-opacity:1;stroke:none"
       x="1478.4738"
       y="3045.5544"
       id="text4246-3-2-2-6-3-7-9-3-3-3-9-0-6"><tspan
         style="font-size:45px"
         sodipodi:role="line"
         x="1478.4738"
         y="3045.5544"
         id="tspan1199">B’ àill leat?</tspan></text>
    <text
       xml:space="preserve"
       style="font-style:normal;font-variant:normal;font-weight:normal;font-stretch:normal;font-size:45px;line-height:1.25;font-family:Lavi;-inkscape-font-specification:Lavi;text-align:center;letter-spacing:0px;word-spacing:0px;text-anchor:middle;fill:#000000;fill-opacity:1;stroke:none"
       x="1539.076"
       y="3181.2551"
       id="text4246-3-2-2-6-3-7-9-3-3-3-9-0-6-8"><tspan
         style="font-size:45px"
         sodipodi:role="line"
         x="1546.1073"
         y="3181.2551"
         id="tspan923">Am b’ fheàrr leat gun </tspan><tspan
         style="font-size:45px"
         sodipodi:role="line"
         x="1546.1073"
         y="3237.5051"
         id="tspan929">rachadh d’ fhògradh </tspan><tspan
         style="font-size:45px"
         sodipodi:role="line"
         x="1539.076"
         y="3293.7551"
         id="tspan925">on sgoil againn?</tspan></text>
    <text
       xml:space="preserve"
       style="font-style:normal;font-variant:normal;font-weight:normal;font-stretch:normal;font-size:105.817px;line-height:1.25;font-family:Lavi;-inkscape-font-specification:Lavi;letter-spacing:0px;word-spacing:0px;fill:#000000;fill-opacity:1;stroke:#030303;stroke-width:0.716208;stroke-miterlimit:4;stroke-dasharray:none;stroke-opacity:1;filter:url(#filter4375-4-1-1-1-9-5-8-8-5-5-3-8)"
       x="787.65729"
       y="1584.5073"
       id="text4580-6-0-0-0-9-3-36"
       transform="matrix(0.78722097,-0.19942868,-0.30990333,0.91892591,1994.5561,1995.3356)"><tspan
         style="font-size:195.17px;fill:#000000;fill-opacity:1;stroke:#030303;stroke-width:0.716208;stroke-miterlimit:4;stroke-dasharray:none;stroke-opacity:1"
         sodipodi:role="line"
         id="tspan876-6-1"
         x="787.65729"
         y="1584.5073">!<tspan
   style="font-size:173.821px;fill:#000000;stroke:#030303;stroke-opacity:1"
   id="tspan1317">!</tspan><tspan
   id="tspan1322"
   style="font-size:152.472px;fill:#000000;stroke:#030303;stroke-opacity:1">!</tspan></tspan></text>
  </g>
</svg>
