<?xml version="1.0" encoding="UTF-8" standalone="no"?>
<!-- Created with Inkscape (http://www.inkscape.org/) -->

<svg
   xmlns:dc="http://purl.org/dc/elements/1.1/"
   xmlns:cc="http://creativecommons.org/ns#"
   xmlns:rdf="http://www.w3.org/1999/02/22-rdf-syntax-ns#"
   xmlns:svg="http://www.w3.org/2000/svg"
   xmlns="http://www.w3.org/2000/svg"
   xmlns:xlink="http://www.w3.org/1999/xlink"
   xmlns:sodipodi="http://sodipodi.sourceforge.net/DTD/sodipodi-0.dtd"
   xmlns:inkscape="http://www.inkscape.org/namespaces/inkscape"
   id="svg2"
   version="1.1"
   inkscape:version="0.92.4 5da689c313, 2019-01-14"
   width="2481"
   height="3503"
   sodipodi:docname="E28P09.svg">
  <metadata
     id="metadata8">
    <rdf:RDF>
      <cc:Work
         rdf:about="">
        <dc:format>image/svg+xml</dc:format>
        <dc:type
           rdf:resource="http://purl.org/dc/dcmitype/StillImage" />
        <dc:title></dc:title>
      </cc:Work>
    </rdf:RDF>
  </metadata>
  <defs
     id="defs6" />
  <sodipodi:namedview
     pagecolor="#ffffff"
     bordercolor="#666666"
     borderopacity="1"
     objecttolerance="10"
     gridtolerance="10"
     guidetolerance="10"
     inkscape:pageopacity="0"
     inkscape:pageshadow="2"
     inkscape:window-width="1920"
     inkscape:window-height="1080"
     id="namedview4"
     showgrid="false"
     inkscape:zoom="0.51498715"
     inkscape:cx="956.02693"
     inkscape:cy="2916.5777"
     inkscape:window-x="0"
     inkscape:window-y="0"
     inkscape:window-maximized="1"
     inkscape:current-layer="layer1" />
  <g
     inkscape:groupmode="layer"
     id="layer2"
     inkscape:label="artwork"
     sodipodi:insensitive="true">
    <image
       sodipodi:absref="/home/midgard/git/peppercarrot/comics/ep28_The-Festivities/lang/nl/../gfx_Pepper-and-Carrot_by-David-Revoy_E28P09.png"
       xlink:href="../gfx_Pepper-and-Carrot_by-David-Revoy_E28P09.png"
       width="2481"
       height="3503"
       id="image10"
       x="0"
       y="0" />
  </g>
  <g
     inkscape:groupmode="layer"
     id="layer3"
     inkscape:label="speechbubbles">
    <path
       style="fill:#ffffff;fill-rule:evenodd;stroke:none;stroke-width:1.06423235px;stroke-linecap:butt;stroke-linejoin:miter;stroke-opacity:1"
       d="m 1171.7834,233.26932 c 21.0458,-66.29984 51.8049,-90.65488 89.0398,-96.06711 37.2349,-5.41223 171.6041,-4.05918 216.9334,-2.70611 45.3293,1.35305 108.4667,14.88363 118.1801,59.53454 9.7135,44.65091 9.7135,147.48332 -16.1891,173.19142 -25.9025,25.7081 -85.802,41.9448 -145.7015,40.59174 -59.8995,-1.35306 -192.6497,12.17752 -228.2657,-33.82645 -35.6159,-46.00396 -37.2348,-106.89157 -33.997,-140.71803 z"
       id="path889"
       inkscape:connector-curvature="0" />
    <path
       style="fill:#ffffff;fill-rule:evenodd;stroke:none;stroke-width:1px;stroke-linecap:butt;stroke-linejoin:miter;stroke-opacity:1"
       d="m 1115.0193,506.87426 c 34.1115,-49.03527 51.8779,-64.6697 63.2484,-73.19757 -2.8427,27.00493 -2.8427,32.69017 4.2639,32.69017 7.1066,0 170.5574,-137.15661 170.5574,-137.15661 l -87.4106,23.45165 c 0,0 -32.6902,47.61396 -46.9033,61.11642 -14.2132,13.50246 -29.1369,24.87296 -29.1369,24.87296 0,0 6.3959,-14.92378 4.2639,-19.89837 -2.132,-4.97459 -20.609,-17.7664 -78.8828,88.12135 z"
       id="path891"
       inkscape:connector-curvature="0" />
    <path
       style="fill:#ffffff;fill-rule:evenodd;stroke:none;stroke-width:1px;stroke-linecap:butt;stroke-linejoin:miter;stroke-opacity:1"
       d="m 2062.7502,120.38398 c 9.5915,-36.33592 34.3246,-35.141934 51.487,-35.959188 17.1623,-0.817255 171.6234,-0.817255 196.141,1.634508 24.5177,2.451764 46.5835,16.34509 49.0353,36.77645 2.4517,20.43136 6.761,52.62495 -28.6039,68.64937 -37.8314,17.14205 -187.1513,16.34509 -227.1967,4.90353 -40.0455,-11.44157 -50.4542,-39.66874 -40.8627,-76.00467 z"
       id="path893"
       inkscape:connector-curvature="0"
       sodipodi:nodetypes="zsscssz" />
    <path
       style="fill:#ffffff;fill-rule:evenodd;stroke:none;stroke-width:1px;stroke-linecap:butt;stroke-linejoin:miter;stroke-opacity:1"
       d="m 2267.1497,172.17705 c -25.3365,54.38062 -31.9986,68.79 -36.9423,79.91331 -4.9437,11.12331 1.2237,26.43947 21.9453,22.50245 28.8196,-5.4756 85.7031,8.41081 27.3562,113.25288 42.6394,-101.96369 -1.8539,-98.25592 -18.5389,-93.93019 -16.6849,4.32573 -76.0093,8.65147 -60.5602,-45.11121 15.449,-53.76267 50.0549,-124.2103 50.0549,-124.2103 l 25.9544,16.68497 z"
       id="path895"
       inkscape:connector-curvature="0"
       sodipodi:nodetypes="csscccccc" />
    <path
       style="fill:#ffffff;fill-rule:evenodd;stroke:none;stroke-width:0.88002402px;stroke-linecap:butt;stroke-linejoin:miter;stroke-opacity:1"
       d="m 2002.1555,1018.3127 c 8.899,-65.50215 85.1461,-85.20122 163.217,-78.39563 78.0709,6.80558 118.3188,49.3144 119.7231,86.85223 0.3034,31.1419 -9.8373,78.9591 -90.1417,88.8286 -80.3045,9.8696 -199.9445,-2.882 -192.7984,-97.2852 z"
       id="path912"
       inkscape:connector-curvature="0"
       sodipodi:nodetypes="cscsc" />
    <path
       style="fill:#ffffff;fill-rule:evenodd;stroke:none;stroke-width:1px;stroke-linecap:butt;stroke-linejoin:miter;stroke-opacity:1"
       d="m 2172.6623,824.46041 c 28.5876,33.55943 48.4747,75.81945 -1.243,121.8083 -49.7176,45.98884 31.0736,31.07354 31.0736,31.07354 0,0 72.0906,-75.81945 -29.8306,-152.88184 z"
       id="path914"
       inkscape:connector-curvature="0" />
    <text
       xml:space="preserve"
       style="font-style:normal;font-variant:normal;font-weight:normal;font-stretch:normal;font-size:43.85733414px;line-height:0%;font-family:Lavi;-inkscape-font-specification:'Lavi, Normal';font-variant-ligatures:normal;font-variant-caps:normal;font-variant-numeric:normal;font-feature-settings:normal;text-align:center;letter-spacing:0px;word-spacing:0px;writing-mode:lr-tb;text-anchor:middle;display:inline;fill:#241c1c;fill-opacity:1;stroke:#000000;stroke-width:0.82200003;stroke-miterlimit:4;stroke-dasharray:none;stroke-opacity:1"
       x="2421.6179"
       y="3314.9802"
       id="text4213"
       transform="matrix(0.96049651,0,-0.32716292,1.0411282,0,0)"><tspan
         sodipodi:role="line"
         id="tspan3562"
         x="2421.6179"
         y="3314.9802"
         style="font-style:normal;font-variant:normal;font-weight:normal;font-stretch:normal;font-size:43.85733414px;line-height:1.25;font-family:Lavi;-inkscape-font-specification:'Lavi, Normal';font-variant-ligatures:normal;font-variant-caps:normal;font-variant-numeric:normal;font-feature-settings:normal;text-align:center;writing-mode:lr-tb;text-anchor:middle;stroke-width:0.82200003">WORDT VERVOLGD...</tspan></text>
  </g>
  <g
     inkscape:groupmode="layer"
     id="layer1"
     inkscape:label="txt">
    <text
       xml:space="preserve"
       style="font-style:normal;font-variant:normal;font-weight:normal;font-stretch:normal;line-height:0%;font-family:Lavi;-inkscape-font-specification:Lavi;text-align:center;letter-spacing:0px;word-spacing:0px;text-anchor:middle;fill:#000000;fill-opacity:1;stroke:none"
       x="1388.4817"
       y="207.29631"
       id="text4246"><tspan
         sodipodi:role="line"
         style="font-size:45px;line-height:1.20000005"
         x="1388.4817"
         y="207.29631"
         id="tspan823">O! Pepper!?</tspan><tspan
         sodipodi:role="line"
         style="font-size:45px;line-height:1.20000005"
         x="1388.4817"
         y="261.29633"
         id="tspan838">We hebben je toch</tspan><tspan
         sodipodi:role="line"
         style="font-size:45px;line-height:1.20000005"
         x="1388.4817"
         y="315.29633"
         id="tspan30">niet verdrietig</tspan><tspan
         sodipodi:role="line"
         style="font-size:45px;line-height:1.20000005"
         x="1388.4817"
         y="369.29633"
         id="tspan840">gemaakt?</tspan></text>
    <text
       xml:space="preserve"
       style="font-style:normal;font-variant:normal;font-weight:normal;font-stretch:normal;line-height:0%;font-family:Lavi;-inkscape-font-specification:Lavi;text-align:center;letter-spacing:0px;word-spacing:0px;text-anchor:middle;fill:#000000;fill-opacity:1;stroke:none"
       x="2212.4995"
       y="159.13844"
       id="text4246-3"><tspan
         sodipodi:role="line"
         style="font-size:45px;line-height:1.20000005"
         x="2212.4995"
         y="159.13844"
         id="tspan831-3">Juist niet!</tspan></text>
    <text
       xml:space="preserve"
       style="font-style:normal;font-variant:normal;font-weight:normal;font-stretch:normal;line-height:0%;font-family:Lavi;-inkscape-font-specification:Lavi;text-align:center;letter-spacing:0px;word-spacing:0px;text-anchor:middle;fill:#000000;fill-opacity:1;stroke:none"
       x="2145.7346"
       y="1019.1569"
       id="text4246-3-5"><tspan
         sodipodi:role="line"
         style="font-size:45px;line-height:1.20000005"
         x="2145.7346"
         y="1019.1569"
         id="tspan887">Bedankt,</tspan><tspan
         sodipodi:role="line"
         style="font-size:45px;line-height:1.20000005"
         x="2145.7346"
         y="1073.1569"
         id="tspan844">vrienden!</tspan></text>
  </g>
</svg>
