<?xml version="1.0" encoding="UTF-8" standalone="no"?>
<svg
   xmlns:dc="http://purl.org/dc/elements/1.1/"
   xmlns:cc="http://creativecommons.org/ns#"
   xmlns:rdf="http://www.w3.org/1999/02/22-rdf-syntax-ns#"
   xmlns:svg="http://www.w3.org/2000/svg"
   xmlns="http://www.w3.org/2000/svg"
   xmlns:xlink="http://www.w3.org/1999/xlink"
   xmlns:sodipodi="http://sodipodi.sourceforge.net/DTD/sodipodi-0.dtd"
   xmlns:inkscape="http://www.inkscape.org/namespaces/inkscape"
   id="svg2"
   version="1.1"
   inkscape:version="1.0 (4035a4fb49, 2020-05-01)"
   width="2481"
   height="3503"
   sodipodi:docname="E34P10.svg">
  <metadata
     id="metadata8">
    <rdf:RDF>
      <cc:Work
         rdf:about="">
        <dc:format>image/svg+xml</dc:format>
        <dc:type
           rdf:resource="http://purl.org/dc/dcmitype/StillImage" />
        <dc:title />
      </cc:Work>
    </rdf:RDF>
  </metadata>
  <defs
     id="defs6">
    <filter
       style="color-interpolation-filters:sRGB"
       id="filter4375-4-1-1-1-9-5-8-8-5-5-3-3-3-0"
       inkscape:label="soundFX1">
      <feFlood
         id="feFlood4377-7-9-0-8-1-7-3-1-2-7-6-6-5-96"
         flood-opacity="1"
         flood-color="rgb(52,52,52)"
         result="flood" />
      <feComposite
         id="feComposite4379-3-8-8-2-77-4-1-0-6-4-7-7-6-3"
         in2="SourceGraphic"
         in="flood"
         operator="in"
         result="composite1"
         baseFrequency="0.053999999999999999 0.053999999999999999" />
      <feMorphology
         id="feMorphology4393-1-0-49-8-9-3-0-1-9-9-5-5-2-8"
         operator="dilate"
         radius="2.5856550817276021"
         result="result3" />
      <feComposite
         id="feComposite4385-9-5-7-0-8-8-7-5-4-9-3-3-9-5"
         in2="result3"
         in="SourceGraphic"
         operator="over"
         result="fbSourceGraphic" />
      <feColorMatrix
         result="fbSourceGraphicAlpha"
         in="fbSourceGraphic"
         values="0 0 0 -1 0 0 0 0 -1 0 0 0 0 -1 0 0 0 0 1 0"
         id="feColorMatrix4544-9-4-4-5-5-1-6" />
      <feTurbulence
         id="feTurbulence4546-3-6-5-6-6-2-1"
         type="fractalNoise"
         numOctaves="4"
         seed="147"
         baseFrequency="0.046080819231719368"
         result="turbulence" />
      <feDisplacementMap
         id="feDisplacementMap4548-8-0-9-2-2-7-1"
         in2="turbulence"
         in="fbSourceGraphic"
         scale="13.20326"
         yChannelSelector="G"
         xChannelSelector="R"
         result="fbSourceGraphic" />
      <feColorMatrix
         result="fbSourceGraphicAlpha"
         in="fbSourceGraphic"
         values="0 0 0 -1 0 0 0 0 -1 0 0 0 0 -1 0 0 0 0 1 0"
         id="feColorMatrix4670-7-7-3-9-9-0-5" />
      <feFlood
         id="feFlood4672-4-4-5-1-1-9-9"
         flood-opacity="1"
         flood-color="rgb(28,28,28)"
         result="flood"
         in="fbSourceGraphic" />
      <feComposite
         id="feComposite4674-8-3-7-2-2-3-8"
         in2="fbSourceGraphic"
         in="flood"
         operator="in"
         result="composite1" />
      <feGaussianBlur
         id="feGaussianBlur4676-3-7-08-7-7-6-4"
         in="composite1"
         stdDeviation="0"
         result="blur" />
      <feOffset
         id="feOffset4678-6-9-1-0-0-0-8"
         dx="-8.3919392296330813"
         dy="1.5526614972014983"
         result="offset" />
      <feComposite
         id="feComposite4680-4-0-9-9-9-6-1"
         in2="offset"
         in="fbSourceGraphic"
         operator="over"
         result="composite2" />
    </filter>
    <filter
       style="color-interpolation-filters:sRGB"
       id="filter4375-4-1-1-1-9-5-8-8-5-5-3-8"
       inkscape:label="soundFX1">
      <feFlood
         id="feFlood4377-7-9-0-8-1-7-3-1-2-7-6-7"
         flood-opacity="1"
         flood-color="rgb(255,255,255)"
         result="flood" />
      <feComposite
         id="feComposite4379-3-8-8-2-77-4-1-0-6-4-7-9"
         in2="SourceGraphic"
         in="flood"
         operator="in"
         result="composite1"
         baseFrequency="0.053999999999999999 0.053999999999999999" />
      <feMorphology
         id="feMorphology4393-1-0-49-8-9-3-0-1-9-9-5-2"
         operator="dilate"
         radius="2.9756367599225957"
         result="result3" />
      <feComposite
         id="feComposite4385-9-5-7-0-8-8-7-5-4-9-3-0"
         in2="result3"
         in="SourceGraphic"
         operator="over"
         result="fbSourceGraphic" />
      <feColorMatrix
         result="fbSourceGraphicAlpha"
         in="fbSourceGraphic"
         values="0 0 0 -1 0 0 0 0 -1 0 0 0 0 -1 0 0 0 0 1 0"
         id="feColorMatrix4544-9-4-4-5-2" />
      <feTurbulence
         id="feTurbulence4546-3-6-5-6-3"
         type="fractalNoise"
         numOctaves="5"
         seed="174"
         baseFrequency="0.053999999999999999 0.054054054054054057"
         result="turbulence" />
      <feDisplacementMap
         id="feDisplacementMap4548-8-0-9-2-7"
         in2="turbulence"
         in="fbSourceGraphic"
         scale="6.6"
         yChannelSelector="G"
         xChannelSelector="R"
         result="fbSourceGraphic" />
      <feColorMatrix
         result="fbSourceGraphicAlpha"
         in="fbSourceGraphic"
         values="0 0 0 -1 0 0 0 0 -1 0 0 0 0 -1 0 0 0 0 1 0"
         id="feColorMatrix4670-7-7-3-9-5" />
      <feFlood
         id="feFlood4672-4-4-5-1-9"
         flood-opacity="1"
         flood-color="rgb(255,255,255)"
         result="flood"
         in="fbSourceGraphic" />
      <feComposite
         id="feComposite4674-8-3-7-2-22"
         in2="fbSourceGraphic"
         in="flood"
         operator="in"
         result="composite1" />
      <feGaussianBlur
         id="feGaussianBlur4676-3-7-08-7-8"
         in="composite1"
         stdDeviation="0"
         result="blur" />
      <feOffset
         id="feOffset4678-6-9-1-0-9"
         dx="-6.3258232761971414"
         dy="6"
         result="offset" />
      <feComposite
         id="feComposite4680-4-0-9-9-7"
         in2="offset"
         in="fbSourceGraphic"
         operator="over"
         result="composite2" />
    </filter>
    <filter
       style="color-interpolation-filters:sRGB"
       id="filter5561"
       inkscape:label="deevad outline effect">
      <feFlood
         id="feFlood5563"
         flood-opacity="1"
         flood-color="rgb(0,0,0)"
         result="flood" />
      <feComposite
         id="feComposite5565"
         in2="SourceGraphic"
         in="flood"
         operator="in"
         result="composite1" />
      <feMorphology
         id="feMorphology5567"
         operator="dilate"
         radius="1.8999999999999999 6.0999999999999996"
         result="result3" />
      <feComposite
         id="feComposite5569"
         in2="result3"
         in="SourceGraphic"
         operator="over"
         result="composite2" />
    </filter>
    <filter
       style="color-interpolation-filters:sRGB"
       id="filter4375-4-1-1-1-9-5-8-8-5-5-3-8-5"
       inkscape:label="soundFX1">
      <feFlood
         id="feFlood4377-7-9-0-8-1-7-3-1-2-7-6-7-6"
         flood-opacity="1"
         flood-color="rgb(52,52,52)"
         result="flood" />
      <feComposite
         id="feComposite4379-3-8-8-2-77-4-1-0-6-4-7-9-2"
         in2="SourceGraphic"
         in="flood"
         operator="in"
         result="composite1"
         baseFrequency="0.053999999999999999 0.053999999999999999" />
      <feMorphology
         id="feMorphology4393-1-0-49-8-9-3-0-1-9-9-5-2-9"
         operator="dilate"
         radius="2.9756367599225957"
         result="result3" />
      <feComposite
         id="feComposite4385-9-5-7-0-8-8-7-5-4-9-3-0-1"
         in2="result3"
         in="SourceGraphic"
         operator="over"
         result="fbSourceGraphic" />
      <feColorMatrix
         result="fbSourceGraphicAlpha"
         in="fbSourceGraphic"
         values="0 0 0 -1 0 0 0 0 -1 0 0 0 0 -1 0 0 0 0 1 0"
         id="feColorMatrix4544-9-4-4-5-2-2" />
      <feTurbulence
         id="feTurbulence4546-3-6-5-6-3-7"
         type="fractalNoise"
         numOctaves="5"
         seed="174"
         baseFrequency="0.053999999999999999 0.054054054054054057"
         result="turbulence" />
      <feDisplacementMap
         id="feDisplacementMap4548-8-0-9-2-7-0"
         in2="turbulence"
         in="fbSourceGraphic"
         scale="6.6"
         yChannelSelector="G"
         xChannelSelector="R"
         result="fbSourceGraphic" />
      <feColorMatrix
         result="fbSourceGraphicAlpha"
         in="fbSourceGraphic"
         values="0 0 0 -1 0 0 0 0 -1 0 0 0 0 -1 0 0 0 0 1 0"
         id="feColorMatrix4670-7-7-3-9-5-9" />
      <feFlood
         id="feFlood4672-4-4-5-1-9-3"
         flood-opacity="1"
         flood-color="rgb(28,28,28)"
         result="flood"
         in="fbSourceGraphic" />
      <feComposite
         id="feComposite4674-8-3-7-2-22-6"
         in2="fbSourceGraphic"
         in="flood"
         operator="in"
         result="composite1" />
      <feGaussianBlur
         id="feGaussianBlur4676-3-7-08-7-8-0"
         in="composite1"
         stdDeviation="0"
         result="blur" />
      <feOffset
         id="feOffset4678-6-9-1-0-9-6"
         dx="-6.3258232761971414"
         dy="6"
         result="offset" />
      <feComposite
         id="feComposite4680-4-0-9-9-7-2"
         in2="offset"
         in="fbSourceGraphic"
         operator="over"
         result="composite2" />
    </filter>
  </defs>
  <sodipodi:namedview
     pagecolor="#ffffff"
     bordercolor="#666666"
     borderopacity="1"
     objecttolerance="10"
     gridtolerance="10"
     guidetolerance="10"
     inkscape:pageopacity="0"
     inkscape:pageshadow="2"
     inkscape:window-width="960"
     inkscape:window-height="1027"
     id="namedview4"
     showgrid="false"
     inkscape:zoom="0.34296751"
     inkscape:cx="1327.0051"
     inkscape:cy="1446.2323"
     inkscape:window-x="-8"
     inkscape:window-y="-8"
     inkscape:window-maximized="0"
     inkscape:current-layer="layer1"
     inkscape:document-rotation="0"
     inkscape:snap-global="false"
     borderlayer="true" />
  <g
     inkscape:groupmode="layer"
     id="layer2"
     inkscape:label="artwork"
     sodipodi:insensitive="true">
    <image
       sodipodi:absref="D:\Pepper&amp;Carrot translation\peppercarrot_ep34_The-Knighting-of-Shichimi\lang\gfx_Pepper-and-Carrot_by-David-Revoy_E34P10.png"
       xlink:href="../gfx_Pepper-and-Carrot_by-David-Revoy_E34P10.png"
       width="2481"
       height="3503"
       id="image10"
       x="0"
       y="0" />
  </g>
  <g
     inkscape:groupmode="layer"
     id="layer3"
     inkscape:label="speechbubbles">
    <path
       style="display:inline;fill:#ffffff;stroke:none;stroke-width:0.79213"
       d="m 2082.5127,1307.5287 c -21.7391,0.4465 -44.08,-0.01 -64.8937,6.4657 -15.0152,4.7067 -28.2513,13.7576 -37.1129,25.5637 -14.0722,18.124 -19.785,40.6976 -18.6586,62.5379 1.0298,17.338 6.774,34.8966 18.8492,48.7273 12.1306,13.3942 29.9278,21.6237 48.1421,26.5068 40.0863,11.2109 83.3492,13.2721 124.5564,6.0052 20.9082,-3.729 41.2501,-12.5302 55.4462,-26.9851 10.8791,-11.1313 15.6856,-25.7604 18.6905,-39.9977 2.8175,-14.7541 5.9584,-29.991 2.4479,-44.8776 -3.5628,-14.9538 -14.6649,-27.5055 -27.3385,-37.3593 -19.3931,-15.182 -44.5709,-24.1256 -70.2732,-25.6018 -16.5791,-1.2456 -33.2352,-1.0237 -49.8554,-0.9851 z"
       id="path3280-5-9"
       inkscape:connector-curvature="0"
       sodipodi:nodetypes="csssc" />
    <path
       style="color:#000000;display:inline;overflow:visible;visibility:visible;fill:#ffffff;fill-opacity:1;fill-rule:nonzero;stroke:none;stroke-width:1.10069px;marker:none;enable-background:accumulate"
       d="m 445.82812,1329.7174 c 0,0 49.20979,7.2764 57.0208,11.1947 7.811,3.9179 24.16932,2.774 -30.51358,47.8158 94.64453,-31.5742 88.83678,-23.9308 105.24002,-22.2519 -7.02986,11.1947 -32.38073,31.4557 -32.38073,31.4557 0,0 74.82007,-29.5932 82.63115,-29.034 -2.34328,5.0375 -16.86403,15.9764 -16.86403,15.9764 l 55.56771,-7.4463 -38.74465,28.9462 c 0,0 119.43913,-33.4364 125.01777,-31.8789 6.34145,1.5575 -4.68649,32.4638 -4.68649,32.4638 l 35.61633,-22.9229 -2.02879,11.7288 26.55761,-19.0309 8.59208,10.6349 18.52678,-11.7679 0.21973,12.3277 29.68205,-16.2322 10.15429,1.6796 25.77653,25.7467 9.67499,-13.1813 11.41482,-19.3082 46.08534,21.2954 c -0.80929,-7.6033 0.19143,-17.8933 -1.26623,-25.3954 l 23.13715,15.8803 -2.13983,-16.7789 21.66756,3.9052 c 13.0939,6.3795 30.4564,9.4968 43.4468,16.0832 l -9.5078,-19.8669 32.3521,11.1185 -15.6587,-19.0989 c 14.0424,3.5822 32.2841,5.4922 44.6625,12.8831 l -17.166,-13.8184 c 35.9243,3.8351 62.9459,9.1136 96.861,15.0036 l -43.7644,-28.6114 -10.9353,-7.8356 39.8364,-7.8361 -22.273,-7.4097 25.6363,-18.4109 5.968,-45.8169 -15.0023,-23.2018 -669.26795,-1.3435 23.56866,22.3211 -63.45017,-19.0191 43.7723,29.4105 -89.17461,-4.0075 77.03221,32.414 -33.08334,5.9578 34.3687,8.3961 -33.58755,12.8737 21.08981,8.9552 z"
       id="path3931-4"
       inkscape:connector-curvature="0"
       sodipodi:nodetypes="cccccccccccccccccccccccccccccccccccccccccccccccccccc" />
    <path
       style="color:#000000;display:inline;overflow:visible;visibility:visible;fill:#ffffff;fill-opacity:1;fill-rule:nonzero;stroke:none;stroke-width:0.688582px;marker:none;enable-background:accumulate"
       d="m 1907.1219,178.93355 c -18.0793,0.27643 -36.4523,4.38122 -53.018,16.19023 -7.6267,5.76369 -14.9944,13.83599 -19.2012,25.6302 -3.6761,11.61609 -3.5276,25.22637 -1.8107,37.63133 1.8231,11.46841 6.8541,21.47917 13.4672,27.15664 9.6662,9.13914 20.9278,12.67154 31.9232,15.58414 18.7651,4.71396 37.817,5.80884 56.7952,5.76809 18.0958,-0.3214 36.2547,-2.27031 54.0171,-7.88813 8.5771,-3.27908 17.0626,-9.89237 22.3556,-21.29477 5.7321,-11.89973 7.9352,-28.46738 4.3066,-42.52728 -3.2662,-13.39226 -10.4285,-23.46838 -18.2641,-30.35612 -10.7719,-9.85698 -22.6684,-16.40707 -34.7683,-20.95817 -16.9661,-5.58 -34.399,-4.67375 -51.6322,-4.9377 -1.3901,5.1e-4 -2.7804,9.5e-4 -4.1704,0.002 z"
       id="path4040-2"
       inkscape:connector-curvature="0"
       sodipodi:nodetypes="zssssz" />
    <path
       style="display:inline;fill:#ffffff;fill-rule:evenodd;stroke:none;stroke-width:0.971333px;stroke-linecap:butt;stroke-linejoin:miter;stroke-opacity:1"
       d="m 1617.5626,221.27615 c -60.8754,-21.55614 -104.1684,-24.64025 -61.5481,21.91296 -62.0258,-47.11638 -93.2372,-37.59812 -80.8943,-12.66391 -38.7443,-23.72282 -62.2908,-16.02081 -80.6265,2.45345 -7.6951,-22.80773 -22.4966,-13.05936 -35.5065,-11.51849 -4.4469,-5.07853 9.9325,-18.46728 -49.1761,0.58732 -4.0608,-6.77607 -9.4344,-12.55498 -43.9069,3.79215 -9.8567,-27.70707 -38.0228,2.70963 -66.8394,35.18976 17.3986,-39.38298 9.5585,-44.63267 -13.6806,-29.05585 10.3582,-16.31541 16.4721,-28.88776 -23.8568,-0.50168 13.2204,-29.93542 -23.1204,-8.5583 -81.4988,35.63585 28.9082,-32.235 106.4436,-87.43979 54.4934,-81.47798 6.9946,-9.45624 32.6662,-18.29088 -44.9027,-30.56104 14.2202,-6.70572 58.4546,1.11462 21.0075,-24.30379 -5.0041,-2.95213 11.3922,-5.34709 -20.2422,-12.55988 18.5505,-0.008 29.8596,-2.33927 12.4359,-13.88566 33.8509,-0.37774 20.8246,-12.680592 -4.4831,-28.107291 49.5954,19.267607 50.2309,-14.637098 51.4406,-22.988155 62.2236,26.43291 65.5699,17.412645 73.6878,11.265737 29.9232,-1.131203 59.956,1.521479 88.9708,-30.951058 8.4073,19.391998 24.5599,34.02451 90.3932,18.124836 -28.3586,25.859429 12.5538,8.688868 43.9424,-2.564797 -16.4479,31.726653 26.9965,9.911116 81.89,-22.139713 -30.2341,35.402211 4.8783,21.877634 56.7339,-4.182473 -18.8794,34.450095 15.7822,76.111708 93.1246,75.076501 -36.6463,13.333743 -57.7775,29.354333 -18.5562,55.823633 -43.5463,-6.81984 -56.246,1.13223 -24.8004,30.22681 -47.9543,-23.20666 -57.0822,9.66338 -17.6015,37.37276 z"
       id="path4508-2"
       inkscape:connector-curvature="0"
       sodipodi:nodetypes="cccccccccccccccccccccccccccc" />
    <path
       style="fill:#ffffff;fill-rule:evenodd;stroke:none;stroke-width:0.948103px;stroke-linecap:butt;stroke-linejoin:miter;stroke-opacity:1"
       d="m 1739.0696,394.75387 c 63.9612,-15.98879 63.9232,-32.79495 71.6929,-40.62661 54.4882,-5.72993 87.7448,-47.55926 77.6703,-102.20871 -3.5879,-16.85606 18.9915,-15.2184 19.391,4.83139 -1.0987,60.691 -16.1574,91.15186 -91.941,107.14119 -13.3423,25.71642 -40.0046,26.09144 -76.8132,30.86274 z"
       id="path4272-2"
       inkscape:connector-curvature="0"
       sodipodi:nodetypes="cccccc" />
    <path
       style="color:#000000;display:inline;overflow:visible;visibility:visible;fill:#ffffff;fill-opacity:1;fill-rule:nonzero;stroke:none;stroke-width:1.15076px;marker:none;enable-background:accumulate"
       d="m 451.5565,1524.1672 c 77.73068,-52.6757 108.17029,-66.4987 176.8647,-111.3306 l -5.71608,28.8704 c 60.48451,-34.1783 93.06945,-54.7177 138.95581,-81.4871 l 64.72178,-3.0505 c -49.31969,23.1577 -186.82827,93.8637 -233.75953,124.887 l 2.854,-25.9346 c -80.19296,32.7945 -87.07813,44.4174 -143.92068,68.0454 z"
       id="path4032-1"
       inkscape:connector-curvature="0"
       sodipodi:nodetypes="cccccccc" />
    <path
       style="color:#000000;display:inline;overflow:visible;visibility:visible;fill:#ffffff;fill-opacity:1;fill-rule:nonzero;stroke:none;stroke-width:0.946773px;marker:none;enable-background:accumulate"
       d="m 1953.8541,1506.2575 c 74.843,1.2486 77.07,-86.4065 88.8547,-128.5666 l 26.4517,50.7412 c 0,0 -44.075,103.6484 -115.3064,77.8254 z"
       id="path3072-56"
       inkscape:connector-curvature="0"
       sodipodi:nodetypes="cccc" />
    <path
       style="color:#000000;display:inline;overflow:visible;visibility:visible;fill:#ffffff;fill-opacity:1;fill-rule:nonzero;stroke:none;stroke-width:0.800988px;marker:none;enable-background:accumulate"
       d="m 2136.0701,1371.9132 c 7.9114,-13.2402 48.8463,-13.0052 63.7603,-9.7622 -29.5924,-16.0964 -21.6778,-27.517 19.5802,-27.5966 -53.1768,-20.753 -17.3026,-19.4501 -0.8065,-19.3688 -47.4809,-10.5564 -32.8543,-24.101 -7.7694,-31.292 -47.6568,0.9102 -50.8226,-1.3943 -36.5846,-18.3706 -17.9663,6.565 -61.7404,22.2387 -56.6331,-10.776 -34.4822,17.2759 -67.2179,27.6163 -88.9675,-2.2339 -17.5865,19.2408 -51.7976,23.718 -80.2932,-6.1107 6.6474,31.3084 -30.4983,20.6637 -67.2796,10.7411 18.9382,16.7925 -7.9392,30.9154 -43.8734,20.0381 24.0653,14.3915 -7.005,15.2933 -31.2972,18.2378 31.7626,6.6196 37.3848,12.541 -22.4009,16.714 45.2335,2.108 76.1476,2.6257 33.2443,23.9728 25.983,-5.2703 85.8384,-10.433 37.295,31.6296 45.8872,-17.7363 69.9636,-21.5708 52.2674,5.75 18.9859,-16.5807 90.2764,-25.5384 102.9086,-3.6135 5.37,-8.9874 25.9392,-11.7481 43.2782,-11.587 6.5181,3.8593 13.1825,9.0276 20.072,15.7374 12.4491,-13.1894 30.5233,-21.775 63.4994,-2.1095 z"
       id="path3549-3-7-1"
       inkscape:connector-curvature="0"
       sodipodi:nodetypes="cccccccccccccccccccc" />
  </g>
  <g
     inkscape:groupmode="layer"
     id="layer1"
     inkscape:label="txt">
    <text
       xml:space="preserve"
       style="font-style:normal;font-variant:normal;font-weight:normal;font-stretch:normal;font-size:105.817px;line-height:1.25;font-family:'小赖字体 SC';-inkscape-font-specification:'小赖字体 SC';letter-spacing:0px;word-spacing:0px;fill:#000000;fill-opacity:1;stroke:#030303;stroke-width:0.716208;stroke-miterlimit:4;stroke-dasharray:none;stroke-opacity:1;filter:url(#filter4375-4-1-1-1-9-5-8-8-5-5-3-8);"
       x="787.65729"
       y="1584.5073"
       id="text4580-6-0-0-0-9-3-36"
       transform="matrix(1.0231031,-0.37102511,-0.35076992,1.3038401,-25.652514,-621.71416)"><tspan
         style="font-size:152.472px;fill:#000000;fill-opacity:1;stroke:#030303;stroke-width:0.716208;stroke-miterlimit:4;stroke-dasharray:none;stroke-opacity:1;-inkscape-font-specification:'小赖字体 SC';font-family:'小赖字体 SC';font-weight:normal;font-style:normal;font-stretch:normal;font-variant:normal;"
         sodipodi:role="line"
         id="tspan876-6-1"
         x="787.65729"
         y="1584.5073">?<tspan
   style="font-size:127.883px;-inkscape-font-specification:'小赖字体 SC';font-family:'小赖字体 SC';font-weight:normal;font-style:normal;font-stretch:normal;font-variant:normal;"
   id="tspan925">!</tspan></tspan></text>
    <text
       xml:space="preserve"
       style="font-style:normal;font-variant:normal;font-weight:normal;font-stretch:normal;font-size:56px;line-height:1.25;font-family:'小赖字体 SC';-inkscape-font-specification:'小赖字体 SC';text-align:center;letter-spacing:0px;word-spacing:0px;text-anchor:middle;fill:#000000;fill-opacity:1;stroke:none;stroke-width:1.53413"
       x="1426.6597"
       y="169.40697"
       id="text4246-3-2-2-6-3-7-9-3-3-56-9-3-20-3-3-2-7-2"
       transform="matrix(0.99725425,0,-0.12471947,1.0027533,0,0)"><tspan
         style="font-style:normal;font-variant:normal;font-weight:normal;font-stretch:normal;font-size:56px;font-family:'小赖字体 SC';-inkscape-font-specification:'小赖字体 SC';stroke-width:1.53413"
         sodipodi:role="line"
         x="1426.6597"
         y="169.40697"
         id="tspan1414-3">抓住她！！！</tspan></text>
    <text
       xml:space="preserve"
       style="font-style:normal;font-variant:normal;font-weight:normal;font-stretch:normal;font-size:45px;line-height:1.25;font-family:'小赖字体 SC';-inkscape-font-specification:'小赖字体 SC';text-align:center;letter-spacing:0px;word-spacing:0px;text-anchor:middle;fill:#000000;fill-opacity:1;stroke:none"
       x="1943.2986"
       y="257.62378"
       id="text4246-3-2-2-6"><tspan
         style="font-style:normal;font-variant:normal;font-weight:normal;font-stretch:normal;font-size:45px;font-family:'小赖字体 SC';-inkscape-font-specification:'小赖字体 SC'"
         sodipodi:role="line"
         id="tspan1097-2"
         x="1943.2986"
         y="257.62378">糟糕。</tspan></text>
    <text
       xml:space="preserve"
       style="font-style:normal;font-variant:normal;font-weight:normal;font-stretch:normal;font-size:51.4356px;line-height:1.25;font-family:'小赖字体 SC';-inkscape-font-specification:'小赖字体 SC';text-align:center;letter-spacing:0px;word-spacing:0px;text-anchor:middle;fill:#000000;fill-opacity:1;stroke:none;stroke-width:1.14301"
       x="816.15143"
       y="1326.6313"
       id="text4246-3-2-2-6-3"><tspan
         style="font-style:normal;font-variant:normal;font-weight:normal;font-stretch:normal;font-size:51.4356px;font-family:'小赖字体 SC';-inkscape-font-specification:'小赖字体 SC';stroke-width:1.14301"
         sodipodi:role="line"
         id="tspan1097-2-6"
         x="816.15143"
         y="1326.6313">小辣椒，接住我的扫帚！</tspan></text>
    <text
       xml:space="preserve"
       style="font-style:normal;font-variant:normal;font-weight:normal;font-stretch:normal;font-size:8.55136px;line-height:0%;font-family:'小赖字体 SC';-inkscape-font-specification:'小赖字体 SC';letter-spacing:0px;word-spacing:0px;fill:#000000;fill-opacity:1;stroke:#000000;stroke-width:8.1307;stroke-miterlimit:4;stroke-dasharray:none;stroke-opacity:1;paint-order:stroke fill markers"
       x="1769.7273"
       y="1956.4039"
       id="text4580-25"
       transform="matrix(1.0352599,-0.3538216,-0.45318147,1.1208252,0,0)"><tspan
         sodipodi:role="line"
         id="tspan4582-4"
         x="1769.7273"
         y="1956.4039"
         style="font-style:normal;font-variant:normal;font-weight:normal;font-stretch:normal;font-size:49.8829px;line-height:100%;font-family:'小赖字体 SC';-inkscape-font-specification:'小赖字体 SC';letter-spacing:3.48001px;fill:#ffffff;stroke:#000000;stroke-width:8.1307;stroke-miterlimit:4;stroke-dasharray:none;stroke-opacity:1;paint-order:stroke fill markers"><tspan
           style="font-style:normal;font-variant:normal;font-weight:normal;font-stretch:normal;font-size:57.2942px;line-height:100%;font-family:'小赖字体 SC';-inkscape-font-specification:'小赖字体 SC';letter-spacing:3.48001px;stroke:#000000;stroke-width:8.1307;stroke-miterlimit:4;stroke-dasharray:none;stroke-opacity:1;paint-order:stroke fill markers"
           id="tspan4617-9">飞出！</tspan></tspan></text>
    <text
       xml:space="preserve"
       style="font-style:normal;font-variant:normal;font-weight:normal;font-stretch:normal;font-size:53.122px;line-height:1.25;font-family:'小赖字体 SC';-inkscape-font-specification:'小赖字体 SC';text-align:center;letter-spacing:0px;word-spacing:0px;text-anchor:middle;fill:#000000;fill-opacity:1;stroke:none;stroke-width:1.18049"
       x="2040.292"
       y="1329.7084"
       id="text4246-3-2-2-6-0"><tspan
         style="font-style:normal;font-variant:normal;font-weight:normal;font-stretch:normal;font-size:53.122px;font-family:'小赖字体 SC';-inkscape-font-specification:'小赖字体 SC';stroke-width:1.18049"
         sodipodi:role="line"
         x="2040.292"
         y="1329.7084"
         id="tspan1235">哦，太好了！</tspan></text>
    <text
       xml:space="preserve"
       style="font-style:normal;font-variant:normal;font-weight:normal;font-stretch:normal;font-size:45px;line-height:1.25;font-family:'小赖字体 SC';-inkscape-font-specification:'小赖字体 SC';text-align:center;letter-spacing:0px;word-spacing:0px;text-anchor:middle;fill:#000000;fill-opacity:1;stroke:none"
       x="2114.3523"
       y="1392.6665"
       id="text4246-3-2-2-6-0-7"><tspan
         style="font-style:normal;font-variant:normal;font-weight:normal;font-stretch:normal;font-size:45px;font-family:'小赖字体 SC';-inkscape-font-specification:'小赖字体 SC'"
         sodipodi:role="line"
         x="2114.3523"
         y="1392.6665"
         id="tspan104">谢谢。</tspan><tspan
         id="tspan101"
         style="font-style:normal;font-variant:normal;font-weight:normal;font-stretch:normal;font-size:45px;font-family:'小赖字体 SC';-inkscape-font-specification:'小赖字体 SC'"
         sodipodi:role="line"
         x="2114.3523"
         y="1448.9165">藏红花！</tspan></text>
    <text
       xml:space="preserve"
       style="font-style:normal;font-variant:normal;font-weight:normal;font-stretch:normal;font-size:7.13716px;line-height:0%;font-family:'小赖字体 SC';-inkscape-font-specification:'小赖字体 SC';letter-spacing:0px;word-spacing:0px;fill:#000000;fill-opacity:1;stroke:#000000;stroke-width:6.78607;stroke-miterlimit:4;stroke-dasharray:none;stroke-opacity:1;paint-order:stroke fill markers"
       x="2509.1191"
       y="2128.6602"
       id="text4580-25-7"
       transform="matrix(0.94891997,-0.36282871,-0.2498382,1.1493577,0,0)"><tspan
         sodipodi:role="line"
         id="tspan4582-4-5"
         x="2509.1191"
         y="2128.6602"
         style="font-style:normal;font-variant:normal;font-weight:normal;font-stretch:normal;font-size:41.6334px;line-height:100%;font-family:'小赖字体 SC';-inkscape-font-specification:'小赖字体 SC';letter-spacing:2.9045px;fill:#ffffff;stroke:#000000;stroke-width:6.78607;stroke-miterlimit:4;stroke-dasharray:none;stroke-opacity:1;paint-order:stroke fill markers"><tspan
           style="font-style:normal;font-variant:normal;font-weight:normal;font-stretch:normal;font-size:47.819px;line-height:100%;font-family:'小赖字体 SC';-inkscape-font-specification:'小赖字体 SC';letter-spacing:2.9045px;stroke:#000000;stroke-width:6.78607;stroke-miterlimit:4;stroke-dasharray:none;stroke-opacity:1;paint-order:stroke fill markers"
           id="tspan4617-9-3">抓住~</tspan></tspan></text>
    <text
       xml:space="preserve"
       style="font-style:normal;font-variant:normal;font-weight:normal;font-stretch:normal;font-size:99.1307px;line-height:1.25;font-family:'小赖字体 SC';-inkscape-font-specification:'小赖字体 SC';letter-spacing:0px;word-spacing:0px;fill:#ffffff;fill-opacity:1;stroke:#ffffff;stroke-width:0.716208;stroke-miterlimit:4;stroke-dasharray:none;stroke-opacity:1;filter:url(#filter4375-4-1-1-1-9-5-8-8-5-5-3-8-5)"
       id="text4580-6-0-0-0-9-3-36-6"
       transform="matrix(0.83569631,-0.05703359,0,0.91800268,450.98089,-394.64664)"><textPath
         xlink:href="#path974"
         id="textPath1153"><tspan
           style="font-style:normal;font-variant:normal;font-weight:normal;font-stretch:normal;font-size:99.1307px;font-family:'小赖字体 SC';-inkscape-font-specification:'小赖字体 SC';fill:#ffffff;fill-opacity:1;stroke:#ffffff;stroke-width:0.716208;stroke-miterlimit:4;stroke-dasharray:none;stroke-opacity:1;"
           id="tspan876-6-1-1"><tspan
             style="font-style:normal;font-variant:normal;font-weight:normal;font-stretch:normal;font-size:73.6547px;font-family:'小赖字体 SC';-inkscape-font-specification:'小赖字体 SC';fill:#ffffff;fill-opacity:1;stroke-width:0.716208;"
             id="tspan884-0-2"
             rotate="0 0 0 0 0 0 0"><tspan
               style="font-style:normal;font-variant:normal;font-weight:normal;font-stretch:normal;font-size:87.3025px;font-family:'小赖字体 SC';-inkscape-font-specification:'小赖字体 SC';fill:#ffffff;stroke-width:0.716208;"
               id="tspan976-9"
               rotate="0 0 0 0 0 0 0 0">冲出云霄！！！</tspan></tspan></tspan></textPath></text>
    <path
       style="fill:none;fill-rule:evenodd;stroke:none;stroke-width:0.989149px;stroke-linecap:butt;stroke-linejoin:miter;stroke-opacity:1"
       d="M 587.57621,4024.2799 C 1026.33,4092.146 1310.4295,3793.5377 1509.4977,3369.7215"
       id="path974"
       sodipodi:nodetypes="cc" />
    <text
       xml:space="preserve"
       style="font-style:normal;font-variant:normal;font-weight:normal;font-stretch:normal;font-size:46.9748px;line-height:1.25;font-family:'小赖字体 SC';-inkscape-font-specification:'小赖字体 SC';text-align:center;letter-spacing:0px;word-spacing:0px;text-anchor:middle;fill:#000000;fill-opacity:1;stroke:none;stroke-width:1.04388"
       x="2748.5547"
       y="3161.5713"
       id="text4246-3-2-2-6-3-8"
       transform="matrix(0.91327375,0,-0.07872711,1.0949619,0,0)"><tspan
         style="font-style:normal;font-variant:normal;font-weight:normal;font-stretch:normal;font-size:46.9748px;font-family:'小赖字体 SC';-inkscape-font-specification:'小赖字体 SC';stroke-width:1.04388"
         sodipodi:role="line"
         id="tspan1097-2-6-7"
         x="2748.5547"
         y="3161.5713">未完待续……</tspan></text>
    <text
       xml:space="preserve"
       style="font-size:29.3333px;line-height:1.25;font-family:Sword;-inkscape-font-specification:Sword;text-align:center;letter-spacing:0px;word-spacing:0px;writing-mode:lr-tb;text-anchor:middle"
       x="2117.3914"
       y="1389.1304"
       id="text100"><tspan
         sodipodi:role="line"
         id="tspan98"
         x="2117.3914"
         y="1389.1304" /><tspan
         sodipodi:role="line"
         x="2117.3914"
         y="1425.797"
         id="tspan102" /></text>
  </g>
</svg>
