<?xml version="1.0" encoding="UTF-8" standalone="no"?>
<!-- Created with Inkscape (http://www.inkscape.org/) -->

<svg
   id="svg2"
   version="1.1"
   inkscape:version="1.1 (c68e22c387, 2021-05-23)"
   width="2481"
   height="3503"
   sodipodi:docname="E36P15.svg"
   xmlns:inkscape="http://www.inkscape.org/namespaces/inkscape"
   xmlns:sodipodi="http://sodipodi.sourceforge.net/DTD/sodipodi-0.dtd"
   xmlns:xlink="http://www.w3.org/1999/xlink"
   xmlns="http://www.w3.org/2000/svg"
   xmlns:svg="http://www.w3.org/2000/svg"
   xmlns:rdf="http://www.w3.org/1999/02/22-rdf-syntax-ns#"
   xmlns:cc="http://creativecommons.org/ns#"
   xmlns:dc="http://purl.org/dc/elements/1.1/">
  <metadata
     id="metadata8">
    <rdf:RDF>
      <cc:Work
         rdf:about="">
        <dc:format>image/svg+xml</dc:format>
        <dc:type
           rdf:resource="http://purl.org/dc/dcmitype/StillImage" />
      </cc:Work>
    </rdf:RDF>
  </metadata>
  <defs
     id="defs6" />
  <sodipodi:namedview
     pagecolor="#1e1e1e"
     bordercolor="#111111"
     borderopacity="1"
     objecttolerance="10"
     gridtolerance="10"
     guidetolerance="10"
     inkscape:pageopacity="0"
     inkscape:pageshadow="2"
     inkscape:window-width="1920"
     inkscape:window-height="1017"
     id="namedview4"
     showgrid="false"
     inkscape:zoom="0.40227146"
     inkscape:cx="1174.58"
     inkscape:cy="1495.2589"
     inkscape:window-x="-8"
     inkscape:window-y="-8"
     inkscape:window-maximized="1"
     inkscape:current-layer="layer1"
     inkscape:pagecheckerboard="0"
     inkscape:snap-global="false" />
  <g
     inkscape:groupmode="layer"
     id="layer2"
     inkscape:label="artwork"
     sodipodi:insensitive="true">
    <image
       xlink:href="../gfx_Pepper-and-Carrot_by-David-Revoy_E36P15.png"
       y="0"
       x="0"
       id="image10"
       height="3503"
       width="2481" />
  </g>
  <g
     inkscape:groupmode="layer"
     id="layer3"
     inkscape:label="speechbubbles"
     style="display:inline">
    <path
       sodipodi:nodetypes="zssssz"
       inkscape:connector-curvature="0"
       id="path4040-4-9-3"
       d="m 302.1423,1095.7409 c -41.00546,0.4967 -82.40995,7.4519 -118.90453,23.2978 -18.39432,8.7858 -34.41576,22.0107 -42.05346,38.6421 -7.05855,19.2331 -7.77672,40.4924 0.77147,59.4854 9.77065,20.1699 32.01142,35.5594 57.39676,40.759 23.35207,5.1853 47.7108,2.8076 71.52067,2.1517 19.55161,-0.7229 39.16675,-1.0122 58.69308,0.2808 39.70854,1.2074 79.4725,-0.7076 118.9605,-4.1379 17.93873,-1.9898 36.15854,-6.7775 49.82041,-16.9816 15.72186,-11.6681 23.60844,-29.1673 24.72783,-46.3471 1.35275,-15.5661 -1.60499,-31.9952 -12.23371,-45.1903 -9.67297,-11.8157 -24.53938,-19.5883 -38.68726,-27.2862 -20.82886,-11.0037 -44.38391,-18.9852 -69.11833,-20.9941 -31.81879,-3.3734 -63.95959,-3.4548 -95.98475,-3.6856 -1.63623,0 -3.27244,0 -4.90868,0.01 z"
       style="color:#000000;display:inline;overflow:visible;visibility:visible;fill:#ffffff;fill-opacity:1;fill-rule:nonzero;stroke:none;stroke-width:0.928823px;marker:none;enable-background:accumulate" />
    <path
       sodipodi:nodetypes="zssssz"
       inkscape:connector-curvature="0"
       id="path4040-4-9-3-0"
       d="m 1106.8101,1103.4746 c -51.1417,0.6452 -103.2381,5.7225 -151.37522,27.2362 -15.93629,7.1074 -30.90538,21.0634 -35.69387,40.8274 -5.82587,23.5475 3.17799,49.2855 18.6114,64.9858 13.6956,14.2208 31.6774,20.8677 49.10873,26.1281 31.88916,8.7248 64.80246,10.0899 97.40356,11.6213 70.1308,2.5795 140.2504,-2.5414 210.1549,-8.6252 29.1363,-2.8393 59.2315,-9.1366 84.0515,-28.2133 22.3654,-19.2428 30.3776,-59.0686 15.3886,-86.9357 -10.2111,-19.0725 -28.4349,-30.425 -47.0315,-34.4716 -29.7246,-7.0561 -60.1876,-7.8082 -90.3981,-9.3 -36.4405,-1.5299 -72.9053,-2.1286 -109.3614,-2.9692 -13.6185,-0.2288 -27.2386,-0.3939 -40.8586,-0.2838 z"
       style="color:#000000;display:inline;overflow:visible;visibility:visible;fill:#ffffff;fill-opacity:1;fill-rule:nonzero;stroke:none;stroke-width:1.15972px;marker:none;enable-background:accumulate" />
    <path
       sodipodi:nodetypes="zssssz"
       inkscape:connector-curvature="0"
       id="path4040-4-9-3-0-9"
       d="m 1501.7111,1126.0021 c -46.8678,0.9673 -94.6391,8.1228 -135.586,26.7677 -24.2822,11.8288 -37.4212,34.5975 -37.3094,56.6266 -1.207,26.7122 11.7017,54.5933 38.2552,71.9384 23.7461,15.1155 54.1296,21.5442 83.7437,25.4096 40.455,4.9897 81.4954,6.1085 122.3835,6.4063 52.9526,-0.043 106.1142,-2.8389 158.0912,-11.064 30.2231,-5.9919 59.7413,-18.2385 78.351,-38.3925 20.2289,-22.3844 26.2048,-53.3168 11.382,-78.5981 -12.7503,-22.3956 -40.3355,-38.7752 -70.9066,-43.2574 -44.5868,-9.0923 -90.8602,-10.0017 -136.5596,-12.5227 -37.2193,-2.0371 -74.526,-3.4768 -111.845,-3.3139 z"
       style="color:#000000;display:inline;overflow:visible;visibility:visible;fill:#ffffff;fill-opacity:1;fill-rule:nonzero;stroke:none;stroke-width:1.2304px;marker:none;enable-background:accumulate" />
    <path
       style="fill:#ffffff;fill-rule:evenodd;stroke:none;stroke-width:0.943598px;stroke-linecap:butt;stroke-linejoin:miter;stroke-opacity:1"
       d="m 313.12997,1240.1318 c -41.10517,0.8784 -82.44077,-0.2682 -123.28174,4.2836 -13.00717,1.6342 -25.51346,5.7546 -36.04564,12.1291 -20.56068,12.0615 -34.22506,31.2571 -37.09337,51.5708 -3.21889,17.1735 -2.90655,34.9901 2.89941,51.7912 5.46884,13.996 17.69238,26.3832 34.07301,33.0376 18.30385,7.9949 39.02558,11.1675 59.29975,14.1763 39.15612,5.3329 79.03234,5.8753 118.64487,5.1205 28.22447,-0.7154 56.30412,-3.3031 84.49384,-4.5014 25.95829,-1.3479 52.21118,-3.6042 76.78259,-10.8702 11.82926,-3.2988 24.32941,-7.1546 32.42256,-15.2347 9.1343,-9.4543 11.67738,-21.7177 12.88217,-33.3419 1.84683,-20.0022 -0.56053,-40.3548 -7.95219,-59.5404 -3.07023,-7.5667 -6.82701,-15.1191 -12.73531,-21.5589 -8.20461,-7.8136 -20.42216,-11.842 -32.42946,-14.389 -29.42638,-7.8205 -60.69398,-8.5722 -91.37255,-9.7567 -26.8502,-1.1469 -53.67396,-3.1814 -80.58794,-2.9159 z"
       id="path4430-0"
       inkscape:connector-curvature="0"
       sodipodi:nodetypes="cccc" />
    <path
       style="fill:#ffffff;fill-rule:evenodd;stroke:none;stroke-width:0.914223px;stroke-linecap:butt;stroke-linejoin:miter;stroke-opacity:1"
       d="m 486.57288,1577.4452 c 28.81918,-66.6247 20.74358,-99.1008 19.77331,-112.4088 -16.52174,10.815 -24.86604,14.1576 -24.65914,13.2895 3.00972,-12.6265 -35.44872,-115.6984 -44.45394,-112.059 l 18.96701,-39.5995 c 16.57291,47.9099 30.322,74.2909 38.66556,123.6461 0,0 15.80065,-9.8432 23.58886,-12.9706 2.56416,11.9254 27.41455,66.0411 -31.88166,140.1023 z"
       id="path891"
       inkscape:connector-curvature="0"
       sodipodi:nodetypes="ccsccccc" />
    <path
       id="path889"
       style="fill:#ffffff;fill-rule:evenodd;stroke:none;stroke-width:1.16912px;stroke-linecap:butt;stroke-linejoin:miter;stroke-opacity:1"
       d="m 2296.3652,1086.6993 c -54.9342,0.2257 -109.8719,0.259 -164.8075,0.4035 -47.4814,0.092 -94.9629,0.1822 -142.4444,0.2732 -8.1673,6.0063 -14.0865,14.4543 -20.1539,22.4723 -19.3139,27.654 -29.8342,60.4885 -36.201,93.4315 -6.7034,35.8366 -8.1257,73.1017 -0.6155,108.9303 4.2281,18.818 12.697,37.3399 27.3238,50.1972 12.9632,11.7746 29.5968,18.7691 46.6373,21.8226 23.7839,5.3683 48.066,7.9642 72.2721,10.4972 39.4868,3.1201 79.1109,3.6275 118.6758,5.0797 31.168,-0.1008 61.7861,-7.1041 91.8311,-14.8571 16.8167,-4.6953 33.5734,-10.6117 48.2962,-20.2388 15.7018,-12.0759 24.8256,-31.0733 28.3635,-50.358 9.3224,-40.2737 11.5811,-82.456 4.4067,-123.2768 -3.9654,-23.8065 -10.4425,-47.4821 -21.8893,-68.7919 -7.6505,-13.5426 -18.3501,-26.3369 -33.0349,-32.2103 -5.9286,-2.3227 -12.3015,-3.478 -18.66,-3.3746 z" />
    <path
       style="display:inline;fill:#ffffff;stroke:none;stroke-width:0.912419"
       d="m 2008.3294,1540.6989 c -33.153,-32.8759 -38.8858,-123.5948 0.3904,-163.0573 23.1728,-23.2827 35.5381,-37.608 35.5381,-37.608 l -25.8875,-19.1211 c -94.4367,86.4289 -50.0669,186.6132 -10.041,219.7864 z"
       id="path3063-1-0"
       inkscape:connector-curvature="0"
       sodipodi:nodetypes="csccc" />
    <path
       style="fill:#ffffff;fill-rule:evenodd;stroke:none;stroke-width:0.88706px;stroke-linecap:butt;stroke-linejoin:miter;stroke-opacity:1"
       d="m 1436.5958,2276.9601 c -40.3904,0.7209 -81.3209,4.937 -119.4793,19.2532 -18.1524,7.0214 -35.5148,18.3438 -46.176,35.3158 -10.2865,22.3935 -9.5194,50.2724 3.5264,71.3356 7.1853,11.7074 18.0064,20.6304 29.937,26.8936 16.3125,8.7274 34.2798,13.6364 52.2495,17.2869 29.9324,5.6417 60.4724,6.802 90.845,6.7593 39.8534,-0.385 79.7196,-3.784 118.9887,-10.8037 25.0271,-5.4436 50.3997,-12.741 71.6076,-27.9402 10.5412,-10.8078 14.864,-26.0628 17.5208,-40.6829 4.356,-23.8316 -4.6539,-50.3014 -24.0493,-64.7079 -13.7247,-9.7548 -30.1742,-14.134 -46.1405,-18.3647 -26.4804,-6.2869 -53.6171,-8.7888 -80.5999,-11.6675 -22.6864,-1.983 -45.4638,-2.7925 -68.23,-2.6775 z"
       id="path4430-0-7"
       inkscape:connector-curvature="0"
       sodipodi:nodetypes="cccc" />
    <path
       style="display:inline;fill:#ffffff;fill-rule:evenodd;stroke:none;stroke-width:0.86137px;stroke-linecap:butt;stroke-linejoin:miter;stroke-opacity:1"
       d="m 1117.388,2911.097 c -32.8296,1.3946 -66.5733,8.1038 -94.4182,24.8569 -20.9462,13.6091 -31.13813,37.5782 -29.09987,59.7582 0.80961,22.2704 12.83527,44.5358 34.29847,56.3873 20.3376,11.4398 44.3717,16.6276 68.1738,19.7193 35.0154,4.2026 71.0813,5.9098 106.1991,-0.7233 21.5401,-4.2368 43.176,-11.1201 60.5982,-23.6991 10.998,-7.8526 19.4347,-18.5318 23.362,-30.5061 7.6314,-20.9579 7.5309,-44.391 -2.5646,-64.2618 -8.4457,-15.2862 -25.2733,-26.109 -43.9842,-29.84 -27.2423,-7.075 -55.8237,-9.2587 -84.1357,-11.3972 -12.7773,-0.6482 -25.6068,-0.7613 -38.429,-0.2942 z"
       id="path4430-0-7-3"
       inkscape:connector-curvature="0"
       sodipodi:nodetypes="cccc" />
    <path
       style="color:#000000;display:inline;overflow:visible;visibility:visible;fill:#ffffff;fill-opacity:1;fill-rule:nonzero;stroke:none;stroke-width:0.933879px;marker:none;enable-background:accumulate"
       d="m 1510.6073,2424.7097 c 95.8683,30.7313 27.8183,159.8015 -2.9543,189.2123 50.4373,-43.5579 100.0481,-123.5802 33.0541,-217.2104 -31.2156,-43.6267 -19.8493,18.5629 -19.8493,18.5629 z"
       id="path4035-4"
       inkscape:connector-curvature="0"
       sodipodi:nodetypes="ccscc" />
    <path
       style="color:#000000;display:inline;overflow:visible;visibility:visible;fill:#ffffff;fill-opacity:1;fill-rule:nonzero;stroke:none;stroke-width:1.2864px;marker:none;enable-background:accumulate"
       d="m 1061.1341,2128.284 c -58.604,1.1522 -117.35006,1.5229 -175.49588,5.682 -34.34189,2.9059 -69.0228,8.6127 -98.43102,27.5924 -20.80093,13.916 -38.95456,35.5444 -45.76491,65.2808 -4.22781,19.071 -1.47676,41.5411 7.39961,60.7881 10.47129,23.6547 29.26286,42.5269 49.4506,48.4915 26.44238,9.8812 53.14005,12.0348 79.69511,17.8358 84.31716,13.9176 167.26739,9.9174 249.55059,5.2376 31.9858,-2.0532 64.3077,-4.555 93.9504,-16.2353 20.5262,-8.6602 39.9,-23.8341 49.2978,-48.7552 12.815,-35.521 2.2395,-86.84 -25.85,-115.5798 -21.3717,-21.7001 -47.43,-30.6961 -72.2566,-37.6358 -37.3531,-9.8339 -74.7614,-12.9693 -111.5457,-12.7021 z"
       id="path4546-6-5-5"
       inkscape:connector-curvature="0"
       sodipodi:nodetypes="cssssc" />
    <path
       style="color:#000000;display:inline;overflow:visible;visibility:visible;fill:#ffffff;fill-opacity:1;fill-rule:nonzero;stroke:none;stroke-width:0.511885px;marker:none;enable-background:accumulate"
       d="m 1198.7358,2292.3553 c -58.4517,90.8359 85.6046,288.3485 132.7428,310.3129 -51.7175,-3.6213 -215.024,-222.6528 -167.3541,-289.5926 16.3894,-23.014 93.063,-111.5562 34.6113,-20.7203 z"
       id="path4480-6"
       inkscape:connector-curvature="0"
       sodipodi:nodetypes="zcsz" />
    <path
       style="fill:#ffffff;stroke:none;stroke-width:1.22863"
       d="m 1132.3337,2836.1319 c 6.9881,13.1882 16.9513,18.3851 13.6567,35.0595 -18.6808,32.3624 -3.398,71.476 20.2436,84.4218 3.4934,10.3144 -10.2432,41.0229 -10.2432,41.0229 -31.6711,-50.3948 -47.4892,-83.1315 -25.5958,-126.3842 3.8504,-6.927 -8.3872,-14.7062 -12.2361,-26.3855 -3.8491,-11.6793 -4.7084,-20.1125 -0.097,-40.9935 3.9527,-17.898 39.9891,-41.3608 39.9891,-41.3608 -27.433,31.2471 -35.5926,52.7621 -25.7173,74.6198 z"
       id="path3023-4"
       inkscape:connector-curvature="0"
       sodipodi:nodetypes="cccccsscc" />
    <path
       style="color:#000000;display:inline;overflow:visible;visibility:visible;fill:#ffffff;fill-opacity:1;fill-rule:nonzero;stroke:none;stroke-width:1.24837px;marker:none;enable-background:accumulate"
       d="m 1380.3027,1450.8419 c 65.8497,-28.0462 78.4621,-86.1375 90.2102,-126.6975 16.6063,-57.3342 1.8435,-63.2522 1.8435,-63.2522 l 29.8886,-4.9473 c 11.5377,-2.8141 4.798,161.6465 -121.9423,194.897 z"
       id="path3072-1-3"
       inkscape:connector-curvature="0"
       sodipodi:nodetypes="csccc" />
  </g>
  <g
     inkscape:groupmode="layer"
     id="layer1"
     inkscape:label="txt"
     style="display:inline">
    <text
       id="text4246-4-2-7"
       y="1169.2241"
       x="335.88861"
       style="font-style:normal;font-variant:normal;font-weight:normal;font-stretch:normal;line-height:0%;font-family:Lavi;-inkscape-font-specification:Lavi;text-align:center;letter-spacing:0px;word-spacing:0px;text-anchor:middle;fill:#000000;fill-opacity:1;stroke:none"
       xml:space="preserve"><tspan
         y="1169.2241"
         x="335.88861"
         style="font-size:45px;line-height:1.25"
         sodipodi:role="line"
         id="tspan3354">Mas o que está </tspan><tspan
         y="1225.4741"
         x="335.88861"
         style="font-size:45px;line-height:1.25"
         sodipodi:role="line"
         id="tspan3358">acontecendo?</tspan></text>
    <text
       id="text4246-4-2-7-3"
       y="1311.4464"
       x="334.30331"
       style="font-style:normal;font-variant:normal;font-weight:normal;font-stretch:normal;line-height:0%;font-family:Lavi;-inkscape-font-specification:Lavi;text-align:center;letter-spacing:0px;word-spacing:0px;text-anchor:middle;fill:#000000;fill-opacity:1;stroke:none"
       xml:space="preserve"><tspan
         y="1311.4464"
         x="334.30331"
         style="font-size:45px;line-height:1.25"
         sodipodi:role="line"
         id="tspan13938">Alguns deles estão </tspan><tspan
         y="1367.6964"
         x="334.30331"
         style="font-size:45px;line-height:1.25"
         sodipodi:role="line"
         id="tspan3360">se <tspan
   style="font-weight:bold"
   id="tspan84">beijando</tspan>...?!</tspan></text>
    <text
       id="text4246-4-2-7-3-6"
       y="1178.2072"
       x="1166.7152"
       style="font-style:normal;font-variant:normal;font-weight:normal;font-stretch:normal;line-height:0%;font-family:Lavi;-inkscape-font-specification:Lavi;text-align:center;letter-spacing:0px;word-spacing:0px;text-anchor:middle;fill:#000000;fill-opacity:1;stroke:none"
       xml:space="preserve"><tspan
         y="1178.2072"
         x="1166.7152"
         style="font-size:45px;line-height:1.25"
         sodipodi:role="line"
         id="tspan31052">Hã... Um monte de </tspan><tspan
         y="1234.4572"
         x="1166.7152"
         style="font-size:45px;line-height:1.25"
         sodipodi:role="line"
         id="tspan3363">novos casais!</tspan></text>
    <text
       id="text4246-4-2-7-3-6-3"
       y="1203.2181"
       x="1586.2878"
       style="font-style:normal;font-variant:normal;font-weight:normal;font-stretch:normal;line-height:0%;font-family:Lavi;-inkscape-font-specification:Lavi;text-align:center;letter-spacing:0px;word-spacing:0px;text-anchor:middle;fill:#000000;fill-opacity:1;stroke:none"
       xml:space="preserve"><tspan
         y="1203.2181"
         x="1586.2878"
         style="font-size:45px;line-height:1.25"
         sodipodi:role="line"
         id="tspan44730">Isso era mesmo para </tspan><tspan
         y="1259.4681"
         x="1586.2878"
         style="font-size:45px;line-height:1.25"
         sodipodi:role="line"
         id="tspan3371">acontecer, Pepper?</tspan></text>
    <text
       id="text4246-4-2-7-3-6-3-6"
       y="1172.0475"
       x="2158.0647"
       style="font-style:normal;font-variant:normal;font-weight:normal;font-stretch:normal;line-height:0%;font-family:Lavi;-inkscape-font-specification:Lavi;text-align:center;letter-spacing:0px;word-spacing:0px;text-anchor:middle;fill:#000000;fill-opacity:1;stroke:none"
       xml:space="preserve"><tspan
         y="1172.0475"
         x="2158.0647"
         style="font-size:45px;line-height:1.25"
         sodipodi:role="line"
         id="tspan3375">Oh, não! Eu acho </tspan><tspan
         y="1228.2975"
         x="2158.0647"
         style="font-size:45px;line-height:1.25"
         sodipodi:role="line"
         id="tspan3381">que a Rea de dragão </tspan><tspan
         y="1284.5475"
         x="2158.0647"
         style="font-size:45px;line-height:1.25"
         sodipodi:role="line"
         id="tspan3387">ampliou o amor </tspan><tspan
         y="1340.7975"
         x="2158.0647"
         style="font-size:45px;line-height:1.25"
         sodipodi:role="line"
         id="tspan3395">do meu feitiço.</tspan></text>
    <text
       id="text4246-4-2-7-3-6-3-6-1"
       y="2207.5317"
       x="1014.7267"
       style="font-style:normal;font-variant:normal;font-weight:normal;font-stretch:normal;line-height:0%;font-family:Lavi;-inkscape-font-specification:Lavi;text-align:center;letter-spacing:0px;word-spacing:0px;text-anchor:middle;fill:#000000;fill-opacity:1;stroke:none"
       xml:space="preserve"><tspan
         y="2207.5317"
         x="1014.7267"
         style="font-size:45px;line-height:1.25"
         sodipodi:role="line"
         id="tspan109377">Haha, essa batalha </tspan><tspan
         y="2263.7817"
         x="1014.7267"
         style="font-size:45px;line-height:1.25"
         sodipodi:role="line"
         id="tspan3399">vai entrar direto para </tspan><tspan
         y="2320.0317"
         x="1014.7267"
         style="font-size:45px;line-height:1.25"
         sodipodi:role="line"
         id="tspan3403">os livros de história.</tspan></text>
    <text
       id="text4246-4-2-7-3-6-3-6-1-3"
       y="2349.0537"
       x="1460.3052"
       style="font-style:normal;font-variant:normal;font-weight:normal;font-stretch:normal;line-height:0%;font-family:Lavi;-inkscape-font-specification:Lavi;text-align:center;letter-spacing:0px;word-spacing:0px;text-anchor:middle;fill:#000000;fill-opacity:1;stroke:none"
       xml:space="preserve"><tspan
         y="2349.0537"
         x="1460.3052"
         style="font-size:45px;line-height:1.25"
         sodipodi:role="line"
         id="tspan83228-9">Hi-hi,</tspan></text>
    <text
       id="text4246-4-2-7-3-6-3-6-1-3-2"
       y="2404.4082"
       x="1464.6932"
       style="font-style:normal;font-variant:normal;font-weight:normal;font-stretch:normal;line-height:0%;font-family:Lavi;-inkscape-font-specification:Lavi;text-align:center;letter-spacing:0px;word-spacing:0px;text-anchor:middle;fill:#000000;fill-opacity:1;stroke:none"
       xml:space="preserve"><tspan
         y="2404.4082"
         x="1464.6932"
         style="font-size:45px;line-height:1.25"
         sodipodi:role="line"
         id="tspan83228-9-2">definitivamente!</tspan></text>
    <text
       id="text4246-4-2-7-3-6-3-6-1-3-2-8"
       y="2977.0093"
       x="1143.149"
       style="font-style:normal;font-variant:normal;font-weight:normal;font-stretch:normal;font-size:42px;line-height:0%;font-family:Lavi;-inkscape-font-specification:Lavi;text-align:center;letter-spacing:0px;word-spacing:0px;text-anchor:middle;fill:#000000;fill-opacity:1;stroke:none"
       xml:space="preserve"><tspan
         y="2977.0093"
         x="1143.149"
         style="font-size:42px;line-height:1.25"
         sodipodi:role="line"
         id="tspan130424">Aaahhh, </tspan><tspan
         y="3029.5093"
         x="1143.149"
         style="font-size:42px;line-height:1.25"
         sodipodi:role="line"
         id="tspan3891">que mico!</tspan></text>
    <text
       transform="matrix(0.85852879,0,-0.29243083,1.1647833,0,0)"
       id="text4213-7"
       y="2982.4719"
       x="2454.0139"
       style="font-style:normal;font-variant:normal;font-weight:normal;font-stretch:normal;font-size:10.7631px;line-height:0%;font-family:Lavi;-inkscape-font-specification:Lavi;text-align:center;letter-spacing:0px;word-spacing:0px;text-anchor:middle;display:inline;fill:#d97041;fill-opacity:1;stroke:#000000;stroke-width:0;stroke-miterlimit:4;stroke-dasharray:none;stroke-opacity:1"
       xml:space="preserve"><tspan
         style="font-style:normal;font-variant:normal;font-weight:bold;font-stretch:normal;font-size:64.7408px;line-height:1.25;font-family:Lavi;-inkscape-font-specification:'Lavi Bold';fill:#d97041;fill-opacity:1;stroke:none;stroke-width:0;stroke-miterlimit:4;stroke-dasharray:none"
         y="2982.4719"
         x="2454.0139"
         id="tspan3562-5"
         sodipodi:role="line">- FIM -</tspan></text>
  </g>
</svg>
