<?xml version="1.0" encoding="UTF-8" standalone="no"?>
<svg
   id="svg2"
   version="1.1"
   inkscape:version="1.1.1 (3bf5ae0d25, 2021-09-20, custom)"
   width="2481"
   height="3503"
   sodipodi:docname="E34P03.svg"
   xmlns:inkscape="http://www.inkscape.org/namespaces/inkscape"
   xmlns:sodipodi="http://sodipodi.sourceforge.net/DTD/sodipodi-0.dtd"
   xmlns:xlink="http://www.w3.org/1999/xlink"
   xmlns="http://www.w3.org/2000/svg"
   xmlns:svg="http://www.w3.org/2000/svg"
   xmlns:rdf="http://www.w3.org/1999/02/22-rdf-syntax-ns#"
   xmlns:cc="http://creativecommons.org/ns#"
   xmlns:dc="http://purl.org/dc/elements/1.1/">
  <metadata
     id="metadata8">
    <rdf:RDF>
      <cc:Work
         rdf:about="">
        <dc:format>image/svg+xml</dc:format>
        <dc:type
           rdf:resource="http://purl.org/dc/dcmitype/StillImage" />
        <dc:title />
      </cc:Work>
    </rdf:RDF>
  </metadata>
  <defs
     id="defs6" />
  <sodipodi:namedview
     pagecolor="#ffffff"
     bordercolor="#666666"
     borderopacity="1"
     objecttolerance="10"
     gridtolerance="10"
     guidetolerance="10"
     inkscape:pageopacity="0"
     inkscape:pageshadow="2"
     inkscape:window-width="1888"
     inkscape:window-height="1146"
     id="namedview4"
     showgrid="false"
     inkscape:zoom="0.56568545"
     inkscape:cx="1255.9984"
     inkscape:cy="2297.2131"
     inkscape:window-x="32"
     inkscape:window-y="0"
     inkscape:window-maximized="1"
     inkscape:current-layer="layer1"
     inkscape:document-rotation="0"
     borderlayer="true"
     inkscape:pagecheckerboard="0" />
  <g
     inkscape:groupmode="layer"
     id="layer2"
     inkscape:label="artwork"
     sodipodi:insensitive="true">
    <image
       xlink:href="../gfx_Pepper-and-Carrot_by-David-Revoy_E34P03.png"
       y="0"
       x="0"
       id="image10"
       height="3503"
       width="2481" />
  </g>
  <g
     inkscape:groupmode="layer"
     id="layer3"
     inkscape:label="speechbubbles"
     style="display:inline">
    <path
       style="color:#000000;display:inline;overflow:visible;visibility:visible;fill:#ffffff;fill-opacity:1;fill-rule:nonzero;stroke:none;stroke-width:1.20104px;marker:none;enable-background:accumulate"
       d="m 1189.7779,2139.3365 c -64.2687,2.2955 -127.9983,9.8114 -191.18782,18.8107 -24.99971,4.8899 -49.29782,14.1584 -66.57521,29.1845 -17.13,15.2391 -25.9657,34.9862 -29.40716,54.7137 -4.73626,25.9427 3.88384,52.7235 21.31714,75.0455 11.50823,16.0475 27.70435,30.7071 49.0956,39.2911 27.46575,11.7872 58.14115,17.9588 88.34275,24.1058 28.6681,5.411 57.9161,8.7673 87.1837,11.5749 36.171,3.093 72.765,3.786 109.0071,0.9646 27.5817,-2.0889 55.1573,-5.2121 81.8503,-11.0657 32.1811,-7.2269 63.1678,-19.0989 87.5884,-36.9847 18.2076,-13.3913 31.9557,-30.3911 38.9766,-49.019 7.7192,-19.4877 10.3246,-40.2266 7.1492,-60.4638 -3.6535,-20.7227 -16.1462,-40.8871 -36.9323,-54.6604 -19.4294,-13.0103 -43.8918,-20.3851 -68.2703,-26.0335 -28.8036,-6.6497 -58.7643,-9.6393 -88.6681,-11.4618 -19.1108,-1.1611 -38.2138,-2.4331 -57.3486,-3.3408 -10.696,-0.4603 -21.4079,-0.7167 -32.1213,-0.6611 z"
       id="path4546-6-08-2"
       inkscape:connector-curvature="0"
       sodipodi:nodetypes="cssssc" />
    <path
       style="color:#000000;display:inline;overflow:visible;visibility:visible;fill:#ffffff;fill-opacity:1;fill-rule:nonzero;stroke:none;stroke-width:0.586403px;marker:none;enable-background:accumulate"
       d="m 786.34677,2123.5123 c 5.02464,-42.62 47.16918,-72.3401 153.25243,-60.2559 56.824,6.4733 121.4295,11.7571 114.7301,74.2181 -6.6996,62.4603 -99.65607,57.3161 -118.91724,58.0513 -19.26129,0.7346 -119.01807,-9.6322 -135.66614,-31.5981 -10.42127,-13.7499 -14.23657,-27.1885 -13.39915,-40.4154 z"
       id="path4546-6-08"
       inkscape:connector-curvature="0"
       sodipodi:nodetypes="cssssc" />
    <path
       style="fill:#ffffff;fill-rule:evenodd;stroke:none;stroke-width:1.25695px;stroke-linecap:butt;stroke-linejoin:miter;stroke-opacity:1"
       d="m 1471.3459,2456.5997 c -67.1764,-16.6519 -104.4231,-46.199 -116.7263,-96.6707 l -26.7459,22.416 c 34.4783,64.0674 88.4565,69.7439 143.4722,74.2547 z"
       id="path1291"
       inkscape:connector-curvature="0"
       sodipodi:nodetypes="cccc" />
    <path
       style="fill:#ffffff;stroke:none;stroke-width:0.972695"
       d="m 2046.8887,294.17773 c -39.6592,0.87259 -79.2406,4.12342 -118.6411,8.63598 -28.0761,3.45619 -56.6998,8.7612 -81.6288,22.80258 -17.1243,9.86351 -30.928,25.65948 -38.0389,44.13553 -3.2439,8.45302 -5.0977,17.61391 -3.6698,26.6585 2.5878,20.45788 16.297,38.69489 34.5305,48.01837 23.5697,13.04305 50.5265,17.35954 76.6085,22.56825 54.2988,10.19294 109.7958,12.72511 164.9351,11.01783 25.6859,-0.94521 51.3777,-2.71212 76.8507,-6.20311 23.5879,-3.55066 47.3991,-9.33854 68.0381,-21.70917 17.7212,-11.42475 30.0651,-31.58925 30.1199,-52.91361 0.4824,-26.36472 -14.7234,-51.3424 -36.1599,-65.9823 -10.8413,-7.63135 -23.4313,-12.19522 -36.1123,-15.7183 -37.7184,-11.56823 -76.8489,-18.49494 -116.2156,-20.92918 -6.8665,-0.32876 -13.7425,-0.44763 -20.6164,-0.38137 z"
       id="path3100-2-0"
       inkscape:connector-curvature="0" />
    <path
       style="fill:#ffffff;stroke:none;stroke-width:1.0707"
       d="m 2009.7077,247.4485 c -6.1823,58.07386 -94.2672,73.80425 -156.9402,73.87191 -106.5808,4.35437 -214.5846,-2.91346 -318.5505,-21.54286 -67.1362,-16.08413 -99.7675,-90.80562 -44.0702,-128.46041 57.1272,-29.32136 130.5056,-26.7993 196.4303,-32.43727 93.2411,-2.96731 189.8189,2.45137 277.1305,29.62082 38.8965,14.78235 52.3736,47.65096 46.0001,78.94781 z"
       id="path3100-2"
       inkscape:connector-curvature="0" />
    <path
       style="color:#000000;display:inline;overflow:visible;visibility:visible;fill:#ffffff;fill-opacity:1;fill-rule:nonzero;stroke:none;stroke-width:0.929136px;marker:none;enable-background:accumulate"
       d="m 927.11063,176.55653 c -44.93947,1.6103 -88.65817,12.07201 -129.95332,26.01078 -15.55685,4.93173 -32.12908,9.06589 -44.88363,18.18748 -13.73749,10.02238 -22.13142,23.89004 -27.59768,37.97024 -8.3701,22.68774 -10.52579,46.49204 -11.30826,70.04546 -0.40991,11.59623 -0.2194,23.26344 2.22965,34.7248 2.76575,13.23021 7.51814,26.25819 14.78777,38.34013 11.07816,17.28019 30.08823,30.4609 51.07629,39.5611 20.95925,9.08155 44.36627,13.94407 67.92147,15.96712 23.36082,2.20654 46.91223,2.9558 70.42129,2.80615 31.64378,-0.49902 63.58914,-3.70651 93.43999,-12.5332 26.3229,-8.54659 47.3037,-26.10888 59.2295,-46.72152 12.817,-21.05397 21.354,-43.81581 25.2013,-67.07068 3.6017,-23.54617 1.7631,-47.99487 -8.5045,-70.36596 -8.5005,-17.94305 -23.5996,-33.70283 -42.6278,-45.17864 -22.0005,-13.93423 -46.73689,-24.81699 -72.28518,-33.85592 -14.94544,-4.87089 -30.93573,-8.17092 -47.14689,-7.88734 z"
       id="path4040-40"
       inkscape:connector-curvature="0"
       sodipodi:nodetypes="zssssz" />
    <path
       style="fill:#ffffff;stroke:none;stroke-width:1.26762"
       d="m 875.61608,81.457787 c -27.06156,0.30674 -54.42817,3.062687 -80.17975,12.198219 -15.35151,5.43089 -30.50712,12.608504 -42.74584,23.917924 -8.58886,8.15348 -14.9629,19.1196 -16.7696,31.1859 -2.72037,15.83452 1.49896,32.59453 10.67308,45.43291 12.66398,18.96414 33.67175,31.35899 55.6779,33.46947 33.65596,4.90908 67.72256,3.71303 101.60297,3.9053 26.40715,-0.10637 53.09532,-0.46417 78.96588,-6.61047 17.66588,-4.32244 35.00768,-12.05233 48.48728,-24.98922 9.9863,-9.84133 16.6401,-23.88946 16.1938,-38.40319 -0.2717,-17.36653 -8.6644,-33.93256 -21.0605,-45.26955 -13.8331,-13.03359 -31.40152,-20.843005 -49.22779,-25.827025 -26.0437,-7.225174 -53.15192,-8.191619 -79.94567,-8.858427 -7.22287,-0.145847 -14.44764,-0.221987 -21.67176,-0.151841 z"
       id="path3280-1"
       inkscape:connector-curvature="0"
       sodipodi:nodetypes="csssc" />
    <path
       style="color:#000000;display:inline;overflow:visible;visibility:visible;fill:#ffffff;fill-opacity:1;fill-rule:nonzero;stroke:none;stroke-width:0.990091px;marker:none;enable-background:accumulate"
       d="m 464.65674,545.22728 c -18.78498,50.92279 -2.84901,105.08842 13.19711,114.63467 -28.06687,-12.75099 -51.50197,-72.60161 -41.41962,-110.56135 11.40195,-31.85325 28.22251,-4.07332 28.22251,-4.07332 z"
       id="path4480-2"
       inkscape:connector-curvature="0"
       sodipodi:nodetypes="cccc"
       inkscape:transform-center-x="54.91025"
       inkscape:transform-center-y="-145.58616" />
    <path
       style="color:#000000;display:inline;overflow:visible;visibility:visible;fill:#ffffff;fill-opacity:1;fill-rule:nonzero;stroke:none;stroke-width:1.05745px;marker:none;enable-background:accumulate"
       d="m 495.64439,328.86206 c -35.91864,0.91973 -72.33324,2.04379 -107.08341,10.04309 -16.33789,3.75762 -31.91199,9.91442 -44.89257,18.75978 -14.03666,9.3482 -24.67261,21.63672 -31.91469,34.98667 -11.48075,20.94293 -15.265,44.33783 -12.54371,67.02339 2.96639,21.40379 15.02188,41.6596 32.35573,57.99881 8.21,7.60096 18.37854,13.77284 29.63422,18.21168 20.94889,8.73456 43.45331,14.99571 66.45869,19.2124 29.98902,5.38053 60.72932,8.09362 91.45923,8.21752 19.52724,0.0419 39.15325,-1.18097 58.15239,-4.94031 25.72253,-4.87197 50.65445,-12.68168 73.3549,-23.54205 22.40974,-11.52897 40.3348,-29.33948 46.93444,-50.18749 8.92154,-25.39595 9.52336,-52.62447 1.95384,-78.28739 -3.92788,-12.77283 -11.35726,-24.93685 -22.40432,-34.74583 -10.72089,-9.80501 -24.60067,-17.17315 -39.61474,-22.10094 -26.71287,-9.41715 -55.622,-13.79242 -84.28583,-17.48016 -19.05853,-2.16773 -38.31304,-3.24468 -57.56417,-3.16917 z"
       id="path4546-6-5-5"
       inkscape:connector-curvature="0"
       sodipodi:nodetypes="cssssc" />
    <path
       style="color:#000000;display:inline;overflow:visible;visibility:visible;fill:#ffffff;fill-opacity:1;fill-rule:nonzero;stroke:none;stroke-width:0.670353px;marker:none;enable-background:accumulate"
       d="m 265.80542,131.21981 c -22.54265,0.59902 -45.37873,4.01464 -66.55265,14.65024 -11.49457,6.02208 -22.1362,16.48559 -27.77785,31.19363 -6.59232,18.01727 -6.9725,39.32261 -2.40139,58.21671 3.0225,11.72358 9.1833,22.1898 17.52915,28.18916 13.00114,10.08761 27.86731,15.20598 42.73898,17.89813 11.45384,2.07838 22.98707,3.27705 34.49151,4.7543 21.05827,2.2399 42.30784,2.54615 63.30319,-0.88743 19.27457,-3.10055 38.58053,-7.86863 56.6632,-17.38375 9.76999,-5.15618 19.39481,-11.86425 26.4462,-22.34508 9.67653,-13.96345 12.60185,-34.4008 9.3681,-52.47843 -2.40147,-13.93329 -8.61388,-26.80906 -17.60645,-35.0287 -10.95703,-10.29432 -24.29449,-14.80715 -37.35128,-18.09782 -20.14137,-4.9648 -40.66277,-6.21778 -61.08251,-7.76112 -12.57821,-0.78602 -25.17595,-1.18258 -37.7682,-0.91984 z"
       id="path4546-6-5-3"
       inkscape:connector-curvature="0"
       sodipodi:nodetypes="cssssc" />
    <path
       id="path1081"
       style="fill:#ffffff;fill-rule:evenodd;stroke:none;stroke-width:1px;stroke-linecap:butt;stroke-linejoin:miter;stroke-opacity:1"
       d="m 284.88534,268.54317 c -10.34602,0.0639 -20.49884,2.27426 -30.72657,3.55078 -2.69982,4.93778 -4.08222,10.48922 -6.23101,15.68234 -5.67931,15.85263 -11.23804,31.88728 -14.15471,48.50943 -1.55744,12.04107 -0.85288,24.84605 5.20433,35.64519 9.1497,17.95023 22.70579,33.83652 27.94646,53.6304 3.09231,10.90551 5.52274,22.36337 4.35032,33.73572 -2.11881,9.59327 -8.21891,17.62309 -11.87847,26.63366 -6.87167,15.32803 -10.49807,32.77889 -6.43519,49.37594 1.01596,4.68537 2.40213,9.28257 3.95804,13.81467 -2.44284,-26.62563 4.52474,-54.43511 21.1636,-75.60842 5.87927,-7.58781 10.3557,-16.41037 11.5087,-26.03213 2.42129,-15.20105 -1.52987,-30.55332 -7.50308,-44.47184 -6.35087,-15.65438 -14.74681,-30.53834 -19.38839,-46.84497 -2.53518,-14.1623 4.48464,-27.52853 11.07638,-39.5497 6.64471,-12.19187 14.72253,-23.64193 20.19033,-36.44305 2.35665,-5.59735 -3.25033,-12.19349 -9.08074,-11.62802 z" />
    <path
       style="color:#000000;display:inline;overflow:visible;visibility:visible;fill:#ffffff;fill-opacity:1;fill-rule:nonzero;stroke:none;stroke-width:0.747612px;marker:none;enable-background:accumulate"
       d="m 903.47323,423.89821 c -18.9163,43.05933 7.76445,109.91577 72.92293,106.93311 -68.14816,-13.59779 -57.39021,-76.38702 -42.04734,-98.72261 11.38358,-12.84697 -30.87559,-8.2105 -30.87559,-8.2105 z"
       id="path3978-4"
       inkscape:connector-curvature="0"
       sodipodi:nodetypes="cccc" />
    <path
       style="fill:#ffffff;fill-rule:evenodd;stroke:none;stroke-width:1.17292px;stroke-linecap:butt;stroke-linejoin:miter;stroke-opacity:1"
       d="m 2105.6372,449.67287 c 46.9908,56.36735 25.0644,96.94489 0.9732,119.18809 57.8143,-39.15954 50.7085,-84.22782 24.8731,-138.46075 -6.4903,-8.77797 -25.8463,19.27266 -25.8463,19.27266 z"
       id="path1359"
       inkscape:connector-curvature="0"
       sodipodi:nodetypes="cccc" />
    <path
       style="color:#000000;display:inline;overflow:visible;visibility:visible;fill:#ffffff;fill-opacity:1;fill-rule:nonzero;stroke:none;stroke-width:0.497909px;marker:none;enable-background:accumulate"
       d="m 769.80573,1784.4258 c -18.96629,0.867 -38.28802,5.9216 -54.49503,18.3531 -11.33491,9.5893 -17.48646,26.9834 -16.07747,43.572 0.45788,13.3373 4.17545,27.3028 12.69217,36.2633 9.35651,9.28 21.5025,12.594 33.12964,15.0694 16.84366,3.3542 33.89207,5.3796 50.96404,5.6186 22.7562,-0.1737 45.59797,-5.0256 66.75704,-15.3087 8.76281,-4.6176 17.28085,-11.9976 21.00002,-23.0724 7.84766,-22.3457 0.0196,-50.8982 -17.26036,-63.133 -12.52342,-9.2197 -27.27841,-12.1995 -41.59639,-14.2998 -18.28798,-2.4933 -36.72054,-3.2792 -55.11366,-3.0625 z"
       id="path4546-6-5-3-5"
       inkscape:connector-curvature="0"
       sodipodi:nodetypes="cssssc" />
    <path
       style="color:#000000;display:inline;overflow:visible;visibility:visible;fill:#ffffff;fill-opacity:1;fill-rule:nonzero;stroke:none;stroke-width:0.710537px;marker:none;enable-background:accumulate"
       d="m 849.98651,1849.2956 c 26.9288,18.2447 60.46856,37.1401 111.40082,-0.4118 -51.33263,27.0778 -81.7058,-0.5873 -98.47579,-20.0818 -9.1535,-13.7188 -12.92502,20.4935 -12.92503,20.4936 z"
       id="path3978-4-3"
       inkscape:connector-curvature="0"
       sodipodi:nodetypes="cccc" />
  </g>
  <g
     inkscape:groupmode="layer"
     id="layer1"
     inkscape:label="txt">
    <text
       xml:space="preserve"
       style="font-style:normal;font-variant:normal;font-weight:normal;font-stretch:normal;font-size:45px;line-height:1.25;font-family:Lavi;-inkscape-font-specification:Lavi;text-align:center;letter-spacing:0px;word-spacing:0px;text-anchor:middle;fill:#000000;fill-opacity:1;stroke:none"
       x="293.59711"
       y="189.32704"
       id="text4246-3-2-2-6-3-7-9-3"><tspan
         style="font-size:45px"
         sodipodi:role="line"
         x="293.59711"
         y="189.32704"
         id="tspan60">Si jo ti</tspan><tspan
         style="font-size:45px"
         sodipodi:role="line"
         x="293.59711"
         y="245.57704"
         id="tspan1054">povabila?</tspan></text>
    <text
       xml:space="preserve"
       style="font-style:normal;font-variant:normal;font-weight:normal;font-stretch:normal;font-size:45px;line-height:1.25;font-family:Lavi;-inkscape-font-specification:Lavi;text-align:center;letter-spacing:0px;word-spacing:0px;text-anchor:middle;fill:#000000;fill-opacity:1;stroke:none"
       x="504.21497"
       y="397.75031"
       id="text4246-3-2-2-6-3-7-9-3-3"><tspan
         style="font-size:45px"
         sodipodi:role="line"
         x="504.21497"
         y="397.75031"
         id="tspan71">Da. To je moja</tspan><tspan
         style="font-size:45px"
         sodipodi:role="line"
         x="504.21497"
         y="454.00031"
         id="tspan75">prijateljica Pepper.</tspan><tspan
         style="font-size:45px"
         sodipodi:role="line"
         x="504.21497"
         y="510.25031"
         id="tspan5136">Vse je v redu.</tspan></text>
    <text
       xml:space="preserve"
       style="font-style:normal;font-variant:normal;font-weight:normal;font-stretch:normal;font-size:45px;line-height:1.25;font-family:Lavi;-inkscape-font-specification:Lavi;text-align:center;letter-spacing:0px;word-spacing:0px;text-anchor:middle;fill:#000000;fill-opacity:1;stroke:none"
       x="891.49414"
       y="149.47253"
       id="text4246-3-2-2-6-3-7-9-3-3-5"><tspan
         style="font-size:45px"
         sodipodi:role="line"
         x="891.49414"
         y="149.47253"
         id="tspan878">Korenček, je</tspan><tspan
         style="font-size:45px"
         sodipodi:role="line"
         x="891.49414"
         y="205.72253"
         id="tspan13498">vse v redu?</tspan></text>
    <text
       xml:space="preserve"
       style="font-style:normal;font-variant:normal;font-weight:normal;font-stretch:normal;font-size:40px;line-height:1.25;font-family:Lavi;-inkscape-font-specification:Lavi;text-align:center;letter-spacing:0px;word-spacing:0px;text-anchor:middle;fill:#000000;fill-opacity:1;stroke:none"
       x="904.83051"
       y="272.76489"
       id="text4246-3-2-2-6-3-7-9-3-3-5-9"><tspan
         sodipodi:role="line"
         x="904.83051"
         y="272.76489"
         style="font-size:40px"
         id="tspan71915">Oprosti za zasilen</tspan><tspan
         sodipodi:role="line"
         x="904.83051"
         y="322.76489"
         style="font-size:40px"
         id="tspan77603">pristanek, na žalost</tspan><tspan
         sodipodi:role="line"
         x="904.83051"
         y="372.76489"
         style="font-size:40px"
         id="tspan81289">hiper pogona še ne</tspan><tspan
         sodipodi:role="line"
         x="904.83051"
         y="422.76489"
         style="font-size:40px"
         id="tspan112303">obvladam.</tspan></text>
    <text
       xml:space="preserve"
       style="font-style:normal;font-variant:normal;font-weight:normal;font-stretch:normal;font-size:45px;line-height:1.25;font-family:Lavi;-inkscape-font-specification:Lavi;text-align:center;letter-spacing:0px;word-spacing:0px;text-anchor:middle;fill:#000000;fill-opacity:1;stroke:none"
       x="1741.38"
       y="223.64545"
       id="text4246-3-2-2-6-3-7-9-3-3-5-9-2"><tspan
         style="font-size:45px"
         sodipodi:role="line"
         x="1741.38"
         y="223.64545"
         id="tspan167">Še enkrat se oproščam</tspan><tspan
         style="font-size:45px"
         sodipodi:role="line"
         x="1741.38"
         y="279.89545"
         id="tspan36033">za okoliščine.</tspan></text>
    <text
       xml:space="preserve"
       style="font-style:normal;font-variant:normal;font-weight:normal;font-stretch:normal;font-size:45px;line-height:1.25;font-family:Lavi;-inkscape-font-specification:Lavi;text-align:center;letter-spacing:0px;word-spacing:0px;text-anchor:middle;fill:#000000;fill-opacity:1;stroke:none"
       x="2037.0015"
       y="366.36926"
       id="text4246-3-2-2-6-3-7-9-3-3-5-9-2-6"><tspan
         style="font-size:45px"
         sodipodi:role="line"
         x="2037.0015"
         y="366.36926"
         id="tspan171">in kar se tiče</tspan><tspan
         style="font-size:45px"
         sodipodi:role="line"
         x="2037.0015"
         y="422.61926"
         id="tspan47935">mojega oblačila...</tspan></text>
    <text
       xml:space="preserve"
       style="font-style:normal;font-variant:normal;font-weight:normal;font-stretch:normal;font-size:45px;line-height:1.25;font-family:Lavi;-inkscape-font-specification:Lavi;text-align:center;letter-spacing:0px;word-spacing:0px;text-anchor:middle;fill:#000000;fill-opacity:1;stroke:none"
       x="786.79211"
       y="1859.8729"
       id="text4246-3-2-2-6-3-7-9-3-3-5-9-2-6-3"><tspan
         style="font-size:45px"
         sodipodi:role="line"
         x="786.79211"
         y="1859.8729"
         id="tspan8459-7">hi hi</tspan></text>
    <text
       xml:space="preserve"
       style="font-style:normal;font-variant:normal;font-weight:normal;font-stretch:normal;font-size:45px;line-height:1.25;font-family:Lavi;-inkscape-font-specification:Lavi;text-align:center;letter-spacing:0px;word-spacing:0px;text-anchor:middle;fill:#000000;fill-opacity:1;stroke:none"
       x="922.21698"
       y="2143.4609"
       id="text4246-3-2-2-6-3-7-9-3-3-5-9-2-6-1"><tspan
         style="font-size:45px"
         sodipodi:role="line"
         x="922.21698"
         y="2143.4609"
         id="tspan1077-7">Shichimi,</tspan></text>
    <text
       xml:space="preserve"
       style="font-style:normal;font-variant:normal;font-weight:normal;font-stretch:normal;font-size:45px;line-height:1.25;font-family:Lavi;-inkscape-font-specification:Lavi;text-align:center;letter-spacing:0px;word-spacing:0px;text-anchor:middle;fill:#000000;fill-opacity:1;stroke:none"
       x="1192.7096"
       y="2212.5486"
       id="text4246-3-2-2-6-3-7-9-3-3-5-9-2-6-1-9"><tspan
         style="font-size:45px"
         x="1192.7096"
         y="2212.5486"
         sodipodi:role="line"
         id="tspan1137">ta mlada čarovnica,</tspan><tspan
         style="font-size:45px"
         x="1192.7096"
         y="2268.7986"
         sodipodi:role="line"
         id="tspan124317">ki je pravkar prispela, je</tspan><tspan
         style="font-size:45px"
         x="1192.7096"
         y="2325.0486"
         sodipodi:role="line"
         id="tspan126703">zares tvoja prijateljica?</tspan></text>
  </g>
</svg>
