<?xml version="1.0" encoding="UTF-8" standalone="no"?>
<!-- Created with Inkscape (http://www.inkscape.org/) -->

<svg
   id="svg2"
   version="1.1"
   inkscape:version="1.2.1 (9c6d41e410, 2022-07-14)"
   width="2481"
   height="3503"
   sodipodi:docname="E37P03.svg"
   xmlns:inkscape="http://www.inkscape.org/namespaces/inkscape"
   xmlns:sodipodi="http://sodipodi.sourceforge.net/DTD/sodipodi-0.dtd"
   xmlns:xlink="http://www.w3.org/1999/xlink"
   xmlns="http://www.w3.org/2000/svg"
   xmlns:svg="http://www.w3.org/2000/svg"
   xmlns:rdf="http://www.w3.org/1999/02/22-rdf-syntax-ns#"
   xmlns:cc="http://creativecommons.org/ns#"
   xmlns:dc="http://purl.org/dc/elements/1.1/">
  <metadata
     id="metadata8">
    <rdf:RDF>
      <cc:Work
         rdf:about="">
        <dc:format>image/svg+xml</dc:format>
        <dc:type
           rdf:resource="http://purl.org/dc/dcmitype/StillImage" />
        <dc:title />
      </cc:Work>
    </rdf:RDF>
  </metadata>
  <defs
     id="defs6" />
  <sodipodi:namedview
     pagecolor="#ffffff"
     bordercolor="#666666"
     borderopacity="1"
     objecttolerance="10"
     gridtolerance="10"
     guidetolerance="10"
     inkscape:pageopacity="0"
     inkscape:pageshadow="2"
     inkscape:window-width="1366"
     inkscape:window-height="703"
     id="namedview4"
     showgrid="false"
     inkscape:zoom="0.748119"
     inkscape:cx="1661.5004"
     inkscape:cy="3106.4577"
     inkscape:window-x="0"
     inkscape:window-y="0"
     inkscape:window-maximized="1"
     inkscape:current-layer="layer1"
     inkscape:pagecheckerboard="0"
     inkscape:showpageshadow="0"
     inkscape:deskcolor="#d1d1d1" />
  <g
     inkscape:groupmode="layer"
     id="layer2"
     inkscape:label="artwork"
     sodipodi:insensitive="true">
    <image
       xlink:href="../gfx_Pepper-and-Carrot_by-David-Revoy_E37P03.png"
       y="0"
       x="0"
       id="image10"
       height="3503"
       width="2481" />
  </g>
  <g
     inkscape:groupmode="layer"
     id="layer3"
     inkscape:label="speechbubbles">
    <path
       style="color:#000000;display:inline;overflow:visible;visibility:visible;fill:#ffffff;fill-opacity:1;fill-rule:nonzero;stroke:none;stroke-width:1.176px;marker:none;enable-background:accumulate"
       d="m 1485.9524,316.36532 c -38.6929,0.55571 -62.515,-7.73219 -94.8219,14.06244 -29.6037,21.30236 -41.9189,48.88703 -51.1433,109.74258 -4.5584,30.07306 -8.6419,83.55843 19.441,99.65381 34.7701,19.92814 117.9949,21.11061 168.6489,20.05503 25.7031,-0.53564 85.3841,-3.4804 110.6818,-7.92203 18.4405,-3.39573 45.4161,-6.304 66.4441,-16.63201 36.1133,-28.25364 24.682,-73.41848 19.3526,-117.20667 -6.2081,-30.78812 -14.8224,-60.97069 -42.5616,-75.97856 -23.4058,-13.28291 -50.8435,-16.50712 -77.2273,-20.21412 -36.4856,-4.78962 -73.3521,-4.82758 -110.0779,-5.56382 -2.9122,-0.009 -5.8243,-8.3e-4 -8.7364,0.003 z"
       id="path3365-7"
       inkscape:connector-curvature="0"
       sodipodi:nodetypes="csssscccccccc" />
    <path
       style="fill:#ffffff;stroke:none"
       d="m 360.81076,483.27055 c -24.56923,-19.74397 -22.57209,-29.32044 -19.38779,-40.05561 3.18412,-10.73531 7.28186,-20.14814 3.61763,-26.41179 -3.66404,-6.26351 -11.74206,-11.72395 -18.29755,-14.98031 -6.55548,-3.25646 -0.45551,-10.46603 0.21288,-18.13003 0.66831,-7.66412 -10.65562,-47.81818 -10.65562,-47.81818 0,0 -16.12893,27.00135 -18.3493,36.73423 -2.22054,9.73275 -3.08233,13.28039 -2.88893,17.39675 0.19358,4.1165 2.17394,14.17648 7.99925,19.25288 5.82532,5.0764 13.79112,7.01762 19.0679,9.86162 5.27689,2.84391 3.98478,11.55697 3.32674,20.195 -0.65814,8.63801 0.27632,15.01927 9.71886,26.19244 8.09394,9.57758 25.63593,17.763 25.63593,17.763 z"
       id="path3023-2"
       inkscape:connector-curvature="0"
       sodipodi:nodetypes="csssscssssssc" />
    <path
       style="color:#000000;display:inline;overflow:visible;visibility:visible;fill:#ffffff;fill-opacity:1;fill-rule:nonzero;stroke:none;stroke-width:0.999998px;marker:none;enable-background:accumulate"
       d="m 458.87839,819.37296 c -16.6818,-24.82678 6.70933,-94.25013 56.4409,-100.94979 -22.32483,1.35916 -74.47842,-5.24564 -96.28686,102.62894 -9.86485,48.79671 26.31789,-1.15111 26.31789,-1.15111 z"
       id="path4035-4"
       inkscape:connector-curvature="0"
       sodipodi:nodetypes="ccscc" />
    <path
       style="color:#000000;display:inline;overflow:visible;visibility:visible;fill:#ffffff;fill-opacity:1;fill-rule:nonzero;stroke:none;stroke-width:0.999998px;marker:none;enable-background:accumulate"
       d="m 302.3578,735.89923 c -44.35013,0.83872 -88.92299,5.00111 -126.48843,30.89295 -25.20469,18.41674 -43.59171,56.05052 -50.24946,88.20165 -7.72962,35.46048 -2.35762,74.90285 17.48058,104.75571 16.20205,23.94049 41.18328,39.23293 67.12596,47.44066 28.83975,9.0987 59.14004,9.3515 88.92174,10.3934 33.73635,0.7499 67.57872,-0.3955 101.07954,-4.9305 29.07387,-5.097 58.16829,-15.75454 81.17307,-36.24372 18.55755,-17.44238 28.68446,-43.87927 29.55688,-70.2214 3.81506,-49.24616 -15.41254,-100.7842 -51.99696,-130.95919 -22.42885,-18.67966 -50.26548,-27.6581 -77.8407,-32.48997 -25.99274,-4.83612 -52.39164,-7.09421 -78.76222,-6.83959 z"
       id="path4040-4-5-3"
       inkscape:connector-curvature="0"
       sodipodi:nodetypes="zsssszcccccz" />
    <path
       style="color:#000000;display:inline;overflow:visible;visibility:visible;fill:#ffffff;fill-opacity:1;fill-rule:nonzero;stroke:none;stroke-width:0.999996px;marker:none;enable-background:accumulate"
       d="m 156.93458,173.77864 c -29.74413,28.74696 -43.98033,57.13517 -42.17772,95.38282 1.70883,18.62023 6.61221,65.5911 18.53685,80.4381 15.61424,20.06692 39.89457,18.41129 64.51439,23.42851 28.15297,6.04374 57.10969,5.43787 85.73879,5.91489 28.64066,-0.11756 57.54665,-0.45076 85.69499,-6.3179 24.5611,-5.57977 56.10841,-7.93637 75.04774,-24.87787 14.14784,-13.80581 19.73279,-49.3853 21.36429,-68.77942 3.30286,-27.35127 -3.24804,-47.67624 -13.11131,-73.71546 -40.24261,-54.94149 -111.19073,-64.34804 -153.96385,-64.14883 -57.61452,0.26834 -106.38102,-1.40579 -141.64417,32.67516 z"
       id="path4040-4-5-3-5"
       inkscape:connector-curvature="0"
       sodipodi:nodetypes="sczccccccss" />
    <path
       style="display:inline;fill:#ffffff;stroke:none;stroke-width:1.01856"
       d="m 1378.7846,123.51953 c -42.1086,0.40617 -76.6951,5.42744 -115.9965,23.81771 -22.9055,21.5808 -42.7506,52.49495 -50.8789,90.14894 -4.8865,22.63656 -5.9642,49.43475 5.1995,69.09399 11.1176,19.23993 19.52,34.45706 37.7144,42.73984 33.4175,15.60249 78.9695,20.3522 114.9602,19.17188 32.875,-1.53179 65.0501,-10.72042 97.8678,-13.02056 37.2084,-3.50776 74.8666,-4.49918 111.3134,-14.81556 14.0241,-3.50551 26.924,-13.04546 35.1744,-26.79384 6.8613,-11.01375 10.0805,-24.37021 12.5301,-37.49384 3.6333,-21.58647 2.8536,-44.2787 -2.6531,-65.34013 -6.791,-23.36708 -21.6498,-43.07285 -40.1504,-54.86138 -25.7042,-17.65084 -55.7107,-23.35061 -84.887,-27.51709 -39.8759,-5.47922 -80.1113,-5.11327 -120.1939,-5.12996 z"
       id="path3280-8-2"
       inkscape:connector-curvature="0"
       sodipodi:nodetypes="ccsccccccccccc" />
    <path
       style="fill:#ffffff;fill-rule:evenodd;stroke:none;stroke-width:0.999999px;stroke-linecap:butt;stroke-linejoin:miter;stroke-opacity:1"
       d="m 1615.4482,493.17881 c -6.3324,4.61753 23.1312,48.65505 53.6406,67.52901 38.9988,24.12578 112.2777,14.3494 131.5101,5.98579 -39.7827,19.67647 -151.2589,38.53306 -215.4148,-49.39071 -15.2092,-20.84384 30.2641,-24.12409 30.2641,-24.12409 z"
       id="path1357"
       inkscape:connector-curvature="0"
       inkscape:transform-center-x="-30.354172"
       inkscape:transform-center-y="-147.57618"
       sodipodi:nodetypes="cscsc" />
    <path
       style="color:#000000;display:inline;overflow:visible;visibility:visible;fill:#ffffff;fill-opacity:1;fill-rule:nonzero;stroke:none;stroke-width:1.44436px;marker:none;enable-background:accumulate"
       d="m 132.41272,2766.641 c 4.10361,-40.9311 51.99031,-70.8065 176.09741,-62.9086 66.47832,4.2304 141.97518,7.0559 136.73494,67.0179 -5.2403,59.9625 -113.76635,58.2491 -136.17973,59.616 -22.41347,1.3673 -139.07816,-5.106 -159.37927,-25.5378 -12.70793,-12.7898 -17.70577,-25.5099 -17.27335,-38.1875 z"
       id="path4546-6-5"
       inkscape:connector-curvature="0"
       sodipodi:nodetypes="cssssc" />
    <path
       style="color:#000000;display:inline;overflow:visible;visibility:visible;fill:#ffffff;fill-opacity:1;fill-rule:nonzero;stroke:none;stroke-width:1.44436px;marker:none;enable-background:accumulate"
       d="m 870.04024,3238.0308 c 4.11165,-77.3788 52.09222,-133.8572 176.44246,-118.9264 66.6087,7.9973 136.4091,13.2188 137.0031,126.6948 0.5746,109.7637 -41.2617,108.4087 -136.4468,112.7019 -79.55888,3.5884 -141.78401,-3.6192 -160.57442,-42.1633 -11.97452,-24.5629 -16.85761,-54.3405 -16.42434,-78.307 z"
       id="path4546-6-5-2"
       inkscape:connector-curvature="0"
       sodipodi:nodetypes="cssssc" />
    <path
       style="fill:#ffffff;fill-rule:evenodd;stroke:none;stroke-width:0.999999px;stroke-linecap:butt;stroke-linejoin:miter;stroke-opacity:1"
       d="m 1395.4363,3271.7707 c 20.0034,-17.8161 30.5991,-17.0035 52.1413,-18.7273 21.5419,-1.7244 74.7341,-5.6068 95.7631,-1.0095 21.0294,4.5978 41.0327,9.7705 46.1618,16.0922 5.129,6.3217 17.4388,24.7127 17.4388,32.7588 0,8.0461 7.1806,34.4827 -6.1549,51.7245 -13.3356,17.2414 -26.6712,29.8854 -50.7777,29.3105 -24.1067,-0.5748 -57.4456,0 -73.3458,0.5749 -15.9001,0.5741 -64.6262,-6.8972 -73.3456,-21.8393 -8.7195,-14.9426 -21.0292,-37.3566 -18.9776,-50.0006 2.0517,-12.6435 11.0966,-38.8842 11.0966,-38.8842 z"
       id="path1289"
       inkscape:connector-curvature="0"
       sodipodi:nodetypes="csssssssscc" />
    <path
       style="fill:#ffffff;fill-rule:evenodd;stroke:none;stroke-width:1px;stroke-linecap:butt;stroke-linejoin:miter;stroke-opacity:1"
       d="m 1520.7213,3290.478 c 0,0 0.2613,-30.8716 9.7849,-41.8248 9.5236,-10.953 35.9725,-32.826 61.189,-35.0384 -49.4537,-3.6057 -69.9603,11.1043 -78.3427,19.1018 -8.3839,7.9982 -32.4023,48.2786 -32.4023,48.2786 z"
       id="path1367-3"
       inkscape:connector-curvature="0" />
    <path
       style="color:#000000;display:inline;overflow:visible;visibility:visible;fill:#ffffff;fill-opacity:1;fill-rule:nonzero;stroke:none;stroke-width:1px;marker:none;enable-background:accumulate"
       d="m 371.05804,2770.2315 c -13.44223,35.2759 -28.63005,94.9961 57.30853,115.005 -17.80709,4.5085 -119.29491,-9.1273 -91.99905,-114.8163 7.92058,-30.6682 15.69642,-16.5134 23.06049,-15.8694 7.36416,0.6441 11.63003,15.6807 11.63003,15.6807 z"
       id="path4064-5"
       inkscape:connector-curvature="0"
       sodipodi:nodetypes="ccszc" />
    <path
       style="color:#000000;display:inline;overflow:visible;visibility:visible;fill:#ffffff;fill-opacity:1;fill-rule:nonzero;stroke:none;stroke-width:1px;marker:none;enable-background:accumulate"
       d="m 985.81867,3194.6677 c 41.23993,-57.572 33.73823,-151.8082 -50.60213,-153.341 81.57176,24.5899 42.90889,109.9963 14.4588,139.3816 -19.62934,16.6806 36.14333,13.9594 36.14333,13.9594 z"
       id="path3978-4"
       inkscape:connector-curvature="0"
       sodipodi:nodetypes="cccc" />
  </g>
  <g
     inkscape:groupmode="layer"
     id="layer1"
     inkscape:label="txt">
    <text
       xml:space="preserve"
       style="font-style:normal;font-variant:normal;font-weight:normal;font-stretch:normal;font-size:45.3333px;line-height:125%;font-family:Lavi;-inkscape-font-specification:Lavi;text-align:center;letter-spacing:0px;word-spacing:0px;text-anchor:middle;fill:#000000;fill-opacity:1;stroke:none"
       x="286.76904"
       y="214.44939"
       id="text4246-70-2-2-2-7-4-9-9-6-1-2-3-9-2-7-9-3"><tspan
         sodipodi:role="line"
         style="font-size:45.3333px"
         x="286.76904"
         y="214.44939"
         id="tspan1051">Dei har</tspan><tspan
         sodipodi:role="line"
         style="font-size:45.3333px"
         x="286.76904"
         y="271.11603"
         id="tspan262">verkeleg hengt</tspan><tspan
         sodipodi:role="line"
         style="font-size:45.3333px"
         x="286.76904"
         y="327.78265"
         id="tspan264">desse overalt.</tspan></text>
    <text
       xml:space="preserve"
       style="font-style:normal;font-variant:normal;font-weight:normal;font-stretch:normal;font-size:45.3333px;line-height:125%;font-family:Lavi;-inkscape-font-specification:Lavi;text-align:center;letter-spacing:0px;word-spacing:0px;text-anchor:middle;fill:#000000;fill-opacity:1;stroke:none"
       x="316.19238"
       y="809.34698"
       id="text4246-70-2-2-2-7-4-9-9-6-1-2-3-9-2-7-9-3-3"><tspan
         sodipodi:role="line"
         style="font-size:45.3333px"
         x="316.19238"
         y="809.34698"
         id="tspan1165">Til og med </tspan><tspan
         sodipodi:role="line"
         style="font-size:45.3333px"
         x="316.19238"
         y="866.01361"
         id="tspan409">på dei mest</tspan><tspan
         sodipodi:role="line"
         style="font-size:45.3333px"
         x="316.19238"
         y="922.68024"
         id="tspan368">avsidesliggjande</tspan><tspan
         sodipodi:role="line"
         style="font-size:45.3333px"
         x="316.19238"
         y="979.34686"
         id="tspan370">stadane.</tspan></text>
    <text
       xml:space="preserve"
       style="font-style:normal;font-variant:normal;font-weight:normal;font-stretch:normal;font-size:45.3333px;line-height:125%;font-family:Lavi;-inkscape-font-specification:Lavi;text-align:center;letter-spacing:0px;word-spacing:0px;text-anchor:middle;fill:#000000;fill-opacity:1;stroke:none"
       x="1418.5513"
       y="199.31473"
       id="text4246-70-2-2-2-7-4-9-9-6-1-2-3-9-2-7-9-3-6"><tspan
         sodipodi:role="line"
         style="font-size:45.3333px"
         x="1418.5513"
         y="199.31473"
         id="tspan1175">Kom, me bør</tspan><tspan
         sodipodi:role="line"
         style="font-size:45.3333px"
         x="1418.5513"
         y="255.98135"
         id="tspan426">stikka før nokon</tspan><tspan
         sodipodi:role="line"
         style="font-size:45.3333px"
         x="1418.5513"
         y="312.64798"
         id="tspan509">kjenner oss att.</tspan></text>
    <text
       xml:space="preserve"
       style="font-style:normal;font-variant:normal;font-weight:normal;font-stretch:normal;font-size:45.3333px;line-height:125%;font-family:Lavi;-inkscape-font-specification:Lavi;text-align:center;letter-spacing:0px;word-spacing:0px;text-anchor:middle;fill:#000000;fill-opacity:1;stroke:none"
       x="1535.2148"
       y="400.40094"
       id="text4246-70-2-2-2-7-4-9-9-6-1-2-3-9-2-7-9-3-6-7"><tspan
         sodipodi:role="line"
         style="font-size:45.3333px"
         x="1535.2148"
         y="400.40094"
         id="tspan435">Me har verre</tspan><tspan
         sodipodi:role="line"
         style="font-size:45.3333px"
         x="1535.2148"
         y="457.06757"
         id="tspan561">ting å plagast</tspan><tspan
         sodipodi:role="line"
         style="font-size:45.3333px"
         x="1535.2148"
         y="513.73419"
         id="tspan439">med for tida ...</tspan></text>
    <text
       xml:space="preserve"
       style="font-style:normal;font-variant:normal;font-weight:normal;font-stretch:normal;font-size:45.3333px;line-height:125%;font-family:Lavi;-inkscape-font-specification:Lavi;text-align:center;letter-spacing:0px;word-spacing:0px;text-anchor:middle;fill:#000000;fill-opacity:1;stroke:none"
       x="288.28763"
       y="2779.7019"
       id="text4246-70-2-2-2-7-4-9-9-6-1-2-3-9-2-7-9-3-6-7-3"><tspan
         sodipodi:role="line"
         style="font-size:45.3333px"
         x="288.28763"
         y="2779.7019"
         id="tspan62644">Det lyset ...</tspan></text>
    <text
       xml:space="preserve"
       style="font-style:normal;font-variant:normal;font-weight:normal;font-stretch:normal;font-size:45.3333px;line-height:125%;font-family:Lavi;-inkscape-font-specification:Lavi;text-align:center;letter-spacing:0px;word-spacing:0px;text-anchor:middle;fill:#000000;fill-opacity:1;stroke:none"
       x="1029.2864"
       y="3197.2888"
       id="text4246-70-2-2-2-7-4-9-9-6-1-2-3-9-2-7-9-3-6-7-3-6"><tspan
         sodipodi:role="line"
         style="font-size:45.3333px"
         x="1029.2864"
         y="3197.2888"
         id="tspan452">Reiret kan</tspan><tspan
         sodipodi:role="line"
         style="font-size:45.3333px"
         x="1029.2864"
         y="3253.9556"
         id="tspan664">ikkje vera</tspan><tspan
         sodipodi:role="line"
         style="font-size:45.3333px"
         x="1029.2864"
         y="3310.6221"
         id="tspan666">langt unna.</tspan></text>
    <text
       xml:space="preserve"
       style="font-style:normal;font-variant:normal;font-weight:normal;font-stretch:normal;font-size:48.525px;line-height:125%;font-family:Lavi;-inkscape-font-specification:Lavi;text-align:center;letter-spacing:0px;word-spacing:0px;text-anchor:middle;fill:#000000;fill-opacity:1;stroke:none;stroke-width:1"
       x="1498.4827"
       y="3331.2891"
       id="text4246-70-2-2-2-7-4-9-9-6-1-2-3-9-2-7-9-3-6-7-3-6-7"><tspan
         sodipodi:role="line"
         style="font-style:normal;font-variant:normal;font-weight:bold;font-stretch:normal;font-size:48.525px;font-family:Lavi;-inkscape-font-specification:'Lavi Bold';stroke-width:1"
         x="1498.4827"
         y="3331.2891"
         id="tspan121879-0">Bingo!</tspan></text>
    <text
       xml:space="preserve"
       style="font-size:40px;line-height:1.25;font-family:sans-serif;letter-spacing:0px;word-spacing:0px"
       x="1427.3058"
       y="272.84277"
       id="text419"><tspan
         sodipodi:role="line"
         id="tspan417" /></text>
  </g>
</svg>
