<?xml version="1.0" encoding="UTF-8" standalone="no"?>
<!-- Created with Inkscape (http://www.inkscape.org/) -->

<svg
   id="svg2"
   version="1.1"
   inkscape:version="1.2.1 (9c6d41e410, 2022-07-14)"
   width="2481"
   height="3503"
   sodipodi:docname="E36P10.svg"
   xmlns:inkscape="http://www.inkscape.org/namespaces/inkscape"
   xmlns:sodipodi="http://sodipodi.sourceforge.net/DTD/sodipodi-0.dtd"
   xmlns:xlink="http://www.w3.org/1999/xlink"
   xmlns="http://www.w3.org/2000/svg"
   xmlns:svg="http://www.w3.org/2000/svg"
   xmlns:rdf="http://www.w3.org/1999/02/22-rdf-syntax-ns#"
   xmlns:cc="http://creativecommons.org/ns#"
   xmlns:dc="http://purl.org/dc/elements/1.1/">
  <metadata
     id="metadata8">
    <rdf:RDF>
      <cc:Work
         rdf:about="">
        <dc:format>image/svg+xml</dc:format>
        <dc:type
           rdf:resource="http://purl.org/dc/dcmitype/StillImage" />
        <dc:title />
      </cc:Work>
    </rdf:RDF>
  </metadata>
  <defs
     id="defs6">
    <filter
       style="color-interpolation-filters:sRGB"
       id="filter4375-4-1-1-1-9-6-9-2-1-5-4"
       inkscape:label="deevad outline effect"
       x="-0.0057058782"
       y="-0.011977643"
       width="1.0114118"
       height="1.0239553">
      <feFlood
         id="feFlood4377-7-9-0-8-1-0-2-2-06-5-3"
         flood-opacity="1"
         flood-color="rgb(0,0,0)"
         result="flood" />
      <feComposite
         id="feComposite4379-3-8-8-2-77-6-0-8-3-8-64"
         in2="SourceGraphic"
         in="flood"
         operator="in"
         result="composite1" />
      <feMorphology
         id="feMorphology4393-1-0-49-8-9-2-2-9-2-7-3"
         operator="dilate"
         radius="4"
         result="result3" />
      <feComposite
         id="feComposite4385-9-5-7-0-8-6-3-7-0-1-1"
         in2="result3"
         in="SourceGraphic"
         operator="over"
         result="composite2" />
    </filter>
  </defs>
  <sodipodi:namedview
     pagecolor="#1e1e1e"
     bordercolor="#111111"
     borderopacity="1"
     objecttolerance="10"
     gridtolerance="10"
     guidetolerance="10"
     inkscape:pageopacity="0"
     inkscape:pageshadow="2"
     inkscape:window-width="1261"
     inkscape:window-height="1388"
     id="namedview4"
     showgrid="false"
     inkscape:zoom="0.43852551"
     inkscape:cx="1280.4272"
     inkscape:cy="2320.2755"
     inkscape:window-x="1283"
     inkscape:window-y="36"
     inkscape:window-maximized="1"
     inkscape:current-layer="layer1"
     inkscape:pagecheckerboard="0"
     inkscape:snap-global="false"
     inkscape:showpageshadow="2"
     inkscape:deskcolor="#1e1e1e" />
  <g
     inkscape:groupmode="layer"
     id="layer2"
     inkscape:label="artwork"
     sodipodi:insensitive="true">
    <image
       xlink:href="../gfx_Pepper-and-Carrot_by-David-Revoy_E36P10.png"
       y="0"
       x="0"
       id="image10"
       height="3503"
       width="2481" />
  </g>
  <g
     inkscape:groupmode="layer"
     id="layer4"
     inkscape:label="speechbubbles-thoughts"
     style="display:inline;opacity:0.62085609;mix-blend-mode:multiply">
    <rect
       style="color:#000000;clip-rule:nonzero;display:inline;overflow:visible;visibility:visible;isolation:auto;mix-blend-mode:normal;color-interpolation:sRGB;color-interpolation-filters:linearRGB;solid-color:#000000;solid-opacity:1;fill:#2c0000;fill-opacity:1;fill-rule:nonzero;stroke:none;stroke-width:1.18977;stroke-linecap:butt;stroke-linejoin:miter;stroke-miterlimit:4;stroke-dasharray:none;stroke-dashoffset:0;stroke-opacity:1;marker:none;color-rendering:auto;image-rendering:auto;shape-rendering:auto;text-rendering:auto;enable-background:accumulate"
       id="rect4632-8-6-1-3-6-7-1-2"
       width="254.45607"
       height="97.491508"
       x="130.88094"
       y="2571.7817"
       ry="29.973288"
       rx="25.83275" />
    <rect
       style="color:#000000;clip-rule:nonzero;display:inline;overflow:visible;visibility:visible;opacity:1;isolation:auto;mix-blend-mode:normal;color-interpolation:sRGB;color-interpolation-filters:linearRGB;solid-color:#000000;solid-opacity:1;fill:#2c0000;fill-opacity:1;fill-rule:nonzero;stroke:none;stroke-width:2.46701;stroke-linecap:butt;stroke-linejoin:miter;stroke-miterlimit:4;stroke-dasharray:none;stroke-dashoffset:0;stroke-opacity:1;marker:none;color-rendering:auto;image-rendering:auto;shape-rendering:auto;text-rendering:auto;enable-background:accumulate"
       id="rect4632-8-6-1-3-6-7-1-2-2"
       width="689.35486"
       height="154.72061"
       x="159.45511"
       y="2662.7454"
       ry="39.999996"
       rx="39.185326" />
    <rect
       style="color:#000000;clip-rule:nonzero;display:inline;overflow:visible;visibility:visible;opacity:1;isolation:auto;mix-blend-mode:normal;color-interpolation:sRGB;color-interpolation-filters:linearRGB;solid-color:#000000;solid-opacity:1;fill:#2c0000;fill-opacity:1;fill-rule:nonzero;stroke:none;stroke-width:3.21442;stroke-linecap:butt;stroke-linejoin:miter;stroke-miterlimit:4;stroke-dasharray:none;stroke-dashoffset:0;stroke-opacity:1;marker:none;color-rendering:auto;image-rendering:auto;shape-rendering:auto;text-rendering:auto;enable-background:accumulate"
       id="rect4632-8-6-1-3-6-7-1-2-2-8"
       width="821.92572"
       height="220.30231"
       x="293.74713"
       y="3019.0554"
       ry="51.071972"
       rx="51.910267" />
    <rect
       style="color:#000000;clip-rule:nonzero;display:inline;overflow:visible;visibility:visible;opacity:1;isolation:auto;mix-blend-mode:normal;color-interpolation:sRGB;color-interpolation-filters:linearRGB;solid-color:#000000;solid-opacity:1;fill:#2c0000;fill-opacity:1;fill-rule:nonzero;stroke:none;stroke-width:2.04486;stroke-linecap:butt;stroke-linejoin:miter;stroke-miterlimit:4;stroke-dasharray:none;stroke-dashoffset:0;stroke-opacity:1;marker:none;color-rendering:auto;image-rendering:auto;shape-rendering:auto;text-rendering:auto;enable-background:accumulate"
       id="rect4632-8-6-1-3-6-7-1-2-2-8-9"
       width="454.591"
       height="161.19519"
       x="891.59888"
       y="3206.7432"
       ry="39.999996"
       rx="40" />
    <rect
       style="color:#000000;clip-rule:nonzero;display:inline;overflow:visible;visibility:visible;opacity:1;isolation:auto;mix-blend-mode:normal;color-interpolation:sRGB;color-interpolation-filters:linearRGB;solid-color:#000000;solid-opacity:1;fill:#2c0000;fill-opacity:1;fill-rule:nonzero;stroke:none;stroke-width:1.35263;stroke-linecap:butt;stroke-linejoin:miter;stroke-miterlimit:4;stroke-dasharray:none;stroke-dashoffset:0;stroke-opacity:1;marker:none;color-rendering:auto;image-rendering:auto;shape-rendering:auto;text-rendering:auto;enable-background:accumulate"
       id="rect4632-8-6-1-3-6-7-1-2-2-8-9-7"
       width="266.16364"
       height="120.46292"
       x="2032.3776"
       y="2554.6343"
       ry="39.999996"
       rx="40" />
    <rect
       style="color:#000000;clip-rule:nonzero;display:inline;overflow:visible;visibility:visible;isolation:auto;mix-blend-mode:normal;color-interpolation:sRGB;color-interpolation-filters:linearRGB;solid-color:#000000;solid-opacity:1;fill:#2c0000;fill-opacity:1;fill-rule:nonzero;stroke:none;stroke-width:3.02511;stroke-linecap:butt;stroke-linejoin:miter;stroke-miterlimit:4;stroke-dasharray:none;stroke-dashoffset:0;stroke-opacity:1;marker:none;color-rendering:auto;image-rendering:auto;shape-rendering:auto;text-rendering:auto;enable-background:accumulate"
       id="rect4632-8-6-1-3-6-7-1-2-2-5"
       width="741.22833"
       height="216.36043"
       x="210.65359"
       y="2811.3875"
       ry="53.322437"
       rx="38.456131" />
    <rect
       style="opacity:0.855;fill:#800000;-inkscape-stroke:none;stop-color:#000000"
       id="rect865"
       width="4.3537736"
       height="49.189037"
       x="445.68298"
       y="2804.3369"
       rx="39.585182"
       ry="49.189037" />
  </g>
  <g
     inkscape:groupmode="layer"
     id="layer3"
     inkscape:label="speechbubbles"
     style="display:inline">
    <path
       style="display:inline;fill:#ffffff;stroke:none;stroke-width:1.21437"
       d="m 644.68945,305.11637 c -42.93321,1.40888 -85.96636,7.30359 -126.9591,20.43048 -18.26857,7.14374 -35.15119,19.72304 -44.28326,37.41498 -9.04287,17.45127 -10.73126,37.54626 -10.51896,56.8888 0.097,18.20809 3.8582,37.17093 14.91333,52.04588 12.32801,16.85861 30.15644,28.54016 48.13406,38.60918 43.61719,23.65456 93.71574,33.14784 143.00372,33.22698 41.46688,0.11757 82.81129,-4.70127 123.58907,-11.96375 27.56532,-5.40224 55.10033,-13.62171 78.9738,-28.803 15.51263,-10.58899 26.96983,-27.13647 30.75845,-45.59629 4.59323,-18.98773 4.80709,-38.72458 3.75116,-58.13092 -1.7039,-16.02614 -7.89019,-32.30199 -20.26448,-43.11262 -15.10433,-14.38745 -34.68004,-22.69315 -54.01967,-29.71871 -31.65352,-10.48559 -65.13445,-12.79981 -98.05434,-16.49724 -29.57595,-2.98815 -59.28568,-4.93304 -89.02378,-4.79377 z"
       id="path3280-8-3"
       inkscape:connector-curvature="0"
       sodipodi:nodetypes="csssc" />
    <path
       style="display:inline;fill:#ffffff;fill-rule:evenodd;stroke:none;stroke-width:0.849084px;stroke-linecap:butt;stroke-linejoin:miter;stroke-opacity:1"
       d="m 533.14448,239.2656 c 23.09507,16.65285 21.78859,25.91315 -4.96235,27.46563 24.66928,9.2378 18.14836,13.63064 4.35256,16.89258 32.78146,18.71989 27.07979,23.26373 1.61512,26.24037 43.71975,10.54786 31.97316,38.52399 19.4384,52.30628 22.60873,-18.53919 13.84656,-9.08092 10.64028,22.06462 15.21865,-35.63303 39.30419,-1.21793 37.27461,26.67671 12.20207,-22.32392 23.8994,-30.29717 35.01618,-21.77594 27.96786,-19.38852 31.13577,10.72065 42.3193,24.83148 10.57557,-23.53224 21.57311,-23.32949 32.70464,-15.55841 8.09485,-9.64617 15.75338,-24.03098 26.86216,-0.93025 7.90402,-19.49934 12.82859,-4.80312 18.66895,-0.61536 -5.6443,-11.91082 9.05531,-13.89679 47.15618,-4.4685 -13.97385,-7.16207 -11.10084,-14.8075 11.65579,-23.02339 -28.56095,-22.92527 -15.55864,-55.42326 9.5561,-54.34861 -43.76563,-8.63761 -12.16586,-23.94864 13.70832,-38.9944 -39.77716,6.33293 -49.7708,4.85278 -48.22965,-24.50192 -45.33063,19.19361 -31.86011,5.69974 -30.33461,-3.12486 -33.63735,19.70176 -46.10236,0.49845 -44.61751,-14.78882 -35.77681,32.1157 -50.26507,0.68221 -60.3733,-18.87098 -14.34469,38.73602 -25.45614,22.48226 -36.55442,6.00173 -6.82443,33.16555 -13.446,22.84752 -20.07192,13.43902 -4.27666,14.20432 -13.71486,17.70549 -30.11198,6.77524 10.61143,12.74385 2.00005,14.12635 -35.71285,-1.69222 z"
       id="path4289-9"
       inkscape:connector-curvature="0"
       sodipodi:nodetypes="cccccccccccccccccccccccc" />
    <path
       style="color:#000000;display:inline;overflow:visible;visibility:visible;fill:#ffffff;fill-opacity:1;fill-rule:nonzero;stroke:none;stroke-width:1px;marker:none;enable-background:accumulate"
       d="m 444.5515,553.88809 c 49.22188,-23.08946 94.45166,-50.05947 99.80873,-89.83498 7.57243,-56.22565 0.63966,-31.22207 0.63966,-31.22207 l 27.96352,47.69077 c 4.62884,0.12169 -9.29495,48.77421 -128.41191,73.36628 z"
       id="path3072-12"
       inkscape:connector-curvature="0"
       sodipodi:nodetypes="csccc" />
    <path
       style="color:#000000;display:inline;overflow:visible;visibility:visible;fill:#ffffff;fill-opacity:1;fill-rule:nonzero;stroke:none;stroke-width:1.25914px;marker:none;enable-background:accumulate"
       d="m 1364.0261,2246.9617 c 26.5259,19.3421 215.7277,37.8661 269.4317,-11.8609 44.8259,-41.5063 41.9497,-122.8195 0.8955,-153.381 -41.8251,-31.1338 -201.2144,-20.1374 -262.819,-5.2277 -58.0121,14.0397 -56.9624,47.9762 -55.3801,107.1297 0.6459,24.1416 21.3461,43.999 47.8719,63.3399 z"
       id="path4040-4-5-3-6"
       inkscape:connector-curvature="0"
       sodipodi:nodetypes="zssssz" />
    <path
       style="color:#000000;display:inline;overflow:visible;visibility:visible;fill:#ffffff;fill-opacity:1;fill-rule:nonzero;stroke:none;stroke-width:1.67257px;marker:none;enable-background:accumulate"
       d="m 190.91085,1953.5912 c 39.77913,-22.7583 323.5126,-44.5539 404.04893,13.9557 67.22249,48.8368 62.90932,144.5114 1.34302,180.4704 -62.72239,36.6326 -301.74813,23.694 -394.13248,6.1511 -86.99688,-16.5193 -85.42272,-56.4496 -83.04989,-126.0505 0.96855,-28.4055 32.01131,-51.77 71.79042,-74.5267 z"
       id="path4040-4-5-3-6-3"
       inkscape:connector-curvature="0"
       sodipodi:nodetypes="zssssz" />
    <path
       style="color:#000000;display:inline;overflow:visible;visibility:visible;fill:#ffffff;fill-opacity:1;fill-rule:nonzero;stroke:none;stroke-width:1.02736px;marker:none;enable-background:accumulate"
       d="m 328.6811,2114.9387 c 26.66341,-12.8099 216.84607,-25.078 270.82845,7.8553 45.05833,27.4888 42.16723,81.3412 0.90021,101.5814 -42.04195,20.6194 -202.25763,13.3367 -264.18159,3.4623 -58.31282,-9.2983 -57.25767,-31.7738 -55.6672,-70.9501 0.64921,-15.9886 21.45674,-29.1398 48.12013,-41.9489 z"
       id="path4040-4-5-3-6-3-6"
       inkscape:connector-curvature="0"
       sodipodi:nodetypes="zssssz" />
    <path
       style="color:#000000;display:inline;overflow:visible;visibility:visible;fill:#ffffff;fill-opacity:1;fill-rule:nonzero;stroke:none;stroke-width:0.991614px;marker:none;enable-background:accumulate"
       d="m 553.96075,2196.6257 c -37.84514,0.8502 -76.25786,1.3809 -112.96463,9.8543 -18.88148,4.4539 -35.25232,13.7633 -51.26516,22.7845 -7.63583,4.8776 -12.83222,12.4008 -13.25462,20.3992 -2.21797,12.5873 -0.15597,26.3662 9.4886,36.7075 9.9756,11.0769 25.51963,17.6321 41.08512,21.9559 22.85997,6.0713 47.06878,7.1771 70.90207,8.0595 25.72837,0.7145 51.47092,1.0564 77.1982,1.7895 39.88399,0.4193 80.14652,-0.3957 119.26884,-7.3574 16.83804,-3.718 32.92618,-12.329 40.74256,-25.475 11.52156,-18.2114 7.62553,-42.0835 -9.36642,-57.1466 -13.8125,-13.4318 -34.32784,-21.1585 -55.16147,-24.009 -38.24915,-6.9703 -77.66205,-7.6152 -116.67309,-7.5624 z"
       id="path4040-4-5-3-6-3-6-1"
       inkscape:connector-curvature="0"
       sodipodi:nodetypes="zssssz" />
    <path
       style="fill:#ffffff;fill-rule:evenodd;stroke:none;stroke-width:1.34859px;stroke-linecap:butt;stroke-linejoin:miter;stroke-opacity:1"
       d="m 637.21452,2229.0642 c 34.11827,11.889 72.58957,13.9378 105.788,-2.5666 7.655,-4.1018 15.48881,-8.5488 21.63429,-15.1383 10.57644,-14.2244 9.19139,-34.605 3.99627,-51.0044 -2.73889,-10.5837 -9.11471,-19.1741 -15.97638,-26.852 -6.12417,-6.8247 -10.52718,-15.7074 -10.68522,-25.5094 -2.79296,-29.6061 18.0883,-56.3308 40.77716,-70.7847 16.44911,-10.0675 31.50821,-13.6599 50.12207,-14.5724 21.59629,-0.8735 42.50941,0.4191 63.44315,6.0528 -32.94366,-3.5481 -67.79702,-2.6885 -98.12715,13.6777 -16.94107,9.2423 -32.86151,23.8274 -38.9949,44.3145 -3.00365,9.9351 -3.44688,22.1294 2.37423,30.8793 10.68947,13.1182 22.99492,26.4009 26.36466,44.4109 8.27203,28.4165 -1.66375,63.2752 -25.58034,78.2767 -29.23039,20.5696 -63.85945,28.2868 -97.64193,33.545 -20.21033,2.5172 -40.65928,2.7639 -60.90257,0.5566 -2.18546,-11.0159 -8.96934,-21.1319 -7.81103,-32.7854 1.84141,-8.4338 10.81646,-6.5025 16.57658,-7.7613 8.21437,-1.5797 16.42875,-3.1592 24.64311,-4.739 z"
       id="path895"
       inkscape:connector-curvature="0"
       sodipodi:nodetypes="csscccccccccccccccc" />
    <path
       style="fill:#ffffff;fill-rule:evenodd;stroke:none;stroke-width:1px;stroke-linecap:butt;stroke-linejoin:miter;stroke-opacity:1"
       d="m 1355.1074,2023.6623 c 57.2014,6.1035 72.5186,15.7188 59.4739,86.4698 -12.28,66.6033 42.1191,12.5346 42.1191,12.5346 0,0 10.9032,-118.6048 -101.593,-99.0044 z"
       id="path914"
       inkscape:connector-curvature="0"
       sodipodi:nodetypes="cscc" />
  </g>
  <g
     inkscape:groupmode="layer"
     id="layer1"
     inkscape:label="txt">
    <text
       id="text4246-4-2-7"
       y="319.38678"
       x="679.9425"
       style="font-style:normal;font-variant:normal;font-weight:normal;font-stretch:normal;line-height:0%;font-family:Lavi;-inkscape-font-specification:Lavi;text-align:center;letter-spacing:0px;word-spacing:0px;text-anchor:middle;fill:#000000;fill-opacity:1;stroke:none"
       xml:space="preserve"><tspan
         y="319.38678"
         x="679.9425"
         style="font-style:normal;font-variant:normal;font-weight:bold;font-stretch:normal;font-size:45px;line-height:1.25;font-family:Lavi;-inkscape-font-specification:'Lavi Bold';fill:#000000"
         sodipodi:role="line"
         id="tspan6753">Shichimi!</tspan></text>
    <text
       id="text4246-4-2-7-3"
       y="332.03546"
       x="684.17676"
       style="font-style:normal;font-variant:normal;font-weight:normal;font-stretch:normal;line-height:0%;font-family:Lavi;-inkscape-font-specification:Lavi;text-align:center;letter-spacing:0px;word-spacing:0px;text-anchor:middle;fill:#000000;fill-opacity:1;stroke:none"
       xml:space="preserve"><tspan
         y="332.03546"
         x="684.17676"
         style="font-size:45px;line-height:1.25;fill:#000000"
         sodipodi:role="line"
         id="tspan6753-6"> </tspan><tspan
         y="388.28546"
         x="684.17676"
         style="font-size:45px;line-height:1.25;fill:#000000"
         sodipodi:role="line"
         id="tspan18996">Geprezen zijn de</tspan><tspan
         y="444.53546"
         x="684.17676"
         style="font-size:45px;line-height:1.25;fill:#000000"
         sodipodi:role="line"
         id="tspan18998">Geesten! Je bent</tspan><tspan
         y="500.78546"
         x="684.17676"
         style="font-size:45px;line-height:1.25;fill:#000000"
         sodipodi:role="line"
         id="tspan342">veilig en wel.</tspan></text>
    <text
       xml:space="preserve"
       style="font-style:normal;font-variant:normal;font-weight:normal;font-stretch:normal;line-height:0%;font-family:Lavi;-inkscape-font-specification:Lavi;letter-spacing:0px;word-spacing:0px;display:inline;opacity:0.806184;fill:#ffffff;fill-opacity:1;stroke:#ffffff;stroke-width:1.6559;stroke-miterlimit:4;stroke-dasharray:none;stroke-opacity:1;filter:url(#filter4375-4-1-1-1-9-6-9-2-1-5-4)"
       x="787.65729"
       y="1584.5073"
       id="text4580-1-7-3-6-91"
       transform="matrix(0.5650454,-0.2560003,-0.10431571,0.88459901,1976.2782,-215.19036)"><tspan
         sodipodi:role="line"
         id="tspan4582-8-5-6-1-0"
         x="787.65729"
         y="1584.5073"
         style="font-size:70px;line-height:1.25;letter-spacing:2.96623px;fill:#ffffff;stroke:#ffffff;stroke-width:1.6559;stroke-miterlimit:4;stroke-dasharray:none;stroke-opacity:1">Klap</tspan></text>
    <text
       id="text4246-4-2-7-3-7"
       y="2005.7649"
       x="379.37332"
       style="font-style:normal;font-variant:normal;font-weight:normal;font-stretch:normal;font-size:42px;line-height:0%;font-family:Lavi;-inkscape-font-specification:Lavi;text-align:center;letter-spacing:0px;word-spacing:0px;text-anchor:middle;fill:#000000;fill-opacity:1;stroke:none"
       xml:space="preserve"><tspan
         y="2005.7649"
         x="379.37332"
         style="font-size:42px;line-height:1.25;fill:#000000"
         sodipodi:role="line"
         id="tspan24646">Ik was zo ongerust</tspan><tspan
         y="2058.2649"
         x="379.37332"
         style="font-size:42px;line-height:1.25;fill:#000000"
         sodipodi:role="line"
         id="tspan419">toen ik hoorde dat je</tspan><tspan
         y="2110.7649"
         x="379.37332"
         style="font-size:42px;line-height:1.25;fill:#000000"
         sodipodi:role="line"
         id="tspan421">gevangen genomen was!</tspan></text>
    <text
       id="text4246-4-2-7-3-7-2"
       y="2185.4529"
       x="453.28833"
       style="font-style:normal;font-variant:normal;font-weight:normal;font-stretch:normal;font-size:42px;line-height:0%;font-family:Lavi;-inkscape-font-specification:Lavi;text-align:center;letter-spacing:0px;word-spacing:0px;text-anchor:middle;fill:#000000;fill-opacity:1;stroke:none"
       xml:space="preserve"><tspan
         y="2185.4529"
         x="453.28833"
         style="font-size:42px;line-height:1.25;fill:#000000"
         sodipodi:role="line"
         id="tspan33034">En dit gevecht!</tspan></text>
    <text
       id="text4246-4-2-7-3-7-2-7"
       y="2274.928"
       x="556.91663"
       style="font-style:normal;font-variant:normal;font-weight:normal;font-stretch:normal;font-size:42px;line-height:0%;font-family:Lavi;-inkscape-font-specification:Lavi;text-align:center;letter-spacing:0px;word-spacing:0px;text-anchor:middle;fill:#000000;fill-opacity:1;stroke:none"
       xml:space="preserve"><tspan
         y="2274.928"
         x="556.91663"
         style="font-size:42px;line-height:1.25;fill:#000000"
         sodipodi:role="line"
         id="tspan33034-0">Wat een chaos!</tspan></text>
    <text
       id="text4246-4-2-7-3-7-2-7-9"
       y="2135.5073"
       x="1492.5293"
       style="font-style:normal;font-variant:normal;font-weight:normal;font-stretch:normal;font-size:42px;line-height:0%;font-family:Lavi;-inkscape-font-specification:Lavi;text-align:center;letter-spacing:0px;word-spacing:0px;text-anchor:middle;fill:#000000;fill-opacity:1;stroke:none"
       xml:space="preserve"><tspan
         y="2135.5073"
         x="1492.5293"
         style="font-size:42px;line-height:1.25;fill:#000000"
         sodipodi:role="line"
         id="tspan44806">Torreya, het is</tspan><tspan
         y="2188.0073"
         x="1492.5293"
         style="font-size:42px;line-height:1.25;fill:#000000"
         sodipodi:role="line"
         id="tspan427">zo fijn je weer</tspan><tspan
         y="2240.5073"
         x="1492.5293"
         style="font-size:42px;line-height:1.25;fill:#000000"
         sodipodi:role="line"
         id="tspan431">te zien.</tspan></text>
    <text
       id="text4246-4-2-7-3-7-2-7-9-6"
       y="2637.675"
       x="257.81042"
       style="font-style:normal;font-variant:normal;font-weight:normal;font-stretch:normal;font-size:45px;line-height:0%;font-family:Lavi;-inkscape-font-specification:Lavi;text-align:center;letter-spacing:0px;word-spacing:0px;text-anchor:middle;fill:#ffffff;fill-opacity:1;stroke:none"
       xml:space="preserve"><tspan
         y="2637.675"
         x="257.81042"
         style="font-size:45px;line-height:1.25;fill:#ffffff"
         sodipodi:role="line"
         id="tspan44806-6">Ooooh...</tspan></text>
    <text
       id="text4246-4-2-7-3-7-2-7-9-6-2"
       y="2730.8059"
       x="512.28857"
       style="font-style:normal;font-variant:normal;font-weight:normal;font-stretch:normal;font-size:45px;line-height:0%;font-family:Lavi;-inkscape-font-specification:Lavi;text-align:center;letter-spacing:0px;word-spacing:0px;text-anchor:middle;fill:#ffffff;fill-opacity:1;stroke:none"
       xml:space="preserve"><tspan
         y="2730.8059"
         x="512.28857"
         style="font-size:45px;line-height:1.25;fill:#ffffff"
         sodipodi:role="line"
         id="tspan510">De drakenrijdster en Shichimi</tspan><tspan
         y="2787.0559"
         x="512.28857"
         style="font-size:45px;line-height:1.25;fill:#ffffff"
         sodipodi:role="line"
         id="tspan540">hebben verkering met elkaar...</tspan></text>
    <text
       id="text4246-4-2-7-3-7-2-7-9-6-2-3"
       y="2875.8369"
       x="578.82922"
       style="font-style:normal;font-variant:normal;font-weight:normal;font-stretch:normal;font-size:45px;line-height:0%;font-family:Lavi;-inkscape-font-specification:Lavi;text-align:center;letter-spacing:0px;word-spacing:0px;text-anchor:middle;fill:#ffffff;fill-opacity:1;stroke:none"
       xml:space="preserve"><tspan
         y="2875.8369"
         x="578.82922"
         style="font-size:45px;line-height:1.25;fill:#ffffff"
         sodipodi:role="line"
         id="tspan526">Onvoorstelbaar wat er gebeurd</tspan><tspan
         y="2932.0869"
         x="578.82922"
         style="font-size:45px;line-height:1.25;fill:#ffffff"
         sodipodi:role="line"
         id="tspan536">was geweest als ik haar op die</tspan><tspan
         y="2988.3369"
         x="578.82922"
         style="font-size:45px;line-height:1.25;fill:#ffffff"
         sodipodi:role="line"
         id="tspan639">spiezen in had laten vliegen.</tspan></text>
    <text
       id="text4246-4-2-7-3-7-2-7-9-6-2-1"
       y="3085.8345"
       x="705.94147"
       style="font-style:normal;font-variant:normal;font-weight:normal;font-stretch:normal;font-size:45px;line-height:0%;font-family:Lavi;-inkscape-font-specification:Lavi;text-align:center;letter-spacing:0px;word-spacing:0px;text-anchor:middle;fill:#ffffff;fill-opacity:1;stroke:none"
       xml:space="preserve"><tspan
         y="3085.8345"
         x="705.94147"
         style="font-size:45px;line-height:1.25;fill:#ffffff"
         sodipodi:role="line"
         id="tspan701">En die legers <tspan
   style="font-style:italic"
   id="tspan631">moeten</tspan> mij wel gevolgd</tspan><tspan
         y="3142.0845"
         x="705.94147"
         style="font-size:45px;line-height:1.25;fill:#ffffff"
         sodipodi:role="line"
         id="tspan641">hebben, en zonder hen waren we</tspan><tspan
         y="3198.3345"
         x="705.94147"
         style="font-size:45px;line-height:1.25;fill:#ffffff"
         sodipodi:role="line"
         id="tspan643">niet bevrijd geweest.</tspan></text>
    <text
       id="text4246-4-2-7-3-7-2-7-9-6-2-1-0"
       y="3276.2717"
       x="1121.2146"
       style="font-style:normal;font-variant:normal;font-weight:normal;font-stretch:normal;font-size:45px;line-height:0%;font-family:Lavi;-inkscape-font-specification:Lavi;text-align:center;letter-spacing:0px;word-spacing:0px;text-anchor:middle;fill:#ffffff;fill-opacity:1;stroke:none"
       xml:space="preserve"><tspan
         y="3276.2717"
         x="1121.2146"
         style="font-size:45px;line-height:1.25;fill:#ffffff"
         sodipodi:role="line"
         id="tspan62935">Dit alles lijkt zó <tspan
   style="font-weight:bold"
   id="tspan719">met</tspan></tspan><tspan
         y="3332.5217"
         x="1121.2146"
         style="font-size:45px;line-height:1.25;fill:#ffffff"
         sodipodi:role="line"
         id="tspan717"><tspan
   style="font-weight:bold"
   id="tspan721">elkaar verbonden</tspan>...</tspan></text>
    <text
       id="text4246-4-2-7-3-7-2-7-9-6-2-1-0-5"
       y="2484.1968"
       x="2726.3804"
       style="font-style:normal;font-variant:normal;font-weight:normal;font-stretch:normal;font-size:59.7016px;line-height:0%;font-family:Lavi;-inkscape-font-specification:Lavi;text-align:center;letter-spacing:0px;word-spacing:0px;text-anchor:middle;fill:#ffffff;fill-opacity:1;stroke:none;stroke-width:1.3267"
       xml:space="preserve"
       transform="matrix(0.94173851,0,-0.16320243,1.0618659,0,0)"
       inkscape:transform-center-x="-14.71405"
       inkscape:transform-center-y="32.044829"><tspan
         y="2484.1968"
         x="2726.3804"
         style="font-style:normal;font-variant:normal;font-weight:bold;font-stretch:normal;font-size:59.7016px;line-height:1.25;font-family:Lavi;-inkscape-font-specification:'Lavi Bold';fill:#ffffff;stroke-width:1.3267"
         sodipodi:role="line"
         id="tspan62935-2">...OOH!</tspan></text>
  </g>
</svg>
