<?xml version="1.0" encoding="UTF-8" standalone="no"?>
<!-- Created with Inkscape (http://www.inkscape.org/) -->

<svg
   xmlns:dc="http://purl.org/dc/elements/1.1/"
   xmlns:cc="http://creativecommons.org/ns#"
   xmlns:rdf="http://www.w3.org/1999/02/22-rdf-syntax-ns#"
   xmlns:svg="http://www.w3.org/2000/svg"
   xmlns="http://www.w3.org/2000/svg"
   xmlns:xlink="http://www.w3.org/1999/xlink"
   xmlns:sodipodi="http://sodipodi.sourceforge.net/DTD/sodipodi-0.dtd"
   xmlns:inkscape="http://www.inkscape.org/namespaces/inkscape"
   id="svg2"
   version="1.1"
   inkscape:version="0.92.3 (2405546, 2018-03-11)"
   width="2481"
   height="3503"
   sodipodi:docname="E27P02.svg">
  <metadata
     id="metadata8">
    <rdf:RDF>
      <cc:Work
         rdf:about="">
        <dc:format>image/svg+xml</dc:format>
        <dc:type
           rdf:resource="http://purl.org/dc/dcmitype/StillImage" />
        <dc:title />
      </cc:Work>
    </rdf:RDF>
  </metadata>
  <defs
     id="defs6" />
  <sodipodi:namedview
     pagecolor="#ffffff"
     bordercolor="#666666"
     borderopacity="1"
     objecttolerance="10"
     gridtolerance="10"
     guidetolerance="10"
     inkscape:pageopacity="0"
     inkscape:pageshadow="2"
     inkscape:window-width="1920"
     inkscape:window-height="1027"
     id="namedview4"
     showgrid="false"
     inkscape:zoom="0.40120419"
     inkscape:cx="1625.479"
     inkscape:cy="1252.8341"
     inkscape:window-x="1920"
     inkscape:window-y="26"
     inkscape:window-maximized="1"
     inkscape:current-layer="layer3"
     inkscape:snap-global="false" />
  <g
     inkscape:groupmode="layer"
     id="layer2"
     inkscape:label="artwork"
     sodipodi:insensitive="true">
    <image
       sodipodi:absref="/home/deevad/peppercarrot/webcomics/ep27_Coriander-s-Invention/lang/go/../gfx_Pepper-and-Carrot_by-David-Revoy_E27P02.png"
       xlink:href="../gfx_Pepper-and-Carrot_by-David-Revoy_E27P02.png"
       y="0"
       x="0"
       id="image10"
       height="3503"
       width="2481" />
  </g>
  <g
     inkscape:groupmode="layer"
     id="layer3"
     inkscape:label="speechbubbles">
    <path
       style="fill:#ffffff;fill-rule:evenodd;stroke:none;stroke-width:0.95494342px;stroke-linecap:butt;stroke-linejoin:miter;stroke-opacity:1"
       d="m 478.42988,195.57139 c 5.23884,1.63451 54.63374,0 59.12417,-0.81725 4.49044,-0.81726 38.16877,-7.35529 46.40126,-5.72078 8.23249,1.63451 65.11143,10.6243 75.58914,11.44156 10.47769,0.81725 60.62098,2.45176 69.60186,7.35529 8.9809,4.90352 20.95542,9.80705 27.69109,17.9796 6.73567,8.17254 16.46496,33.50743 15.71655,39.22821 -0.74841,5.72078 -11.22612,44.94899 -17.21337,50.66977 -5.98726,5.72078 -26.94266,24.51763 -32.92992,26.9694 -5.98727,2.45176 -19.45859,8.98979 -26.19426,11.44156 -6.73567,2.45176 -159.41075,4.90352 -178.12094,5.72078 -18.71018,0.81725 -91.30569,-4.90353 -104.02862,-5.72078 -12.72292,-0.81726 -42.65922,1.63451 -62.11779,-6.53804 -19.45861,-8.17254 -32.92995,-38.41095 -38.91719,-44.13174 -5.98727,-5.72078 -16.46497,-30.23841 -15.71655,-39.22821 0.74839,-8.9898 15.71655,-30.23841 23.20061,-32.69017 7.48407,-2.45177 38.16878,-22.88313 56.13055,-26.9694 17.96178,-4.08627 61.3694,-13.89332 69.60188,-13.07607 11.26867,1.64213 10.0848,0.16304 32.18153,4.08627 z"
       id="path1323"
       inkscape:connector-curvature="0"
       sodipodi:nodetypes="ccsscscsscsssccsscc" />
    <path
       style="fill:#ffffff;fill-rule:evenodd;stroke:none;stroke-width:1.02273285px;stroke-linecap:butt;stroke-linejoin:miter;stroke-opacity:1"
       d="m 172.8578,163.77351 c 11.01752,-19.15682 30.98678,-29.0442 41.31569,-31.51605 10.32893,-2.47185 27.54381,3.08981 37.18415,1.85389 9.64032,-1.23593 46.13585,-12.35924 59.90776,-11.74128 13.77189,0.61796 54.399,4.32573 67.48231,4.9437 13.08329,0.61796 45.44727,3.0898 57.15338,9.88738 11.70613,6.79758 24.78942,14.21312 26.85521,21.0107 2.06578,6.79758 6.88595,19.77478 2.06578,30.89809 -4.82016,11.12331 -16.52627,30.28013 -31.67536,32.13401 -15.14909,1.85389 -90.20596,8.65147 -106.73223,8.0335 -16.52628,-0.61796 -61.97356,0 -72.99108,0 -11.01752,0 -50.95603,-4.32573 -62.66215,-12.35923 -11.70611,-8.0335 -20.65784,-24.10051 -22.03503,-33.9879 -1.3772,-9.88738 4.13157,-19.15681 4.13157,-19.15681 z"
       id="path1325"
       inkscape:connector-curvature="0" />
    <path
       style="fill:#ffffff;fill-rule:evenodd;stroke:none;stroke-width:1px;stroke-linecap:butt;stroke-linejoin:miter;stroke-opacity:1"
       d="m 544.4243,343.97954 c 6.17962,25.33643 -4.94369,76.0093 4.32573,89.60445 9.26943,13.59516 11.12331,11.74128 19.15682,18.53886 -12.35924,15.44904 -17.92089,33.36993 -16.68497,42.63936 1.23592,9.26942 4.32573,33.36993 35.84178,44.49324 -27.19032,-19.15681 -24.71847,-38.31363 -23.48255,-43.87528 1.23593,-5.56166 6.17962,-34.60586 21.62867,-42.0214 -15.44905,-11.74127 -23.48255,-24.71847 -23.48255,-32.13401 0,-7.41554 8.65146,-82.80688 8.65146,-82.80688 z"
       id="path1327"
       inkscape:connector-curvature="0" />
    <path
       style="fill:#ffffff;fill-rule:evenodd;stroke:none"
       d="m 1028.778,95.929138 c -32.42456,14.347162 -62.38624,26.089732 -66.70952,47.132232 -4.32327,21.0425 -16.21228,38.25909 -17.2931,52.60625 -1.08082,14.34716 7.26449,66.68856 14.83022,85.8181 7.56573,19.12955 48.6369,63.12751 54.0409,66.95342 5.4041,3.8259 41.0712,16.26011 58.3643,21.99897 17.2931,5.73887 155.6379,9.56477 180.4967,12.4342 24.8589,2.86944 91.8696,-13.39068 109.1628,-20.08602 17.2931,-6.69534 41.0711,-9.56477 51.8793,-21.0425 10.8082,-11.47772 35.667,-42.08499 39.9903,-55.47567 4.3232,-13.39069 4.3232,-59.30159 4.3232,-68.86637 0,-9.56478 -1.0808,-51.64977 -21.6163,-69.82284 -20.5356,-18.17306 -55.1218,-43.04148 -82.1423,-50.693293 -27.0205,-7.651818 -190.2241,-19.129546 -208.598,-20.086023 -18.374,-0.956477 -116.7285,19.129544 -116.7285,19.129544 z"
       id="path1329"
       inkscape:connector-curvature="0"
       sodipodi:nodetypes="cssscsscscscssc" />
    <path
       style="fill:#ffffff;fill-rule:evenodd;stroke:none"
       d="m 1069.0934,387.68219 c -20.4364,11.7279 -43.2307,22.72281 -47.9469,30.78574 -4.716,8.06293 -11.0041,30.05274 -7.8601,40.31466 3.1441,10.26191 13.3623,52.77555 25.1525,60.83848 11.7901,8.06293 49.5189,32.98472 68.3832,32.98472 18.8643,0 79.3873,9.52892 89.6056,8.79593 10.218,-0.733 76.2432,8.06293 93.5356,0.73299 17.2922,-7.32994 39.3006,-20.52382 52.6629,-24.92179 13.362,-4.39796 45.5887,-6.59694 55.0209,-22.72281 9.4322,-16.12586 13.6528,-44.92082 6.2882,-65.96944 -7.123,-20.3573 -22.0084,-38.11567 -45.5889,-49.11058 -23.5804,-10.9949 -99.0377,-35.1837 -99.0377,-35.1837 l -113.1859,-9.52892 c 0,0 -18.0784,6.59694 -36.9428,16.12586 -18.8642,9.52892 -40.0866,16.85886 -40.0866,16.85886 z"
       id="path1331"
       inkscape:connector-curvature="0"
       sodipodi:nodetypes="csccsccccasccsc" />
    <path
       style="fill:#ffffff;fill-rule:evenodd;stroke:none;stroke-width:1px;stroke-linecap:butt;stroke-linejoin:miter;stroke-opacity:1"
       d="m 1307.1165,515.15743 c 0,0 27.0205,22.6972 35.667,37.82867 8.6466,15.13146 27.0205,36.74784 22.6972,76.73814 10.8082,-51.87931 10.8082,-67.01077 -20.5355,-116.72844 -31.3438,-49.71768 -37.8287,2.16163 -37.8287,2.16163 z"
       id="path1333"
       inkscape:connector-curvature="0" />
    <path
       style="fill:#ffffff;fill-rule:evenodd;stroke:none"
       d="m 1589.8947,231.8935 c 12.3513,-46.74643 16.4683,-74.01519 45.2879,-90.89585 28.8196,-16.88066 146.8426,-31.16429 163.3109,-32.4628 16.4684,-1.29851 65.8733,3.89554 89.2035,3.89554 23.3301,0 144.0979,-2.59703 163.3109,-2.59703 19.2131,0 97.4377,0 118.0232,2.59703 20.5853,2.59702 93.3204,18.17916 105.6717,29.86578 12.3513,11.6866 48.0326,61.03006 49.405,93.49287 1.3724,32.4628 -1.3724,85.7018 -26.0749,106.47799 -24.7025,20.77619 -82.3417,46.74643 -120.7678,54.53751 -38.426,7.79107 -226.4395,16.88065 -248.3972,16.88065 -21.9579,0 -115.2783,3.89554 -160.5662,-2.59702 -45.288,-6.49256 -94.693,-25.97024 -118.0231,-44.14941 -23.3301,-18.17918 -52.1498,-31.16429 -60.3839,-66.22412 -8.2342,-35.05983 0,-68.82114 0,-68.82114 z"
       id="path1335"
       inkscape:connector-curvature="0" />
    <path
       style="fill:#ffffff;fill-rule:evenodd;stroke:none;stroke-width:1px;stroke-linecap:butt;stroke-linejoin:miter;stroke-opacity:1"
       d="m 1746.5526,423.03907 c 27.5116,26.61792 42.8588,47.56076 -11.4058,80.71719 49.1355,-0.72812 43.5728,20.05383 34.2174,45.56614 66.8976,-20.5973 113.7421,-7.40942 120.3948,32.54725 43.9171,-32.2476 50.5645,-26.46532 83.6426,-1.30189 39.6321,-49.89404 62.6056,-15.54139 91.2465,-10.41512 -5.8821,-23.03081 13.5288,-43.92498 62.4748,-10.21797 -17.5693,-18.88765 -10.6126,-65.99877 56.6527,-69.19731 -30.151,-10.89059 -73.1985,-22.51429 -22.8117,-69.00017 -77.6206,-8.98442 -39.9485,-27.33589 -51.9598,-41.66048 l -112.7909,-13.0189 -114.0581,7.81134 -58.2964,5.20756 c -1.4105,20.45876 4.4806,42.79545 -77.3061,42.96236 z"
       id="path1337"
       inkscape:connector-curvature="0"
       sodipodi:nodetypes="cccccccccccccc" />
    <path
       style="fill:#ffffff;fill-rule:evenodd;stroke:none;stroke-width:1px;stroke-linecap:butt;stroke-linejoin:miter;stroke-opacity:1"
       d="m 2083.819,528.58622 c 24.8588,19.45474 57.2834,63.76832 55.1217,92.95043 10.8082,-38.90948 -17.2931,-97.27371 -31.3437,-112.40517 -14.0507,-15.13147 -23.778,19.45474 -23.778,19.45474 z"
       id="path1339"
       inkscape:connector-curvature="0" />
    <path
       style="fill:#ffffff;fill-rule:evenodd;stroke:none"
       d="m 837.51726,1438.6648 c 14.47491,-34.2595 43.42474,-50.6446 82.71382,-59.5818 39.28905,-8.9372 142.68132,1.4895 169.56312,1.4895 26.8821,0 134.4102,7.4477 148.8851,19.3641 14.4749,11.9164 49.6283,37.2387 39.289,64.0505 -10.3393,26.8118 -22.7464,53.6236 -78.5781,68.519 -55.832,14.8954 -107.5279,0 -128.2066,1.4896 -20.6784,1.4895 -47.5602,8.9372 -105.45993,1.4895 -57.89968,-7.4477 -132.34215,-46.1759 -128.20641,-96.8204 z"
       id="path1341"
       inkscape:connector-curvature="0" />
    <path
       style="fill:#ffffff;fill-rule:evenodd;stroke:none;stroke-width:1px;stroke-linecap:butt;stroke-linejoin:miter;stroke-opacity:1"
       d="m 1321.8416,1549.9601 c -25.1103,-26.3097 -29.3743,-46.7563 -36.94,-53.2412 -7.5658,-6.4849 -52.768,-40.79 -87.3542,-44.0325 -34.5862,-3.2424 -28.1013,24.8589 -28.1013,24.8589 0,0 36.7479,1.0808 51.8793,5.4041 15.1315,4.3232 48.6369,20.5355 54.041,24.8588 5.4041,4.3233 19.4547,27.0205 46.4752,42.1519 z"
       id="path1343"
       inkscape:connector-curvature="0"
       sodipodi:nodetypes="cccccsc" />
    <path
       style="fill:#ffffff;fill-rule:evenodd;stroke:none;stroke-width:1px;stroke-linecap:butt;stroke-linejoin:miter;stroke-opacity:1"
       d="m 1847.0115,1634.8585 c 65.8759,-41.0171 79.5483,-53.4465 129.266,-55.9324 49.7176,-2.4859 59.6612,-29.8306 59.6612,-29.8306 0,0 -34.8024,-1.243 -72.0906,6.2147 -37.2883,7.4576 -95.7066,37.2882 -116.8366,79.5483 z"
       id="path1345"
       inkscape:connector-curvature="0" />
    <path
       style="fill:#ffffff;fill-rule:evenodd;stroke:none;stroke-width:0.99999988px;stroke-linecap:butt;stroke-linejoin:miter;stroke-opacity:1"
       d="m 1968.142,1518.1521 c 18.7083,-21.5915 66.8153,-44.5326 96.214,-48.581 29.3985,-4.0483 122.9399,5.3979 142.9845,17.5431 20.0445,12.1453 61.47,21.5917 60.1337,60.7264 -1.3364,39.1346 5.3452,56.6779 -25.3898,78.2693 -30.735,21.5917 -138.9757,16.1938 -163.029,14.8443 -24.0536,-1.3494 -69.4879,-6.7473 -93.5414,-31.0379 -24.0535,-24.2904 -34.7439,-49.9304 -17.372,-91.7642 z"
       id="path1347"
       inkscape:connector-curvature="0" />
    <path
       style="fill:#ffffff;fill-rule:evenodd;stroke:none"
       d="m 1999.5711,1655.9885 c 21.3746,-34.8024 73.475,-47.2318 85.4983,-47.2318 12.0232,0 105.5369,7.4576 122.9036,7.4576 17.367,0 53.4365,-7.4576 73.4751,-4.9717 20.0387,2.4859 57.4442,0 73.4751,24.8588 16.031,24.8588 28.0541,79.5483 24.0464,103.1642 -4.0077,23.6159 5.3437,54.6894 -12.0232,90.7347 -17.3668,36.0453 -24.0464,49.7177 -49.4286,60.9042 -25.3823,11.1865 -145.6142,6.2147 -172.3324,2.4859 -26.7184,-3.7289 -78.8188,0 -101.5292,-6.2147 -22.7105,-6.2148 -58.7801,-27.3448 -53.4365,-53.4465 5.3437,-26.1018 -9.3514,-49.7177 -2.6718,-94.4636 6.6796,-44.7459 12.0232,-83.2771 12.0232,-83.2771 z"
       id="path1349"
       inkscape:connector-curvature="0" />
    <path
       style="fill:#ffffff;fill-rule:evenodd;stroke:none"
       d="m 163.06401,2399.1151 c 0,-35.8207 20.86878,-41.7908 34.47885,-41.7908 13.61007,0 58.06963,-4.7762 64.421,-4.7762 6.35137,0 53.53295,7.1642 61.699,13.1343 8.16604,5.9701 20.86876,10.7462 19.0541,32.2386 -1.81468,21.4925 0,33.4327 -18.14676,39.4028 -18.14677,5.9702 -88.91914,8.3582 -101.62188,7.1642 -12.70273,-1.194 -31.75683,-10.7463 -40.83021,-17.9104 -9.07338,-7.1641 -20.86879,-9.5522 -19.0541,-27.4625 z"
       id="path1351"
       inkscape:connector-curvature="0" />
    <path
       style="fill:#ffffff;fill-rule:evenodd;stroke:none;stroke-width:0.96320325px;stroke-linecap:butt;stroke-linejoin:miter;stroke-opacity:1"
       d="m 309.11422,2417.8476 c 48.15781,-12.4074 82.20391,-9.4641 96.44438,-7.6234 14.9867,1.9372 52.96013,13.3791 64.84914,23.4065 11.889,10.0274 27.05014,30.343 25.96932,42.3759 -1.08082,12.033 6.91442,45.0959 5.8336,61.1398 -1.08082,16.0438 -12.59967,71.222 -20.1654,94.2851 -7.56574,23.063 -25.93966,50.137 -107.00108,55.1508 -81.06142,5.0137 -130.77909,3.0082 -162.12284,-5.0138 -31.34375,-8.0218 -71.33406,-13.0355 -82.14225,-51.1397 -10.80819,-38.1042 -14.05064,-81.2221 -10.80819,-99.2714 3.24246,-18.0494 6.48492,-58.159 10.80819,-65.1782 4.32328,-7.0192 17.38212,-34.354 27.10949,-40.3704 9.72737,-6.0164 151.22564,-7.7612 151.22564,-7.7612 z"
       id="path1353"
       inkscape:connector-curvature="0"
       sodipodi:nodetypes="csssscscsscsc" />
    <path
       style="fill:#ffffff;fill-rule:evenodd;stroke:none;stroke-width:1px;stroke-linecap:butt;stroke-linejoin:miter;stroke-opacity:1"
       d="m 532.84375,2533.5054 c 1.08082,-19.4547 14.05064,-55.1218 33.50539,-61.6067 19.45474,-6.4849 73.49568,-6.4849 84.30387,-3.2424 10.80819,3.2424 28.1013,27.0204 32.42457,36.7478 4.32328,9.7274 16.21229,44.3136 -3.24245,58.3642 -19.45474,14.0507 -38.90949,24.8589 -59.44505,23.778 -20.53556,-1.0808 -61.60668,-8.6465 -71.33405,-21.6163 -9.72737,-12.9699 -16.21228,-32.4246 -16.21228,-32.4246 z"
       id="path1355"
       inkscape:connector-curvature="0" />
    <path
       style="fill:#ffffff;fill-rule:evenodd;stroke:none;stroke-width:1px;stroke-linecap:butt;stroke-linejoin:miter;stroke-opacity:1"
       d="m 371.0335,2688.1612 c 0,0 10.62431,7.3553 12.25882,23.7003 1.63451,16.3451 -0.81725,35.142 -13.89333,54.7561 28.60391,-32.6902 43.31449,-55.5733 34.32469,-83.36 -8.9898,-27.7866 -32.69018,4.9036 -32.69018,4.9036 z"
       id="path1357"
       inkscape:connector-curvature="0" />
    <path
       style="fill:#ffffff;fill-rule:evenodd;stroke:none;stroke-width:1px;stroke-linecap:butt;stroke-linejoin:miter;stroke-opacity:1"
       d="m 609.41023,2578.6689 c 0,0 17.16235,24.5177 9.80706,38.411 -7.35529,13.8933 -8.9898,18.7968 -25.33489,35.1419 26.9694,-17.9796 37.5937,-31.0556 40.86272,-43.3145 3.26902,-12.2588 5.72078,-35.9592 5.72078,-42.4972 0,-6.538 -31.05567,12.2588 -31.05567,12.2588 z"
       id="path1359"
       inkscape:connector-curvature="0" />
    <path
       style="fill:#ffffff;fill-rule:evenodd;stroke:none"
       d="m 709.71759,2510.6937 c -10.00083,-42.5634 -8.00066,-84.1134 5.0004,-95.2608 5.06432,-26.065 63.9174,-65.3013 87.00709,-59.7915 18.00146,-4.0536 115.00937,-25.3353 134.01091,-23.3084 19.00156,2.0267 125.91031,4.6109 145.91181,22.8524 20.0017,18.2414 36.453,28.5276 48.4541,47.7825 12.001,19.2548 18.8516,57.2071 24.852,63.2875 6.0004,6.0806 3.8003,36.3309 -1.2001,53.5589 -5.0004,17.2281 -23.002,31.4159 -49.0041,37.4963 -26.0021,6.0806 -61.005,14.1878 -84.0068,15.2013 -23.00186,1.0134 -76.00618,1.0134 -116.00943,-2.0268 -47.6314,-9.5027 -77.27448,-9.7453 -124.78582,-14.0847 -9.00074,-1.0133 -68.2299,-18.3446 -70.23006,-45.7067 z"
       id="path1361"
       inkscape:connector-curvature="0"
       sodipodi:nodetypes="ccccccccccccc" />
    <path
       style="fill:#ffffff;fill-rule:evenodd;stroke:none;stroke-width:1px;stroke-linecap:butt;stroke-linejoin:miter;stroke-opacity:1"
       d="m 1048.8643,2539.6614 c 40.4132,37.5937 65.789,69.5483 47.932,102.4428 29.1351,-35.714 14.0976,-69.5483 -24.4359,-117.4803 -38.5336,-47.932 -23.4961,15.0375 -23.4961,15.0375 z"
       id="path1363"
       inkscape:connector-curvature="0" />
    <path
       style="fill:#ffffff;fill-rule:evenodd;stroke:none;stroke-width:1px;stroke-linecap:butt;stroke-linejoin:miter;stroke-opacity:1"
       d="m 1362.7766,2499.8218 c -0.8172,-27.7867 20.4314,-32.6902 31.8729,-34.3247 11.4416,-1.6345 58.8423,-9.807 76.8219,3.269 17.9796,13.0761 22.8832,35.142 14.7106,43.3145 -8.1725,8.1726 -34.3247,20.4314 -50.6698,21.2486 -16.345,0.8173 -51.487,-4.0862 -62.9285,-15.5278 -11.4416,-11.4416 -9.8071,-17.9796 -9.8071,-17.9796 z"
       id="path1365"
       inkscape:connector-curvature="0" />
    <path
       style="fill:#ffffff;fill-rule:evenodd;stroke:none;stroke-width:1px;stroke-linecap:butt;stroke-linejoin:miter;stroke-opacity:1"
       d="m 1445.7231,2523.112 c 0,0 19.6141,10.6243 24.5176,19.6141 4.9035,8.9898 13.0761,31.0556 8.9898,45.7662 13.0761,-26.1521 8.1725,-42.4972 4.9035,-49.8525 -3.269,-7.3553 -23.7004,-34.3247 -23.7004,-34.3247 z"
       id="path1367"
       inkscape:connector-curvature="0" />
    <path
       style="fill:#ffffff;fill-rule:evenodd;stroke:none"
       d="m 1831.1957,2452.444 c 4.0701,-52.9602 29.5083,-69.1724 46.8063,-76.7382 17.2979,-7.5657 88.5249,-18.3739 112.9455,-17.2931 24.4206,1.0808 114.9806,11.889 130.2435,12.9698 15.2629,1.0809 53.9289,25.9397 56.9815,32.4246 3.0526,6.4849 16.2805,23.778 12.2103,43.2328 -4.07,19.4547 -27.4732,45.3944 -49.8589,55.1217 -22.3856,9.7274 -111.9278,17.2931 -129.2258,15.1315 -17.298,-2.1616 -46.8063,-5.4041 -64.1043,-5.4041 -17.298,0 -72.2444,-1.0808 -86.4898,-12.9698 -14.2454,-11.889 -29.5083,-46.4752 -29.5083,-46.4752 z"
       id="path1369"
       inkscape:connector-curvature="0" />
    <path
       style="fill:#ffffff;fill-rule:evenodd;stroke:none"
       d="m 1912.4344,2507.5657 c 24.5137,24.1512 9.6373,34.5534 -31.8493,35.6671 32.0868,9.9586 72.1387,15.5923 63.6985,47.556 35.6236,-0.375 58.1595,-19.937 115.0109,10.8082 33.6187,-25.3561 67.2371,-13.281 100.8559,-2.1617 16.1247,-11.3113 45.8132,-12.0311 107.9336,-6.4849 -4.797,-25.0109 34.186,-36.1565 70.776,-44.3136 -30.9811,-13.1763 -58.8871,-27.5479 -38.9268,-60.5258 -45.0214,7.2773 -82.881,6.6803 -104.3946,-11.889 -44.6663,4.157 -78.2173,21.8927 -139.7829,5.4041 -33.1531,19.9279 -70.1058,21.2885 -107.9336,18.3739 8.6206,17.7643 -1.5552,21.4958 -35.3877,7.5657 z"
       id="path1371"
       inkscape:connector-curvature="0"
       sodipodi:nodetypes="cccccccccccc" />
    <path
       style="fill:#ffffff;fill-rule:evenodd;stroke:none;stroke-width:1px;stroke-linecap:butt;stroke-linejoin:miter;stroke-opacity:1"
       d="m 2142.1832,2571.3341 c -3.2425,28.1012 8.6465,79.9806 34.5862,113.4859 -3.2425,16.2123 1.0808,33.5054 15.1315,47.5561 -12.9699,-29.1821 -7.5658,-36.7479 -1.0809,-50.7985 -12.9698,-20.5356 -31.3437,-69.1724 -34.5862,-109.1627 -3.2424,-39.9903 -14.0506,-1.0808 -14.0506,-1.0808 z"
       id="path1373"
       inkscape:connector-curvature="0" />
  </g>
  <g
     inkscape:groupmode="layer"
     id="layer1"
     inkscape:label="txt">
    <text
       xml:space="preserve"
       style="font-style:normal;font-variant:normal;font-weight:normal;font-stretch:normal;line-height:0%;font-family:Lavi;-inkscape-font-specification:Lavi;text-align:center;letter-spacing:0px;word-spacing:0px;text-anchor:middle;fill:#000000;fill-opacity:1;stroke:none"
       x="318.61392"
       y="193.67375"
       id="text4246"><tspan
         sodipodi:role="line"
         style="font-size:45px;line-height:1.20000005"
         x="325.64517"
         y="193.67375"
         id="tspan4252">Savez ben… </tspan></text>
    <text
       xml:space="preserve"
       style="font-style:normal;font-variant:normal;font-weight:normal;font-stretch:normal;line-height:0%;font-family:Lavi;-inkscape-font-specification:Lavi;text-align:center;letter-spacing:0px;word-spacing:0px;text-anchor:middle;fill:#000000;fill-opacity:1;stroke:none"
       x="538.01685"
       y="265.45801"
       id="text4246-3"><tspan
         sodipodi:role="line"
         style="font-size:45px;line-height:1.20000005"
         x="545.0481"
         y="265.45801"
         id="tspan899">j’etaes core a sonjer </tspan><tspan
         sodipodi:role="line"
         style="font-size:45px;line-height:1.20000005"
         x="538.01685"
         y="319.45801"
         id="tspan7251">den la suretae…</tspan></text>
    <text
       xml:space="preserve"
       style="font-style:normal;font-variant:normal;font-weight:normal;font-stretch:normal;line-height:0%;font-family:Lavi;-inkscape-font-specification:Lavi;text-align:center;letter-spacing:0px;word-spacing:0px;text-anchor:middle;fill:#000000;fill-opacity:1;stroke:none"
       x="1203.0967"
       y="169.41882"
       id="text4246-3-7"><tspan
         sodipodi:role="line"
         style="font-size:45px;line-height:1.20000005"
         x="1210.1279"
         y="169.41882"
         id="tspan7267">Tant de jeune reines </tspan><tspan
         sodipodi:role="line"
         style="font-size:45px;line-height:1.20000005"
         x="1210.1279"
         y="223.41882"
         id="tspan7269">e de roês q’ont étae </tspan><tspan
         sodipodi:role="line"
         style="font-size:45px;line-height:1.20000005"
         x="1210.1279"
         y="277.41882"
         id="tspan7271">assazinae pour lour </tspan><tspan
         sodipodi:role="line"
         style="font-size:45px;line-height:1.20000005"
         x="1203.0967"
         y="331.41882"
         id="tspan7287">couronement.</tspan></text>
    <text
       xml:space="preserve"
       style="font-style:normal;font-variant:normal;font-weight:normal;font-stretch:normal;line-height:0%;font-family:Lavi;-inkscape-font-specification:Lavi;text-align:center;letter-spacing:0px;word-spacing:0px;text-anchor:middle;fill:#000000;fill-opacity:1;stroke:none"
       x="1208.9713"
       y="451.13559"
       id="text4246-3-7-7"><tspan
         sodipodi:role="line"
         style="font-size:45px;line-height:1.20000005"
         x="1216.0026"
         y="451.13559"
         id="tspan903">Ma familhe a </tspan><tspan
         sodipodi:role="line"
         style="font-size:45px;line-height:1.20000005"
         x="1208.9713"
         y="505.13559"
         id="tspan7275">zeù son renabl.</tspan></text>
    <text
       xml:space="preserve"
       style="font-style:normal;font-variant:normal;font-weight:normal;font-stretch:normal;line-height:0%;font-family:Lavi;-inkscape-font-specification:Lavi;text-align:center;letter-spacing:0px;word-spacing:0px;text-anchor:middle;fill:#000000;fill-opacity:1;stroke:none"
       x="1961.5282"
       y="176.76515"
       id="text4246-3-7-7-6"><tspan
         sodipodi:role="line"
         style="font-size:45px;line-height:1.20000005"
         x="1968.5594"
         y="176.76515"
         id="tspan972">E astoure, den un coupl d’oures, </tspan><tspan
         sodipodi:role="line"
         style="font-size:45px;line-height:1.20000005"
         x="1968.5594"
         y="230.76515"
         id="tspan7334">je recevrom dez miles de periae </tspan><tspan
         sodipodi:role="line"
         style="font-size:45px;line-height:1.20000005"
         x="1968.5594"
         y="284.76517"
         id="tspan7338">a venir du monde entier e </tspan><tspan
         sodipodi:role="line"
         style="font-size:45px;line-height:1.20000005"
         x="1961.5282"
         y="338.76517"
         id="tspan7340">je serae regardey de tertous.</tspan></text>
    <text
       xml:space="preserve"
       style="font-style:normal;font-variant:normal;font-weight:normal;font-stretch:normal;line-height:0%;font-family:Lavi;-inkscape-font-specification:Lavi;text-align:center;letter-spacing:0px;word-spacing:0px;text-anchor:middle;fill:#000000;fill-opacity:1;stroke:none"
       x="1059.3418"
       y="1445.7167"
       id="text4246-3-7-7-6-7"><tspan
         sodipodi:role="line"
         style="font-size:45px;line-height:1.20000005"
         x="1066.373"
         y="1445.7167"
         id="tspan1007">Te calhe pas le laet, </tspan><tspan
         sodipodi:role="line"
         style="font-size:45px;line-height:1.20000005"
         x="1059.3418"
         y="1499.7167"
         id="tspan7348">Coriandr.</tspan></text>
    <text
       xml:space="preserve"
       style="font-style:normal;font-variant:normal;font-weight:normal;font-stretch:normal;line-height:0%;font-family:Lavi;-inkscape-font-specification:Lavi;text-align:center;letter-spacing:0px;word-spacing:0px;text-anchor:middle;fill:#000000;fill-opacity:1;stroke:none"
       x="1957.3252"
       y="459.72366"
       id="text4246-3-7-7-6-7-7"><tspan
         sodipodi:role="line"
         style="font-size:45px;line-height:1.20000005"
         x="1964.3564"
         y="459.72366"
         id="tspan990">J’en sei vrae </tspan><tspan
         sodipodi:role="line"
         style="font-size:45px;line-height:1.20000005"
         x="1957.3252"
         y="513.72369"
         id="tspan7344">vrae poùrouze !</tspan></text>
    <text
       xml:space="preserve"
       style="font-style:normal;font-variant:normal;font-weight:normal;font-stretch:normal;line-height:0%;font-family:Lavi;-inkscape-font-specification:Lavi;text-align:center;letter-spacing:0px;word-spacing:0px;text-anchor:middle;fill:#000000;fill-opacity:1;stroke:none"
       x="2121.4336"
       y="1547.2563"
       id="text4246-3-7-7-6-7-2"><tspan
         sodipodi:role="line"
         style="font-size:45px;line-height:1.20000005"
         x="2128.4648"
         y="1547.2563"
         id="tspan1011">Je vom suedr </tspan><tspan
         sodipodi:role="line"
         style="font-size:45px;line-height:1.20000005"
         x="2121.4336"
         y="1601.2563"
         id="tspan7352">notr idey.</tspan></text>
    <text
       xml:space="preserve"
       style="font-style:normal;font-variant:normal;font-weight:normal;font-stretch:normal;line-height:0%;font-family:Lavi;-inkscape-font-specification:Lavi;text-align:center;letter-spacing:0px;word-spacing:0px;text-anchor:middle;fill:#000000;fill-opacity:1;stroke:none"
       x="2182.6404"
       y="1691.4915"
       id="text4246-3-7-7-6-7-2-9"><tspan
         sodipodi:role="line"
         style="font-size:45px;line-height:1.20000005"
         x="2189.6716"
         y="1691.4915"
         id="tspan1026">Shichimi e mai, </tspan><tspan
         sodipodi:role="line"
         style="font-size:45px;line-height:1.20000005"
         x="2189.6716"
         y="1745.4915"
         id="tspan7363">je ferom tez </tspan><tspan
         sodipodi:role="line"
         style="font-size:45px;line-height:1.20000005"
         x="2189.6716"
         y="1799.4915"
         id="tspan7365">garde-corp, tu te </tspan><tspan
         sodipodi:role="line"
         style="font-size:45px;line-height:1.20000005"
         x="2182.6404"
         y="1853.4915"
         id="tspan7367">remets de ça ?</tspan></text>
    <text
       xml:space="preserve"
       style="font-style:normal;font-variant:normal;font-weight:normal;font-stretch:normal;line-height:0%;font-family:Lavi;-inkscape-font-specification:Lavi;text-align:center;letter-spacing:0px;word-spacing:0px;text-anchor:middle;fill:#000000;fill-opacity:1;stroke:none"
       x="254.1396"
       y="2407.7466"
       id="text4246-3-7-7-6-7-2-9-6"><tspan
         sodipodi:role="line"
         style="font-size:45px;line-height:1.20000005"
         x="254.1396"
         y="2407.7466"
         id="tspan1121-3">Just.</tspan></text>
    <text
       xml:space="preserve"
       style="font-style:normal;font-variant:normal;font-weight:normal;font-stretch:normal;line-height:0%;font-family:Lavi;-inkscape-font-specification:Lavi;text-align:center;letter-spacing:0px;word-spacing:0px;text-anchor:middle;fill:#000000;fill-opacity:1;stroke:none"
       x="310.79276"
       y="2481.5852"
       id="text4246-3-7-7-6-7-2-9-6-1"><tspan
         sodipodi:role="line"
         style="font-size:45px;line-height:1.20000005"
         x="317.82401"
         y="2481.5852"
         id="tspan1050">Tu devraes faere </tspan><tspan
         sodipodi:role="line"
         style="font-size:45px;line-height:1.20000005"
         x="317.82401"
         y="2535.5852"
         id="tspan7378">ûne mussey e </tspan><tspan
         sodipodi:role="line"
         style="font-size:45px;line-height:1.20000005"
         x="317.82401"
         y="2589.5852"
         id="tspan7380">sonjer den d’aotr </tspan><tspan
         sodipodi:role="line"
         style="font-size:45px;line-height:1.20000005"
         x="310.79276"
         y="2643.5852"
         id="tspan7382">cai alhours.</tspan></text>
    <text
       xml:space="preserve"
       style="font-style:normal;font-variant:normal;font-weight:normal;font-stretch:normal;line-height:0%;font-family:Lavi;-inkscape-font-specification:Lavi;text-align:center;letter-spacing:0px;word-spacing:0px;text-anchor:middle;fill:#000000;fill-opacity:1;stroke:none"
       x="612.41107"
       y="2544.4858"
       id="text4246-3-7-7-6-7-2-9-6-1-4"><tspan
         sodipodi:role="line"
         style="font-size:45px;line-height:1.20000005"
         x="612.41107"
         y="2544.4858"
         id="tspan1183-0">Yan.</tspan></text>
    <text
       xml:space="preserve"
       style="font-style:normal;font-variant:normal;font-weight:normal;font-stretch:normal;line-height:0%;font-family:Lavi;-inkscape-font-specification:Lavi;text-align:center;letter-spacing:0px;word-spacing:0px;text-anchor:middle;fill:#000000;fill-opacity:1;stroke:none"
       x="930.10059"
       y="2411.3877"
       id="text4246-3-7-7-6-7-2-9-6-1-4-3"><tspan
         sodipodi:role="line"
         style="font-size:45px;line-height:1.20000005"
         x="937.13184"
         y="2411.3877"
         id="tspan1063">Hé ! E si je vouz </tspan><tspan
         sodipodi:role="line"
         style="font-size:45px;line-height:1.20000005"
         x="937.13184"
         y="2465.3877"
         id="tspan7389">amontraes ma </tspan><tspan
         sodipodi:role="line"
         style="font-size:45px;line-height:1.20000005"
         x="930.10059"
         y="2519.3877"
         id="tspan7391">darraene inventeriy ?</tspan></text>
    <text
       xml:space="preserve"
       style="font-style:normal;font-variant:normal;font-weight:normal;font-stretch:normal;line-height:0%;font-family:Lavi;-inkscape-font-specification:Lavi;text-align:center;letter-spacing:0px;word-spacing:0px;text-anchor:middle;fill:#000000;fill-opacity:1;stroke:none"
       x="1429.6105"
       y="2501.0703"
       id="text4246-3-7-7-6-7-2-9-6-1-4-3-1"><tspan
         sodipodi:role="line"
         style="font-size:45px;line-height:1.20000005"
         x="1429.6105"
         y="2501.0703"
         id="tspan1249-3">...</tspan></text>
    <text
       xml:space="preserve"
       style="font-style:normal;font-variant:normal;font-weight:normal;font-stretch:normal;line-height:0%;font-family:Lavi;-inkscape-font-specification:Lavi;text-align:center;letter-spacing:0px;word-spacing:0px;text-anchor:middle;fill:#000000;fill-opacity:1;stroke:none"
       x="2014.7648"
       y="2425.7151"
       id="text4246-3-7-7-6-7-2-9-6-1-4-3-1-2"><tspan
         sodipodi:role="line"
         style="font-size:45px;line-height:1.20000005"
         x="2021.796"
         y="2425.7151"
         id="tspan1076">ét en bas den </tspan><tspan
         sodipodi:role="line"
         style="font-size:45px;line-height:1.20000005"
         x="2014.7648"
         y="2479.7151"
         id="tspan7395">ma boutiqe.</tspan></text>
    <text
       xml:space="preserve"
       style="font-style:normal;font-variant:normal;font-weight:normal;font-stretch:normal;line-height:0%;font-family:Lavi;-inkscape-font-specification:Lavi;text-align:center;letter-spacing:0px;word-spacing:0px;text-anchor:middle;fill:#000000;fill-opacity:1;stroke:none"
       x="2118.0996"
       y="2553.5225"
       id="text4246-3-7-7-6-7-2-9-6-1-4-3-1-2-6"><tspan
         sodipodi:role="line"
         style="font-size:45px;line-height:1.20000005"
         x="2118.0996"
         y="2553.5225"
         id="tspan1298-5">Venez aprés mai.</tspan></text>
  </g>
</svg>
