<?xml version="1.0" encoding="UTF-8" standalone="no"?>
<!-- Created with Inkscape (http://www.inkscape.org/) -->

<svg
   id="svg2"
   version="1.1"
   inkscape:version="1.2.1 (9c6d41e4, 2022-07-14)"
   width="2481"
   height="3503"
   sodipodi:docname="E37P07.svg"
   xmlns:inkscape="http://www.inkscape.org/namespaces/inkscape"
   xmlns:sodipodi="http://sodipodi.sourceforge.net/DTD/sodipodi-0.dtd"
   xmlns:xlink="http://www.w3.org/1999/xlink"
   xmlns="http://www.w3.org/2000/svg"
   xmlns:svg="http://www.w3.org/2000/svg"
   xmlns:rdf="http://www.w3.org/1999/02/22-rdf-syntax-ns#"
   xmlns:cc="http://creativecommons.org/ns#"
   xmlns:dc="http://purl.org/dc/elements/1.1/">
  <metadata
     id="metadata8">
    <rdf:RDF>
      <cc:Work
         rdf:about="">
        <dc:format>image/svg+xml</dc:format>
        <dc:type
           rdf:resource="http://purl.org/dc/dcmitype/StillImage" />
        <dc:title />
      </cc:Work>
    </rdf:RDF>
  </metadata>
  <defs
     id="defs6">
    <filter
       style="color-interpolation-filters:sRGB"
       id="filter4375-4-1-1-1-9-6-9-2-1-5-4"
       inkscape:label="deevad outline effect"
       x="-0.007108724"
       y="-0.012620398"
       width="1.0142174"
       height="1.0252408">
      <feFlood
         id="feFlood4377-7-9-0-8-1-0-2-2-06-5-3"
         flood-opacity="1"
         flood-color="rgb(0,0,0)"
         result="flood" />
      <feComposite
         id="feComposite4379-3-8-8-2-77-6-0-8-3-8-64"
         in2="SourceGraphic"
         in="flood"
         operator="in"
         result="composite1" />
      <feMorphology
         id="feMorphology4393-1-0-49-8-9-2-2-9-2-7-3"
         operator="dilate"
         radius="4"
         result="result3" />
      <feComposite
         id="feComposite4385-9-5-7-0-8-6-3-7-0-1-1"
         in2="result3"
         in="SourceGraphic"
         operator="over"
         result="composite2" />
    </filter>
  </defs>
  <sodipodi:namedview
     pagecolor="#ffffff"
     bordercolor="#666666"
     borderopacity="1"
     objecttolerance="10"
     gridtolerance="10"
     guidetolerance="10"
     inkscape:pageopacity="0"
     inkscape:pageshadow="2"
     inkscape:window-width="1440"
     inkscape:window-height="847"
     id="namedview4"
     showgrid="false"
     inkscape:zoom="0.40000001"
     inkscape:cx="1110"
     inkscape:cy="3206.2499"
     inkscape:window-x="0"
     inkscape:window-y="25"
     inkscape:window-maximized="0"
     inkscape:current-layer="layer1"
     inkscape:pagecheckerboard="0"
     inkscape:showpageshadow="0"
     inkscape:deskcolor="#d1d1d1" />
  <g
     inkscape:groupmode="layer"
     id="layer2"
     inkscape:label="artwork"
     sodipodi:insensitive="true">
    <image
       xlink:href="../gfx_Pepper-and-Carrot_by-David-Revoy_E37P07.png"
       y="0"
       x="0"
       id="image10"
       height="3503"
       width="2481" />
  </g>
  <g
     inkscape:groupmode="layer"
     id="layer3"
     inkscape:label="speechbubbles">
    <path
       style="display:inline;fill:#ffffff;fill-rule:evenodd;stroke:none;stroke-width:1.11956px;stroke-linecap:butt;stroke-linejoin:miter;stroke-opacity:1"
       d="m 1921.7927,1520.1844 c -35.9251,-2.1925 -88.0218,13.4421 -57.8055,58.5611 -65.9732,-29.567 -202.9817,-48.1547 -224.7658,1.0987 -3.6662,-60.2413 -39.3862,-51.5044 -75.8826,-36.998 34.734,-24.7327 6.7781,-21.3252 -27.4203,-21.8573 70.8688,-53.3939 32.4763,-68.9295 3.4743,-87.7194 71.4105,12.7179 53.4447,-16.055 61.4812,-32.7562 61.9363,35.9406 106.0033,26.017 140.0668,-9.5823 18.8186,18.4744 25.6222,57.4177 91.4864,-4.2556 -23.4149,52.4495 8.9678,46.2344 60.9433,19.421 -7.7763,17.8595 -56.1072,45.885 26.4484,41.1043 -51.1595,18.0168 -61.3678,41.0217 1.9738,72.9837 z"
       id="path4584-8"
       inkscape:connector-curvature="0"
       sodipodi:nodetypes="cccccccccccc" />
    <path
       style="fill:#ffffff;stroke:none;stroke-width:1.09034"
       d="m 1628.0645,1541.2051 c -60.6998,1.1621 -123.4979,11.6742 -173.6907,41.0827 -37.6658,26.2001 -49.3847,71.1487 -37.6228,109.4431 9.1055,31.1828 38.1563,57.0123 73.8722,69.3402 52.2287,20.4039 111.2987,22.0018 168.086,22.7787 61.7778,0.4308 123.6587,0.4345 185.3101,-3.1518 46.2439,-3.4927 93.7388,-10.3668 134.1011,-30.2059 35.6571,-21.8961 49.6266,-60.7231 46.4412,-96.0194 -3.0125,-37.5318 -31.5824,-72.8023 -72.7838,-89.3911 -46.6964,-21.053 -101.4869,-24.0865 -153.7061,-22.7236 -51.6051,0.877 -103.2299,0.4099 -154.8065,-1.1286 -5.0667,-0.059 -10.1338,-0.055 -15.2007,-0.024 z"
       id="path3280-8-0-3"
       inkscape:connector-curvature="0"
       sodipodi:nodetypes="csssc" />
    <path
       style="fill:#ffffff;fill-rule:evenodd;stroke:none;stroke-width:1px;stroke-linecap:butt;stroke-linejoin:miter;stroke-opacity:1"
       d="m 1918.6061,1746.1574 c 19.1204,15.4627 39.0722,32.1803 63.6123,29.0086 -15.036,6.0295 -43.8148,9.8246 -66.282,-5.5838 -35.0644,-24.0476 0.2146,-23.9396 0.2146,-23.9396 z"
       id="path4248"
       inkscape:connector-curvature="0"
       sodipodi:nodetypes="ccscc" />
    <path
       style="fill:#ffffff;fill-rule:evenodd;stroke:none;stroke-width:0.84259px;stroke-linecap:butt;stroke-linejoin:miter;stroke-opacity:1"
       d="m 209.18843,2520.692 c 13.91687,18.6091 30.69058,26.056 55.768,1.0613 20.456,6.0403 20.31799,24.7701 87.33472,2.1218 -38.46395,28.588 -22.32998,30.9026 0,30.236 -32.44044,37.0364 -4.7759,31.2953 7.36561,36.6022 -39.75751,22.3704 -34.5481,32.8673 -15.78336,39.7846 -13.40496,13.5521 -22.77006,26.6965 5.26103,36.0712 -21.92211,3.6978 -52.96264,2.0329 -43.14122,24.4014 -34.8096,-14.1518 -59.10343,-10.2794 -79.96913,-0.5309 -18.00279,-12.9686 -32.62185,-29.3494 -83.12584,-9.548 27.96981,-21.9401 16.90362,-32.9472 -5.26117,-40.8458 41.64075,-21.2391 9.13426,-28.6347 -23.14898,-36.0712 58.36414,-2.5541 41.77684,-26.0994 26.30571,-49.3332 27.32733,4.6669 54.75149,9.6745 68.39463,-33.9494 z"
       id="path4489"
       inkscape:connector-curvature="0"
       sodipodi:nodetypes="cccccccccccccc" />
    <path
       style="color:#000000;display:inline;overflow:visible;visibility:visible;fill:#ffffff;fill-opacity:1;fill-rule:nonzero;stroke:none;stroke-width:1px;marker:none;enable-background:accumulate"
       d="m 194.15137,2627.0953 c 14.3116,13.119 20.5898,27.322 21.7824,31.497 1.1926,4.174 -2.1039,30.52 2.0703,35.291 4.1742,4.77 19.6785,5.366 21.4675,8.944 1.7889,3.578 -3.5779,22.064 0,25.642 3.5779,3.578 28.6232,13.119 29.8159,16.101 1.1926,2.981 7.7521,19.082 19.6784,31.604 -11.33,-31.604 -7.7521,-38.164 -11.9263,-42.934 -4.1742,-4.771 -15.9274,-10.181 -18.3127,-15.548 -2.3853,-5.367 6.711,-25.728 0.086,-28.027 -4.7705,-4.77 -19.8083,-10.267 -19.8083,-10.267 4.1743,-4.771 18.356,-27.854 -1.3225,-55.881 -19.6785,-28.027 -43.5312,3.578 -43.5312,3.578 z"
       id="path5050-8"
       inkscape:connector-curvature="0"
       sodipodi:nodetypes="csccscccccccc" />
    <path
       style="color:#000000;display:inline;overflow:visible;visibility:visible;fill:#ffffff;fill-opacity:1;fill-rule:nonzero;stroke:none;stroke-width:1.20338px;marker:none;enable-background:accumulate"
       d="m 1046.0995,2698.1663 c 2.4556,-50.3777 47.7351,-84.1254 159.1598,-75.284 59.6849,4.7367 127.4078,7.6801 124.5019,81.4762 -2.9059,73.7962 -100.1869,72.4521 -120.2266,74.2916 -20.0397,1.8394 -125.2983,-0.49 -144.0958,-25.4802 -11.7668,-15.6437 -19.3484,-39.4049 -19.3393,-55.0036 z"
       id="path4546-6-89"
       inkscape:connector-curvature="0"
       sodipodi:nodetypes="cssssc" />
    <path
       style="color:#000000;display:inline;overflow:visible;visibility:visible;fill:#ffffff;fill-opacity:1;fill-rule:nonzero;stroke:none;stroke-width:1px;marker:none;enable-background:accumulate"
       d="m 1112.3939,2718.8111 c -36.5658,59.4022 -50.7173,145.4159 26.0841,179.4136 -60.0157,-38.5902 -23.0543,-135.4959 8.3656,-161.6817 21.2953,-14.4935 -34.4497,-17.7319 -34.4497,-17.7319 z"
       id="path3978-4"
       inkscape:connector-curvature="0"
       sodipodi:nodetypes="cccc" />
    <path
       style="color:#000000;display:inline;overflow:visible;visibility:visible;fill:#ffffff;fill-opacity:1;fill-rule:nonzero;stroke:none;stroke-width:1.77013px;marker:none;enable-background:accumulate"
       d="m 281.99728,827.03615 c -57.99732,0.97742 -116.72182,5.72739 -171.94877,22.57106 -33.639587,10.08691 -62.938938,31.61628 -80.401969,59.33441 -7.025735,14.18608 -6.645669,30.02322 -9.203216,45.10562 -1.792284,17.58227 1.845632,36.45858 14.588575,50.42266 15.898709,18.7597 38.529011,31.619 61.140914,42.9704 30.113196,14.1333 63.911906,20.7635 97.619676,22.9277 51.56756,5.424 103.70677,7.4891 155.51995,3.7811 30.95552,-2.033 62.08776,-4.6551 92.18468,-11.7673 17.47104,-4.1637 33.98227,-10.9626 49.70274,-18.8892 15.81144,-7.9208 31.36146,-16.4204 45.63265,-26.4498 18.68991,-13.9381 33.03832,-33.51411 36.15587,-55.44391 5.33108,-31.00456 -8.40107,-64.52501 -36.35519,-83.74013 -28.75924,-21.81902 -65.40483,-32.8221 -101.69848,-39.82018 -50.16378,-9.79844 -101.77838,-11.34543 -152.93743,-11.00243 z"
       id="path3365-9"
       inkscape:connector-curvature="0"
       sodipodi:nodetypes="csszcsc"
       inkscape:transform-center-x="-501.13744"
       inkscape:transform-center-y="149.04249" />
    <path
       style="fill:#ffffff;fill-rule:evenodd;stroke:none;stroke-width:0.977223px;stroke-linecap:butt;stroke-linejoin:miter;stroke-opacity:1"
       d="m 1104.6778,920.64705 c 8.668,-65.50225 80.129,-92.81872 156.1733,-86.01322 35.6447,3.18999 95.1971,-3.04759 114.5504,11.64251 21.9351,16.64965 4.1454,62.88484 4.872,82.82731 0.2956,31.1419 -9.5819,78.95915 -87.8018,88.82865 -78.22,9.8696 -194.7545,-2.882 -187.7939,-97.28525 z"
       id="path912"
       inkscape:connector-curvature="0"
       sodipodi:nodetypes="csscsc" />
    <path
       style="color:#000000;display:inline;overflow:visible;visibility:visible;fill:#ffffff;fill-opacity:1;fill-rule:nonzero;stroke:none;stroke-width:0.989872px;marker:none;enable-background:accumulate"
       d="m 473.4959,1110.2215 c -40.3937,1.8691 -54.77121,0.1547 -74.36032,-43.9141 -19.5892,-44.0678 -35.24613,-35.3212 -35.24613,-35.3212 l -26.14855,14.5263 c 0,0 69.82372,109.5525 135.755,64.709 z"
       id="path3072-5-5"
       inkscape:connector-curvature="0"
       sodipodi:nodetypes="ccccc" />
    <path
       style="color:#000000;display:inline;overflow:visible;visibility:visible;fill:#ffffff;fill-opacity:1;fill-rule:nonzero;stroke:none;stroke-width:1.18666px;marker:none;enable-background:accumulate"
       d="m 1238.4789,978.3037 c 6.1098,35.65 -0.6324,117.9014 -118.1167,120.6282 67.0346,-18.7772 84.3388,-47.5207 79.194,-93.2904 -3.3137,-29.47951 9.6095,-29.94973 9.6095,-29.94973 z"
       id="path4440-1"
       inkscape:connector-curvature="0"
       sodipodi:nodetypes="ccscc" />
    <path
       style="display:inline;fill:#ffffff;fill-rule:evenodd;stroke:none;stroke-width:1.01877px;stroke-linecap:butt;stroke-linejoin:miter;stroke-opacity:1"
       d="m 1585.1681,834.10016 c 26.3605,1.43741 22.5722,30.2986 -7.7879,32.52833 28.0864,11.07394 20.719,16.55772 5.0825,20.73654 30.1077,49.96334 14.4282,78.92487 -2.3285,107.39244 43.0121,-10.29071 40.2449,15.90833 47.5031,34.11683 15.0142,-33.93418 15.6457,-11.3404 12.2643,27.0265 16.9832,-44.0327 23.998,-47.0666 21.9255,-12.7143 13.6687,-27.6181 26.8834,-37.5698 39.5761,-27.2159 31.5935,-24.19393 50.6906,-7.4248 36.1982,25.824 35.7363,-36.4952 44.1511,-36.5499 49.0609,-15.3076 5.9072,-15.7172 10.2227,-38.49762 30.4914,-1.4653 5.4474,-43.91327 14.4338,-6.6044 21.1914,-0.9801 3.3136,-42.1807 47.9092,-24.67207 51.3068,-5.0224 -2.3606,-8.6471 -1.8865,-18.0901 1.9332,-28.47237 -3.4945,-14.95333 -3.0232,-30.00482 -0.4686,-45.10804 -3.7153,-26.67646 1.3753,-47.64662 4.2686,-70.04025 -4.8014,8.79645 -8.0169,-36.83532 -7.7937,-39.40497 -7.6052,1.71777 -51.138,-0.36731 -44.1109,-1.28703 -35.0113,2.22104 -27.5902,0.137 -32.8049,-0.66509 -76.0477,-8.26292 -75.0416,-0.48864 -86.6808,-2.19083 -15.965,3.40129 -28.7159,1.98864 -41.4539,0.55613 -7.4728,2.90754 -15.0766,2.0104 -22.6779,1.19283 -4.7376,1.24643 -15.4245,1.56075 -34.1327,0.61834 12.1542,1.10599 2.3884,1.23425 -40.5622,-0.11776 z"
       id="path4289-9"
       inkscape:connector-curvature="0"
       sodipodi:nodetypes="cccccccccccccccccccccccc" />
    <path
       style="color:#000000;display:inline;overflow:visible;visibility:visible;fill:#ffffff;fill-opacity:1;fill-rule:nonzero;stroke:none;stroke-width:1px;marker:none;enable-background:accumulate"
       d="m 1669.8183,1095.0591 c 52.9673,-34.0351 71.8625,-58.8898 88.416,-83.1049 7.7887,-11.3942 -22.5092,-17.40291 -22.5092,-17.40291 l -11.5344,24.88391 c 0,0 -12.622,41.2034 -54.3724,75.6239 z"
       id="path4000-2"
       inkscape:connector-curvature="0"
       sodipodi:nodetypes="csccc"
       inkscape:transform-center-x="-308.61774"
       inkscape:transform-center-y="-55.962808" />
    <path
       style="color:#000000;display:inline;overflow:visible;visibility:visible;fill:#ffffff;fill-opacity:1;fill-rule:nonzero;stroke:none;stroke-width:1.06407px;marker:none;enable-background:accumulate"
       d="m 2170.571,904.03926 c -16.097,3.56161 -32.5505,0.71799 -48.5155,6.06548 -11.3625,3.18795 -23.0725,5.78234 -34.547,3.24537 -8.1132,-1.25843 -16.807,0.0668 -23.9449,6.36215 -10.0322,7.93522 -18.9445,18.55586 -26.7544,30.4522 -3.7625,6.18344 -7.1464,13.64017 -7.3094,21.95067 0.1042,8.5099 3.6049,16.00005 7.8204,21.61221 8.4216,12.24786 20.278,19.07536 32.3315,20.58556 13.7213,2.9118 26.8288,10.3236 40.8267,11.0045 7.6773,0.1491 15.3467,-3.1511 22.999,-1.6034 5.847,1.2393 11.1207,5.1275 16.7345,7.437 5.0172,1.8887 10.4834,1.839 15.4368,-0.8013 6.3114,-2.7001 12.8172,-6.1394 19.4661,-4.8583 10.9798,1.214 22.0479,-0.075 32.981,-2.2307 7.7524,-1.2131 15.7863,-1.6707 23.0472,-6.3064 8.8534,-7.4093 15.9266,-18.16641 23.4684,-27.89885 3.36,-4.90465 5.9584,-11.81435 4.9524,-18.70004 -0.9425,-8.0338 -5.1529,-14.39804 -9.9645,-18.36718 -8.9141,-9.27939 -17.8014,-18.78642 -25.3674,-30.25438 -5.7145,-6.14143 -13.3094,-7.36278 -20.3659,-6.52449 -10.1415,0.47432 -20.1934,-2.45638 -29.572,-7.47354 -4.4558,-1.88421 -9.0224,-3.52743 -13.723,-3.69656 z"
       id="path3365-8"
       inkscape:connector-curvature="0"
       sodipodi:nodetypes="cssccsc" />
    <path
       style="display:inline;fill:#ffffff;fill-opacity:1;fill-rule:evenodd;stroke:none;stroke-width:1px;stroke-linecap:butt;stroke-linejoin:miter;stroke-opacity:1"
       d="m 2214.3795,960.14643 c -1.4297,8.459 7.6905,12.502 13.3057,16.588 7.0937,5.072 5.0374,15.927 -2.8535,18.922 -6.6614,2.438 -9.0687,9.33897 -9.5278,15.82497 0.6979,7.757 3.662,13.46 2.8543,19.998 0.7758,9.959 11.0423,12.466 10.1091,22.941 -0.9566,6.951 -5.9088,9.739 -12.2778,13.752 2.1992,4.9978 -11.1367,21.6776 -16.8896,25.4794 7.8261,-4.4494 22.2841,-11.4819 25.4378,-21.2415 12.9454,-6.0505 22.9576,-18.2077 12.7096,-32.1719 -7.4268,-8.207 -10.2366,-22.295 -1.8919,-30.861 6.0058,-4.627 13.7043,-10.08597 12.902,-18.73797 -2.3975,-11.731 -3.0261,-25.609 -12.9899,-33.83 -5.6468,-3.884 -8.5965,-13.223 -16.3596,-12.996 -6.7189,2.442 -5.6829,10.787 -4.5284,16.333 z"
       id="path4396-1"
       inkscape:connector-curvature="0"
       sodipodi:nodetypes="ccccccccccccccc" />
    <path
       style="color:#000000;display:inline;overflow:visible;visibility:visible;fill:#ffffff;fill-opacity:1;fill-rule:nonzero;stroke:none;stroke-width:0.58297px;marker:none;enable-background:accumulate"
       d="m 1925.1424,869.40511 c 9.7784,-12.51422 117.4695,-21.42748 145.3353,6.87679 19.4198,19.72576 18.3957,55.40763 1.7504,65.25521 -16.6451,9.84672 -97.0072,12.61998 -119.8474,7.60573 -20.5392,-4.50995 -42.0981,-14.21594 -43.2348,-40.05023 -0.4639,-10.54418 6.218,-27.17241 15.9965,-39.6875 z"
       id="path4040-3"
       inkscape:connector-curvature="0"
       sodipodi:nodetypes="zssssz" />
    <path
       style="color:#000000;display:inline;overflow:visible;visibility:visible;fill:#ffffff;fill-opacity:1;fill-rule:nonzero;stroke:none;stroke-width:0.999998px;marker:none;enable-background:accumulate"
       d="m 189.82826,1379.8767 c -6.61016,24.314 -43.89296,26.3529 -57.61779,21.4114 27.66598,27.2004 26.70152,44.1006 -10.86128,46.7242 62.99339,49.023 11.51606,41.6049 1.36256,54.0355 49.4615,16.8949 27.33186,37.9196 18.52597,58.8502 56.85112,0.7194 38.24636,34.2706 40.64254,60.9912 4.8196,-12.5383 27.71603,-50.7126 29.09366,-8.2089 37.60372,-40.55 82.89635,-66.7436 86.49279,4.2203 15.15114,-35.7003 41.29632,-50.2858 40.13333,-7.7067 37.53972,-55.3803 60.23483,-35.9478 94.16952,-20.2953 -9.11029,-20.0809 -28.29904,-49.5367 38.7861,-36.3768 -37.3192,-23.6587 -8.29092,-30.9155 11.35477,-36.0393 -15.88479,-10.0078 -18.81229,-20.331 10.68219,-31.4395 -22.44361,-1.0753 -43.37242,-3.2771 -17.04117,-41.1617 -8.26086,-0.9176 -40.25615,32.0157 -23.44838,-60.4998 -26.12721,29.6177 -54.00264,45.964 -88.96095,-16.0771 -16.54397,30.9951 -45.23915,46.3321 -57.72309,7.6174 -4.4869,16.504 -23.09218,22.7118 -38.88672,23.4638 -6.10779,-6.5556 -12.40727,-15.4598 -18.98094,-27.1263 -10.74432,24.4961 -26.81658,41.0404 -57.72311,7.6174 z"
       id="path3549-3-7-3"
       inkscape:connector-curvature="0"
       sodipodi:nodetypes="cccccccccccccccccccc" />
    <path
       style="color:#000000;display:inline;overflow:visible;visibility:visible;fill:#ffffff;fill-opacity:1;fill-rule:nonzero;stroke:none;stroke-width:1px;marker:none;enable-background:accumulate"
       d="m 287.3927,1556.3317 c -6.75576,12.853 -43.26253,45.4194 -53.2553,55.6175 4.16934,1.1193 18.49163,-0.6612 23.70885,-0.424 -28.18696,30.3633 -75.14135,49.9921 -114.1922,49.1115 24.25327,-6.1985 48.19266,-15.9707 67.33595,-32.4693 1.27157,-1.27 2.94318,-2.2742 3.93941,-3.7153 0.44585,-1.5091 -1.22772,-1.1492 -2.12241,-1.2189 -6.48954,-0.5288 -13.00655,-0.3703 -19.51056,-0.3998 15.86642,-14.3214 47.17809,-46.8583 52.52599,-64.6698 4.97614,-0.092 37.13148,-4.0317 41.79442,-2.4536 3.48254,-1.6486 2.08311,1.2448 2.00837,1.4519 z"
       id="path5066-7"
       inkscape:connector-curvature="0"
       sodipodi:nodetypes="cccccccccccc" />
    <path
       style="fill:#ffffff;fill-rule:evenodd;stroke:none;stroke-width:1px;stroke-linecap:butt;stroke-linejoin:miter;stroke-opacity:1"
       d="m 157.8069,2096.6973 c 7.4959,18.2948 15.02654,35.498 39.34133,-13.5676 -2.74445,14.6793 0.45019,39.1305 36.25433,16.6856 -20.31902,28.0034 -11.79607,30.2706 0,29.6177 -17.13704,36.279 -2.52293,30.6553 3.89097,35.8536 -21.00237,21.913 -18.25044,32.1952 -8.33775,38.971 -7.08132,13.275 -12.02854,26.1506 2.7792,35.3336 -11.5806,3.6221 -27.97812,1.9913 -22.78984,23.9024 -18.38857,-13.8625 -31.22207,-10.0693 -42.24461,-0.5201 -9.51018,-12.7034 -17.23287,-28.7492 -43.91219,-9.3527 14.77538,-21.4914 8.92954,-32.2734 -2.77927,-40.0105 21.99721,-20.8048 4.82528,-28.0492 -12.22871,-35.3336 30.83153,-2.5019 22.0691,-25.5657 13.89629,-48.3243 14.43598,4.5714 28.92311,9.4767 36.13025,-33.2551 z"
       id="path4489-0"
       inkscape:connector-curvature="0"
       sodipodi:nodetypes="cccccccccccccc" />
    <path
       style="fill:#ffffff;stroke:none;stroke-width:0.999995"
       d="m 1347.8547,1371.5877 c -15.3068,6.381 -31.4764,10.8062 -48.6199,9.5819 -4.1809,0.096 -8.3546,0.3094 -12.3643,1.2285 -7.3377,7.8856 -11.104,20.8381 -12.6889,34.4348 -2.9506,15.7614 -6.1404,31.3768 -8.4536,47.5502 1.9234,23.5788 16.906,47.7214 33.4543,53.9051 14.7837,3.4522 29.7936,6.2884 44.4671,15.1086 10.4453,5.5146 21.5155,8.4292 31.1724,5.1687 14.7632,-3.5956 29.078,-9.7364 44.9579,-8.3517 19.5233,2.4448 39.5131,14.462 58.8819,14.736 13.3145,0.2322 25.4006,-5.0887 36.9955,-10.9974 9.2601,-3.4326 19.7161,-1.591 29.8842,0.4494 9.5769,0.5818 17.6466,-6.2876 22.3054,-16.4907 7.5707,-14.0324 12.0107,-32.3818 10.8072,-52.476 -1.4494,-19.4629 -7.9003,-40.3688 -19.0703,-55.51 -7.9287,-11.0029 -18.5339,-17.1811 -28.2007,-17.4812 -13.3147,-1.7593 -26.7977,-2.261 -40.2765,-9.3256 -16.8545,-8.4096 -34.3719,-12.7802 -50.3443,-9.4822 -16.6561,2.5618 -33.4973,5.5091 -51.2029,1.5967 -12.1297,-2.3276 -24.3358,-5.2065 -36.2984,-5.7133 -1.802,0.6894 -3.604,1.3788 -5.4061,2.0682 z"
       id="path3280-1"
       inkscape:connector-curvature="0"
       sodipodi:nodetypes="csssc" />
    <path
       style="fill:#ffffff;fill-opacity:1;stroke:none;stroke-width:1.08132"
       d="m 534.1621,1488.0259 c 27.46801,3.6326 34.80815,14.8095 6.15383,23.6108 35.9809,5.8333 10.29779,39.6407 -0.74593,43.1247 16.4841,-4.0904 31.32979,4.1568 31.32979,4.1568 4.4191,5.5367 -18.68091,34.2518 -17.43542,34.8256 2.5371,0.5361 17.59187,-1.9372 20.18503,0.4954 2.59319,2.4339 -21.52622,39.4339 -18.13099,40.5702 3.3954,1.1373 79.91792,-25.8381 90.99926,-20.5639 11.08146,5.2742 -2.06321,28.0714 1.31345,28.5754 3.37645,0.504 42.02354,-12.505 46.23975,-12.033 4.21588,0.472 1.52039,25.3019 5.7365,25.7738 4.2162,0.472 34.07418,-15.2673 37.45074,-14.7633 3.37665,0.504 2.16471,16.375 6.38083,16.847 4.2162,0.4719 22.27368,-14.142 24.81091,-13.6061 2.53701,0.536 12.70582,31.7973 16.95919,33.5334 4.25356,1.7365 30.03318,-35.9599 32.53304,-36.6883 2.49959,-0.7295 19.73921,42.2893 23.11588,42.7932 3.37666,0.5039 19.26926,-30.4862 21.80649,-29.9502 2.5371,0.5361 19.01048,17.632 22.40573,18.7679 3.39534,1.1363 24.02606,-40.1622 27.38393,-40.2902 3.35809,-0.1283 32.40499,15.8536 35.01689,18.9182 2.612,3.066 4.55106,-16.6312 7.90893,-16.7595 3.35795,-0.128 42.31058,9.7797 43.13162,9.1153 0.82068,-0.6641 -6.25038,-12.4215 -3.73196,-12.5176 2.51851,-0.097 42.44141,14.2045 44.02711,10.9796 -4.6686,-24.0558 89.6904,2.4388 91.8961,9.7855 0,0 -39.3092,-50.405 -35.2239,-54.3595 4.0852,-3.9533 19.3272,-0.1047 20.1105,-2.0334 0.7833,-1.9285 -9.5334,-9.7635 -7.0898,-12.3883 2.4438,-2.6262 30.6872,-13.8316 33.1123,-17.0886 2.4249,-3.2581 -12.9288,-10.901 -9.6269,-12.9256 -5.3696,-6.1086 47.7216,-21.7131 53.2226,-19.1232 -2.6124,0.7116 -30.8408,-15.9812 -22.4993,-21.9275 3.2272,-4.5548 6.9619,-6.3975 11.4725,-9.9338 -4.7959,-1.4068 -16.9954,-6.3144 -16.2493,-9.5072 0.7462,-3.1929 8.6737,-19.3214 11.1174,-21.9462 2.4438,-2.6249 -17.6665,-0.5915 -17.7411,-3.1202 -0.075,-2.53 0.2854,-40.5636 29.4311,-64.6809 -16.3159,5.4304 -60.5065,10.0569 -60.5065,10.0569 l 9.9103,-21.8857 c 0,0 -36.9821,20.5368 -51.1455,18.5027 -27.8528,-4 -22.127,-37.7678 -22.127,-37.7678 0,0 -32.9773,16.677 -37.3055,12.4121 -4.3283,-4.2664 -10.3311,-12.4747 -11.5716,-16.8766 -2.2193,2.7916 -22.14288,18.5685 -26.35887,18.0966 -12.71134,2.2801 -48.19282,-25.5885 -50.38927,-27.1946 -11.07279,10.2061 -23.32998,18.562 -30.75019,19.2168 -3.85468,1.328 -16.64151,-14.3911 -16.33562,-19.9511 -1.8406,4.631 -24.04281,21.9439 -29.15427,19.6277 -4.23492,-1.1055 -14.31924,-12.178 -17.87336,-16.2761 -4.22758,8.233 -15.42621,19.5854 -15.42621,19.5854 0,0 -29.66421,-7.7339 -36.76442,-24.5154 -3.45606,18.395 -19.94944,35.8777 -24.1096,37.3022 -4.16005,1.4246 -66.34962,-34.4243 -63.94329,-38.3134 -0.39916,20.2003 -3.89142,36.9011 -9.4505,37.8514 -5.8202,2.1221 -51.81939,-37.5877 -53.44211,-35.627 -1.62307,1.9605 5.15137,38.1358 0.13309,38.9603 -5.01816,0.8244 -14.41346,-2.8873 -14.41346,-2.8873 l -0.49178,10.4192 c 0,0 -41.76364,-37.9796 -46.07329,-41.6123 -4.30943,-3.6342 13.32822,38.7896 15.99615,43.7522 -15.26019,-4.482 -39.98346,-18.301 -43.43467,-21.335 -2.95843,-3.1105 15.20359,33.5275 13.11038,38.9074 -6.18482,8.0113 -29.84338,1.3877 -29.87364,0.8901 l 19.7567,14.4377 c 5.74299,5.0947 5.9127,4.2879 7.05219,11.1241 4.70206,14.6885 -23.86707,27.5727 -19.76344,23.4599 32.75461,8.2851 28.27472,7.694 -2.03152,13.9733 z"
       id="path5888-3"
       inkscape:connector-curvature="0"
       sodipodi:nodetypes="cccccccsscccccccsccscscsccscccccccccscccscsccccccccccccccccscccccccc" />
    <path
       style="color:#000000;display:inline;overflow:visible;visibility:visible;fill:#ffffff;fill-opacity:1;fill-rule:nonzero;stroke:none;stroke-width:1px;marker:none;enable-background:accumulate"
       d="m 1032.7385,2506.0538 c -7.0167,15.6506 -46.59208,16.9629 -61.16088,13.7817 29.36728,17.508 28.3435,28.3861 -11.52901,30.075 66.86699,31.5541 12.22415,26.7792 1.44622,34.7804 52.50307,10.8742 29.01265,24.4075 19.66527,37.8796 60.3469,0.4628 40.5981,22.0581 43.1416,39.2574 5.116,-8.0707 29.4206,-32.6414 30.883,-5.2836 39.9161,-26.1008 87.9938,-42.9607 91.8113,2.7159 16.083,-22.9786 32.1173,-32.6903 30.883,-5.2835 39.8482,-35.6461 75.6572,-22.8152 111.6787,-12.7403 9.4607,-10.7588 10.5632,-27.2874 41.1711,-23.414 -4.2915,-10.6639 6.043,-17.9942 29.3819,-22.3473 -31.0136,-6.4418 -36.7293,-13.0863 20.8559,-20.2368 -43.8191,-0.6917 -84.6806,-2.1087 -33.2713,-26.4941 -16.1285,-0.5901 -54.395,19.7578 -36.5538,-39.7907 -27.7338,19.0635 -57.3233,29.5852 -94.4312,-10.348 -17.5615,19.9499 -48.0213,29.8219 -61.2729,4.9029 -4.7628,10.6234 -24.5122,14.6187 -41.278,15.1032 -6.4833,-4.2198 -13.1701,-9.9514 -20.148,-17.4607 -11.405,15.7675 -28.4656,26.4162 -61.2729,4.9029 z"
       id="path3549-3-7"
       inkscape:connector-curvature="0"
       sodipodi:nodetypes="cccccccccccccccccccc" />
    <path
       style="color:#000000;display:inline;overflow:visible;visibility:visible;fill:#ffffff;fill-opacity:1;fill-rule:nonzero;stroke:none;stroke-width:0.999999px;marker:none;enable-background:accumulate"
       d="m 816.63784,1756.6297 c -53.77145,-23.5695 -66.64315,-43.3978 -72.53669,-59.3997 4.92832,-2.8264 19.90718,-12.2286 19.90718,-12.2286 -16.13101,-13.5035 -22.74289,-67.3125 -10.60035,-69.1694 13.12461,-2.0071 37.10425,-0.6792 37.10425,-0.6792 -15.10667,5.504 -31.61267,72.6481 3.53791,74.6731 -13.86907,7.2537 -15.94917,12.9369 -22.14538,13.688 0.0252,10.0268 26.00335,44.2425 44.73308,53.1158 z"
       id="path4456-3"
       inkscape:connector-curvature="0"
       sodipodi:nodetypes="cccscccc" />
    <path
       style="fill:#ffffff;fill-rule:evenodd;stroke:none;stroke-width:1px;stroke-linecap:butt;stroke-linejoin:miter;stroke-opacity:1"
       d="m 167.70136,2121.0977 c -3.69503,-24.293 -4.22495,-65.7807 10.34503,-85.4357 -12.3556,9.997 -31.21448,52.6878 -29.1892,79.8508 3.16086,42.393 20.17148,17.9256 20.17148,17.9256 z"
       id="path4248-7"
       inkscape:connector-curvature="0"
       sodipodi:nodetypes="ccscc" />
  </g>
  <g
     inkscape:groupmode="layer"
     id="layer1"
     inkscape:label="txt">
    <text
       xml:space="preserve"
       style="font-style:normal;font-variant:normal;font-weight:normal;font-stretch:normal;font-size:45.3333px;line-height:125%;font-family:Lavi;-inkscape-font-specification:Lavi;text-align:center;letter-spacing:0px;word-spacing:0px;text-anchor:middle;fill:#000000;fill-opacity:1;stroke:none"
       x="300.20328"
       y="915.61249"
       id="text4246-70-2-2-2-7-4-9-9-6-1-2-3-9-2-7-9-3"><tspan
         sodipodi:role="line"
         style="font-size:45.3333px"
         x="300.20328"
         y="915.61249"
         id="tspan1029">Grr! Vamos, Pepper! </tspan><tspan
         sodipodi:role="line"
         style="font-size:45.3333px"
         x="300.20328"
         y="972.27911"
         id="tspan2728">Preciso de uma </tspan><tspan
         sodipodi:role="line"
         style="font-size:45.3333px"
         x="300.20328"
         y="1028.9458"
         id="tspan2730">história triste.</tspan><tspan
         sodipodi:role="line"
         style="font-size:45.3333px"
         x="300.20328"
         y="1085.6124"
         id="tspan2684" /></text>
    <text
       xml:space="preserve"
       style="font-style:normal;font-variant:normal;font-weight:normal;font-stretch:normal;font-size:45.3333px;line-height:125%;font-family:Lavi;-inkscape-font-specification:Lavi;text-align:center;letter-spacing:0px;word-spacing:0px;text-anchor:middle;fill:#000000;fill-opacity:1;stroke:none"
       x="1246.7052"
       y="919.91296"
       id="text4246-70-2-2-2-7-4-9-9-6-1-2-3-9-2-7-9-3-3"><tspan
         sodipodi:role="line"
         style="font-size:45.3333px"
         x="1246.7052"
         y="919.91296"
         id="tspan1033">Você </tspan><tspan
         sodipodi:role="line"
         style="font-size:45.3333px"
         x="1246.7052"
         y="976.57959"
         id="tspan2732">consegue.</tspan><tspan
         sodipodi:role="line"
         style="font-size:45.3333px"
         x="1246.7052"
         y="1033.2462"
         id="tspan2688" /></text>
    <text
       xml:space="preserve"
       style="font-style:normal;font-variant:normal;font-weight:normal;font-stretch:normal;font-size:52.6959px;line-height:125%;font-family:Lavi;-inkscape-font-specification:Lavi;text-align:center;letter-spacing:0px;word-spacing:0px;text-anchor:middle;fill:#000000;fill-opacity:1;stroke:none;stroke-width:1"
       x="1735.2688"
       y="908.93842"
       id="text4246-70-2-2-2-7-4-9-9-6-1-2-3-9-2-7-9-3-3-7"><tspan
         sodipodi:role="line"
         style="font-style:normal;font-variant:normal;font-weight:bold;font-stretch:normal;font-size:52.6959px;font-family:Lavi;-inkscape-font-specification:'Lavi Bold';stroke-width:1"
         x="1735.2688"
         y="908.93842"
         id="tspan1037">Você </tspan><tspan
         sodipodi:role="line"
         style="font-style:normal;font-variant:normal;font-weight:bold;font-stretch:normal;font-size:52.6959px;font-family:Lavi;-inkscape-font-specification:'Lavi Bold';stroke-width:1"
         x="1735.2688"
         y="974.80829"
         id="tspan2734">consegue.</tspan><tspan
         sodipodi:role="line"
         style="font-style:normal;font-variant:normal;font-weight:bold;font-stretch:normal;font-size:52.6959px;font-family:Lavi;-inkscape-font-specification:'Lavi Bold';stroke-width:1"
         x="1735.2688"
         y="1040.6782"
         id="tspan2692" /></text>
    <text
       xml:space="preserve"
       style="font-style:normal;font-variant:normal;font-weight:normal;font-stretch:normal;font-size:45.3333px;line-height:125%;font-family:Lavi;-inkscape-font-specification:Lavi;text-align:center;letter-spacing:0px;word-spacing:0px;text-anchor:middle;fill:#000000;fill-opacity:1;stroke:none"
       x="2001.5763"
       y="914.20508"
       id="text4246-70-2-2-2-7-4-9-9-6-1-2-3-9-2-7-9-3-5"><tspan
         sodipodi:role="line"
         style="font-size:45.3333px"
         x="2001.5763"
         y="914.20508"
         id="tspan2829-1">Não...</tspan><tspan
         sodipodi:role="line"
         style="font-size:45.3333px"
         x="2001.5763"
         y="970.8717"
         id="tspan2694" /></text>
    <text
       xml:space="preserve"
       style="font-style:normal;font-variant:normal;font-weight:normal;font-stretch:normal;font-size:36.074px;line-height:125%;font-family:Lavi;-inkscape-font-specification:Lavi;text-align:center;letter-spacing:0px;word-spacing:0px;text-anchor:middle;fill:#000000;fill-opacity:1;stroke:none;stroke-width:0.999996"
       x="2210.7493"
       y="929.75543"
       id="text4246-70-2-2-2-7-4-9-9-6-1-2-3-9-2-7-9-3-5-2"
       transform="scale(0.972094,1.0287071)"><tspan
         sodipodi:role="line"
         style="font-size:36.074px;stroke-width:0.999996"
         x="2210.7493"
         y="929.75543"
         id="tspan2829-1-7">Você não </tspan><tspan
         sodipodi:role="line"
         style="font-size:36.074px;stroke-width:0.999996"
         x="2210.7493"
         y="974.84796"
         id="tspan2736">consegue.</tspan><tspan
         sodipodi:role="line"
         style="font-size:36.074px;stroke-width:0.999996"
         x="2210.7493"
         y="1019.9404"
         id="tspan2696" /></text>
    <text
       xml:space="preserve"
       style="font-style:normal;font-variant:normal;font-weight:normal;font-stretch:normal;font-size:14.541px;line-height:0%;font-family:Lavi;-inkscape-font-specification:Lavi;text-align:center;letter-spacing:0px;word-spacing:0px;text-anchor:middle;display:inline;fill:#000000;fill-opacity:1;stroke:#000000;stroke-width:2.01521;stroke-miterlimit:4;stroke-dasharray:none;stroke-opacity:1"
       x="564.22491"
       y="1426.739"
       id="text4246-3-7-9-5-1-6-2-3"
       transform="matrix(0.96995835,0,-0.17070021,1.0309721,0,0)"><tspan
         sodipodi:role="line"
         style="font-size:54.5284px;line-height:1.25;stroke:#000000;stroke-width:2.01521;stroke-miterlimit:4;stroke-dasharray:none;stroke-opacity:1"
         x="564.22491"
         y="1426.739"
         id="tspan22580">Ei! Opa! </tspan><tspan
         sodipodi:role="line"
         style="font-size:54.5284px;line-height:1.25;stroke:#000000;stroke-width:2.01521;stroke-miterlimit:4;stroke-dasharray:none;stroke-opacity:1"
         x="564.22491"
         y="1494.8995"
         id="tspan2738">Sai pra lá!</tspan><tspan
         sodipodi:role="line"
         style="font-size:54.5284px;line-height:1.25;stroke:#000000;stroke-width:2.01521;stroke-miterlimit:4;stroke-dasharray:none;stroke-opacity:1"
         x="564.22491"
         y="1517.8254"
         id="tspan2700" /></text>
    <text
       xml:space="preserve"
       style="font-style:normal;font-variant:normal;font-weight:normal;font-stretch:normal;font-size:6.87975px;line-height:0%;font-family:Lavi;-inkscape-font-specification:Lavi;text-align:center;letter-spacing:0px;word-spacing:0px;text-anchor:middle;fill:#000000;fill-opacity:1;stroke:none;stroke-width:0.87182"
       x="-341.33691"
       y="2062.9126"
       id="text4246-4-9-8-0-3"
       transform="matrix(0.86354336,-0.84725955,0.23030923,0.93205314,0,0)"><tspan
         sodipodi:role="line"
         style="font-size:80.8612px;line-height:1.25;stroke-width:0.87182"
         x="-341.33691"
         y="2062.9126"
         id="tspan4205-3-3"><tspan
           style="font-size:69.6307px;stroke-width:0.87182"
           id="tspan4438">!!</tspan></tspan></text>
    <text
       xml:space="preserve"
       style="font-style:normal;font-variant:normal;font-weight:normal;font-stretch:normal;font-size:13.6455px;line-height:0%;font-family:Lavi;-inkscape-font-specification:Lavi;text-align:center;letter-spacing:0px;word-spacing:0px;text-anchor:middle;display:inline;fill:#000000;fill-opacity:1;stroke:#000000;stroke-width:2.01521;stroke-miterlimit:4;stroke-dasharray:none;stroke-opacity:1"
       x="1131.7144"
       y="1424.4862"
       id="text4246-3-7-9-5-1-6-2-3-8"
       transform="matrix(0.97850393,0,-0.17220413,1.0219683,0,0)"><tspan
         sodipodi:role="line"
         style="font-size:51.17px;line-height:1.25;stroke:#000000;stroke-width:2.01521;stroke-miterlimit:4;stroke-dasharray:none;stroke-opacity:1"
         x="1131.7144"
         y="1424.4862"
         id="tspan1362">Se você não pode </tspan><tspan
         sodipodi:role="line"
         style="font-size:51.17px;line-height:1.25;stroke:#000000;stroke-width:2.01521;stroke-miterlimit:4;stroke-dasharray:none;stroke-opacity:1"
         x="1131.7144"
         y="1488.4487"
         id="tspan2744">pagar, tire a suas patas </tspan><tspan
         sodipodi:role="line"
         style="font-size:51.17px;line-height:1.25;stroke:#000000;stroke-width:2.01521;stroke-miterlimit:4;stroke-dasharray:none;stroke-opacity:1"
         x="1131.7144"
         y="1552.4113"
         id="tspan2750">das minhas coisas!</tspan><tspan
         sodipodi:role="line"
         style="font-size:51.17px;line-height:1.25;stroke:#000000;stroke-width:2.01521;stroke-miterlimit:4;stroke-dasharray:none;stroke-opacity:1"
         x="1131.7144"
         y="1573.925"
         id="tspan2707" /></text>
    <text
       xml:space="preserve"
       style="font-style:normal;font-variant:normal;font-weight:normal;font-stretch:normal;font-size:45.3333px;line-height:125%;font-family:Lavi;-inkscape-font-specification:Lavi;text-align:center;letter-spacing:0px;word-spacing:0px;text-anchor:middle;fill:#000000;fill-opacity:1;stroke:none"
       x="1430.9071"
       y="1440.3622"
       id="text4246-70-2-2-2-7-4-9-9-6-1-2-3-9-2-7-9-3-3-5-6"><tspan
         sodipodi:role="line"
         style="font-style:italic;font-variant:normal;font-weight:normal;font-stretch:normal;font-size:45.3333px;font-family:Lavi;-inkscape-font-specification:'Lavi Italic'"
         x="1430.9071"
         y="1440.3622"
         id="tspan1441">Ah não, </tspan><tspan
         sodipodi:role="line"
         style="font-style:italic;font-variant:normal;font-weight:normal;font-stretch:normal;font-size:45.3333px;font-family:Lavi;-inkscape-font-specification:'Lavi Italic'"
         x="1430.9071"
         y="1497.0288"
         id="tspan2752">você não...</tspan><tspan
         sodipodi:role="line"
         style="font-style:italic;font-variant:normal;font-weight:normal;font-stretch:normal;font-size:45.3333px;font-family:Lavi;-inkscape-font-specification:'Lavi Italic'"
         x="1430.9071"
         y="1553.6954"
         id="tspan2711" /></text>
    <text
       xml:space="preserve"
       style="font-style:normal;font-variant:normal;font-weight:normal;font-stretch:normal;font-size:15.3246px;line-height:0%;font-family:Lavi;-inkscape-font-specification:Lavi;text-align:center;letter-spacing:2px;word-spacing:0px;text-anchor:middle;display:inline;fill:#000000;fill-opacity:1;stroke:#000000;stroke-width:2.01521;stroke-miterlimit:4;stroke-dasharray:none;stroke-opacity:1"
       x="2107.2039"
       y="1398.4261"
       id="text4246-3-7-9-5-1-6-2"
       transform="matrix(0.92840736,0,-0.16338778,1.0771134,0,0)"><tspan
         sodipodi:role="line"
         style="font-size:57.4671px;line-height:1.25;stroke:#000000;stroke-width:2.01521;stroke-miterlimit:4;stroke-dasharray:none;stroke-opacity:1"
         x="2108.2039"
         y="1398.4261"
         id="tspan1222">CARROT!</tspan></text>
    <text
       xml:space="preserve"
       style="font-style:normal;font-variant:normal;font-weight:normal;font-stretch:normal;font-size:45.3333px;line-height:125%;font-family:Lavi;-inkscape-font-specification:Lavi;text-align:center;letter-spacing:0px;word-spacing:0px;text-anchor:middle;fill:#000000;fill-opacity:1;stroke:none"
       x="1722.5636"
       y="1622.7692"
       id="text4246-70-2-2-2-7-4-9-9-6-1-2-3-9-2-7-9-3-3-5"><tspan
         sodipodi:role="line"
         style="font-size:45.3333px"
         x="1722.5636"
         y="1622.7692"
         id="tspan1614">Você bem que podia me </tspan><tspan
         sodipodi:role="line"
         style="font-size:45.3333px"
         x="1722.5636"
         y="1679.4358"
         id="tspan2754">ajudar ao invés de pensar </tspan><tspan
         sodipodi:role="line"
         style="font-size:45.3333px"
         x="1722.5636"
         y="1736.1024"
         id="tspan2756">no seu estômago!</tspan><tspan
         sodipodi:role="line"
         style="font-size:45.3333px"
         x="1722.5636"
         y="1792.769"
         id="tspan2718" /></text>
    <text
       xml:space="preserve"
       style="font-style:normal;font-variant:normal;font-weight:normal;font-stretch:normal;font-size:15.3246px;line-height:0%;font-family:Lavi;-inkscape-font-specification:Lavi;text-align:center;letter-spacing:0px;word-spacing:0px;text-anchor:middle;display:inline;fill:#000000;fill-opacity:1;stroke:#000000;stroke-width:2.01521;stroke-miterlimit:4;stroke-dasharray:none;stroke-opacity:1"
       x="687.12646"
       y="2438.4612"
       id="text4246-3-7-9-5-1-6-2-9"
       transform="matrix(0.92840736,0,-0.16338778,1.0771134,0,0)"><tspan
         sodipodi:role="line"
         style="font-size:57.4671px;line-height:1.25;stroke:#000000;stroke-width:2.01521;stroke-miterlimit:4;stroke-dasharray:none;stroke-opacity:1"
         x="687.12646"
         y="2438.4612"
         id="tspan1222-1">Ah?!</tspan><tspan
         sodipodi:role="line"
         style="font-size:57.4671px;line-height:1.25;stroke:#000000;stroke-width:2.01521;stroke-miterlimit:4;stroke-dasharray:none;stroke-opacity:1"
         x="687.12646"
         y="2462.6226"
         id="tspan2720" /></text>
    <text
       xml:space="preserve"
       style="font-style:normal;font-variant:normal;font-weight:normal;font-stretch:normal;font-size:55.8737px;line-height:125%;font-family:Lavi;-inkscape-font-specification:Lavi;text-align:center;letter-spacing:0px;word-spacing:0px;text-anchor:middle;fill:#000000;fill-opacity:1;stroke:none;stroke-width:0.999999"
       x="1152.1935"
       y="2595.791"
       id="text4246-70-2-2-2-7-4-9-9-6-1-2-3-9-2-7-9-3-3-2-2"><tspan
         sodipodi:role="line"
         style="font-style:normal;font-variant:normal;font-weight:bold;font-stretch:normal;font-size:55.8737px;font-family:Lavi;-inkscape-font-specification:'Lavi Bold';stroke-width:0.999999"
         x="1152.1935"
         y="2595.791"
         id="tspan17035-3">É claro...</tspan><tspan
         sodipodi:role="line"
         style="font-style:normal;font-variant:normal;font-weight:bold;font-stretch:normal;font-size:55.8737px;font-family:Lavi;-inkscape-font-specification:'Lavi Bold';stroke-width:0.999999"
         x="1152.1935"
         y="2665.6331"
         id="tspan2722" /></text>
    <text
       xml:space="preserve"
       style="font-style:normal;font-variant:normal;font-weight:normal;font-stretch:normal;font-size:45.3333px;line-height:125%;font-family:Lavi;-inkscape-font-specification:Lavi;text-align:center;letter-spacing:0px;word-spacing:0px;text-anchor:middle;fill:#000000;fill-opacity:1;stroke:none"
       x="1191.6333"
       y="2684.5107"
       id="text4246-70-2-2-2-7-4-9-9-6-1-2-3-9-2-7-9-3-3-2"><tspan
         sodipodi:role="line"
         style="font-size:45.3333px"
         x="1191.6333"
         y="2684.5107"
         id="tspan1834">Isso pode </tspan><tspan
         sodipodi:role="line"
         style="font-size:45.3333px"
         x="1191.6333"
         y="2741.1775"
         id="tspan2758">funcionar.</tspan><tspan
         sodipodi:role="line"
         style="font-size:45.3333px"
         x="1191.6333"
         y="2797.844"
         id="tspan2726" /></text>
  </g>
</svg>
