<?xml version="1.0" encoding="UTF-8" standalone="no"?>
<!-- Created with Inkscape (http://www.inkscape.org/) -->

<svg
   id="svg2"
   version="1.1"
   inkscape:version="1.2.1 (9c6d41e4, 2022-07-14)"
   width="2481"
   height="3503"
   sodipodi:docname="E37P04.svg"
   xmlns:inkscape="http://www.inkscape.org/namespaces/inkscape"
   xmlns:sodipodi="http://sodipodi.sourceforge.net/DTD/sodipodi-0.dtd"
   xmlns:xlink="http://www.w3.org/1999/xlink"
   xmlns="http://www.w3.org/2000/svg"
   xmlns:svg="http://www.w3.org/2000/svg"
   xmlns:rdf="http://www.w3.org/1999/02/22-rdf-syntax-ns#"
   xmlns:cc="http://creativecommons.org/ns#"
   xmlns:dc="http://purl.org/dc/elements/1.1/">
  <metadata
     id="metadata8">
    <rdf:RDF>
      <cc:Work
         rdf:about="">
        <dc:format>image/svg+xml</dc:format>
        <dc:type
           rdf:resource="http://purl.org/dc/dcmitype/StillImage" />
        <dc:title />
      </cc:Work>
    </rdf:RDF>
  </metadata>
  <defs
     id="defs6">
    <filter
       inkscape:label="Ripple"
       inkscape:menu="Distort"
       inkscape:menu-tooltip="Horizontal rippling of edges"
       style="color-interpolation-filters:sRGB"
       id="filter4265-7-37"
       y="0"
       x="0"
       width="1"
       height="1">
      <feTurbulence
         numOctaves="1"
         baseFrequency="0.002 0.107"
         id="feTurbulence4267-7-7" />
      <feColorMatrix
         values="5 0 0 0 0 0 0 0 0 0 0 0 0 0 0 0 0 0 4 0 "
         result="result91"
         id="feColorMatrix4269-1-2" />
      <feDisplacementMap
         yChannelSelector="A"
         xChannelSelector="R"
         scale="14.3"
         in="SourceGraphic"
         in2="result91"
         id="feDisplacementMap4271-2-64" />
    </filter>
    <filter
       inkscape:label="Magmah-FX"
       inkscape:menu="Distort"
       inkscape:menu-tooltip="Horizontal rippling of edges"
       style="color-interpolation-filters:sRGB"
       id="filter4265-7"
       y="0"
       x="0"
       width="1"
       height="1">
      <feTurbulence
         numOctaves="1"
         baseFrequency="0.002 0.107"
         id="feTurbulence4267-7" />
      <feColorMatrix
         values="5 0 0 0 0 0 0 0 0 0 0 0 0 0 0 0 0 0 4 0 "
         result="result91"
         id="feColorMatrix4269-1" />
      <feDisplacementMap
         yChannelSelector="A"
         xChannelSelector="R"
         scale="14.3"
         in="SourceGraphic"
         in2="result91"
         id="feDisplacementMap4271-2" />
    </filter>
    <filter
       style="color-interpolation-filters:sRGB"
       inkscape:label="Magmah-spell-glow"
       id="filter4751"
       x="-0.035967053"
       y="-0.17833759"
       width="1.0719341"
       height="1.3566752">
      <feFlood
         flood-opacity="1"
         flood-color="rgb(255,255,255)"
         result="flood"
         id="feFlood4753" />
      <feComposite
         in="flood"
         in2="SourceGraphic"
         operator="in"
         result="composite1"
         id="feComposite4755" />
      <feGaussianBlur
         in="composite1"
         stdDeviation="5.4"
         result="blur"
         id="feGaussianBlur4757" />
      <feOffset
         dx="0"
         dy="0"
         result="offset"
         id="feOffset4759" />
      <feComposite
         in="SourceGraphic"
         in2="offset"
         operator="over"
         result="composite2"
         id="feComposite4761" />
    </filter>
  </defs>
  <sodipodi:namedview
     pagecolor="#ffffff"
     bordercolor="#666666"
     borderopacity="1"
     objecttolerance="10"
     gridtolerance="10"
     guidetolerance="10"
     inkscape:pageopacity="0"
     inkscape:pageshadow="2"
     inkscape:window-width="1440"
     inkscape:window-height="847"
     id="namedview4"
     showgrid="false"
     inkscape:zoom="0.50147133"
     inkscape:cx="1571.376"
     inkscape:cy="3165.6845"
     inkscape:window-x="0"
     inkscape:window-y="25"
     inkscape:window-maximized="0"
     inkscape:current-layer="layer1"
     inkscape:pagecheckerboard="0"
     inkscape:showpageshadow="0"
     inkscape:deskcolor="#d1d1d1" />
  <g
     inkscape:groupmode="layer"
     id="layer2"
     inkscape:label="artwork"
     sodipodi:insensitive="true">
    <image
       xlink:href="../gfx_Pepper-and-Carrot_by-David-Revoy_E37P04.png"
       y="0"
       x="0"
       id="image10"
       height="3503"
       width="2481" />
  </g>
  <g
     inkscape:groupmode="layer"
     id="layer3"
     inkscape:label="speechbubbles">
    <path
       style="color:#000000;display:inline;overflow:visible;visibility:visible;fill:#ffffff;fill-opacity:1;fill-rule:nonzero;stroke:none;stroke-width:1.04173px;marker:none;enable-background:accumulate"
       d="m 342.68218,1470.9983 c -58.66275,0.4078 -117.90193,1.9604 -175.31906,17.1073 -24.71644,7.8307 -46.29837,30.3784 -52.75934,59.1718 -3.32166,18.1394 2.01285,36.4813 8.47869,52.8836 8.43711,21.2613 25.89607,36.4389 44.99144,43.635 41.16324,18.4762 85.78616,21.4089 129.37223,25.6684 21.24378,2.1967 42.50798,4.5456 63.85987,4.5775 41.87379,0.5336 83.72639,-2.4368 125.60047,-1.3458 26.39827,-0.079 52.94002,-3.3885 78.27645,-12.1354 17.98812,-5.6095 36.10801,-11.9443 52.21342,-22.9339 18.75567,-13.8622 33.88251,-35.9091 37.44644,-61.5574 3.70091,-28.5827 -10.67089,-58.3544 -33.15871,-71.0877 -16.54547,-9.824 -35.05784,-14.0923 -53.30787,-17.4864 -20.67672,-3.5136 -41.49716,-5.7642 -62.26337,-8.4458 -54.28953,-6.1794 -108.88362,-8.5984 -163.43066,-8.0512 z"
       id="path4040-4-4"
       inkscape:connector-curvature="0"
       sodipodi:nodetypes="zssssz" />
    <path
       style="color:#000000;display:inline;overflow:visible;visibility:visible;fill:#ffffff;fill-opacity:1;fill-rule:nonzero;stroke:none;stroke-width:1.10661px;marker:none;enable-background:accumulate"
       d="m 232.88521,1829.6545 c -15.49911,-4.3258 -30.36527,-25.9083 -39.85487,-45.1151 -2.6023,-5.5279 -4.9768,-11.4623 -5.91137,-17.7034 0.23014,-6.7406 4.6456,-11.9989 9.68489,-14.2208 7.08756,-3.8231 15.87763,-4.2925 21.36573,-11.5454 3.88883,-5.3975 2.44347,-12.8787 1.69304,-19.2745 -2.17932,-16.2588 -6.20379,-32.2732 -6.21379,-48.8483 -1.02235,-18.6687 -0.97071,-38.3918 6.06435,-55.4786 2.87848,-6.7043 6.67303,-13.2274 12.33892,-16.8574 14.17763,-10.1059 33.45012,-10.5499 47.30692,0.9314 8.26682,8.3259 10.21944,25.1454 2.569,34.7308 -3.97524,5.1331 -10.21215,6.1902 -15.7493,5.1661 -10.4586,0.3997 -20.04905,8.0914 -25.18673,18.8336 -4.36159,8.7814 -6.37218,19.1354 -6.13892,29.3576 -2.73879,13.9759 2.82926,27.469 5.69121,40.7504 1.23215,6.0908 2.19987,12.6668 0.87478,18.791 -3.62099,8.1775 -11.75152,10.5256 -18.8271,11.5577 -7.27261,1.2901 -15.83507,1.7981 -20.79951,9.2364 -4.02698,4.5998 -0.25135,11.0835 0.90045,16.2897 5.52666,16.1978 15.18264,30.1517 26.62182,40.8647 1.15331,0.9227 2.35952,1.7296 3.57048,2.5341 z"
       id="path4496-8"
       inkscape:connector-curvature="0"
       sodipodi:nodetypes="ccccccccccccccccccccc" />
    <path
       style="fill:#ffffff;stroke:none;stroke-width:1.05746"
       d="m 2086.2939,3158.3653 c -58.3393,0.1771 -117.5158,2.283 -173.8123,15.9065 -26.8516,6.7425 -53.3463,17.6326 -71.333,35.7889 -18.7193,19.6738 -25.856,45.4846 -23.7474,70.0665 2.2573,23.7159 12.5125,47.5609 32.4464,65.2182 15.6575,13.7498 36.6181,22.5334 58.1724,28.4081 49.0752,13.5939 101.5706,13.4853 152.7773,13.3171 49.7093,-0.4948 99.4676,0.8746 149.1351,-1.3552 27.9157,-1.4523 56.0234,-3.5012 83.0825,-9.5982 24.1202,-5.5051 48.0664,-14.9675 63.8927,-31.3619 11.2821,-11.2822 18.2602,-25.0572 21.8947,-39.2472 5.3706,-20.1693 5.2819,-41.2181 0.8585,-61.4983 -4.5088,-18.2116 -15.9581,-35.685 -34.2051,-47.0762 -23.4557,-15.3591 -52.6803,-23.1818 -81.6559,-28.3437 -40.9369,-7.0137 -82.8857,-8.362 -124.5537,-9.7132 -17.646,-0.4042 -35.3,-0.5323 -52.9522,-0.5114 z"
       id="path3280-10"
       inkscape:connector-curvature="0"
       sodipodi:nodetypes="csssc" />
    <path
       style="color:#000000;display:inline;overflow:visible;visibility:visible;fill:#ffffff;fill-opacity:1;fill-rule:nonzero;stroke:none;stroke-width:0.999999px;marker:none;enable-background:accumulate"
       d="m 2277.3144,3069.2866 c 21.1533,40.5816 26.0863,56.0003 -12.7047,94.096 -38.791,38.0948 -21.8429,50.5398 -21.8429,50.5398 l 38.5724,-9.167 c 0,0 76.0812,-86.3431 -4.0248,-135.4688 z"
       id="path3072-56"
       inkscape:connector-curvature="0" />
    <path
       style="display:inline;fill:#ffffff;stroke:none;stroke-width:0.870791"
       d="m 848.86825,1516.2039 c -29.80474,0.7982 -60.01854,5.5135 -87.27372,18.3407 -21.43921,10.5022 -38.31197,30.7903 -43.81923,54.5122 -4.43439,18.5017 -3.9023,37.7154 -3.46242,56.6107 0.67807,17.014 3.67011,34.4994 12.57667,49.1879 11.34697,18.9536 30.61458,32.0877 51.40851,37.9479 28.64009,9.0362 58.89079,10.212 88.65247,10.393 35.07349,0.016 70.47592,0.3747 105.04313,-6.5505 19.72723,-4.8043 38.75634,-15.1552 51.40004,-31.6407 10.9202,-14.7896 15.4785,-33.3242 17.2881,-51.4635 2.1332,-24.6146 -1.6987,-49.5861 -9.8716,-72.7799 -8.2387,-20.5929 -25.1935,-36.9841 -45.19857,-45.5418 -17.7768,-7.953 -37.00631,-11.6899 -56.09567,-14.6624 -26.69958,-3.8325 -53.72386,-4.4414 -80.64771,-4.3536 z"
       id="path3280-8-1"
       inkscape:connector-curvature="0"
       sodipodi:nodetypes="csssc" />
    <path
       style="display:inline;fill:#ffffff;stroke:none;stroke-width:0.834613"
       d="m 1371.418,1565.2784 c -57.852,0.7153 -115.9428,-1.911 -173.5566,4.2022 -27.3459,3.5016 -54.9352,11.6312 -76.2686,28.2775 -19.2212,15.2498 -29.8406,38.7703 -29.0142,62.0008 0.1209,31.6656 13.953,63.842 40.0744,84.9631 17.1998,13.5036 38.6687,21.2425 60.0235,27.3573 35.556,9.6381 72.7102,12.148 109.387,15.8451 34.6465,3.0624 69.5861,3.3597 104.2669,0.5637 27.628,-2.0882 55.2714,-5.1413 82.2712,-11.0353 26.041,-6.4778 51.5478,-18.107 69.1208,-37.3867 26.3926,-28.7364 32.7871,-71.8129 14.9706,-105.7763 -10.6277,-21.1504 -30.3932,-38.1614 -53.9506,-46.7371 -26.6067,-10.8396 -55.3915,-16.2801 -84.1164,-19.7817 -20.979,-2.1601 -42.1152,-2.5754 -63.208,-2.4926 z"
       id="path3280-8-1-0"
       inkscape:connector-curvature="0"
       sodipodi:nodetypes="csssc" />
    <path
       style="display:inline;fill:#ffffff;stroke:none;stroke-width:0.877849"
       d="m 2033.7767,1626.543 c -73.266,1.5679 -146.5129,4.1516 -219.7148,7.5147 -42.5363,2.4455 -85.5794,5.9409 -126.4256,18.5803 -37.7012,13.8094 -62.7148,52.7312 -62.6942,91.8458 -2.795,39.7924 2.7664,80.6029 18.7582,117.3873 13.539,25.7086 40.1006,42.9766 68.4786,49.0016 39.1702,10.3784 79.8878,12.6686 120.1399,15.9233 104.3277,6.4903 208.944,3.9767 313.3567,1.2311 58.7761,-2.4544 118.9377,-8.449 173.1584,-32.4619 31.9793,-17.1582 48.7219,-53.162 51.5272,-87.7345 3.3408,-40.36 -2.987,-83.1223 -26.1165,-117.3951 -13.3169,-20.3865 -34.09,-35.2899 -57.2594,-43.1156 -28.9774,-10.5613 -60.2103,-10.5423 -90.5496,-13.7471 -54.0693,-4.5948 -108.3625,-8.0352 -162.6589,-7.0299 z"
       id="path3280-8-1-0-6"
       inkscape:connector-curvature="0"
       sodipodi:nodetypes="csssc" />
    <path
       style="color:#000000;display:inline;overflow:visible;visibility:visible;fill:#ffffff;fill-opacity:1;fill-rule:nonzero;stroke:none;stroke-width:0.999999px;marker:none;enable-background:accumulate"
       d="m 1778.817,1868.4621 c -12.833,-0.6526 -23.8662,8.7491 -27.831,19.5381 -19.6036,19.4059 -1.839,-8.6641 -6.4214,4.8364 -13.5019,11.0957 -15.4266,35.2523 -15.8537,65.4931 -5.2817,5.1994 -14.9376,-8.1861 -19.6475,-2.164 -4.937,10.3078 -6.0593,21.8252 -6.4897,33.0281 -0.3179,32.1806 14.1211,63.8185 37.0812,87.8622 7.5298,8.5773 15.2692,16.9924 22.966,25.4398 -17.5595,-23.2829 -32.5888,-49.3497 -36.2923,-77.8541 -1.1276,-8.6692 1.6106,-30.4788 3.0954,-39.0712 10.4198,2.2428 18.5432,14.1601 29.054,13.5885 -3.9254,-39.033 12.0854,-78.9568 32.5429,-100.807 3.2112,-8.5188 -4.1806,-18.0085 -1.2971,-26.6329 -3.0138,-2.4158 -7.0942,-3.0258 -10.9068,-3.257 z"
       id="path4456-8"
       inkscape:connector-curvature="0"
       inkscape:transform-center-x="-13.453102"
       inkscape:transform-center-y="80.02882"
       sodipodi:nodetypes="cccccccccccccc" />
    <path
       style="color:#000000;display:inline;overflow:visible;visibility:visible;fill:#ffffff;fill-opacity:1;fill-rule:nonzero;stroke:none;stroke-width:1px;marker:none;enable-background:accumulate"
       d="m 820.0369,1693.3353 c -3.48578,39.7252 -1.62886,86.2092 5.54134,93.7569 -12.06557,-4.746 -23.61413,-7.3843 -32.58824,-9.1289 -2.74679,19.0391 9.33544,52.9316 19.75971,79.3624 -34.85384,-28.0115 -46.11754,-83.8349 -45.91311,-113.8427 11.20297,7.5747 21.79689,11.4361 28.26889,11.3872 1.30177,-15.339 -8.85591,-66.1714 -9.7642,-66.4676 z"
       id="path5066-6"
       inkscape:connector-curvature="0"
       sodipodi:nodetypes="cccccccc" />
    <path
       style="display:inline;fill:#ffffff;stroke:none;stroke-width:1"
       d="m 1204.2177,1950.0192 c -44.4885,-30.4335 -65.5015,-120.9246 -25.0786,-163.4599 23.8495,-25.0955 36.2779,-40.3926 36.2779,-40.3926 l -33.7128,-17.199 c -98.5183,93.7979 -30.177,190.842 22.5135,221.0515 z"
       id="path3063-1-0"
       inkscape:connector-curvature="0"
       sodipodi:nodetypes="csccc" />
  </g>
  <g
     inkscape:groupmode="layer"
     id="layer1"
     inkscape:label="txt">
    <text
       xml:space="preserve"
       style="font-style:normal;font-variant:normal;font-weight:normal;font-stretch:normal;font-size:48.2957px;line-height:125%;font-family:Lavi;-inkscape-font-specification:Lavi;text-align:center;letter-spacing:0px;word-spacing:0px;text-anchor:middle;fill:#000000;fill-opacity:1;stroke:none;stroke-width:0.999999"
       x="384.86877"
       y="1547.4731"
       id="text4246-70-2-2-2-7-4"><tspan
         sodipodi:role="line"
         style="font-size:48.2957px;stroke-width:0.999999"
         x="384.86877"
         y="1547.4731"
         id="tspan980">Por que me </tspan><tspan
         sodipodi:role="line"
         style="font-size:48.2957px;stroke-width:0.999999"
         x="384.86877"
         y="1607.8428"
         id="tspan1063">perturbas, humana?</tspan></text>
    <text
       xml:space="preserve"
       style="font-style:normal;font-variant:normal;font-weight:normal;font-stretch:normal;font-size:49.0523px;line-height:125%;font-family:Lavi;-inkscape-font-specification:Lavi;text-align:center;letter-spacing:0px;word-spacing:0px;text-anchor:middle;fill:#000000;fill-opacity:1;stroke:none;stroke-width:1"
       x="886.38818"
       y="1590.8442"
       id="text4246-70-2-2-2-7-4-3"><tspan
         sodipodi:role="line"
         style="font-style:normal;font-variant:normal;font-weight:bold;font-stretch:normal;font-size:49.0523px;font-family:Lavi;-inkscape-font-specification:'Lavi Bold';stroke-width:1"
         x="886.38818"
         y="1590.8442"
         id="tspan1123">Saudações, </tspan><tspan
         sodipodi:role="line"
         style="font-style:normal;font-variant:normal;font-weight:bold;font-stretch:normal;font-size:49.0523px;font-family:Lavi;-inkscape-font-specification:'Lavi Bold';stroke-width:1"
         x="886.38818"
         y="1652.1597"
         id="tspan1065">Ó grande </tspan><tspan
         sodipodi:role="line"
         style="font-style:normal;font-variant:normal;font-weight:bold;font-stretch:normal;font-size:49.0523px;font-family:Lavi;-inkscape-font-specification:'Lavi Bold';stroke-width:1"
         x="886.38818"
         y="1713.475"
         id="tspan1071">Fênix!</tspan><tspan
         sodipodi:role="line"
         style="font-style:normal;font-variant:normal;font-weight:bold;font-stretch:normal;font-size:49.0523px;font-family:Lavi;-inkscape-font-specification:'Lavi Bold';stroke-width:1"
         x="886.38818"
         y="1774.7904"
         id="tspan989" /></text>
    <text
       xml:space="preserve"
       style="font-style:normal;font-variant:normal;font-weight:normal;font-stretch:normal;font-size:45.3333px;line-height:125%;font-family:Lavi;-inkscape-font-specification:Lavi;text-align:center;letter-spacing:0px;word-spacing:0px;text-anchor:middle;fill:#000000;fill-opacity:1;stroke:none"
       x="1338.6749"
       y="1640.9146"
       id="text4246-70-2-2-2-7-4-3-5"><tspan
         sodipodi:role="line"
         style="font-size:45.3333px"
         x="1338.6749"
         y="1640.9146"
         id="tspan1193">Meu nome é Pepper </tspan><tspan
         sodipodi:role="line"
         style="font-size:45.3333px"
         x="1338.6749"
         y="1697.5812"
         id="tspan1089">e eu sou uma bruxa </tspan><tspan
         sodipodi:role="line"
         style="font-size:45.3333px"
         x="1338.6749"
         y="1754.2478"
         id="tspan1091">de Chaosah.</tspan><tspan
         sodipodi:role="line"
         style="font-size:45.3333px"
         x="1338.6749"
         y="1810.9144"
         id="tspan1003" /></text>
    <text
       xml:space="preserve"
       style="font-style:normal;font-variant:normal;font-weight:normal;font-stretch:normal;font-size:45.3333px;line-height:125%;font-family:Lavi;-inkscape-font-specification:Lavi;text-align:center;letter-spacing:0px;word-spacing:0px;text-anchor:middle;fill:#000000;fill-opacity:1;stroke:none"
       x="2000.7637"
       y="1709.2914"
       id="text4246-70-2-2-2-7-4-3-5-6"><tspan
         sodipodi:role="line"
         style="font-size:45.3333px"
         x="2000.7637"
         y="1709.2914"
         id="tspan1073">Recentemente eu recebi uma </tspan><tspan
         sodipodi:role="line"
         style="font-size:45.3333px"
         x="2000.7637"
         y="1765.958"
         id="tspan1085">grande dose de Rea de Dragão e, </tspan><tspan
         sodipodi:role="line"
         style="font-size:45.3333px"
         x="2000.7637"
         y="1822.6246"
         id="tspan1083">desde então, esta coisa apareceu </tspan><tspan
         sodipodi:role="line"
         style="font-size:45.3333px"
         x="2000.7637"
         y="1879.2913"
         id="tspan1087">e segue crescendo a cada dia...</tspan></text>
    <text
       xml:space="preserve"
       style="font-style:normal;font-variant:normal;font-weight:normal;font-stretch:normal;font-size:45.3333px;line-height:125%;font-family:Lavi;-inkscape-font-specification:Lavi;text-align:center;letter-spacing:0px;word-spacing:0px;text-anchor:middle;fill:#000000;fill-opacity:1;stroke:none"
       x="2106.2424"
       y="3231.6404"
       id="text4246-70-2-2-2-7-4-3-5-6-2"><tspan
         sodipodi:role="line"
         style="font-size:45.3333px"
         x="2106.2424"
         y="3231.6404"
         id="tspan1294">Ela neutralizou todos </tspan><tspan
         sodipodi:role="line"
         style="font-size:45.3333px"
         x="2106.2424"
         y="3288.3071"
         id="tspan1095">os meus poderes e creio </tspan><tspan
         sodipodi:role="line"
         style="font-size:45.3333px"
         x="2106.2424"
         y="3344.9736"
         id="tspan1161">até que possa ser fatal.</tspan></text>
  </g>
</svg>
