<?xml version="1.0" encoding="UTF-8" standalone="no"?>
<!-- Created with Inkscape (http://www.inkscape.org/) -->

<svg
   xmlns:dc="http://purl.org/dc/elements/1.1/"
   xmlns:cc="http://creativecommons.org/ns#"
   xmlns:rdf="http://www.w3.org/1999/02/22-rdf-syntax-ns#"
   xmlns:svg="http://www.w3.org/2000/svg"
   xmlns="http://www.w3.org/2000/svg"
   xmlns:xlink="http://www.w3.org/1999/xlink"
   xmlns:sodipodi="http://sodipodi.sourceforge.net/DTD/sodipodi-0.dtd"
   xmlns:inkscape="http://www.inkscape.org/namespaces/inkscape"
   id="svg2"
   version="1.1"
   inkscape:version="0.48.5 r10040"
   width="2481"
   height="3503"
   sodipodi:docname="Pepper-and-Carrot_by-David-Revoy_E06P09.svg">
  <metadata
     id="metadata8">
    <rdf:RDF>
      <cc:Work
         rdf:about="">
        <dc:format>image/svg+xml</dc:format>
        <dc:type
           rdf:resource="http://purl.org/dc/dcmitype/StillImage" />
        <dc:title />
      </cc:Work>
    </rdf:RDF>
  </metadata>
  <defs
     id="defs6">
    <filter
       inkscape:collect="always"
       id="filter3843">
      <feGaussianBlur
         inkscape:collect="always"
         stdDeviation="0.93774878"
         id="feGaussianBlur3845" />
    </filter>
  </defs>
  <sodipodi:namedview
     pagecolor="#ffffff"
     bordercolor="#666666"
     borderopacity="1"
     objecttolerance="10"
     gridtolerance="10"
     guidetolerance="10"
     inkscape:pageopacity="0"
     inkscape:pageshadow="2"
     inkscape:window-width="1292"
     inkscape:window-height="745"
     id="namedview4"
     showgrid="false"
     inkscape:zoom="0.43852551"
     inkscape:cx="1313.0751"
     inkscape:cy="75.191088"
     inkscape:window-x="66"
     inkscape:window-y="-8"
     inkscape:window-maximized="1"
     inkscape:current-layer="layer1" />
  <g
     inkscape:groupmode="layer"
     id="layer2"
     inkscape:label="artwork"
     sodipodi:insensitive="true">
    <image
       sodipodi:absref="C:\Users\Gwen\Documents\Academie_du_Gallo\Traduction_BD\peppercarrot_ep06_translation-master\go\../gfx_Pepper-and-Carrot_by-David-Revoy_E06P09.png"
       xlink:href="../gfx_Pepper-and-Carrot_by-David-Revoy_E06P09.png"
       y="0"
       x="0"
       id="image10"
       height="3503"
       width="2481" />
  </g>
  <g
     inkscape:groupmode="layer"
     id="layer3"
     inkscape:label="speechbubbles" />
  <g
     inkscape:groupmode="layer"
     id="layer1"
     inkscape:label="txt">
    <path
       style="color:#000000;fill:#ffffff;fill-opacity:1;fill-rule:nonzero;stroke:none;stroke-width:1px;marker:none;visibility:visible;display:inline;overflow:visible;enable-background:accumulate"
       d="m 2035.2844,3323.1935 c 8.4178,-40.7838 38.2635,-65.1226 183.6655,-74.3318 145.402,-9.2093 164.5337,38.1525 169.1253,61.8336 4.5919,23.6808 0.7655,58.5444 -39.7941,76.3052 -40.5593,17.7607 -129.3312,21.7076 -161.4726,17.1028 -32.1415,-4.6045 -97.3721,-0.9052 -115.7384,-16.0347 -18.3668,-15.1295 -33.49,-29.3537 -35.7857,-64.8751 z"
       id="path3573-7-6"
       inkscape:connector-curvature="0"
       sodipodi:nodetypes="csssssc" />
    <path
       style="color:#000000;fill:#ffffff;fill-opacity:1;fill-rule:nonzero;stroke:none;stroke-width:1px;marker:none;visibility:visible;display:inline;overflow:visible;enable-background:accumulate"
       d="m 1743.2737,3046.7098 c 15.4102,-116.3368 68.8288,-200.6161 336.2261,-212.0332 315.4475,-13.4684 301.2027,108.8314 309.6085,176.3817 8.4057,67.5502 1.4008,166.9995 -72.849,217.6622 -74.2497,50.6627 -236.7595,61.9214 -295.5988,48.7863 -58.8396,-13.1346 -178.2536,-2.5822 -211.876,-45.7396 -33.623,-43.1573 -61.308,-83.7318 -65.5108,-185.0574 z"
       id="path3573-7-3"
       inkscape:connector-curvature="0"
       sodipodi:nodetypes="csssssc" />
    <path
       style="color:#000000;fill:#ffffff;fill-opacity:1;fill-rule:nonzero;stroke:none;stroke-width:1px;marker:none;visibility:visible;display:inline;overflow:visible;enable-background:accumulate"
       d="m 1588.1154,2856.5994 c 6.9936,-55.156 31.7891,-88.0717 152.5879,-100.5263 120.7988,-12.4546 136.6933,51.5976 140.5081,83.6237 3.8147,32.026 0.6357,79.1755 -33.0607,103.1951 -33.6965,24.0195 -107.4474,29.3573 -134.1502,23.1299 -26.7029,-6.2272 -80.896,-1.2243 -96.1547,-21.6855 -15.2589,-20.4611 -27.8231,-39.6978 -29.7304,-87.7369 z"
       id="path3573-7"
       inkscape:connector-curvature="0"
       sodipodi:nodetypes="csssssc" />
    <path
       style="fill:#ffffff;stroke:none"
       d="m 537.09418,2541.4872 c 33.09859,-32.5986 27.82913,-46.4897 20.47318,-61.9311 -7.35578,-15.4414 -15.80643,-28.8005 -11.63578,-38.5723 4.17067,-9.7716 15.29078,-18.9641 24.58593,-24.686 9.29534,-5.7221 5.82948,-15.5939 3.03764,-26.8393 -2.79187,-11.2454 -2.24445,-72.1608 -2.24445,-72.1608 0,0 30.94507,37.7177 36.59273,51.8094 5.64763,14.0915 7.78669,19.2207 8.43954,25.3368 0.6528,6.1163 -0.0619,21.2717 -7.81836,29.5853 -7.75637,8.3136 -19.51606,12.2846 -26.94693,17.2201 -7.43092,4.9354 -10.37423,18.4428 -7.3735,31.1305 3.00072,12.6876 5.31027,42.1409 -8.76887,54.2024 -14.07925,12.0614 -28.34113,14.905 -28.34113,14.905 z"
       id="path3023-3"
       inkscape:connector-curvature="0"
       sodipodi:nodetypes="csssscssssssc" />
    <path
       style="color:#000000;fill:#ffffff;fill-opacity:1;fill-rule:nonzero;stroke:none;stroke-width:1px;marker:none;visibility:visible;display:inline;overflow:visible;enable-background:accumulate"
       d="m 227.66745,2287.4328 c 15.67286,-72.9995 71.24042,-116.5637 341.95432,-133.0474 270.71393,-16.4836 306.33415,68.2898 314.88303,110.6765 8.54888,42.3866 1.42478,104.7895 -74.09012,136.5795 -75.51492,31.79 -240.79291,38.8545 -300.63483,30.6125 -59.84205,-8.2417 -181.29026,-1.6203 -215.48566,-28.7008 -34.19552,-27.0804 -62.35236,-52.5404 -66.62674,-116.1203 z"
       id="path3573"
       inkscape:connector-curvature="0"
       sodipodi:nodetypes="csssssc" />
    <path
       style="fill:#ffffff;stroke:none"
       d="m 98.132685,2096.5065 c 11.122815,-62.0148 49.547265,-121.3719 281.104975,-129.3452 231.55781,-7.9733 328.52368,43.9038 327.61887,120.486 -0.98548,83.409 -67.74828,134.6607 -254.81461,136.4326 -187.06633,1.7719 -347.84229,-6.2016 -353.909235,-127.5734 z"
       id="path3270"
       inkscape:connector-curvature="0"
       sodipodi:nodetypes="csssc" />
    <path
       style="fill:#ffffff;stroke:none"
       d="m 1590.9443,545.46074 c 44.8711,-10.8171 54.1774,-0.16815 63.7635,12.84937 9.5861,13.01743 16.8223,25.92299 27.3594,27.20978 10.5371,1.2868 24.0955,-3.17063 33.7373,-7.81443 9.6419,-4.64389 16.3969,2.70419 24.6774,10.16404 8.2806,7.45986 61.0745,35.52734 61.0745,35.52734 0,0 -16.8411,-42.01779 -26.1287,-53.0584 -9.2876,-11.04059 -12.6259,-15.12489 -17.5681,-18.50045 -4.9422,-3.37558 -18.3701,-9.90297 -29.4667,-7.68351 -11.0966,2.21938 -20.4774,9.62342 -28.4968,13.16683 -8.0192,3.54351 -21.1553,-0.45764 -30.5735,-8.75676 -9.4182,-8.2991 -33.6405,-23.89753 -51.1713,-18.45172 -17.5306,5.44581 -27.207,15.34791 -27.207,15.34791 z"
       id="path3023"
       inkscape:connector-curvature="0"
       sodipodi:nodetypes="csssscssssssc" />
    <path
       style="color:#000000;fill:#ffffff;fill-opacity:1;fill-rule:nonzero;stroke:none;stroke-width:1px;marker:none;visibility:visible;display:inline;overflow:visible;enable-background:accumulate"
       d="m 266.00179,138.74796 c 25.32949,-30.82881 239.13929,-64.291607 314.28573,-0.75991 75.14643,63.5317 29.56582,139.76981 -13.55107,164.0273 -43.11677,24.25761 -170.00339,50.8254 -227.90302,30.0332 -57.89975,-20.7922 -102.99997,-51.87249 -105.94419,-115.5122 -1.20164,-25.9739 7.78297,-46.95949 33.11255,-77.78839 z"
       id="path4040"
       inkscape:connector-curvature="0"
       sodipodi:nodetypes="zssssz" />
    <path
       style="color:#000000;fill:#ffffff;fill-opacity:1;fill-rule:nonzero;stroke:none;stroke-width:1px;marker:none;visibility:visible;display:inline;overflow:visible;enable-background:accumulate"
       d="M 823.77301,239.48782 C 786.39218,212.52525 745.597,189.94915 702.09347,174.54175 680.31274,167.11533 657.06794,160.9767 633.9114,164.27883 c -12.60057,1.9585 -24.88433,9.73565 -29.33716,22.10605 -5.66663,13.95803 -3.14564,29.26987 -1.70179,43.76813 0.94127,13.54596 1.67885,28.16959 -4.97836,40.48084 -3.82235,6.13879 -11.84256,8.8328 -18.65332,6.48505 -9.79618,-2.46073 -18.42944,-8.43515 -25.78821,-15.09601 -8.79281,-20.07942 -17.58561,-40.15885 -26.37842,-60.23828 16.22633,-33.44392 48.90367,-59.37112 86.17756,-64.14201 33.19352,-4.60909 66.5798,5.12129 96.26471,19.45732 42.44413,20.72483 79.69231,50.53162 114.2566,82.3879 z"
       id="path4048"
       inkscape:connector-curvature="0" />
    <flowRoot
       xml:space="preserve"
       id="flowRoot2987-4-9-3"
       style="font-size:12px;font-style:normal;font-variant:normal;font-weight:normal;font-stretch:normal;text-align:center;line-height:125%;letter-spacing:0px;word-spacing:0px;text-anchor:middle;fill:#000000;fill-opacity:1;stroke:none;font-family:Lavi;-inkscape-font-specification:Lavi"
       transform="translate(1.0507628,-113.67359)"><flowRegion
         id="flowRegion2989-5-4-5"><rect
           id="rect2991-7-9-6"
           width="602.40173"
           height="310.73996"
           x="120.55251"
           y="265.53046"
           style="font-style:normal;font-variant:normal;font-weight:normal;font-stretch:normal;text-align:center;text-anchor:middle;font-family:Lavi;-inkscape-font-specification:Lavi" /></flowRegion><flowPara
         style="font-size:48px;text-align:center;text-anchor:middle"
         id="flowPara3039">Ver, liz ben </flowPara><flowPara
         style="font-size:48px;text-align:center;text-anchor:middle"
         id="flowPara6122">sus l'étiqhette…</flowPara></flowRoot>    <path
       style="color:#000000;fill:#ffffff;fill-opacity:1;fill-rule:nonzero;stroke:none;stroke-width:1px;marker:none;visibility:visible;display:inline;overflow:visible;enable-background:accumulate"
       d="m 1722.5997,565.17087 c 5.6086,-113.47198 70.3257,-175.99246 348.843,-162.49266 110.1522,5.3391 321.0523,-31.56014 352.0639,143.97171 28.6991,162.44283 -249.6683,171.78902 -299.7405,177.70601 -50.0723,5.91721 -311.2749,-1.67584 -359.1434,-55.33411 -22.0771,-24.74725 -41.882,-68.78446 -42.023,-103.85095 z"
       id="path4546"
       inkscape:connector-curvature="0"
       sodipodi:nodetypes="cssssc" />
    <flowRoot
       xml:space="preserve"
       id="flowRoot2987-4-9-3-9"
       style="font-size:12px;font-style:normal;font-variant:normal;font-weight:normal;font-stretch:normal;text-align:center;line-height:125%;letter-spacing:0px;word-spacing:0px;text-anchor:middle;fill:#000000;fill-opacity:1;stroke:none;font-family:Lavi;-inkscape-font-specification:Lavi"
       transform="translate(1646.8866,184.86936)"><flowRegion
         id="flowRegion2989-5-4-5-8"><rect
           id="rect2991-7-9-6-2"
           width="602.40173"
           height="310.73996"
           x="120.55251"
           y="265.53046"
           style="font-style:normal;font-variant:normal;font-weight:normal;font-stretch:normal;text-align:center;text-anchor:middle;font-family:Lavi;-inkscape-font-specification:Lavi" /></flowRegion><flowPara
         style="font-size:48px;text-align:center;text-anchor:middle"
         id="flowPara3039-2">... je resterae pas entr lez deuz  pour en gâter sus tai si tu décanilhes pas dés taloure de Komona !</flowPara><flowPara
         style="font-size:48px;text-align:center;text-anchor:middle"
         id="flowPara3080" /></flowRoot>    <flowRoot
       xml:space="preserve"
       id="flowRoot2987-4-9-3-6"
       style="font-size:12px;font-style:normal;font-variant:normal;font-weight:normal;font-stretch:normal;text-align:center;line-height:125%;letter-spacing:0px;word-spacing:0px;text-anchor:middle;fill:#000000;fill-opacity:1;stroke:none;font-family:Lavi;-inkscape-font-specification:Lavi"
       transform="translate(15.379681,1779.4359)"><flowRegion
         id="flowRegion2989-5-4-5-5"><rect
           id="rect2991-7-9-6-21"
           width="532.40173"
           height="290.73993"
           x="120.55251"
           y="265.53046"
           style="font-style:normal;font-variant:normal;font-weight:normal;font-stretch:normal;text-align:center;text-anchor:middle;font-family:Lavi;-inkscape-font-specification:Lavi" /></flowRegion><flowPara
         style="font-size:48px;text-align:center;text-anchor:middle"
         id="flowPara3030-8-8">Caoze q'ol a saovae notr vile de la peiroulhe,</flowPara></flowRoot>    <flowRoot
       xml:space="preserve"
       id="flowRoot2987-4-9-3-6-3"
       style="font-size:12px;font-style:normal;font-variant:normal;font-weight:normal;font-stretch:normal;text-align:center;line-height:125%;letter-spacing:0px;word-spacing:0px;text-anchor:middle;fill:#000000;fill-opacity:1;stroke:none;font-family:Lavi;-inkscape-font-specification:Lavi"
       transform="translate(130.15099,1939.2185)"><flowRegion
         id="flowRegion2989-5-4-5-5-3"><rect
           id="rect2991-7-9-6-21-9"
           width="634.90173"
           height="343.23993"
           x="120.55251"
           y="265.53046"
           style="font-style:normal;font-variant:normal;font-weight:normal;font-stretch:normal;text-align:center;text-anchor:middle;font-family:Lavi;-inkscape-font-specification:Lavi" /></flowRegion><flowPara
         style="font-size:48px;text-align:center;text-anchor:middle"
         id="flowPara3131">je rebalhom la permiere pllace a Pepper pour sa pocion de ...??!!</flowPara></flowRoot>    <flowRoot
       xml:space="preserve"
       id="flowRoot2987-4-9-3-6-3-8"
       style="font-size:12px;font-style:normal;font-variant:normal;font-weight:normal;font-stretch:normal;text-align:center;line-height:125%;letter-spacing:0px;word-spacing:0px;text-anchor:middle;fill:#000000;fill-opacity:1;stroke:none;font-family:Lavi;-inkscape-font-specification:Lavi"
       transform="translate(1567.8088,2619.9978)"><flowRegion
         id="flowRegion2989-5-4-5-5-3-0"><rect
           id="rect2991-7-9-6-21-9-8"
           width="774.90173"
           height="513.23993"
           x="120.55251"
           y="265.53046"
           style="font-style:normal;font-variant:normal;font-weight:normal;font-stretch:normal;text-align:center;text-anchor:middle;font-family:Lavi;-inkscape-font-specification:Lavi" /></flowRegion><flowPara
         style="font-size:48px;text-align:center;text-anchor:middle"
         id="flowPara3217">... heu... en vrae, </flowPara><flowPara
         style="font-size:48px;text-align:center;text-anchor:middle"
         id="flowPara6146">ét pas tafaet une </flowPara><flowPara
         style="font-size:48px;text-align:center;text-anchor:middle"
         id="flowPara6148">pocion ; 'ét la yotey </flowPara><flowPara
         style="font-size:48px;text-align:center;text-anchor:middle"
         id="flowPara6150">de date a mon chat </flowPara><flowPara
         style="font-size:48px;text-align:center;text-anchor:middle"
         id="flowPara6152">pour sa vizite </flowPara><flowPara
         style="font-size:48px;text-align:center;text-anchor:middle"
         id="flowPara6154">de medecin !</flowPara></flowRoot>    <flowRoot
       xml:space="preserve"
       id="flowRoot2987-4-9-3-6-3-8-7"
       style="font-size:12px;font-style:normal;font-variant:normal;font-weight:normal;font-stretch:normal;text-align:center;line-height:125%;letter-spacing:0px;word-spacing:0px;text-anchor:middle;fill:#000000;fill-opacity:1;stroke:none;font-family:Lavi;-inkscape-font-specification:Lavi"
       transform="translate(1221.4914,2533.2934)"><flowRegion
         id="flowRegion2989-5-4-5-5-3-0-6"><rect
           id="rect2991-7-9-6-21-9-8-0"
           width="774.90173"
           height="513.23993"
           x="120.55251"
           y="265.53046"
           style="font-style:normal;font-variant:normal;font-weight:normal;font-stretch:normal;text-align:center;text-anchor:middle;font-family:Lavi;-inkscape-font-specification:Lavi" /></flowRegion><flowPara
         style="font-size:48px;text-align:center;text-anchor:middle"
         id="flowPara3217-6">... Haha!</flowPara><flowPara
         style="font-size:48px;text-align:center;text-anchor:middle"
         id="flowPara3272">    yan ...</flowPara></flowRoot>    <path
       style="fill:#ffffff;stroke:none"
       d="m 1570.4499,2693.6646 c 11.865,21.9135 20.5535,35.7439 32.3532,38.6567 11.7996,2.9126 25.4122,7.0997 36.6448,0.9554 11.2326,-6.1443 31.3831,-9.7639 37.9644,-4.9033 6.5814,4.8606 30.224,23.3532 33.8418,42.9792 3.6176,19.6261 35.3335,-10.2628 35.3335,-10.2628 0,0 -17.5983,-33.4325 -22.6391,-38.3802 -5.0411,-4.9479 -16.7587,-23.0138 -47.4193,-17.4222 -30.6606,5.5916 -48.5046,17.6188 -63.3115,16.8043 -14.8067,-0.8144 -35.0743,-11.786 -42.7678,-28.4271 z"
       id="path3137"
       inkscape:connector-curvature="0" />
    <flowRoot
       xml:space="preserve"
       id="flowRoot2987-4-9-3-6-3-8-7-4"
       style="font-size:12px;font-style:normal;font-variant:normal;font-weight:normal;font-stretch:normal;text-align:center;line-height:125%;letter-spacing:0px;word-spacing:0px;text-anchor:middle;fill:#000000;fill-opacity:1;stroke:none;font-family:Lavi;-inkscape-font-specification:Lavi"
       transform="matrix(0.77121069,0,0,0.77121069,1821.7726,3068.6808)"><flowRegion
         id="flowRegion2989-5-4-5-5-3-0-6-7"><rect
           id="rect2991-7-9-6-21-9-8-0-4"
           width="774.90173"
           height="513.23993"
           x="120.55251"
           y="265.53046"
           style="font-style:normal;font-variant:normal;font-weight:normal;font-stretch:normal;text-align:center;text-anchor:middle;font-family:Lavi;-inkscape-font-specification:Lavi" /></flowRegion><flowPara
         style="font-size:48px;text-align:center;text-anchor:middle"
         id="flowPara3078">... pas bezein </flowPara><flowPara
         style="font-size:48px;text-align:center;text-anchor:middle"
         id="flowPara6166">d'assaeyer, padit ?</flowPara></flowRoot>    <flowRoot
       xml:space="preserve"
       id="flowRoot2987-4-9-3-6-3-8-7-2"
       style="font-size:12px;font-style:normal;font-variant:normal;font-weight:normal;font-stretch:normal;text-align:center;line-height:125%;letter-spacing:0px;word-spacing:0px;text-anchor:middle;fill:#000000;fill-opacity:1;stroke:none;font-family:Lavi;-inkscape-font-specification:Lavi"
       transform="translate(1116.8395,3152.5698)"><flowRegion
         id="flowRegion2989-5-4-5-5-3-0-6-76"><rect
           id="rect2991-7-9-6-21-9-8-0-3"
           width="1041.0548"
           height="56.977448"
           x="120.55251"
           y="265.53046"
           style="font-style:normal;font-variant:normal;font-weight:normal;font-stretch:normal;text-align:center;text-anchor:middle;font-family:Lavi;-inkscape-font-specification:Lavi" /></flowRegion><flowPara
         style="font-size:48px;text-align:center;text-anchor:middle"
         id="flowPara3272-6">Episode 6 : La pocioneriy</flowPara></flowRoot>    <flowRoot
       transform="matrix(0.90617713,0,-0.22078013,1.6225798,1824.3642,2973.4835)"
       style="font-size:12px;font-style:normal;font-variant:normal;font-weight:normal;font-stretch:normal;text-align:center;line-height:125%;letter-spacing:0px;word-spacing:0px;text-anchor:middle;fill:#000000;fill-opacity:1;stroke:#000000;stroke-width:4.69999981;stroke-miterlimit:4;stroke-opacity:1;stroke-dasharray:none;font-family:Lavi;-inkscape-font-specification:Lavi"
       id="flowRoot4212-3-7-8-6"
       xml:space="preserve"><flowRegion
         id="flowRegion4214-6-7-8-3"><rect
           style="font-style:normal;font-variant:normal;font-weight:normal;font-stretch:normal;text-align:center;text-anchor:middle;stroke:#000000;stroke-width:4.69999981;stroke-miterlimit:4;stroke-opacity:1;stroke-dasharray:none;font-family:Lavi;-inkscape-font-specification:Lavi"
           y="265.53046"
           x="120.55251"
           height="355.03918"
           width="798.1947"
           id="rect4216-4-0-26-5" /></flowRegion><flowPara
         style="font-size:48px;text-align:center;letter-spacing:5.20896292px;text-anchor:middle;stroke:#000000;stroke-width:4.69999981;stroke-miterlimit:4;stroke-opacity:1;stroke-dasharray:none"
         id="flowPara4358-7-1">V'la le bout</flowPara></flowRoot>    <flowRoot
       transform="matrix(0.66946674,-0.0365707,0.20636409,1.4040624,586.0213,2760.2475)"
       style="font-size:12px;font-style:normal;font-variant:normal;font-weight:normal;font-stretch:normal;text-align:center;line-height:125%;letter-spacing:0px;word-spacing:0px;text-anchor:middle;opacity:0.3534884;fill:#000000;fill-opacity:1;stroke:#000000;stroke-width:4.69999981;stroke-miterlimit:4;stroke-opacity:1;stroke-dasharray:none;filter:url(#filter3843);font-family:Lavi;-inkscape-font-specification:Lavi"
       id="flowRoot4212-3-7-8-6-1"
       xml:space="preserve"><flowRegion
         id="flowRegion4214-6-7-8-3-1"><rect
           style="font-style:normal;font-variant:normal;font-weight:normal;font-stretch:normal;text-align:center;text-anchor:middle;stroke:#000000;stroke-width:4.69999981;stroke-miterlimit:4;stroke-opacity:1;stroke-dasharray:none;font-family:Lavi;-inkscape-font-specification:Lavi"
           y="265.53046"
           x="120.55251"
           height="355.03918"
           width="798.1947"
           id="rect4216-4-0-26-5-9" /></flowRegion><flowPara
         style="font-size:48px;text-align:center;letter-spacing:5.20896292px;text-anchor:middle;stroke:#000000;stroke-width:4.69999981;stroke-miterlimit:4;stroke-opacity:1;stroke-dasharray:none"
         id="flowPara4358-7-1-9">50 000 Ko</flowPara></flowRoot>    <flowRoot
       xml:space="preserve"
       id="flowRoot2987-4-9-3-6-3-8-7-2-7-2"
       style="font-size:12px;font-style:normal;font-variant:normal;font-weight:normal;font-stretch:normal;text-align:center;line-height:125%;letter-spacing:0px;word-spacing:0px;text-anchor:middle;opacity:0.91627909;fill:#000000;fill-opacity:1;stroke:none;font-family:Lavi;-inkscape-font-specification:Lavi"
       transform="matrix(0.66233381,0,0,0.66233381,381.19429,3179.6714)"><flowRegion
         id="flowRegion2989-5-4-5-5-3-0-6-76-8-1"><rect
           id="rect2991-7-9-6-21-9-8-0-3-1-7"
           width="2350.8157"
           height="72.357925"
           x="120.55251"
           y="265.53046"
           style="font-style:normal;font-variant:normal;font-weight:normal;font-stretch:normal;text-align:center;text-anchor:middle;font-family:Lavi;-inkscape-font-specification:Lavi" /></flowRegion><flowPara
         style="font-size:48px;text-align:center;text-anchor:middle"
         id="flowPara3272-6-3-1"><flowSpan
           style="fill:#1b1b1b;fill-opacity:1"
           id="flowSpan3856-1"><flowSpan
             style="fill:#2d2d2d;fill-opacity:1"
             id="flowSpan3858-6"><flowSpan
               style="fill:#2f2f2f;fill-opacity:1"
               id="flowSpan3860-9"><flowSpan
                 style="fill:#3e3e3e;fill-opacity:1"
                 id="flowSpan3862-4"><flowSpan
                   style="fill:#3f3f3f;fill-opacity:1"
                   id="flowSpan3864-4"><flowSpan
                     style="fill:#474747;fill-opacity:1"
                     id="flowSpan3866-8"><flowSpan
                       style="fill:#4d4d4d;fill-opacity:1"
                       id="flowSpan3868-5"><flowSpan
                         style="fill:#4e4e4e;fill-opacity:1"
                         id="flowSpan3870-8"><flowSpan
                           style="fill:#585858;fill-opacity:1"
                           id="flowSpan3872-7"><flowSpan
                             style="fill:#595959;fill-opacity:1"
                             id="flowSpan3874-4"><flowSpan
                               style="fill:#6b6b6b;fill-opacity:1"
                               id="flowSpan3876-6"><flowSpan
                                 style="fill:#777777;fill-opacity:1"
                                 id="flowSpan3878-3"><flowSpan
                                   style="fill:#797979;fill-opacity:1"
                                   id="flowSpan3880-9"><flowSpan
                                   style="fill:#a0a0a0;fill-opacity:1"
                                   id="flowSpan3882-9"><flowSpan
                                   style="fill:#c7c7c7;fill-opacity:1"
                                   id="flowSpan3884-8"><flowSpan
                                   style="fill:#dddddd;fill-opacity:1"
                                   id="flowSpan3886-8"><flowSpan
                                   style="fill:#dedede;fill-opacity:1"
                                   id="flowSpan3888-6"><flowSpan
                                   style="fill:#fafafa;fill-opacity:1"
                                   id="flowSpan3890-2"><flowSpan
                                   style="fill:#ffffff;fill-opacity:1"
                                   id="flowSpan3892-9"><flowSpan
   style="font-size:40.7292366px"
   id="flowSpan3980">March 2015 - </flowSpan>Dessin et Scénario : David Revoy ,  corrections : Aurélien Gâteau </flowSpan></flowSpan></flowSpan></flowSpan></flowSpan></flowSpan></flowSpan></flowSpan></flowSpan></flowSpan></flowSpan></flowSpan></flowSpan></flowSpan></flowSpan></flowSpan></flowSpan></flowSpan></flowSpan></flowPara></flowRoot>  </g>
</svg>
