<?xml version="1.0" encoding="UTF-8" standalone="no"?>
<svg
   xmlns:dc="http://purl.org/dc/elements/1.1/"
   xmlns:cc="http://creativecommons.org/ns#"
   xmlns:rdf="http://www.w3.org/1999/02/22-rdf-syntax-ns#"
   xmlns:svg="http://www.w3.org/2000/svg"
   xmlns="http://www.w3.org/2000/svg"
   xmlns:xlink="http://www.w3.org/1999/xlink"
   xmlns:sodipodi="http://sodipodi.sourceforge.net/DTD/sodipodi-0.dtd"
   xmlns:inkscape="http://www.inkscape.org/namespaces/inkscape"
   sodipodi:docname="E11P03.svg"
   height="3503"
   width="2481"
   inkscape:version="1.0 (4035a4fb49, 2020-05-01)"
   version="1.1"
   id="svg2">
  <sodipodi:namedview
     inkscape:document-rotation="0"
     inkscape:window-maximized="0"
     inkscape:window-y="0"
     inkscape:window-x="0"
     inkscape:current-layer="layer1"
     inkscape:cy="2793.6204"
     inkscape:cx="868.1731"
     inkscape:zoom="0.4"
     showgrid="false"
     id="namedview70"
     inkscape:window-height="955"
     inkscape:window-width="1813"
     inkscape:pageshadow="2"
     inkscape:pageopacity="0"
     bordercolor="#666666"
     pagecolor="#ffffff" />
  <metadata
     id="metadata8">
    <rdf:RDF>
      <cc:Work
         rdf:about="">
        <dc:format>image/svg+xml</dc:format>
        <dc:type
           rdf:resource="http://purl.org/dc/dcmitype/StillImage" />
        <dc:title />
      </cc:Work>
    </rdf:RDF>
  </metadata>
  <defs
     id="defs6" />
  <sodipodi:namedview
     inkscape:current-layer="layer3"
     inkscape:window-maximized="1"
     inkscape:window-y="26"
     inkscape:window-x="0"
     inkscape:cy="1535.3875"
     inkscape:cx="570.44559"
     inkscape:zoom="0.52900001"
     showgrid="false"
     id="namedview4"
     inkscape:window-height="1025"
     inkscape:window-width="1920"
     inkscape:pageshadow="2"
     inkscape:pageopacity="0"
     guidetolerance="10"
     gridtolerance="10"
     objecttolerance="10"
     borderopacity="1"
     bordercolor="#666666"
     pagecolor="#ffffff" />
  <g
     sodipodi:insensitive="true"
     inkscape:label="artwork"
     id="layer2"
     inkscape:groupmode="layer">
    <image
       sodipodi:absref="C:\Users\stero\Documents\Kernewek\Pepper and Carrot\webcomics\ep11_The-Witches-of-Chaosah\lang\gfx_Pepper-and-Carrot_by-David-Revoy_E11P03.png"
       xlink:href="../gfx_Pepper-and-Carrot_by-David-Revoy_E11P03.png"
       width="2481"
       height="3503"
       id="image10"
       x="0"
       y="0" />
  </g>
  <g
     inkscape:label="speechbubbles"
     id="layer3"
     inkscape:groupmode="layer">
    <path
       sodipodi:nodetypes="cscssssssc"
       inkscape:connector-curvature="0"
       id="path3533"
       d="m 331.52978,1696.7028 c 24.33486,-43.0291 68.98392,-83.9794 136.11463,-98.6484 67.13059,-14.6689 201.94656,-13.9351 223.7641,-9.0453 21.81734,4.8895 142.63058,24.0812 168.6436,48.5296 26.01322,24.4482 56.35318,61.1199 63.9055,92.4138 7.55232,31.2937 -9.45511,96.6875 -23.49578,123.2196 -16.23241,30.6738 -129.97871,52.6136 -199.71361,54.7641 -72.30736,2.23 -217.96223,-10.4197 -257.61372,-24.4482 -41.68292,-14.7472 -88.109,-24.4485 -101.53509,-58.6761 -13.42617,-34.2276 -38.60016,-79.2126 -10.06963,-128.1091 z"
       style="color:#000000;display:inline;overflow:visible;visibility:visible;fill:#ffffff;fill-opacity:1;fill-rule:nonzero;stroke:none;stroke-width:1.01997221px;marker:none;enable-background:accumulate" />
    <path
       sodipodi:nodetypes="ccccsccc"
       inkscape:connector-curvature="0"
       id="path5074"
       d="m 883.77495,1745.1358 c 44.44471,-22.895 116.41795,-23.2688 129.48195,54.9811 34.6887,14.392 59.3221,29.36 66.1093,93.306 -13.8854,-45.9668 -26.6681,-69.4371 -79.48608,-86.6191 -11.9779,-39.1913 -54.96889,-53.3177 -104.25568,-15.6318 -49.28677,37.6861 -33.32019,31.3976 -33.32019,31.3976 l 7.61389,-70.6093 z"
       style="color:#000000;display:inline;overflow:visible;visibility:visible;fill:#ffffff;fill-opacity:1;fill-rule:nonzero;stroke:none;stroke-width:1px;marker:none;enable-background:accumulate" />
    <path
       sodipodi:nodetypes="cssssc"
       inkscape:connector-curvature="0"
       id="path4546"
       d="m 447.67436,3235.7711 c -1.77388,-94.9856 74.5208,-112.9075 313.47168,-106.629 157.70001,4.1437 269.48096,-5.4472 267.49826,133.3436 -1.5932,111.5353 -203.35351,103.0457 -278.09537,103.586 -81.43304,0.5887 -235.88491,-9.47 -273.22403,-48.3409 -23.37345,-24.3322 -31.52878,-58.5533 -29.65054,-81.9597 z"
       style="color:#000000;display:inline;overflow:visible;visibility:visible;fill:#ffffff;fill-opacity:1;fill-rule:nonzero;stroke:none;stroke-width:1px;marker:none;enable-background:accumulate" />
    <path
       inkscape:connector-curvature="0"
       id="path4496"
       d="m 843.307,3015.1845 c 2.65817,11.0982 0.56895,24.6098 -8.84773,31.9849 -5.62965,4.0443 -12.97276,2.0162 -19.04568,4.8468 -8.44733,3.1446 -16.46289,10.0409 -18.02057,19.2705 0.0653,7.4653 1.05874,14.9149 0.52347,22.3958 -1.23196,27.771 -10.8096,54.396 -22.46763,79.3592 -5.64729,11.4381 -13.39659,23.4472 -26.11245,27.6947 -16.1949,5.4362 -36.3337,-0.7941 -44.785,-16.0969 -6.51063,-11.8916 -4.4561,-28.8897 6.977,-37.0555 4.50534,-3.0892 10.47549,-3.6869 15.52559,-1.6486 15.26771,3.1726 30.67539,-6.5495 37.98276,-19.6292 3.60047,-6.8956 6.43699,-14.1742 9.42856,-21.3428 3.97281,-11.1175 3.9698,-23.063 3.60289,-34.7049 0.0253,-9.3943 6.41635,-17.2373 13.10891,-23.172 5.2564,-4.4486 11.48592,-7.7593 18.14178,-9.542 13.68673,2.4208 27.19412,-12.0571 23.62541,-25.5491 -3.98085,-17.1637 -9.21424,-34.0065 -14.85124,-50.6943 10.19853,16.9993 20.83311,34.3074 25.21393,53.8834 z"
       style="color:#000000;display:inline;overflow:visible;visibility:visible;fill:#ffffff;fill-opacity:1;fill-rule:nonzero;stroke:none;stroke-width:1px;marker:none;enable-background:accumulate" />
  </g>
  <g
     inkscape:label="txt"
     id="layer1"
     inkscape:groupmode="layer">
    <path
       sodipodi:nodetypes="cssscccc"
       inkscape:connector-curvature="0"
       id="path4464"
       d="m 88.84388,103.2854 c -27.067445,18.63879 -33.512066,41.71534 -30.934227,52.36603 2.57787,10.65066 38.667767,60.35402 41.245626,73.66746 2.577851,13.31343 -36.089909,72.77981 -28.356356,92.30615 7.733555,19.52633 22.604961,72.64194 124.430067,77.96715 106.49962,4.39626 448.33408,38.44871 522.6105,-38.02699 C 786.49747,280.14358 796.47183,123.64965 707.52802,93.522283 652.10434,77.546174 152.00121,51.806953 88.84388,103.2854 Z"
       style="color:#000000;display:inline;overflow:visible;visibility:visible;fill:#ffffff;fill-opacity:1;fill-rule:nonzero;stroke:none;stroke-width:1.0632776px;marker:none;enable-background:accumulate" />
    <flowRoot
       transform="translate(-3.165112,-134.56802)"
       style="font-style:normal;font-variant:normal;font-weight:normal;font-stretch:normal;line-height:0.01%;font-family:Lavi;-inkscape-font-specification:Lavi;text-align:center;letter-spacing:0px;word-spacing:0px;text-anchor:middle;fill:#000000;fill-opacity:1;stroke:none"
       id="flowRoot2987-4-9-3-5-9-8-3-5"
       xml:space="preserve"><flowRegion
         id="flowRegion2989-5-4-5-8-9-5-4-2"><rect
           style="font-style:normal;font-variant:normal;font-weight:normal;font-stretch:normal;font-family:Lavi;-inkscape-font-specification:Lavi;text-align:center;text-anchor:middle"
           y="265.53046"
           x="120.55251"
           height="355.75995"
           width="607.70953"
           id="rect2991-7-9-6-5-7-5-4-9" /></flowRegion><flowPara
         id="flowPara33"
         style="font-size:45px;line-height:1.25;text-align:center;text-anchor:middle">Myghtern Acren nowydh yw re hweg ha kuv gans y sojets. Y tal dhe'n bobel perthi own a'ga myghtern.</flowPara></flowRoot>
    <path
       sodipodi:nodetypes="ccsc"
       inkscape:connector-curvature="0"
       id="path5010"
       d="m 590.93195,374.40123 c -13.14604,32.78603 12.63645,114.47239 62.26505,127.10564 -70.18554,-4.07502 -99.34113,-76.97331 -105.63042,-99.95904 -6.28929,-22.98575 43.36537,-27.1466 43.36537,-27.1466 z"
       style="color:#000000;fill:#ffffff;fill-opacity:1;fill-rule:nonzero;stroke:none;stroke-width:1px;marker:none;visibility:visible;display:inline;overflow:visible;enable-background:accumulate" />
    <flowRoot
       transform="translate(237.55467,1369.7419)"
       style="font-style:normal;font-variant:normal;font-weight:normal;font-stretch:normal;line-height:0.01%;font-family:Lavi;-inkscape-font-specification:Lavi;text-align:center;letter-spacing:0px;word-spacing:0px;text-anchor:middle;fill:#000000;fill-opacity:1;stroke:none"
       id="flowRoot2987-4-9-3-5-9-8-3-5-4"
       xml:space="preserve"><flowRegion
         id="flowRegion2989-5-4-5-8-9-5-4-2-2"><rect
           style="font-style:normal;font-variant:normal;font-weight:normal;font-stretch:normal;font-family:Lavi;-inkscape-font-specification:Lavi;text-align:center;text-anchor:middle"
           y="276.40002"
           x="107.50903"
           height="327.82516"
           width="567.27466"
           id="rect2991-7-9-6-5-7-5-4-9-5" /></flowRegion><flowPara
         id="flowPara46"
         style="font-size:45px;line-height:1.25;text-align:center;text-anchor:middle">Dha gynsa kanaseth yw </flowPara><flowPara
         id="flowPara52"
         style="font-size:45px;line-height:1.25;text-align:center;text-anchor:middle">dhe gavos hag ownekhe </flowPara><flowPara
         id="flowPara54"
         style="font-size:45px;line-height:1.25;text-align:center;text-anchor:middle">an myghtern may hyllyn </flowPara><flowPara
         id="flowPara56"
         style="font-size:45px;line-height:1.25;text-align:center;text-anchor:middle">y handla gwell.</flowPara></flowRoot>
    <flowRoot
       transform="translate(370.00119,2900.8834)"
       style="font-style:normal;font-variant:normal;font-weight:normal;font-stretch:normal;line-height:0.01%;font-family:Lavi;-inkscape-font-specification:Lavi;text-align:center;letter-spacing:0px;word-spacing:0px;text-anchor:middle;fill:#000000;fill-opacity:1;stroke:none"
       id="flowRoot2987-4-9-3-5-9-8-3-5-4-6"
       xml:space="preserve"><flowRegion
         id="flowRegion2989-5-4-5-8-9-5-4-2-2-2"><rect
           style="font-style:normal;font-variant:normal;font-weight:normal;font-stretch:normal;font-family:Lavi;-inkscape-font-specification:Lavi;text-align:center;text-anchor:middle"
           y="265.53046"
           x="120.55251"
           height="358.25998"
           width="497.70953"
           id="rect2991-7-9-6-5-7-5-4-9-5-2" /></flowRegion><flowPara
         id="flowPara58"
         style="font-size:45px;line-height:1.25;text-align:center;text-anchor:middle">Gwragh wiw a Chaosah a's teves delanwes war an re nerthek!</flowPara></flowRoot>
  </g>
</svg>
