<?xml version="1.0" encoding="UTF-8" standalone="no"?>
<!-- Created with Inkscape (http://www.inkscape.org/) -->

<svg
   xmlns:dc="http://purl.org/dc/elements/1.1/"
   xmlns:cc="http://creativecommons.org/ns#"
   xmlns:rdf="http://www.w3.org/1999/02/22-rdf-syntax-ns#"
   xmlns:svg="http://www.w3.org/2000/svg"
   xmlns="http://www.w3.org/2000/svg"
   xmlns:xlink="http://www.w3.org/1999/xlink"
   xmlns:sodipodi="http://sodipodi.sourceforge.net/DTD/sodipodi-0.dtd"
   xmlns:inkscape="http://www.inkscape.org/namespaces/inkscape"
   id="svg2"
   version="1.1"
   inkscape:version="0.92.4 (5da689c313, 2019-01-14)"
   width="2646.3999"
   height="3736.5334"
   sodipodi:docname="E09P08.svg">
  <metadata
     id="metadata8">
    <rdf:RDF>
      <cc:Work
         rdf:about="">
        <dc:format>image/svg+xml</dc:format>
        <dc:type
           rdf:resource="http://purl.org/dc/dcmitype/StillImage" />
        <dc:title />
      </cc:Work>
    </rdf:RDF>
  </metadata>
  <defs
     id="defs6" />
  <sodipodi:namedview
     pagecolor="#ffffff"
     bordercolor="#666666"
     borderopacity="1"
     objecttolerance="10"
     gridtolerance="10"
     guidetolerance="10"
     inkscape:pageopacity="0"
     inkscape:pageshadow="2"
     inkscape:window-width="1920"
     inkscape:window-height="975"
     id="namedview4"
     showgrid="false"
     inkscape:zoom="0.30451373"
     inkscape:cx="538.6904"
     inkscape:cy="2133.0701"
     inkscape:window-x="0"
     inkscape:window-y="64"
     inkscape:window-maximized="1"
     inkscape:current-layer="layer2"
     inkscape:object-nodes="true"
     showguides="true"
     inkscape:guide-bbox="true">
    <sodipodi:guide
       position="349.6,3621.7333"
       orientation="0,1"
       id="guide4214"
       inkscape:locked="false" />
  </sodipodi:namedview>
  <g
     inkscape:groupmode="layer"
     id="layer1"
     inkscape:label="artwork"
     style="display:inline"
     transform="translate(0,1092.2667)"
     sodipodi:insensitive="true">
    <image
       sodipodi:absref="/felles/omsetting/pepper-carrot/webcomics/ep09_The-Remedy/lang/da/../gfx_Pepper-and-Carrot_by-David-Revoy_E09P08.png"
       xlink:href="../gfx_Pepper-and-Carrot_by-David-Revoy_E09P08.png"
       width="2646.8735"
       height="3738.175"
       preserveAspectRatio="none"
       style="image-rendering:optimizeQuality"
       id="image4223"
       x="0.58355081"
       y="-1091.6022" />
  </g>
  <g
     inkscape:groupmode="layer"
     id="layer3"
     inkscape:label="speechbubbles"
     style="display:none"
     transform="translate(0,1092.2667)">
    <path
       style="fill:#ffffff;stroke:none;stroke-width:1.06666672"
       d="m -2156.6811,689.27911 c 1.1337,-54.41685 28.3421,-109.96738 181.3895,-120.17053 153.0473,-10.20316 216.5337,52.14948 221.0685,96.36316 4.5347,44.21369 -88.4275,103.16527 -173.4538,104.29896 -85.0262,1.13367 -229.0042,-12.47053 -229.0042,-80.49159 z"
       id="path4279"
       inkscape:connector-curvature="0" />
    <path
       style="fill:#ffffff;stroke:none;stroke-width:1.06666672"
       d="m -1907.2705,957.96228 c 74.8231,-47.61474 94.0958,-132.64105 48.7484,-202.92948 -45.3474,-70.28843 -88.4274,-57.8179 -88.4274,-57.8179 l 37.4116,44.21369 c 0,0 104.299,104.29895 2.2674,216.53369 z"
       id="path4281"
       inkscape:connector-curvature="0"
       sodipodi:nodetypes="csccc" />
  </g>
  <g
     inkscape:groupmode="layer"
     id="layer2"
     inkscape:label="text"
     style="display:inline"
     transform="translate(0,1092.2667)">
    <flowRoot
       xml:space="preserve"
       id="flowRoot3027"
       style="font-style:normal;font-variant:normal;font-weight:normal;font-stretch:normal;line-height:0.01%;font-family:Arial;-inkscape-font-specification:Arial;text-align:center;letter-spacing:0px;word-spacing:0px;text-anchor:middle;display:inline;fill:#000000;fill-opacity:1;stroke:none"
       transform="matrix(1.1943374,0,0,1.2444729,-317.79625,-1183.4235)"><flowRegion
         id="flowRegion3029"><rect
           id="rect3031"
           width="2475.8752"
           height="241.27675"
           x="135.21135"
           y="219.33444"
           style="text-align:center;text-anchor:middle" /></flowRegion><flowPara
         id="flowPara3033"
         style="font-size:12px;line-height:1.25"> </flowPara><flowPara
         style="font-style:normal;font-variant:normal;font-weight:normal;font-stretch:normal;font-size:48px;line-height:1.25;font-family:Lavi;-inkscape-font-specification:Lavi;text-align:center;text-anchor:middle"
         id="flowPara3044">Pepper&amp;Carrot er helt gratis, open-source, og sponsoreret af læsere.</flowPara><flowPara
         style="font-style:normal;font-variant:normal;font-weight:normal;font-stretch:normal;font-size:48px;line-height:1.25;font-family:Lavi;-inkscape-font-specification:Lavi;text-align:center;text-anchor:middle"
         id="flowPara116">Denne episode kunne ikke være blevet til uden støtte fra de 406 tilhængere:</flowPara></flowRoot>    <flowRoot
       xml:space="preserve"
       id="flowRoot3027-8-8"
       style="font-style:normal;font-variant:normal;font-weight:normal;font-stretch:normal;line-height:0.01%;font-family:Arial;-inkscape-font-specification:Arial;text-align:center;letter-spacing:0px;word-spacing:0px;text-anchor:middle;display:inline;fill:#a72f14;fill-opacity:1;stroke:none"
       transform="matrix(1.3049839,0,0,1.3340167,-308.46803,1829.2828)"><flowRegion
         id="flowRegion3029-9-3"><rect
           id="rect3031-9-1"
           width="2230.314"
           height="376.21677"
           x="135.21135"
           y="219.33444"
           style="text-align:center;text-anchor:middle;fill:#a72f14;fill-opacity:1" /></flowRegion><flowPara
         id="flowPara3033-3-0"
         style="font-size:12px;line-height:1.25"> </flowPara><flowPara
         style="font-style:normal;font-variant:normal;font-weight:normal;font-stretch:normal;font-size:48px;line-height:1.25;font-family:Lavi;-inkscape-font-specification:Lavi;text-align:center;text-anchor:middle;fill:#a72f14;fill-opacity:1"
         id="flowPara3067-4">https://www.patreon.com/davidrevoy</flowPara></flowRoot>    <flowRoot
       xml:space="preserve"
       id="flowRoot3027-8-8-2"
       style="font-style:normal;font-variant:normal;font-weight:normal;font-stretch:normal;line-height:0.01%;font-family:Arial;-inkscape-font-specification:Arial;text-align:center;letter-spacing:0px;word-spacing:0px;text-anchor:middle;display:inline;fill:#000000;fill-opacity:1;stroke:none"
       transform="matrix(1.0757475,0,0,1.1099734,-22.586411,1839.7172)"><flowRegion
         id="flowRegion3029-9-3-5"><rect
           id="rect3031-9-1-6"
           width="2230.314"
           height="376.21677"
           x="135.21135"
           y="219.33444"
           style="text-align:center;text-anchor:middle" /></flowRegion><flowPara
         style="font-style:normal;font-variant:normal;font-weight:normal;font-stretch:normal;font-size:48px;line-height:1.25;font-family:Lavi;-inkscape-font-specification:Lavi;text-align:center;text-anchor:middle"
         id="flowPara3055">Støt næste episode af Pepper&amp;Carrot; hver en krone gør en forskel:</flowPara></flowRoot>    <flowRoot
       xml:space="preserve"
       id="flowRoot3027-8-8-2-8-6"
       style="font-style:normal;font-variant:normal;font-weight:normal;font-stretch:normal;line-height:0.01%;font-family:Arial;-inkscape-font-specification:Arial;text-align:center;letter-spacing:0px;word-spacing:0px;text-anchor:middle;display:inline;fill:#000000;fill-opacity:1;stroke:none"
       transform="matrix(0.84096166,0,0,0.87275229,271.14583,2069.0737)"><flowRegion
         id="flowRegion3029-9-3-5-1-2"><rect
           id="rect3031-9-1-6-8-7"
           width="2230.314"
           height="376.21677"
           x="135.21135"
           y="219.33444"
           style="text-align:center;text-anchor:middle" /></flowRegion><flowPara
         id="flowPara3033-3-0-2-4-3"
         style="font-size:12px;line-height:1.25"> </flowPara><flowPara
         style="font-style:normal;font-variant:normal;font-weight:normal;font-stretch:normal;font-size:48px;line-height:1.25;font-family:Lavi;-inkscape-font-specification:Lavi;text-align:center;text-anchor:middle"
         id="flowPara3233-6-14"> </flowPara></flowRoot>    <flowRoot
       xml:space="preserve"
       id="flowRoot3027-8-8-2-8-6-3"
       style="font-style:normal;font-variant:normal;font-weight:normal;font-stretch:normal;line-height:0.01%;font-family:Arial;-inkscape-font-specification:Arial;text-align:center;letter-spacing:0px;word-spacing:0px;text-anchor:middle;display:inline;fill:#000000;fill-opacity:1;stroke:none"
       transform="matrix(0.84096166,0,0,0.88909938,271.66818,2089.9057)"><flowRegion
         id="flowRegion3029-9-3-5-1-2-8"><rect
           id="rect3031-9-1-6-8-7-4"
           width="2230.314"
           height="376.21677"
           x="135.21135"
           y="219.33444"
           style="text-align:center;text-anchor:middle" /></flowRegion><flowPara
         id="flowPara3033-3-0-2-4-3-2"
         style="font-size:12px;line-height:1.25"> </flowPara><flowPara
         style="font-style:normal;font-variant:normal;font-weight:normal;font-stretch:normal;font-size:48px;line-height:1.25;font-family:Lavi;-inkscape-font-specification:Lavi;text-align:center;text-anchor:middle"
         id="flowPara3278-7">Licens: Creative Commons Kreditering 4.0</flowPara><flowPara
         style="font-style:normal;font-variant:normal;font-weight:normal;font-stretch:normal;font-size:48px;line-height:1.25;font-family:Lavi;-inkscape-font-specification:Lavi;text-align:center;text-anchor:middle"
         id="flowPara3233-6-14-6">Kildematerialet: tilgængelige på www.peppercarrot.com</flowPara><flowPara
         style="font-style:normal;font-variant:normal;font-weight:normal;font-stretch:normal;font-size:48px;line-height:1.25;font-family:Lavi;-inkscape-font-specification:Lavi;text-align:center;text-anchor:middle"
         id="flowPara4904">Værktøj: denne episode er 100% designet med fri software:</flowPara><flowPara
         style="font-style:normal;font-variant:normal;font-weight:normal;font-stretch:normal;font-size:48px;line-height:1.25;font-family:Lavi;-inkscape-font-specification:Lavi;text-align:center;text-anchor:middle"
         id="flowPara4908">Krita 2.9.6, Inkscape 0.91 på Linux Mint 17 </flowPara></flowRoot>    <flowRoot
       xml:space="preserve"
       id="flowRoot4307"
       style="font-style:normal;font-variant:normal;font-weight:normal;font-stretch:normal;font-size:12.80000019px;line-height:0.01%;font-family:Fondamento;-inkscape-font-specification:Fondamento;letter-spacing:0px;word-spacing:0px;fill:#000000;fill-opacity:1;stroke:none;stroke-width:1.06666672px;stroke-linecap:butt;stroke-linejoin:miter;stroke-opacity:1"><flowRegion
         id="flowRegion4309"
         style="stroke-width:1.06666672px"><rect
           id="rect4311"
           width="725.96429"
           height="296.06366"
           x="-892.2467"
           y="1488.4016"
           style="font-style:normal;font-variant:normal;font-weight:normal;font-stretch:normal;font-family:Fondamento;-inkscape-font-specification:Fondamento;stroke-width:1.13777781px" /></flowRegion><flowPara
         id="flowPara4313"
         style="font-size:12.80000019px;line-height:1.25;stroke-width:1.06666672px"> </flowPara></flowRoot>    <flowRoot
       xml:space="preserve"
       id="flowRoot2987-7"
       style="font-style:normal;font-variant:normal;font-weight:normal;font-stretch:normal;line-height:0.01%;font-family:Arial;-inkscape-font-specification:Arial;text-align:center;letter-spacing:0px;word-spacing:0px;text-anchor:middle;display:inline;fill:#000000;fill-opacity:1;stroke:none"
       transform="matrix(0.71859264,0,0,0.74205568,322.84951,-180.64275)"><flowRegion
         id="flowRegion2989-7"
         style="text-align:center;text-anchor:middle"><rect
           id="rect2991-7"
           width="3066.7446"
           height="1701.9563"
           x="-141.0901"
           y="266.68515"
           style="text-align:center;text-anchor:middle" /></flowRegion><flowPara
         style="font-style:normal;font-variant:normal;font-weight:normal;font-stretch:normal;font-size:44.70226288px;line-height:120.00000477%;font-family:Lavi;-inkscape-font-specification:Lavi;text-align:center;writing-mode:lr-tb;text-anchor:middle"
         id="flowPara3113-6">Глеб Бузало ★ 无名 ★ 獨孤欣 &amp; 獨弧悦 ★ Adam Mathena ★ Addison Lewis</flowPara><flowPara
         style="font-style:normal;font-variant:normal;font-weight:normal;font-stretch:normal;font-size:44.70226288px;line-height:120.00000477%;font-family:Lavi;-inkscape-font-specification:Lavi;text-align:center;writing-mode:lr-tb;text-anchor:middle"
         id="flowPara1081">A Distinguished Robot ★ Aina Reich ★ Alan Hardman ★ Albert Westra ★ Alex ★ AlexanderKennedy</flowPara><flowPara
         style="font-style:normal;font-variant:normal;font-weight:normal;font-stretch:normal;font-size:44.70226288px;line-height:120.00000477%;font-family:Lavi;-inkscape-font-specification:Lavi;text-align:center;writing-mode:lr-tb;text-anchor:middle"
         id="flowPara1083">Alexander Lust ★ Alexander Sopicki ★ Alexandra Jordan ★ Alex Lusco ★ Alex Silver ★ Alex V ★ Alfredo</flowPara><flowPara
         style="font-style:normal;font-variant:normal;font-weight:normal;font-stretch:normal;font-size:44.70226288px;line-height:120.00000477%;font-family:Lavi;-inkscape-font-specification:Lavi;text-align:center;writing-mode:lr-tb;text-anchor:middle"
         id="flowPara1085">Alien Green ★ Allan Zieser ★ Alok Baikadi ★ Amic ★ Andreas Rieger ★ Andreas Ulmer ★ Andrej Kwadrin</flowPara><flowPara
         style="font-style:normal;font-variant:normal;font-weight:normal;font-stretch:normal;font-size:44.70226288px;line-height:120.00000477%;font-family:Lavi;-inkscape-font-specification:Lavi;text-align:center;writing-mode:lr-tb;text-anchor:middle"
         id="flowPara1087">Andrew Godfrey ★ Andrey Alekseenko ★ Anna Orlova ★ Antan Karmola ★ Anthony Edlin ★ Ardash Crowfoot</flowPara><flowPara
         style="font-style:normal;font-variant:normal;font-weight:normal;font-stretch:normal;font-size:44.70226288px;line-height:120.00000477%;font-family:Lavi;-inkscape-font-specification:Lavi;text-align:center;writing-mode:lr-tb;text-anchor:middle"
         id="flowPara1089">Arjun Chennu ★ Arnulf ★ Arturo J. Pérez ★ Austin Knowles ★ Axel Bordelon ★ Bastian Hougaard ★ Ben Evans</flowPara><flowPara
         style="font-style:normal;font-variant:normal;font-weight:normal;font-stretch:normal;font-size:44.70226288px;line-height:120.00000477%;font-family:Lavi;-inkscape-font-specification:Lavi;text-align:center;writing-mode:lr-tb;text-anchor:middle"
         id="flowPara1091">blacksheep33512 ★ Boonsak Watanavisit ★ BoxBoy ★ Brett Smith ★ Brian Behnke ★ Bryan Butler ★ BS</flowPara><flowPara
         style="font-style:normal;font-variant:normal;font-weight:normal;font-stretch:normal;font-size:44.70226288px;line-height:120.00000477%;font-family:Lavi;-inkscape-font-specification:Lavi;text-align:center;writing-mode:lr-tb;text-anchor:middle"
         id="flowPara1093">Bui Dang Hai Trieu ★ carlos levischi ★ carolin der keks ★ Cedric Wohlleber ★ Chance Millar ★ Charles★ Chaz Straney</flowPara><flowPara
         style="font-style:normal;font-variant:normal;font-weight:normal;font-stretch:normal;font-size:44.70226288px;line-height:120.00000477%;font-family:Lavi;-inkscape-font-specification:Lavi;text-align:center;writing-mode:lr-tb;text-anchor:middle"
         id="flowPara1095">Chris ★ Chris Sakkas ★ Christian Howe ★ Christophe Carré ★ Christopher Bates ★ Christopher Rodriguez</flowPara><flowPara
         style="font-style:normal;font-variant:normal;font-weight:normal;font-stretch:normal;font-size:44.70226288px;line-height:120.00000477%;font-family:Lavi;-inkscape-font-specification:Lavi;text-align:center;writing-mode:lr-tb;text-anchor:middle"
         id="flowPara1097">Christopher Vollick ★ Colby Driedger ★ Damien ★ Daniel ★ Daniel Lynn ★ Danijel ★ David Brennan</flowPara><flowPara
         style="font-style:normal;font-variant:normal;font-weight:normal;font-stretch:normal;font-size:44.70226288px;line-height:120.00000477%;font-family:Lavi;-inkscape-font-specification:Lavi;text-align:center;writing-mode:lr-tb;text-anchor:middle"
         id="flowPara1099">David Kerdudo ★ David Tang ★ DecMoon ★ Derek Zan ★ Dio Fantasma ★ Dmitry ★ Doug Moen ★ douze12 ★ Drew Fisher</flowPara><flowPara
         style="font-style:normal;font-variant:normal;font-weight:normal;font-stretch:normal;font-size:44.70226288px;line-height:120.00000477%;font-family:Lavi;-inkscape-font-specification:Lavi;text-align:center;writing-mode:lr-tb;text-anchor:middle"
         id="flowPara1101">Durand D’souza ★ Elijah Brown ★ Elisha Condon ★ -epsilon- ★ Eric Schulz ★ Faolan Grady ★ francisco dario aviltis</flowPara><flowPara
         style="font-style:normal;font-variant:normal;font-weight:normal;font-stretch:normal;font-size:44.70226288px;line-height:120.00000477%;font-family:Lavi;-inkscape-font-specification:Lavi;text-align:center;writing-mode:lr-tb;text-anchor:middle"
         id="flowPara1103">Francois Schnell ★ Francou ★ Garret Patterson ★ Gary Thomas ★ Ginny Hendricks ★ GreenAngel5 ★ Grigory Petrov</flowPara><flowPara
         style="font-style:normal;font-variant:normal;font-weight:normal;font-stretch:normal;font-size:44.70226288px;line-height:120.00000477%;font-family:Lavi;-inkscape-font-specification:Lavi;text-align:center;writing-mode:lr-tb;text-anchor:middle"
         id="flowPara1105">Grzegorz Wozniak ★ G. S. Davis ★ Guillaume ★ Gustav Strömbom ★ happy2ice ★ Happy Mimic ★ Helmar Suschka</flowPara><flowPara
         style="font-style:normal;font-variant:normal;font-weight:normal;font-stretch:normal;font-size:44.70226288px;line-height:120.00000477%;font-family:Lavi;-inkscape-font-specification:Lavi;text-align:center;writing-mode:lr-tb;text-anchor:middle"
         id="flowPara1107">Henning Döscher ★ Henry Ståhle ★ HobbyThor ★ Ilyas ★ Irina Rempt ★ Jacob ★ James Frazier ★ Jamie Sutherland ★ Janusz</flowPara><flowPara
         style="font-style:normal;font-variant:normal;font-weight:normal;font-stretch:normal;font-size:44.70226288px;line-height:120.00000477%;font-family:Lavi;-inkscape-font-specification:Lavi;text-align:center;writing-mode:lr-tb;text-anchor:middle"
         id="flowPara1109">Jason ★ Jeffrey Schneider ★ Jessey Wright ★ Jessica Gadling ★ Joao Luiz ★ John ★ John Gholson ★ John Urquhart Ferguson</flowPara><flowPara
         style="font-style:normal;font-variant:normal;font-weight:normal;font-stretch:normal;font-size:44.70226288px;line-height:120.00000477%;font-family:Lavi;-inkscape-font-specification:Lavi;text-align:center;writing-mode:lr-tb;text-anchor:middle"
         id="flowPara1111">Jonas Peter ★ Jonathan Leroy ★ Jonathan Walsh ★ Justus Kat ★ Kailyce ★ Kai-Ting (Danil) Ko ★ Kari Lehto ★ Kathryn Wuerstl</flowPara><flowPara
         style="font-style:normal;font-variant:normal;font-weight:normal;font-stretch:normal;font-size:44.70226288px;line-height:120.00000477%;font-family:Lavi;-inkscape-font-specification:Lavi;text-align:center;writing-mode:lr-tb;text-anchor:middle"
         id="flowPara1113">kazakirinyancat ★ Ken Mingyuan Xia ★ Kevin Estalella ★ Kevin Trévien ★ Kingsquee ★ Kurain ★ La Plume ★ Lenod ★ Liang</flowPara><flowPara
         style="font-style:normal;font-variant:normal;font-weight:normal;font-stretch:normal;font-size:44.70226288px;line-height:120.00000477%;font-family:Lavi;-inkscape-font-specification:Lavi;text-align:center;writing-mode:lr-tb;text-anchor:middle"
         id="flowPara1115">Lise-Lotte Pesonen ★ Lloyd Ash Pyne ★ Lorentz Grip ★ Lorenzo Leonini ★ Magnus Kronnäs ★ Marc et Rick ★ Marco ★ marcus</flowPara><flowPara
         style="font-style:normal;font-variant:normal;font-weight:normal;font-stretch:normal;font-size:44.70226288px;line-height:120.00000477%;font-family:Lavi;-inkscape-font-specification:Lavi;text-align:center;writing-mode:lr-tb;text-anchor:middle"
         id="flowPara1117">Matt Lichtenwalner ★ Michael F. Schönitzer ★ Michael Gill ★ Michael Polushkin ★ Mike Mosher ★ Mohamed El Banna ★ Nabispace</flowPara><flowPara
         style="font-style:normal;font-variant:normal;font-weight:normal;font-stretch:normal;font-size:44.70226288px;line-height:120.00000477%;font-family:Lavi;-inkscape-font-specification:Lavi;text-align:center;writing-mode:lr-tb;text-anchor:middle"
         id="flowPara1119">Nazhif ★ Nicholas DeLateur ★ Nicola Angel ★ Oleg Schelykalnov ★ Olga Bikmullina ★ Olivier Amrein ★ Olivier Gavrois ★ Omar Willey</flowPara><flowPara
         style="font-style:normal;font-variant:normal;font-weight:normal;font-stretch:normal;font-size:44.70226288px;line-height:120.00000477%;font-family:Lavi;-inkscape-font-specification:Lavi;text-align:center;writing-mode:lr-tb;text-anchor:middle"
         id="flowPara1121">Oscar Moreno ★ Pato Acevedo ★ Patrick Dezothez ★ Patrick Gamblin ★ Paul ★ Pavel Semenov ★ Peter Moonen ★ Petr Vlašic</flowPara><flowPara
         style="font-style:normal;font-variant:normal;font-weight:normal;font-stretch:normal;font-size:44.70226288px;line-height:120.00000477%;font-family:Lavi;-inkscape-font-specification:Lavi;text-align:center;writing-mode:lr-tb;text-anchor:middle"
         id="flowPara1123">Pierre Vuillemin ★ Pranab Shenoy ★ Pummie ★ Raghavendra Kamath ★ Rajul Gupta ★ Ramel Hill ★ Ray Brown ★ Rebecca Morris</flowPara><flowPara
         style="font-style:normal;font-variant:normal;font-weight:normal;font-stretch:normal;font-size:44.70226288px;line-height:120.00000477%;font-family:Lavi;-inkscape-font-specification:Lavi;text-align:center;writing-mode:lr-tb;text-anchor:middle"
         id="flowPara1125">ResidentEvilArtist ★ Reuben Tracey ★ Roberto Zaghis ★ Roman ★ Rumiko Hoshino ★ Rustin Simons ★ Ryan ★ Sally Bridgewater</flowPara><flowPara
         style="font-style:normal;font-variant:normal;font-weight:normal;font-stretch:normal;font-size:44.70226288px;line-height:120.00000477%;font-family:Lavi;-inkscape-font-specification:Lavi;text-align:center;writing-mode:lr-tb;text-anchor:middle"
         id="flowPara1127">Sami T ★ Samuel Mitson ★ Scott Petrovic ★ Scott Smiesko ★ ShadowMist ★ shafak ★ Shawn Meyer ★ Soriac ★ Stanislav ★ Stephan Theelke</flowPara><flowPara
         style="font-style:normal;font-variant:normal;font-weight:normal;font-stretch:normal;font-size:44.70226288px;line-height:120.00000477%;font-family:Lavi;-inkscape-font-specification:Lavi;text-align:center;writing-mode:lr-tb;text-anchor:middle"
         id="flowPara1129">Stephen Bates ★ Steven Bennett ★ Stuart Dickson ★ surt ★ Takao Yamada ★ TamaskanLEM ★ tar8156 ★ TheFaico ★ thibhul ★ Thomas Schwery</flowPara><flowPara
         style="font-style:normal;font-variant:normal;font-weight:normal;font-stretch:normal;font-size:44.70226288px;line-height:120.00000477%;font-family:Lavi;-inkscape-font-specification:Lavi;text-align:center;writing-mode:lr-tb;text-anchor:middle"
         id="flowPara1131">T.H. Porter ★ Tim Burbank ★ Tim J. ★ Tom Savage ★ Travis Humble ★ Tristy ★ Tyson Tan ★ Venus ★ Vera Vukovic ★ Victoria ★ Victoria White</flowPara><flowPara
         style="font-style:normal;font-variant:normal;font-weight:normal;font-stretch:normal;font-size:44.70226288px;line-height:120.00000477%;font-family:Lavi;-inkscape-font-specification:Lavi;text-align:center;writing-mode:lr-tb;text-anchor:middle"
         id="flowPara1133">WakoTabacco ★ Wei-Ching Shyu ★ Westen Curry ★ Xavier Claude ★ Yalyn Vinkindo ★ Yaroslav ★ Yasmin ★ Zeni Pong</flowPara></flowRoot>    <flowRoot
       xml:space="preserve"
       id="flowRoot2987-7-8"
       style="font-style:normal;font-variant:normal;font-weight:normal;font-stretch:normal;line-height:0.01%;font-family:Arial;-inkscape-font-specification:Arial;text-align:justify;letter-spacing:0px;word-spacing:0px;text-anchor:start;display:inline;fill:#000000;fill-opacity:1;stroke:none"
       transform="matrix(0.79813948,0,0,0.82419983,213.54859,1066.8707)"><flowRegion
         id="flowRegion2989-7-8"><rect
           id="rect2991-7-5"
           width="3063.4749"
           height="999.68927"
           x="-141.0901"
           y="266.68515"
           style="text-align:justify;text-anchor:start" /></flowRegion><flowPara
         style="font-style:normal;font-variant:normal;font-weight:normal;font-stretch:normal;font-size:36.74726105px;line-height:120.00000477%;font-family:Lavi;-inkscape-font-specification:Lavi;text-align:center;writing-mode:lr-tb;text-anchor:middle"
         id="flowPara1364">Adrian Lord ★ Ahmad Ali ★ al ★ Alandran ★ Alcide ★ Alexander Bülow Tomassen ★ Alexander Kashev ★ Alex Bradaric ★ Alex Cochrane ★ Alexey Golubev</flowPara><flowPara
         style="font-style:normal;font-variant:normal;font-weight:normal;font-stretch:normal;font-size:36.74726105px;line-height:120.00000477%;font-family:Lavi;-inkscape-font-specification:Lavi;text-align:center;writing-mode:lr-tb;text-anchor:middle"
         id="flowPara1954">Ali Poulton (Aunty Pol) ★ Amy ★ Andrew ★ Andy Gelme ★ Angelica Beltran ★ anonymous ★ Antoine ★ Antonio Mendoza ★ Antonio Parisi ★ Axel Philipsenburg</flowPara><flowPara
         style="font-style:normal;font-variant:normal;font-weight:normal;font-stretch:normal;font-size:36.74726105px;line-height:120.00000477%;font-family:Lavi;-inkscape-font-specification:Lavi;text-align:center;writing-mode:lr-tb;text-anchor:middle"
         id="flowPara1956">barbix ★ BataMoth ★ Bela Bargel ★ Bernd ★ Bernhard Saumweber ★ Betsy Luntao ★ Birger Tuer Thorvaldsen ★ blueswag ★ Boris Fauret ★ Brett</flowPara><flowPara
         style="font-style:normal;font-variant:normal;font-weight:normal;font-stretch:normal;font-size:36.74726105px;line-height:120.00000477%;font-family:Lavi;-inkscape-font-specification:Lavi;text-align:center;writing-mode:lr-tb;text-anchor:middle"
         id="flowPara1958">Bryan Rosander ★ BXS ★ Chris Kastorff ★ Chris Radcliff ★ Christian Gruenwaldner ★ Clara Dexter ★ codl ★ Comics by Shoonyah Studio ★ Conway Scott Smith</flowPara><flowPara
         style="font-style:normal;font-variant:normal;font-weight:normal;font-stretch:normal;font-size:36.74726105px;line-height:120.00000477%;font-family:Lavi;-inkscape-font-specification:Lavi;text-align:center;writing-mode:lr-tb;text-anchor:middle"
         id="flowPara1960">Coppin Olivier ★ Craig Bogun ★ Crystal Bollinger ★ Cuthbert Williams ★ Cyol ★ Cyrille Largillier ★ Cyril Paciullo ★ Daniel Björkman ★ Dan Norder</flowPara><flowPara
         style="font-style:normal;font-variant:normal;font-weight:normal;font-stretch:normal;font-size:36.74726105px;line-height:120.00000477%;font-family:Lavi;-inkscape-font-specification:Lavi;text-align:center;writing-mode:lr-tb;text-anchor:middle"
         id="flowPara1962">Dan Stolyarov ★ David ★ Davi Na ★ Dawn Blair ★ Deanna ★ Denis Bolkovskis ★ Dezponia Veil ★ DiCola Jamn ★ Dmitriy Yakimov ★ Donald Hayward</flowPara><flowPara
         style="font-style:normal;font-variant:normal;font-weight:normal;font-stretch:normal;font-size:36.74726105px;line-height:120.00000477%;font-family:Lavi;-inkscape-font-specification:Lavi;text-align:center;writing-mode:lr-tb;text-anchor:middle"
         id="flowPara1964">Douglas Oliveira Pessoa ★ Duke ★ Eitan Goldshtrom ★ Emery Schulz ★ Enrico Billich ★ Erik Moeller ★ Esteban Manchado Velázquez ★ Fen Yun Fat</flowPara><flowPara
         style="font-style:normal;font-variant:normal;font-weight:normal;font-stretch:normal;font-size:36.74726105px;line-height:120.00000477%;font-family:Lavi;-inkscape-font-specification:Lavi;text-align:center;writing-mode:lr-tb;text-anchor:middle"
         id="flowPara1966">Fernando Nunes ★ ida nilsen ★ Igor ★ Ivan Korotkov ★ Jamie Hunter ★ Jason Baldus ★ Jazyl Homavazir ★ JDB ★ Jean-Baptiste Hebbrecht</flowPara><flowPara
         style="font-style:normal;font-variant:normal;font-weight:normal;font-stretch:normal;font-size:36.74726105px;line-height:120.00000477%;font-family:Lavi;-inkscape-font-specification:Lavi;text-align:center;writing-mode:lr-tb;text-anchor:middle"
         id="flowPara1968">Jean-Gabriel LOQUET ★ Jhonny Rosa ★ Jim ★ Jim Street ★ Joerg Raidt ★ Joern Konopka ★ joe rutledge ★ John ★ Jon Brake ★ Jorge Bernal ★ Joseph Bowman</flowPara><flowPara
         style="font-style:normal;font-variant:normal;font-weight:normal;font-stretch:normal;font-size:36.74726105px;line-height:120.00000477%;font-family:Lavi;-inkscape-font-specification:Lavi;text-align:center;writing-mode:lr-tb;text-anchor:middle"
         id="flowPara1970">Josh ★ Josh Cavalier ★ Juju Mendivil ★ Julian Dauner ★ Julia Velkova ★ Kate ★ Kroet ★ Lars Ivar Igesund ★ Liselle ★ Liska Myers ★ Louis Yung</flowPara><flowPara
         style="font-style:normal;font-variant:normal;font-weight:normal;font-stretch:normal;font-size:36.74726105px;line-height:120.00000477%;font-family:Lavi;-inkscape-font-specification:Lavi;text-align:center;writing-mode:lr-tb;text-anchor:middle"
         id="flowPara1972">Luc Stepniewski ★ Luke Hochrein ★ Mahwiii ★ Mancy S ★ Manu Järvinen ★ Martin Owens ★ Mary Brownlee ★ Masked Admirer ★ Megan Sandiford ★ Michael</flowPara><flowPara
         style="font-style:normal;font-variant:normal;font-weight:normal;font-stretch:normal;font-size:36.74726105px;line-height:120.00000477%;font-family:Lavi;-inkscape-font-specification:Lavi;text-align:center;writing-mode:lr-tb;text-anchor:middle"
         id="flowPara1974">Michael Pureka ★ Michelle Pereira Garcia ★ Miroslav ★ mjkj ★ Moonsia ★ Moritz Fuchs ★ Muriah Summer ★ Mylène Cassen ★ Nicholas Terranova</flowPara><flowPara
         style="font-style:normal;font-variant:normal;font-weight:normal;font-stretch:normal;font-size:36.74726105px;line-height:120.00000477%;font-family:Lavi;-inkscape-font-specification:Lavi;text-align:center;writing-mode:lr-tb;text-anchor:middle"
         id="flowPara1976">Nicole Heersema ★ Nielas Sinclair ★ Nikita Stafeev ★ Noble Hays ★ Noelia Calles Marcos ★ Nora Czaykowski ★ No Reward ★ Nyx ★ Öykü Su Gürler</flowPara><flowPara
         style="font-style:normal;font-variant:normal;font-weight:normal;font-stretch:normal;font-size:36.74726105px;line-height:120.00000477%;font-family:Lavi;-inkscape-font-specification:Lavi;text-align:center;writing-mode:lr-tb;text-anchor:middle"
         id="flowPara1978">Ozone S. ★ Pat David ★ Patrick Kennedy ★ Paul ★ Pet0r ★ Peter ★ Peter ★ Pierre Geier ★ Pyves &amp; Ran ★ Ray Cruz ★ Raymond Fullon ★ Ray Powell</flowPara><flowPara
         style="font-style:normal;font-variant:normal;font-weight:normal;font-stretch:normal;font-size:36.74726105px;line-height:120.00000477%;font-family:Lavi;-inkscape-font-specification:Lavi;text-align:center;writing-mode:lr-tb;text-anchor:middle"
         id="flowPara1980">Rebecca ★ Rebekah Hopper ★ Rei ★ Reorx Meng ★ Ret Samys ★ rictic ★ Robin Moussu ★ Sean Adams ★ Sebastien ★ Sevag Bakalian ★ Shadefalcon</flowPara><flowPara
         style="font-style:normal;font-variant:normal;font-weight:normal;font-stretch:normal;font-size:36.74726105px;line-height:120.00000477%;font-family:Lavi;-inkscape-font-specification:Lavi;text-align:center;writing-mode:lr-tb;text-anchor:middle"
         id="flowPara1982">Simon Isenberg ★ Simon Moffitt ★ Siora ★ Sonja Reimann-Klieber ★ Sonny W. ★ Stanislav German-Evtushenko ★ Stephen Smoogen ★ Surabhi Gaur</flowPara><flowPara
         style="font-style:normal;font-variant:normal;font-weight:normal;font-stretch:normal;font-size:36.74726105px;line-height:120.00000477%;font-family:Lavi;-inkscape-font-specification:Lavi;text-align:center;writing-mode:lr-tb;text-anchor:middle"
         id="flowPara1984">Taedirk ★ Tas Kartas ★ Terry Hancock (Personal) ★ Thomas Citharel ★ Thomas Werner ★ Thor Galle ★ Thornae ★ Timothy Boersma ★ Tomas Hajek</flowPara><flowPara
         style="font-style:normal;font-variant:normal;font-weight:normal;font-stretch:normal;font-size:36.74726105px;line-height:120.00000477%;font-family:Lavi;-inkscape-font-specification:Lavi;text-align:center;writing-mode:lr-tb;text-anchor:middle"
         id="flowPara1986">Tomáš Slapnička ★ Tom Dickson ★ tree ★ uglyheroes ★ Umbra Draconis ★ Vitaly Tokarenko ★ Vladislav Kurdyukov ★ Wander ★ Wilhelmine Faust</flowPara><flowPara
         style="font-style:normal;font-variant:normal;font-weight:normal;font-stretch:normal;font-size:36.74726105px;line-height:120.00000477%;font-family:Lavi;-inkscape-font-specification:Lavi;text-align:center;writing-mode:lr-tb;text-anchor:middle"
         id="flowPara1988">William Crumpler ★ Źmicier Kušnaroŭ ★ zubr kabbi</flowPara></flowRoot>    <flowRoot
       xml:space="preserve"
       id="flowRoot2987-7-7"
       style="font-style:normal;font-variant:normal;font-weight:normal;font-stretch:normal;line-height:0.01%;font-family:Arial;-inkscape-font-specification:Arial;text-align:justify;letter-spacing:0px;word-spacing:0px;text-anchor:start;display:inline;fill:#000000;fill-opacity:1;stroke:none"
       transform="matrix(0.65375067,0,0,0.67509654,760.56608,-551.0401)"><flowRegion
         id="flowRegion2989-7-9"><rect
           id="rect2991-7-2"
           width="2004.6675"
           height="529.34503"
           x="-141.0901"
           y="266.68515"
           style="text-align:justify;text-anchor:start" /></flowRegion><flowPara
         style="font-style:normal;font-variant:normal;font-weight:normal;font-stretch:normal;font-size:57.68143463px;line-height:120.00000477%;font-family:Lavi;-inkscape-font-specification:Lavi;text-align:center;writing-mode:lr-tb;text-anchor:middle"
         id="flowPara4208">Arne Brix ★ Boudewijn Rempt ★ Brent Houghton ★ Casey Tatum</flowPara><flowPara
         style="font-style:normal;font-variant:normal;font-weight:normal;font-stretch:normal;font-size:57.68143463px;line-height:120.00000477%;font-family:Lavi;-inkscape-font-specification:Lavi;text-align:center;writing-mode:lr-tb;text-anchor:middle"
         id="flowPara143">Davis Aites ★ Ejner Fergo ★ Enrique Lopez ★ Francois Didier</flowPara><flowPara
         style="font-style:normal;font-variant:normal;font-weight:normal;font-stretch:normal;font-size:57.68143463px;line-height:120.00000477%;font-family:Lavi;-inkscape-font-specification:Lavi;text-align:center;writing-mode:lr-tb;text-anchor:middle"
         id="flowPara145">freecultureftw ★ Jonathan Ringstad ★ Julio Avila ★ Levi Kornelsen</flowPara><flowPara
         style="font-style:normal;font-variant:normal;font-weight:normal;font-stretch:normal;font-size:57.68143463px;line-height:120.00000477%;font-family:Lavi;-inkscape-font-specification:Lavi;text-align:center;writing-mode:lr-tb;text-anchor:middle"
         id="flowPara147">Matthew Reynolds ★ Mefflin Ross Bullis-bates ★ Michael Oliveira</flowPara><flowPara
         style="font-style:normal;font-variant:normal;font-weight:normal;font-stretch:normal;font-size:57.68143463px;line-height:120.00000477%;font-family:Lavi;-inkscape-font-specification:Lavi;text-align:center;writing-mode:lr-tb;text-anchor:middle"
         id="flowPara149">Nguyen Minh Trung ★ Nicki Aya ★ NinjaKnight Comics ★ Olivier Brun</flowPara><flowPara
         style="font-style:normal;font-variant:normal;font-weight:normal;font-stretch:normal;font-size:57.68143463px;line-height:120.00000477%;font-family:Lavi;-inkscape-font-specification:Lavi;text-align:center;writing-mode:lr-tb;text-anchor:middle"
         id="flowPara151">Praveen Bhamidipati ★ Ricardo Muggli ★ RJ van der Weide</flowPara><flowPara
         style="font-style:normal;font-variant:normal;font-weight:normal;font-stretch:normal;font-size:57.68143463px;line-height:120.00000477%;font-family:Lavi;-inkscape-font-specification:Lavi;text-align:center;writing-mode:lr-tb;text-anchor:middle"
         id="flowPara153">Roman Burdun ★ Urm</flowPara></flowRoot>    <flowRoot
       xml:space="preserve"
       id="flowRoot2987-7-7-3"
       style="font-style:normal;font-variant:normal;font-weight:normal;font-stretch:normal;line-height:0.01%;font-family:Arial;-inkscape-font-specification:Arial;text-align:justify;letter-spacing:0px;word-spacing:0px;text-anchor:start;display:inline;fill:#000000;fill-opacity:1;stroke:none"
       transform="matrix(0.77552401,0,0,0.800846,624.73832,-854.8348)"><flowRegion
         id="flowRegion2989-7-9-5"><rect
           id="rect2991-7-2-5"
           width="2084.9294"
           height="180.51283"
           x="-141.0901"
           y="266.68515"
           style="text-align:justify;text-anchor:start" /></flowRegion><flowPara
         style="font-style:normal;font-variant:normal;font-weight:normal;font-stretch:normal;font-size:60.27801132px;line-height:120.00000477%;font-family:Lavi;-inkscape-font-specification:Lavi;text-align:center;writing-mode:lr-tb;text-anchor:middle"
         id="flowPara4196">Jónatan Nilsson</flowPara><flowPara
         style="font-style:normal;font-variant:normal;font-weight:normal;font-stretch:normal;font-size:60.27801132px;line-height:120.00000477%;font-family:Lavi;-inkscape-font-specification:Lavi;text-align:center;writing-mode:lr-tb;text-anchor:middle"
         id="flowPara157">Alex Kotenko ★ Philippe Jean Edward Bateman</flowPara></flowRoot>  </g>
</svg>
