<?xml version="1.0" encoding="UTF-8" standalone="no"?>
<!-- Created With Inkscape (http://www.inkscape.org/) -->

<svg
   xmlns:dc="http://purl.org/dc/elements/1.1/"
   xmlns:cc="http://creativecommons.org/ns#"
   xmlns:rdf="http://www.w3.org/1999/02/22-rdf-syntax-ns#"
   xmlns:svg="http://www.w3.org/2000/svg"
   xmlns="http://www.w3.org/2000/svg"
   xmlns:xlink="http://www.w3.org/1999/xlink"
   xmlns:sodipodi="http://sodipodi.sourceforge.net/DTD/sodipodi-0.dtd"
   xmlns:inkscape="http://www.inkscape.org/namespaces/inkscape"
   id="svg2"
   version="1.1"
   inkscape:version="0.92.1 r15371"
   width="2481"
   height="3503"
   sodipodi:docname="E26P02.svg">
  <metadata
     id="metadata8">
    <rdf:RDF>
      <cc:Work
         rdf:about="">
        <dc:format>image/svg+xml</dc:format>
        <dc:type
           rdf:resource="http://purl.org/dc/dcmitype/StillImage" />
        <dc:title />
      </cc:Work>
    </rdf:RDF>
  </metadata>
  <defs
     id="defs6">
    <filter
       style="color-interpolation-filters:sRGB"
       id="filter4375-4-1-1-15-1-3"
       inkscape:label="deevad outline effect">
      <feFlood
         id="feFlood4377-7-9-0-4-4-4"
         flood-opacity="1"
         flood-color="rgb(0,0,0)"
         result="flood" />
      <feComposite
         id="feComposite4379-3-8-8-6-0-7"
         in2="SourceGraphic"
         in="flood"
         operator="in"
         result="composite1" />
      <feMorphology
         id="feMorphology4393-1-0-49-8-2-7"
         operator="dilate"
         radius="0.69999999999999996"
         result="result3" />
      <feComposite
         id="feComposite4385-9-5-7-2-1-2"
         in2="result3"
         in="SourceGraphic"
         operator="over"
         result="composite2" />
    </filter>
    <filter
       style="color-interpolation-filters:sRGB"
       id="filter4375-4-1-1-15-1-3-0"
       inkscape:label="deevad outline effect">
      <feFlood
         id="feFlood4377-7-9-0-4-4-4-0"
         flood-opacity="1"
         flood-color="rgb(0,0,0)"
         result="flood" />
      <feComposite
         id="feComposite4379-3-8-8-6-0-7-3"
         in2="SourceGraphic"
         in="flood"
         operator="in"
         result="composite1" />
      <feMorphology
         id="feMorphology4393-1-0-49-8-2-7-4"
         operator="dilate"
         radius="0.90000000000000002"
         result="result3" />
      <feComposite
         id="feComposite4385-9-5-7-2-1-2-6"
         in2="result3"
         in="SourceGraphic"
         operator="over"
         result="composite2" />
    </filter>
  </defs>
  <sodipodi:namedview
     pagecolor="#ffffff"
     bordercolor="#666666"
     borderopacity="1"
     objecttolerance="10"
     gridtolerance="10"
     guidetolerance="10"
     inkscape:pageopacity="0"
     inkscape:pageshadow="2"
     inkscape:window-width="1218"
     inkscape:window-height="777"
     id="namedview4"
     showgrid="false"
     inkscape:zoom="0.26582763"
     inkscape:cx="1500.554"
     inkscape:cy="890.99016"
     inkscape:window-x="54"
     inkscape:window-y="-8"
     inkscape:window-maximized="1"
     inkscape:current-layer="layer1"
     inkscape:snap-global="false"
     borderlayer="true"
     inkscape:showpageshadow="false" />
  <g
     inkscape:groupmode="layer"
     id="layer2"
     inkscape:label="artwork"
     sodipodi:insensitive="true">
    <image
       sodipodi:absref="../gfx_Pepper-and-Carrot_by-David-Revoy_E26P02.png"
       xlink:href="../gfx_Pepper-and-Carrot_by-David-Revoy_E26P02.png"
       width="2481"
       height="3503"
       id="image10"
       x="0"
       y="0" />
  </g>
  <g
     inkscape:groupmode="layer"
     id="layer3"
     inkscape:label="speechbubbles">
    <path
       style="color:#000000;display:inline;overflow:visible;visibility:visible;fill:#ffffff;fill-opacity:1;fill-rule:nonzero;stroke:none;stroke-width:1.17268217px;marker:none;enable-background:accumulate"
       d="M 76.382194,644.17229 C 70.91904,623.97022 79.810722,532.36286 206.34172,524.23058 c 126.5311,-8.13229 163.99316,65.69947 167.54311,93.29191 3.54995,27.59228 -3.24511,58.38514 -31.68844,79.97892 -25.32864,19.45673 -52.99982,19.84608 -96.30142,25.89073 -49.95469,7.73163 -128.22139,-4.44907 -150.664615,-25.89898 -22.44312,-21.44987 -10.462859,-17.16087 -18.848161,-53.32087 z"
       id="path3365-3"
       inkscape:connector-curvature="0"
       sodipodi:nodetypes="cssccsc" />
    <path
       style="color:#000000;display:inline;overflow:visible;visibility:visible;fill:#ffffff;fill-opacity:1;fill-rule:nonzero;stroke:none;stroke-width:1.63566649px;marker:none;enable-background:accumulate"
       d="M 181.80721,311.01848 C 194.59145,543.14637 235.94745,787.00744 378.6466,837.81258 276.65833,787.36708 219.49009,550.6603 218.48358,327.373 218.27015,280.02456 199.72673,307.82462 199.72673,307.82462 Z"
       id="path4440"
       inkscape:connector-curvature="0"
       sodipodi:nodetypes="ccscc" />
    <path
       style="fill:#ffffff;stroke:none;stroke-width:1.64498878"
       d="m 1120.891,90.084595 c 34.5123,-1.888132 201.2968,-10.835785 198.7027,171.262685 -3.2503,228.17472 -4.8879,332.44307 -183.4904,328.93767 C 944.2743,586.51996 982.88297,448.90354 981.38091,276.46115 980.05115,123.79654 1028.2815,95.603268 1120.891,90.084595 Z"
       id="path3280-8"
       inkscape:connector-curvature="0"
       sodipodi:nodetypes="csssc" />
    <path
       style="color:#000000;display:inline;overflow:visible;visibility:visible;fill:#ffffff;fill-opacity:1;fill-rule:nonzero;stroke:none;stroke-width:1.45930743px;marker:none;enable-background:accumulate"
       d="m 1243.8585,818.35327 c -52.2412,-10.38957 -90.1219,-52.2826 -82.2673,-117.43179 7.8551,-73.36812 7.6985,-80.57712 7.6985,-80.57712 l -55.1615,2.38205 c 0,0 3.3492,196.86393 129.7303,195.62686 z"
       id="path3072"
       inkscape:connector-curvature="0"
       inkscape:transform-center-x="-3.4248275"
       inkscape:transform-center-y="27.464172"
       sodipodi:nodetypes="ccccc" />
    <path
       style="fill:#ffffff;fill-rule:evenodd;stroke:none;stroke-width:1.16250026px;stroke-linecap:butt;stroke-linejoin:miter;stroke-opacity:1"
       d="m 983.05067,591.49962 c 29.14283,3.4952 58.14533,-1.8493 34.58443,-54.4718 22.8659,18.642 60.4906,38.2355 87.1567,-6.633 7.6374,56.8613 56.4713,24.3712 80.6153,-0.5503 -36.0124,59.1974 68.6181,43.42073 83.6768,11.85058 -10.8684,34.40947 30.8257,33.73186 58.6021,35.27366 -58.7582,59.3702 -58.9773,102.36486 -35.8244,124.72626 -57.7455,-16.5442 -43.7796,16.9775 -50.6768,35.9333 -62.7499,-54.69404 -96.1522,-42.16952 -114.0225,7.1867 -14.8853,-21.7218 -19.5576,-66.617 -74.4313,2.3955 20.1784,-59.5777 -6.271,-53.3242 -49.0929,-23.9554 6.7111,-20.293 46.5984,-51.1514 -20.58743,-47.9112 41.96553,-19.2915 50.76593,-45.4244 0,-83.8443 z"
       id="path4584"
       inkscape:connector-curvature="0"
       sodipodi:nodetypes="ccccccccccccc" />
    <path
       style="fill:#ffffff;fill-opacity:1;stroke:none;stroke-width:1.88949561"
       d="m 2025.0395,209.61523 c -4.4678,-59.44873 25.1659,-89.02168 52.1475,-103.03065 34.1953,-17.754389 312.5013,-37.542152 342.2687,12.22036 27.4148,45.82971 15.2677,130.0876 -66.593,171.70895 -81.8607,41.6212 -218.4804,18.82333 -241.7363,11.25595 -23.2559,-7.56755 -81.4359,-27.83095 -86.0869,-92.15461 z"
       id="path3659-8"
       inkscape:connector-curvature="0"
       sodipodi:nodetypes="cssssc" />
    <path
       style="fill:#ffffff;stroke:none;stroke-width:1.12429571"
       d="m 2187.8594,352.9469 c -0.8756,-41.87209 25.2691,-51.27448 51.8008,-57.16805 26.5317,-5.89345 108.9888,0.63901 102.9316,51.8773 -6.0571,51.23841 -45.9531,58.33952 -78.9162,56.07445 -32.9632,-2.2652 -71.0332,-11.10871 -75.8162,-50.7837 z"
       id="path3938"
       inkscape:connector-curvature="0"
       sodipodi:nodetypes="csssc" />
    <path
       style="color:#000000;display:inline;overflow:visible;visibility:visible;fill:#ffffff;fill-opacity:1;fill-rule:nonzero;stroke:none;stroke-width:1px;marker:none;enable-background:accumulate"
       d="m 2155.8807,413.81052 c 41.2209,-1.94348 55.6641,-5.00539 71.331,-50.72285 15.6671,-45.71761 32.4158,-38.48457 32.4158,-38.48457 l 7.7097,32.88324 c 0,0 -40.1576,94.75832 -111.4565,56.32418 z"
       id="path3072-5"
       inkscape:connector-curvature="0" />
    <path
       style="color:#000000;display:inline;overflow:visible;visibility:visible;fill:#ffffff;fill-opacity:1;fill-rule:nonzero;stroke:none;stroke-width:1.02825165px;marker:none;enable-background:accumulate"
       d="m 1935.6697,1037.0187 c 0.2999,-43.64134 41.2296,-97.00824 228.4394,-102.56297 365.2786,-10.83828 247.5385,101.72267 246.0111,129.85737 -1.5272,28.1345 -57.8708,84.1961 -85.3611,91.2297 -27.4902,7.0338 -99.2699,23.9143 -145.0871,18.2876 -45.8167,-5.627 -133.6877,-8.8561 -206.7943,-49.1206 -52.0528,-37.7739 -38.6258,-63.7596 -37.208,-87.6911 z"
       id="path3365-5"
       inkscape:connector-curvature="0"
       sodipodi:nodetypes="csccccc" />
    <path
       style="fill:#ffffff;stroke:none;stroke-width:1"
       d="m 2198.814,1073.9531 c -28.3487,40.1842 -21.9808,80.5701 -11.3851,96.8521 10.5958,16.2818 -14.1224,62.2852 -32.5966,66.3613 42.1318,-2.545 63.2033,-58.0225 57.8284,-106.2564 -1.5781,-14.1607 13.8192,-31.6694 32.5349,-30.4271 17.298,1.1482 33.3984,-19.3288 33.3984,-19.3288 z"
       id="path3276"
       inkscape:connector-curvature="0"
       sodipodi:nodetypes="cscsscc" />
    <path
       style="fill:#ffffff;stroke:none;stroke-width:1.08154464"
       d="m 61.731833,2233.8541 c -1.177496,-117.0147 19.956453,-178.5016 267.912257,-174.5571 347.0702,5.5212 371.83302,79.9025 375.30259,217.1782 4.75055,187.9586 -204.80081,155.929 -372.25919,157.3727 -288.977293,2.4914 -262.770393,-80.1685 -270.955657,-199.9938 z"
       id="path3280-8-0"
       inkscape:connector-curvature="0"
       sodipodi:nodetypes="csssc" />
    <path
       style="fill:#ffffff;stroke:none;stroke-width:0.97623616"
       d="m 716.99413,2543.2603 c 2.69935,95.003 -9.0448,130.8194 -176.23628,142.1857 -231.39279,15.731 -252.31922,-64.1909 -254.4242,-175.6818 -2.27111,-120.291 108.41564,-109.695 216.04067,-123.4236 191.68546,-24.4516 207.19012,59.647 214.61981,156.9197 z"
       id="path3280-8-0-3"
       inkscape:connector-curvature="0"
       sodipodi:nodetypes="csssc" />
    <path
       style="color:#000000;display:inline;overflow:visible;visibility:visible;fill:#ffffff;fill-opacity:1;fill-rule:nonzero;stroke:none;stroke-width:0.91339594px;marker:none;enable-background:accumulate"
       d="m 1734.0066,2900.1029 c -15.457,-35.5133 -19.7521,-127.5703 115.5142,-115.4416 105.1696,7.4146 136.4628,32.1817 140.0749,74.5384 3.6122,42.3568 11.5554,82.5592 -72.6622,88.6991 -77.106,3.1567 -157.2758,0.9294 -182.9269,-47.7959 z"
       id="path3525"
       inkscape:connector-curvature="0"
       sodipodi:nodetypes="cczcc" />
    <path
       style="color:#000000;display:inline;overflow:visible;visibility:visible;fill:#ffffff;fill-opacity:1;fill-rule:nonzero;stroke:none;stroke-width:0.932679px;marker:none;enable-background:accumulate"
       d="m 788.59271,2654.0243 c -38.61235,13.1991 -53.23313,15.8331 -88.53084,-16.7571 -35.29767,-32.5903 -47.30824,-20.5196 -47.30824,-20.5196 l 8.02128,30.2663 c 0,0 80.19331,64.7861 127.8178,7.0104 z"
       id="path3072-6"
       inkscape:connector-curvature="0" />
    <path
       style="color:#000000;display:inline;overflow:visible;visibility:visible;fill:#ffffff;fill-opacity:1;fill-rule:nonzero;stroke:none;stroke-width:1px;marker:none;enable-background:accumulate"
       d="m 1885.9302,2880.543 c -8.5379,-41.2674 -44.7927,-105.1616 -72.2125,-139.41 -35.1182,-43.864 -72.8214,-53.3837 -92.0424,-60.2184 -19.2212,-6.8347 -32.1844,10.3588 -49.896,10.3433 -15.217,-0.013 -25.6847,-6.7896 -32.7226,-18.2648 9.7927,27.8644 34.0049,32.1826 44.6949,29.5469 10.6902,-2.6357 26.8117,-12.6559 45.0036,-2.5829 24.2118,13.4064 47.6718,29.1496 76.3935,72.336 25.957,39.0295 44.3792,76.7753 41.8276,91.0824 -2.5517,14.3073 38.9539,17.1675 38.9539,17.1675 z"
       id="path4562"
       inkscape:connector-curvature="0"
       sodipodi:nodetypes="cssscssssc" />
  </g>
  <g
     inkscape:groupmode="layer"
     id="layer1"
     inkscape:label="txt">
    <path
       style="color:#000000;display:inline;overflow:visible;visibility:visible;fill:#ffffff;fill-opacity:1;fill-rule:nonzero;stroke:none;stroke-width:1.28910148px;marker:none;enable-background:accumulate"
       d="m 41.34744,199.20766 c -2.688978,-19.3705 23.368651,-76.87216 188.19624,-77.61764 216.41173,-0.97879 203.78177,96.6345 191.69428,125.31097 -10.33033,24.50786 -33.13786,38.09437 -68.09849,56.4727 -34.96063,18.37832 -134.10933,20.59698 -174.44449,15.43169 C 138.3601,313.63983 88.404989,312.62126 55.585492,279.09102 32.276017,255.27675 44.036429,204.37308 41.34744,199.20766 Z"
       id="path3365"
       inkscape:connector-curvature="0"
       sodipodi:nodetypes="csszcsc" />
    <text
       xml:space="preserve"
       style="font-style:normal;font-variant:normal;font-weight:normal;font-stretch:normal;line-height:0%;font-family:Lavi;-inkscape-font-specification:Lavi;text-align:center;letter-spacing:0px;word-spacing:0px;text-anchor:middle;fill:#000000;fill-opacity:1;stroke:none"
       x="252.7869"
       y="177.31723"
       id="text4246"><tspan
         sodipodi:role="line"
         style="font-size:45px;line-height:1.25"
         x="252.7869"
         y="177.31723"
         id="tspan835">gi'e</tspan><tspan
         sodipodi:role="line"
         style="font-size:45px;line-height:1.25"
         x="252.7869"
         y="233.56723"
         id="tspan247">punji lo mapku</tspan><tspan
         sodipodi:role="line"
         style="font-size:45px;line-height:1.25"
         x="252.7869"
         y="289.81723"
         id="tspan255">le kanla</tspan></text>
    <text
       xml:space="preserve"
       style="font-style:normal;font-variant:normal;font-weight:normal;font-stretch:normal;line-height:0%;font-family:Lavi;-inkscape-font-specification:Lavi;text-align:center;letter-spacing:0px;word-spacing:0px;text-anchor:middle;fill:#000000;fill-opacity:1;stroke:none"
       x="220.4431"
       y="573.30139"
       id="text4246-3"><tspan
         sodipodi:role="line"
         style="font-size:45px;line-height:1.25"
         x="220.4431"
         y="573.30139"
         id="tspan901">gi</tspan><tspan
         sodipodi:role="line"
         style="font-size:45px;line-height:1.25"
         x="220.4431"
         y="629.55139"
         id="tspan264">le vorme</tspan><tspan
         sodipodi:role="line"
         style="font-size:45px;line-height:1.25"
         x="220.4431"
         y="685.80139"
         id="tspan262"> co'a kalri</tspan></text>
    <text
       xml:space="preserve"
       style="font-style:normal;font-variant:normal;font-weight:normal;font-stretch:normal;font-size:12.41686249px;line-height:0%;font-family:Lavi;-inkscape-font-specification:Lavi;text-align:center;letter-spacing:0px;word-spacing:0px;text-anchor:middle;fill:#000000;fill-opacity:1;stroke:none;stroke-width:1.03473854"
       x="1099.6267"
       y="167.47101"
       id="text4246-5"
       transform="scale(1.0347385,0.96642774)"><tspan
         sodipodi:role="line"
         style="font-style:normal;font-variant:normal;font-weight:normal;font-stretch:normal;font-size:45px;line-height:1.25;font-family:Lavi;-inkscape-font-specification:'Lavi, Normal';font-variant-ligatures:normal;font-variant-caps:normal;font-variant-numeric:normal;font-feature-settings:normal;text-align:center;writing-mode:lr-tb;text-anchor:middle;stroke-width:1.03473854"
         x="1099.6267"
         y="167.47101"
         id="tspan98">i le litru</tspan><tspan
         sodipodi:role="line"
         style="font-style:normal;font-variant:normal;font-weight:normal;font-stretch:normal;font-size:45px;line-height:1.25;font-family:Lavi;-inkscape-font-specification:'Lavi, Normal';font-variant-ligatures:normal;font-variant-caps:normal;font-variant-numeric:normal;font-feature-settings:normal;text-align:center;writing-mode:lr-tb;text-anchor:middle;stroke-width:1.03473854"
         x="1099.6267"
         y="223.72101"
         id="tspan295">cu stidi le ka</tspan><tspan
         sodipodi:role="line"
         style="font-style:normal;font-variant:normal;font-weight:normal;font-stretch:normal;font-size:45px;line-height:1.25;font-family:Lavi;-inkscape-font-specification:'Lavi, Normal';font-variant-ligatures:normal;font-variant-caps:normal;font-variant-numeric:normal;font-feature-settings:normal;text-align:center;writing-mode:lr-tb;text-anchor:middle;stroke-width:1.03473854"
         x="1099.6267"
         y="279.97104"
         id="tspan299">zukte le ka</tspan><tspan
         sodipodi:role="line"
         style="font-style:normal;font-variant:normal;font-weight:normal;font-stretch:normal;font-size:45px;line-height:1.25;font-family:Lavi;-inkscape-font-specification:'Lavi, Normal';font-variant-ligatures:normal;font-variant-caps:normal;font-variant-numeric:normal;font-feature-settings:normal;text-align:center;writing-mode:lr-tb;text-anchor:middle;stroke-width:1.03473854"
         x="1099.6267"
         y="336.22101"
         id="tspan301">jai gau gacri</tspan><tspan
         sodipodi:role="line"
         style="font-style:normal;font-variant:normal;font-weight:normal;font-stretch:normal;font-size:45px;line-height:1.25;font-family:Lavi;-inkscape-font-specification:'Lavi, Normal';font-variant-ligatures:normal;font-variant-caps:normal;font-variant-numeric:normal;font-feature-settings:normal;text-align:center;writing-mode:lr-tb;text-anchor:middle;stroke-width:1.03473854"
         x="1099.6267"
         y="392.47101"
         id="tspan307">be ca'o fai</tspan><tspan
         sodipodi:role="line"
         style="font-style:normal;font-variant:normal;font-weight:normal;font-stretch:normal;font-size:45px;line-height:1.25;font-family:Lavi;-inkscape-font-specification:'Lavi, Normal';font-variant-ligatures:normal;font-variant-caps:normal;font-variant-numeric:normal;font-feature-settings:normal;text-align:center;writing-mode:lr-tb;text-anchor:middle;stroke-width:1.03473854"
         x="1099.6267"
         y="448.72101"
         id="tspan309">le mapku vau</tspan><tspan
         sodipodi:role="line"
         style="font-style:normal;font-variant:normal;font-weight:normal;font-stretch:normal;font-size:45px;line-height:1.25;font-family:Lavi;-inkscape-font-specification:'Lavi, Normal';font-variant-ligatures:normal;font-variant-caps:normal;font-variant-numeric:normal;font-feature-settings:normal;text-align:center;writing-mode:lr-tb;text-anchor:middle;stroke-width:1.03473854"
         x="1099.6267"
         y="504.97101"
         id="tspan313">le nu ba</tspan><tspan
         sodipodi:role="line"
         style="font-style:normal;font-variant:normal;font-weight:normal;font-stretch:normal;font-size:45px;line-height:1.25;font-family:Lavi;-inkscape-font-specification:'Lavi, Normal';font-variant-ligatures:normal;font-variant-caps:normal;font-variant-numeric:normal;font-feature-settings:normal;text-align:center;writing-mode:lr-tb;text-anchor:middle;stroke-width:1.03473854"
         x="1099.6267"
         y="561.22101"
         id="tspan317">frili rivbi</tspan></text>
    <text
       xml:space="preserve"
       style="font-style:normal;font-variant:normal;font-weight:normal;font-stretch:normal;line-height:0%;font-family:Lavi;-inkscape-font-specification:Lavi;text-align:center;letter-spacing:0px;word-spacing:0px;text-anchor:middle;fill:#000000;fill-opacity:1;stroke:none"
       x="1150.4738"
       y="620.10974"
       id="text4246-1"><tspan
         sodipodi:role="line"
         style="font-style:normal;font-variant:normal;font-weight:bold;font-stretch:normal;font-size:45px;line-height:1.25;font-family:Lavi;-inkscape-font-specification:'Lavi Bold'"
         x="1150.4738"
         y="620.10974"
         id="tspan1013">i lo'e cukta</tspan><tspan
         sodipodi:role="line"
         style="font-style:normal;font-variant:normal;font-weight:bold;font-stretch:normal;font-size:45px;line-height:1.25;font-family:Lavi;-inkscape-font-specification:'Lavi Bold'"
         x="1150.4738"
         y="676.35974"
         id="tspan321">cu banli</tspan></text>
    <text
       xml:space="preserve"
       style="font-style:normal;font-variant:normal;font-weight:normal;font-stretch:normal;line-height:0%;font-family:Lavi;-inkscape-font-specification:Lavi;text-align:center;letter-spacing:0px;word-spacing:0px;text-anchor:middle;fill:#000000;fill-opacity:1;stroke:none"
       x="2345.262"
       y="164.03572"
       id="text4246-5-5"><tspan
         sodipodi:role="line"
         style="font-style:italic;font-variant:normal;font-weight:normal;font-stretch:normal;font-size:45px;line-height:1.25;font-family:Lavi;-inkscape-font-specification:'Lavi Italic';text-align:end;text-anchor:end"
         x="2345.262"
         y="164.03572"
         id="tspan328">i lu plipe ga'u</tspan><tspan
         sodipodi:role="line"
         style="font-style:italic;font-variant:normal;font-weight:normal;font-stretch:normal;font-size:45px;line-height:1.25;font-family:Lavi;-inkscape-font-specification:'Lavi Italic';text-align:end;text-anchor:end"
         x="2345.262"
         y="220.28572"
         id="tspan332">le pa moi balni</tspan><tspan
         sodipodi:role="line"
         style="font-style:italic;font-variant:normal;font-weight:normal;font-stretch:normal;font-size:45px;line-height:1.25;font-family:Lavi;-inkscape-font-specification:'Lavi Italic';text-align:end;text-anchor:end"
         x="2345.262"
         y="276.53571"
         id="tspan334">li'u</tspan></text>
    <text
       xml:space="preserve"
       style="font-style:normal;font-variant:normal;font-weight:normal;font-stretch:normal;line-height:0%;font-family:Lavi;-inkscape-font-specification:Lavi;text-align:center;letter-spacing:0px;word-spacing:0px;text-anchor:middle;fill:#000000;fill-opacity:1;stroke:none"
       x="2266.8933"
       y="365.76685"
       id="text4246-1-3"><tspan
         sodipodi:role="line"
         style="font-style:normal;font-variant:normal;font-weight:bold;font-stretch:normal;font-size:45px;line-height:1.25;font-family:Lavi;-inkscape-font-specification:'Lavi Bold'"
         x="2266.8933"
         y="365.76685"
         id="tspan1013-7">.i'a</tspan></text>
    <text
       xml:space="preserve"
       style="color:#000000;font-style:normal;font-variant:normal;font-weight:normal;font-stretch:normal;font-size:12.00003719px;line-height:0.01%;font-family:Lavi;-inkscape-font-specification:'Lavi, Normal';font-variant-ligatures:normal;font-variant-caps:normal;font-variant-numeric:normal;font-feature-settings:normal;text-align:start;letter-spacing:0.00204969px;word-spacing:0px;writing-mode:lr-tb;text-anchor:start;display:inline;overflow:visible;visibility:visible;fill:#ffffff;fill-opacity:1;fill-rule:nonzero;stroke:#ffffff;stroke-width:0.0836072;stroke-linecap:butt;stroke-linejoin:miter;stroke-miterlimit:4;stroke-dasharray:none;stroke-dashoffset:0;stroke-opacity:1;marker:none;filter:url(#filter4375-4-1-1-15-1-3);enable-background:accumulate"
       x="1125.3203"
       y="1091.2349"
       id="text1702"
       transform="matrix(5.7002708,-3.8236609,4.4936667,6.6234627,-10757.229,-1056.1997)"><tspan
         sodipodi:role="line"
         id="tspan1032"
         x="1125.3203"
         y="1091.2349"
         style="font-style:normal;font-variant:normal;font-weight:bold;font-stretch:normal;font-family:Lavi;-inkscape-font-specification:'Lavi Bold'">uiiin.</tspan></text>
    <text
       xml:space="preserve"
       style="color:#000000;font-style:normal;font-variant:normal;font-weight:normal;font-stretch:normal;font-size:12.00003719px;line-height:0.01%;font-family:Lavi;-inkscape-font-specification:'Lavi, Normal';font-variant-ligatures:normal;font-variant-caps:normal;font-variant-numeric:normal;font-feature-settings:normal;text-align:start;letter-spacing:0.00204969px;word-spacing:0px;writing-mode:lr-tb;text-anchor:start;display:inline;overflow:visible;visibility:visible;fill:#ffffff;fill-opacity:1;fill-rule:nonzero;stroke:#ffffff;stroke-width:0.12600572;stroke-linecap:butt;stroke-linejoin:miter;stroke-miterlimit:4;stroke-dasharray:none;stroke-dashoffset:0;stroke-opacity:1;marker:none;filter:url(#filter4375-4-1-1-15-1-3-0);enable-background:accumulate"
       x="1125.3203"
       y="1091.2349"
       id="text1702-6"
       transform="matrix(3.1869294,3.2574207,-3.7023322,3.8125721,2175.23,-6084.2675)"><tspan
         sodipodi:role="line"
         id="tspan1032-0"
         x="1125.3203"
         y="1091.2349"
         style="font-style:normal;font-variant:normal;font-weight:bold;font-stretch:normal;font-family:Lavi;-inkscape-font-specification:'Lavi Bold';stroke-width:0.12600572;stroke-miterlimit:4;stroke-dasharray:none">uiiin.</tspan></text>
    <text
       xml:space="preserve"
       style="font-style:normal;font-variant:normal;font-weight:normal;font-stretch:normal;line-height:0%;font-family:Lavi;-inkscape-font-specification:Lavi;text-align:center;letter-spacing:0px;word-spacing:0px;text-anchor:middle;fill:#000000;fill-opacity:1;stroke:none"
       x="2347.1755"
       y="1006.4933"
       id="text4246-5-5-2"><tspan
         sodipodi:role="line"
         style="font-style:italic;font-variant:normal;font-weight:normal;font-stretch:normal;font-size:45px;line-height:1.25;font-family:Lavi;-inkscape-font-specification:'Lavi Italic';text-align:end;text-anchor:end"
         x="2347.1755"
         y="1006.4933"
         id="tspan544">i lu la'a cinmo</tspan><tspan
         sodipodi:role="line"
         style="font-style:italic;font-variant:normal;font-weight:normal;font-stretch:normal;font-size:45px;line-height:1.25;font-family:Lavi;-inkscape-font-specification:'Lavi Italic';text-align:end;text-anchor:end"
         x="2347.1755"
         y="1062.7433"
         id="tspan349">le ka farlu i cnano</tspan><tspan
         sodipodi:role="line"
         style="font-style:italic;font-variant:normal;font-weight:normal;font-stretch:normal;font-size:45px;line-height:1.25;font-family:Lavi;-inkscape-font-specification:'Lavi Italic';text-align:end;text-anchor:end"
         x="2347.1755"
         y="1118.9933"
         id="tspan345">i tordu pluta li'u</tspan></text>
    <text
       xml:space="preserve"
       style="font-style:normal;font-variant:normal;font-weight:normal;font-stretch:normal;line-height:0%;font-family:Lavi;-inkscape-font-specification:Lavi;text-align:center;letter-spacing:0px;word-spacing:0px;text-anchor:middle;fill:#000000;fill-opacity:1;stroke:none"
       x="378.3584"
       y="2149.1831"
       id="text4246-5-5-2-0"><tspan
         sodipodi:role="line"
         style="font-style:italic;font-variant:normal;font-weight:normal;font-stretch:normal;font-size:45px;line-height:1.25;font-family:Lavi;-inkscape-font-specification:'Lavi Italic';text-align:center;text-anchor:middle"
         x="378.3584"
         y="2149.1831"
         id="tspan1100-3">i lu ko kufra le ka zvati</tspan><tspan
         sodipodi:role="line"
         style="font-style:italic;font-variant:normal;font-weight:normal;font-stretch:normal;font-size:45px;line-height:1.25;font-family:Lavi;-inkscape-font-specification:'Lavi Italic';text-align:center;text-anchor:middle"
         x="378.3584"
         y="2205.4331"
         id="tspan3770">le te gusni julne vau</tspan><tspan
         sodipodi:role="line"
         style="font-style:italic;font-variant:normal;font-weight:normal;font-stretch:normal;font-size:45px;line-height:1.25;font-family:Lavi;-inkscape-font-specification:'Lavi Italic';text-align:center;text-anchor:middle"
         x="378.3584"
         y="2261.6831"
         id="tspan564">noi na ckape i ti voi</tspan><tspan
         sodipodi:role="line"
         style="font-style:italic;font-variant:normal;font-weight:normal;font-stretch:normal;font-size:45px;line-height:1.25;font-family:Lavi;-inkscape-font-specification:'Lavi Italic';text-align:center;text-anchor:middle"
         x="378.3584"
         y="2317.9331"
         id="tspan3793">.ankabuta cu se livla</tspan><tspan
         sodipodi:role="line"
         style="font-style:italic;font-variant:normal;font-weight:normal;font-stretch:normal;font-size:45px;line-height:1.25;font-family:Lavi;-inkscape-font-specification:'Lavi Italic';text-align:center;text-anchor:middle"
         x="378.3584"
         y="2374.1831"
         id="tspan3799">le'e gusni ku noi minra li'u</tspan></text>
    <flowRoot
       xml:space="preserve"
       id="flowRoot1141"
       style="fill:black;stroke:none;stroke-opacity:1;stroke-width:1px;stroke-linejoin:miter;stroke-linecap:butt;fill-opacity:1;font-family:Lavi;font-style:normal;font-weight:normal;font-size:0.66666667px;line-height:0%;letter-spacing:0px;word-spacing:0px;-inkscape-font-specification:Lavi;font-stretch:normal;font-variant:normal;text-anchor:middle;text-align:center;writing-mode:lr"><flowRegion
         id="flowRegion1143"><rect
           id="rect1145"
           width="37.375"
           height="11.5"
           x="1802.6249"
           y="2272.5" /></flowRegion><flowPara
         id="flowPara1147" /></flowRoot>    <text
       xml:space="preserve"
       style="font-style:normal;font-variant:normal;font-weight:normal;font-stretch:normal;line-height:0%;font-family:Lavi;-inkscape-font-specification:Lavi;text-align:center;letter-spacing:0px;word-spacing:0px;text-anchor:middle;fill:#000000;fill-opacity:1;stroke:none"
       x="502.41183"
       y="2482.4917"
       id="text4246-5-5-2-0-7"><tspan
         sodipodi:role="line"
         style="font-style:italic;font-variant:normal;font-weight:normal;font-stretch:normal;font-size:45px;line-height:1.25;font-family:Lavi;-inkscape-font-specification:'Lavi Italic';text-align:center;text-anchor:middle"
         x="502.41183"
         y="2482.4917"
         id="tspan1226">i lu i mi stidi</tspan><tspan
         sodipodi:role="line"
         style="font-style:italic;font-variant:normal;font-weight:normal;font-stretch:normal;font-size:45px;line-height:1.25;font-family:Lavi;-inkscape-font-specification:'Lavi Italic';text-align:center;text-anchor:middle"
         x="502.41183"
         y="2538.7417"
         id="tspan376">le ka ze'i sipna gi'e</tspan><tspan
         sodipodi:role="line"
         style="font-style:italic;font-variant:normal;font-weight:normal;font-stretch:normal;font-size:45px;line-height:1.25;font-family:Lavi;-inkscape-font-specification:'Lavi Italic';text-align:center;text-anchor:middle"
         x="502.41183"
         y="2594.9917"
         id="tspan382"> ja'e bo di'a tsali</tspan><tspan
         sodipodi:role="line"
         style="font-style:italic;font-variant:normal;font-weight:normal;font-stretch:normal;font-size:45px;line-height:1.25;font-family:Lavi;-inkscape-font-specification:'Lavi Italic';text-align:center;text-anchor:middle"
         x="502.41183"
         y="2651.2417"
         id="tspan378"> li'u</tspan></text>
    <text
       xml:space="preserve"
       style="font-style:normal;font-variant:normal;font-weight:normal;font-stretch:normal;font-size:14.09488487px;line-height:0%;font-family:Lavi;-inkscape-font-specification:Lavi;text-align:center;letter-spacing:0px;word-spacing:0px;text-anchor:middle;fill:#000000;fill-opacity:1;stroke:none;stroke-width:1"
       x="1841.7566"
       y="2885.7871"
       id="text4246-1-8"
       transform="scale(1.0104523,0.98965581)"><tspan
         sodipodi:role="line"
         style="font-style:normal;font-variant:normal;font-weight:bold;font-stretch:normal;font-size:52.8558197px;line-height:1.25;font-family:Lavi;-inkscape-font-specification:'Lavi Bold';stroke-width:1"
         x="1841.7566"
         y="2885.7871"
         id="tspan359">i cukta</tspan><tspan
         sodipodi:role="line"
         style="font-style:normal;font-variant:normal;font-weight:bold;font-stretch:normal;font-size:52.8558197px;line-height:1.25;font-family:Lavi;-inkscape-font-specification:'Lavi Bold';stroke-width:1"
         x="1841.7566"
         y="2951.8569"
         id="tspan363">.iu sai</tspan></text>
    <text
       xml:space="preserve"
       style="color:#000000;font-style:normal;font-variant:normal;font-weight:normal;font-stretch:normal;font-size:11.10639572px;line-height:0.01%;font-family:Arial;-inkscape-font-specification:Arial;letter-spacing:0.89570737px;word-spacing:0px;display:inline;overflow:visible;visibility:visible;fill:#e69d76;fill-opacity:1;fill-rule:nonzero;stroke:#e99f77;stroke-width:4.05566978;stroke-opacity:1;marker:none;enable-background:accumulate"
       x="610.2511"
       y="601.31281"
       id="text1711"
       transform="matrix(0.78576578,-0.49307246,0.54549744,0.93034115,0,0)"><tspan
         sodipodi:role="line"
         x="610.69897"
         y="601.31281"
         id="tspan1709"
         style="letter-spacing:0.89570737px;word-spacing:0px;fill:#ffffff;fill-opacity:1;stroke:#ffffff;stroke-width:4.05566978;stroke-opacity:1"><tspan
           x="610.2511"
           y="601.31281"
           style="color:#000000;font-style:normal;font-variant:normal;font-weight:normal;font-stretch:normal;font-size:59.2341156px;line-height:1.25;font-family:Lavi;-inkscape-font-specification:Lavi;text-align:center;letter-spacing:0.89570737px;word-spacing:0px;text-anchor:middle;display:inline;overflow:visible;visibility:visible;fill:#ffffff;fill-opacity:1;fill-rule:nonzero;stroke:#ffffff;stroke-width:3.1970036;stroke-miterlimit:4;stroke-dasharray:none;stroke-opacity:1;marker:none;enable-background:accumulate"
           id="tspan1707">puf.</tspan></tspan></text>
  </g>
  <g
     inkscape:groupmode="layer"
     id="layer4"
     inkscape:label="notes"
     style="display:inline"
     sodipodi:insensitive="true">
    <path
       style="color:#000000;clip-rule:nonzero;display:inline;overflow:visible;visibility:visible;opacity:0.481;isolation:auto;mix-blend-mode:normal;color-interpolation:sRGB;color-interpolation-filters:linearRGB;solid-color:#000000;solid-opacity:1;fill:#ffe680;fill-opacity:1;fill-rule:nonzero;stroke:#565656;stroke-width:1.20000005;stroke-linecap:butt;stroke-linejoin:miter;stroke-miterlimit:4;stroke-dasharray:none;stroke-dashoffset:0;stroke-opacity:1;marker:none;color-rendering:auto;image-rendering:auto;shape-rendering:auto;text-rendering:auto;enable-background:accumulate"
       d="M 1803.0237,-298.37057 H 846.35615 v 253.040394 h 289.92535 v 10 h -15.6308 l 26.9824,30.9825 26.9804,-30.9825 h -16.6171 v -10 h 645.0273 z"
       id="rect4191-6"
       inkscape:connector-curvature="0"
       sodipodi:nodetypes="cccccccccccc" />
    <flowRoot
       xml:space="preserve"
       id="flowRoot4212-7"
       style="font-style:normal;font-variant:normal;font-weight:normal;font-stretch:normal;line-height:0.01%;font-family:Lavi;-inkscape-font-specification:'Lavi, Normal';text-align:center;letter-spacing:0px;word-spacing:0px;writing-mode:lr-tb;text-anchor:middle;display:inline;opacity:0.68900003;fill:#000000;fill-opacity:1;stroke:none;stroke-width:0.79958946px;stroke-linecap:butt;stroke-linejoin:miter;stroke-opacity:1"
       transform="matrix(1.2506418,0,0,1.2506418,1218.2001,-1598.9961)"><flowRegion
         id="flowRegion4214-5"
         style="stroke-width:0.79958946px"><rect
           id="rect4216-3"
           width="718.88867"
           height="174.37697"
           x="-275.14545"
           y="1061.6674"
           style="stroke-width:0.79958946px" /></flowRegion><flowPara
         id="flowPara4564"
         style="font-size:25.3241539px;line-height:1.25;stroke-width:0.79958946px">This “they” means one person, without specifying their gender.</flowPara><flowPara
         style="font-size:25.3241539px;line-height:1.25;stroke-width:0.79958946px"
         id="flowPara936">If possible, please try to do the same in your language</flowPara><flowPara
         style="font-size:25.3241539px;line-height:1.25;stroke-width:0.79958946px"
         id="flowPara934">(suggestion: if your language doesn't have genderless pronouns, maybe you can translate as “the author”).</flowPara><flowPara
         style="font-size:25.3241539px;line-height:1.25;stroke-width:0.79958946px"
         id="flowPara920">If that doesn't really work well, assume the author is a woman.</flowPara></flowRoot>  </g>
</svg>
