<?xml version="1.0" encoding="UTF-8" standalone="no"?>
<!-- Created with Inkscape (http://www.inkscape.org/) -->

<svg
   xmlns:dc="http://purl.org/dc/elements/1.1/"
   xmlns:cc="http://creativecommons.org/ns#"
   xmlns:rdf="http://www.w3.org/1999/02/22-rdf-syntax-ns#"
   xmlns:svg="http://www.w3.org/2000/svg"
   xmlns="http://www.w3.org/2000/svg"
   xmlns:xlink="http://www.w3.org/1999/xlink"
   xmlns:sodipodi="http://sodipodi.sourceforge.net/DTD/sodipodi-0.dtd"
   xmlns:inkscape="http://www.inkscape.org/namespaces/inkscape"
   id="svg2"
   version="1.1"
   inkscape:version="0.91 r13725"
   width="2481"
   height="3503"
   sodipodi:docname="E24P01.svg">
  <metadata
     id="metadata8">
    <rdf:RDF>
      <cc:Work
         rdf:about="">
        <dc:format>image/svg+xml</dc:format>
        <dc:type
           rdf:resource="http://purl.org/dc/dcmitype/StillImage" />
        <dc:title />
      </cc:Work>
    </rdf:RDF>
  </metadata>
  <defs
     id="defs6">
    <filter
       style="color-interpolation-filters:sRGB"
       id="filter4375-4-1-1-1-9"
       inkscape:label="deevad outline effect">
      <feFlood
         id="feFlood4377-7-9-0-8-1"
         flood-opacity="1"
         flood-color="rgb(0,0,0)"
         result="flood" />
      <feComposite
         id="feComposite4379-3-8-8-2-77"
         in2="SourceGraphic"
         in="flood"
         operator="in"
         result="composite1" />
      <feMorphology
         id="feMorphology4393-1-0-49-8-9"
         operator="dilate"
         radius="4"
         result="result3" />
      <feComposite
         id="feComposite4385-9-5-7-0-8"
         in2="result3"
         in="SourceGraphic"
         operator="over"
         result="composite2" />
    </filter>
  </defs>
  <sodipodi:namedview
     pagecolor="#ffffff"
     bordercolor="#666666"
     borderopacity="1"
     objecttolerance="10"
     gridtolerance="10"
     guidetolerance="10"
     inkscape:pageopacity="0"
     inkscape:pageshadow="2"
     inkscape:window-width="1366"
     inkscape:window-height="715"
     id="namedview4"
     showgrid="false"
     inkscape:zoom="0.43942712"
     inkscape:cx="1487.8342"
     inkscape:cy="612.86961"
     inkscape:window-x="-8"
     inkscape:window-y="-8"
     inkscape:window-maximized="1"
     inkscape:current-layer="layer3"
     inkscape:snap-global="false" />
  <g
     inkscape:groupmode="layer"
     id="layer2"
     inkscape:label="artwork"
     sodipodi:insensitive="true">
    <image
       sodipodi:absref="D:\GitHub\ep24_The-Unity-Tree_lang-pack\lang\cn\..\gfx_Pepper-and-Carrot_by-David-Revoy_E24P01.png"
       xlink:href="../gfx_Pepper-and-Carrot_by-David-Revoy_E24P01.png"
       width="2481"
       height="3503"
       id="image10"
       x="0"
       y="0" />
  </g>
  <g
     inkscape:groupmode="layer"
     id="layer3"
     inkscape:label="speechbubbles">
    <path
       style="fill:#ffffff;fill-rule:evenodd;stroke:none;stroke-width:0.99999976px;stroke-linecap:butt;stroke-linejoin:miter;stroke-opacity:1"
       d="m 571.76736,444.82799 c 30.84176,10.3778 58.72055,16.82994 49.24232,-26.21365 54.5919,58.4381 46.76071,18.41593 55.39761,4.3689 32.45687,41.28048 60.38338,35.39772 84.63523,-8.73782 13.70993,63.66343 42.39928,32.81806 67.70814,23.30101 -0.0624,17.90316 -6.97204,38.4323 67.70824,27.67002 -21.35304,16.16964 -29.31781,30.84858 18.46587,39.32057 -33.19271,13.00092 -51.42156,26.83488 -15.38828,43.68959 -19.1424,24.55329 -6.33921,39.14523 20.00473,49.51474 -61.68213,1.43599 -69.6922,3.82078 -59.79639,16.5467 -52.51571,-26.16442 -36.99864,-4.56586 -32.53295,15.49224 -24.44301,-11.5063 -42.50959,-38.70257 -86.174,-2.91255 -12.98632,-11.87815 -24.95685,-26.88035 -53.85882,10.19418 -2.03883,-32.33917 -23.16975,-31.12261 -53.85881,-13.10682 -8.09441,-30.32815 -38.48916,-14.92955 -70.78584,4.369 26.36146,-29.60091 28.27173,-54.33009 -23.08233,-68.44696 49.76639,-16.93386 40.70436,-30.59285 21.54351,-43.68949 18.93031,-12.31548 31.27308,-25.73102 -18.46586,-49.51483 29.08114,3.69751 60.04577,8.46458 29.23763,-21.84483 z"
       id="path4582"
       inkscape:connector-curvature="0"
       sodipodi:nodetypes="ccccccccccccccccccc" />
    <path
       style="color:#000000;display:inline;overflow:visible;visibility:visible;fill:#ffffff;fill-opacity:1;fill-rule:nonzero;stroke:none;stroke-width:0.99999994px;marker:none;enable-background:accumulate"
       d="m 1120.4405,700.1743 c -32.2265,-17.97546 -75.6905,-29.21797 -94.8601,-55.01638 l -18.7309,38.20697 c -21.19647,-1.31166 -26.2338,-14.07539 -36.75813,-22.95055 l -18.52445,25.72405 C 902.21848,682.47077 878.08971,666.613 844.32571,653.77368 l -19.93547,22.60875 c 41.44339,8.00317 86.22663,23.6167 121.36515,31.70826 l 22.07602,-17.34663 c 14.0695,3.48337 27.30829,7.5971 36.83679,14.52656 l 23.5694,-31.97386 z"
       id="path4032"
       inkscape:connector-curvature="0"
       sodipodi:nodetypes="cccccccccccc" />
    <path
       style="color:#000000;display:inline;overflow:visible;visibility:visible;fill:#ffffff;fill-opacity:1;fill-rule:nonzero;stroke:none;stroke-width:0.99999994px;marker:none;enable-background:accumulate"
       d="m 1384.3367,1868.2437 c 8.3002,-9.6035 44.1715,-37.7572 38.8953,-2.86 57.632,-40.2666 97.8322,-19.5262 139.0231,-2.2535 14.275,-12.4731 19.9057,-33.3022 56.1149,-24.5731 -2.4674,-14.0664 11.9554,-22.0812 41.4491,-24.6967 -36.0399,-12.0387 -41.2448,-21.179 30.6014,-23.0767 -53.0895,-6.3379 -102.4299,-13.2357 -33.6477,-37.773 -19.4542,-2.7585 -71.2172,18.2946 -34.1744,-55.0444 -38.6297,20.7342 -77.2997,30.3971 -112.1126,-24.8989 -17.93,18.5866 -41.3972,29.9721 -75.7315,-1.4146 -12.5651,18.985 -61.0229,15.6954 -77.913,9.8432 31.1855,25.8757 27.1549,39.5499 -21.751,36.7247 73.1498,48.3718 7.9506,35.5263 -7.2144,44.3362 61.0201,20.3406 28.9788,34.5624 14.1423,50.4926 73.2403,8.1069 43.6613,33.0527 42.3185,55.1942 z"
       id="path3549-3"
       inkscape:connector-curvature="0"
       sodipodi:nodetypes="ccccccccccccccc" />
    <path
       style="color:#000000;display:inline;overflow:visible;visibility:visible;fill:#ffffff;fill-opacity:1;fill-rule:nonzero;stroke:none;stroke-width:0.99999988px;marker:none;enable-background:accumulate"
       d="m 1335.6889,1948.0036 c 5.1172,-75.8195 85.041,-136.0769 263.8508,-119.3503 95.7804,8.9596 216.8537,11.5576 210.468,122.6433 -6.3854,111.0853 -174.9845,109.9946 -207.223,112.1526 -32.2388,2.1584 -208.0182,-2.3501 -237.6367,-40.5729 -18.5412,-23.9266 -29.8367,-51.3744 -29.4591,-74.8727 z"
       id="path4546-6"
       inkscape:connector-curvature="0"
       sodipodi:nodetypes="cssssc" />
    <path
       style="color:#000000;display:inline;overflow:visible;visibility:visible;fill:#ffffff;fill-opacity:1;fill-rule:nonzero;stroke:none;stroke-width:1px;marker:none;enable-background:accumulate"
       d="m 1725.1844,1861.3342 c 6.612,11.2759 86.9477,-29.2003 85.8796,-32.4046 0,0 27.5174,7.7754 31.5141,6.9248 1.9994,-6.4636 4.2729,-17.2204 4.2729,-17.2204 l 43.1705,1.271 -34.6999,8.0734 0.1804,21.2585 -36.6531,-7.0896 c -19.044,13.242 -51.208,25.1719 -50.7716,40.3619 z"
       id="path4448"
       inkscape:connector-curvature="0"
       sodipodi:nodetypes="cccccccccc" />
    <path
       style="color:#000000;display:inline;overflow:visible;visibility:visible;fill:#ffffff;fill-opacity:1;fill-rule:nonzero;stroke:none;stroke-width:0.99999994px;marker:none;enable-background:accumulate"
       d="m 31.359709,3121.4305 c 45.135999,12.4498 41.335267,57.9392 29.0485,73.6429 50.505851,-56.0975 76.949031,-34.8188 51.235891,21.5835 87.83416,-77.4205 118.38482,-21.8703 103.62159,8.2421 37.1041,-62.4086 104.59646,-66.6692 139.53761,0.7922 22.03929,-81.4626 52.80619,-51.0353 94.91581,-30.8767 -31.98225,-30.6239 -50.43118,-60.9217 35.48143,-100.1083 -46.04637,11.3478 -91.44013,-28.399 -12.2808,-60.0727 -78.48435,-1.5224 -84.00284,-45.8103 -0.66082,-66.5427 -80.9495,0.1512 -79.04348,-29.6923 -42.10016,-67.8917 -56.82162,10.6634 -70.97375,-24.4978 -17.91544,-80.7936 -88.92088,50.6475 -93.31409,19.3737 -87.37815,-45.8627 -50.16826,71.4312 -46.02857,38.1501 -56.07018,-29.5308 -10.58079,49.7571 -37.7994,86.9381 -94.01295,28.8515 8.66099,32.3375 -3.84957,68.9101 -80.63875,32.0115 41.09266,38.883 70.59947,105.5771 -49.11932,104.7092 55.85853,25.6934 79.26392,63.2251 2.645909,71.2454 30.637753,8.4507 38.666056,32.1014 36.843592,51.3522 -13.79946,6.1909 -32.130274,12.1839 -55.799682,18.0034 44.629724,17.4856 72.949891,39.9631 2.64592,71.2453 z"
       id="path3549-3-7"
       inkscape:connector-curvature="0"
       sodipodi:nodetypes="cccccccccccccccccccc" />
    <path
       style="fill:#ffffff;stroke:none;stroke-width:1"
       d="m 1312.0471,2636.6402 c 24.8572,-23.3618 23.0898,-34.098 20.1693,-46.0928 -2.9204,-11.9949 -6.7783,-22.4564 -2.996,-29.6912 3.7822,-7.2345 11.9314,-13.7504 18.5182,-17.7105 6.5867,-3.9602 0.6895,-11.8462 0.1992,-20.4782 -0.4905,-8.632 11.6694,-54.4912 11.6694,-54.4912 0,0 15.4128,29.8223 17.3984,40.7257 1.9857,10.9032 2.7616,14.8752 2.4762,19.5352 -0.2855,4.6599 -2.4809,16.1126 -8.3834,22.0982 -5.9026,5.9855 -13.8607,8.5198 -19.1677,11.9592 -5.307,3.4394 -4.2207,13.2301 -3.7625,22.963 0.4583,9.7331 -0.6146,16.9839 -10.2491,30.0137 -8.2583,11.169 -25.872,21.1689 -25.872,21.1689 z"
       id="path3023-2"
       inkscape:connector-curvature="0"
       sodipodi:nodetypes="csssscssssssc" />
    <path
       style="color:#000000;display:inline;overflow:visible;visibility:visible;fill:#ffffff;fill-opacity:1;fill-rule:nonzero;stroke:none;stroke-width:0.99999994px;marker:none;enable-background:accumulate"
       d="m 1316.0029,3034.7179 c 5.2109,-36.069 14.5234,-83.1655 -40.179,-91.5576 2.7742,1.4246 74.681,-16.1526 71.113,92.3401 -3.568,108.4926 -13.868,120.9339 -13.868,120.9339 z"
       id="path4064"
       inkscape:connector-curvature="0"
       sodipodi:nodetypes="ccscc" />
    <path
       style="color:#000000;display:inline;overflow:visible;visibility:visible;fill:#ffffff;fill-opacity:1;fill-rule:nonzero;stroke:none;stroke-width:1px;marker:none;enable-background:accumulate"
       d="m 1077.2562,3295.7847 c -1.1856,-61.9807 37.6091,-99.5237 45.0474,-104.6787 67.1345,-46.525 276.2566,-29.3302 312.9622,2.7546 30.822,26.1698 37.9349,44.0753 34.3784,67.4904 -3.5564,23.4149 -22.5239,85.3957 -66.386,103.3013 -43.8619,17.9055 -145.8117,26.1697 -199.1577,12.3961 -53.3458,-13.7735 -131.5863,-27.5469 -126.8443,-81.2637 z"
       id="path3517"
       inkscape:connector-curvature="0"
       sodipodi:nodetypes="cscsccc" />
    <path
       style="color:#000000;display:inline;overflow:visible;visibility:visible;fill:#ffffff;fill-opacity:1;fill-rule:nonzero;stroke:none;stroke-width:1px;marker:none;enable-background:accumulate"
       d="m 1142.4257,3108.1619 c -1.2337,-31.62 22.4012,-64.5566 34.7376,-74.6749 12.3366,-10.1185 87.1974,-20.0204 115.5712,-20.0204 28.3738,0 148.4287,5.6137 169.4007,28.3802 20.9719,22.7664 45.2533,39.919 31.6833,77.863 -13.5702,37.9439 -98.6915,56.916 -117.1962,60.7103 -18.5047,3.7944 -71.5515,6.324 -88.8225,5.0593 -17.271,-1.2649 -149.075,-25.4606 -145.3741,-77.3175 z"
       id="path3357"
       inkscape:connector-curvature="0"
       inkscape:transform-center-x="-263.99311"
       inkscape:transform-center-y="-147.27939"
       sodipodi:nodetypes="ccsscccc" />
    <path
       style="fill:#ffffff;fill-rule:evenodd;stroke:none;stroke-width:0.99999988px;stroke-linecap:butt;stroke-linejoin:miter;stroke-opacity:1"
       d="m 1205.4327,2478.7083 c 6.0195,-23.8569 22.2294,-41.9579 39.8713,-54.0414 8.3957,-5.8338 17.9921,-10.1089 27.8121,-8.9844 9.7556,0.6719 19.2845,4.6835 29.1479,3.2901 11.9938,-0.4602 24.1982,-2.4681 36.0542,0.401 10.5395,3.1306 21.3984,4.752 32.2745,4.846 7.6728,-1.9871 14.6938,3.3092 21.5461,6.4769 6.1516,3.4218 12.4349,7.0119 17.6019,12.3048 4.7602,7.4302 10.4601,13.8943 15.276,21.2583 3.1512,4.0258 2.8484,9.5866 2.7032,14.7331 -0.4092,10.5387 -1.1023,21.2437 -3.6747,31.3969 -1.5394,6.4459 -7.2293,8.5792 -11.6013,11.5412 -10.345,6.2528 -21.3298,10.9944 -31.2027,18.3527 -9.7812,3.7677 -20.1759,2.0054 -30.207,1.436 -8.4054,-1.1215 -16.8607,-2.6855 -25.3383,-1.3813 -10.79,0.9544 -21.5471,3.4258 -32.3757,3.1093 -13.5652,-2.1722 -26.557,-7.5207 -39.7029,-11.8111 -11.7942,-3.7817 -22.5437,-10.8926 -32.858,-18.4995 -5.5096,-4.3197 -11.342,-9.3407 -13.2865,-17.3014 -1.594,-5.4816 -1.9695,-11.3511 -2.0401,-17.1272 z"
       id="path4365"
       inkscape:connector-curvature="0" />
    <path
       style="color:#000000;display:inline;overflow:visible;visibility:visible;fill:#ffffff;fill-opacity:1;fill-rule:nonzero;stroke:none;stroke-width:0.99999988px;marker:none;enable-background:accumulate"
       d="m 2429.703,2353.3128 c -220.1352,4.1803 -413.2002,-1.3741 -539.2741,-2.3163 1.0192,21.6477 -26.0808,16.4824 -51.7366,5.6964 20.4254,43.0966 -13.4471,46.4587 -64.7579,25.9384 51.7894,42.9882 -0.1666,36.7815 -63.8949,9.3451 61.4504,42.8306 109.2539,82.8355 -11.3243,56.8781 71.4494,28.3599 103.3644,42.0074 37.9144,56.3373 63.6894,16.5978 51.8703,37.2843 -11.7295,40.2414 114.0819,25.7081 33.6148,37.8878 -12.9668,46.3832 128.697,14.0417 43.7671,32.4453 -25.9405,67.2662 80.6205,-10.7004 157.8233,-23.8334 76.1624,22.3805 146.2793,-26.93 102.5458,-5.1134 21.562,39.6003 46.251,-13.4901 167.4874,-35.1308 131.8189,0.1579 59.0357,-22.3087 34.4732,8.11 30.1039,25.9817 7.7287,-5.8633 33.0062,-40.9496 41.2679,-17.1877 15.0605,-17.1501 27.7659,-13.8129 26.1596,10.4531 12.9899,-14.0996 43.5943,-29.0994 32.5402,0.5594 19.2424,-29.6764 23.966,-5.4243 14.7559,18.3169 48.107,-46.1351 55.0606,-48.411 59.4626,3.17 20.0793,-29.0429 44.13,-58.6863 83.378,-9.1132 0.051,-16.4797 6.8899,-44.4085 71.0099,6.2421 -25.8163,-52.1223 37.4288,-42.003 64.2122,8.0866 -32.6871,-63.8423 9.4928,-93.3422 62.5885,-26.5944 5.2205,-87.6378 30.1008,-314.4778 28.6882,-387.823 z"
       id="path4024"
       inkscape:connector-curvature="0"
       sodipodi:nodetypes="cccccccccccccccccccccccc" />
    <path
       style="fill:#ffffff;fill-rule:evenodd;stroke:none;stroke-width:0.99999994px;stroke-linecap:butt;stroke-linejoin:miter;stroke-opacity:1"
       d="m 2329.1217,2873.6433 -102.8737,31.1414 30.781,-65.8394 -54.3109,13.511 73.467,-174.0894 -83.4186,10.4305 -22.2012,199.1888 46.5569,-15.7553 -28.3923,68.2411 z"
       id="path5002"
       inkscape:connector-curvature="0"
       sodipodi:nodetypes="cccccccccc" />
    <text
       xml:space="preserve"
       style="font-style:normal;font-variant:normal;font-weight:normal;font-stretch:normal;line-height:0%;font-family:'小赖字体 SC';-inkscape-font-specification:'小赖字体 SC';letter-spacing:0px;word-spacing:0px;fill:#ffffff;fill-opacity:1;stroke:#000000;stroke-width:0.57625628;stroke-miterlimit:4;stroke-dasharray:none;stroke-opacity:1;filter:url(#filter4375-4-1-1-1-9)"
       x="787.65729"
       y="1584.5073"
       id="text4580"
       transform="matrix(0.47590856,-0.23101257,-0.08785973,0.61214035,2051.4196,1281.2253)"
       sodipodi:linespacing="0%"><tspan
         sodipodi:role="line"
         id="tspan4582"
         x="787.65729"
         y="1584.5073"
         style="font-style:normal;font-variant:normal;font-weight:normal;font-stretch:normal;font-size:70px;line-height:1.25;font-family:'小赖字体 SC';-inkscape-font-specification:'小赖字体 SC';letter-spacing:5.62810278px;fill:#ffffff;stroke-width:0.57625628;stroke-miterlimit:4;stroke-dasharray:none">嘭！<tspan
   style="font-style:normal;font-variant:normal;font-weight:normal;font-stretch:normal;font-size:80.40014648px;font-family:'小赖字体 SC';-inkscape-font-specification:'小赖字体 SC';letter-spacing:5.62810278px;fill:#ffffff;stroke-width:0.57625628;stroke-miterlimit:4;stroke-dasharray:none"
   id="tspan4617" /></tspan></text>
    <path
       style="fill:#ffffff;fill-rule:evenodd;stroke:none;stroke-width:1px;stroke-linecap:butt;stroke-linejoin:miter;stroke-opacity:1"
       d="m 592.99024,703.86232 c 60.96043,-17.2411 52.50455,23.69481 46.84464,62.28747 42.85297,-51.10021 62.6469,-34.98741 70.267,16.60999 38.11517,-72.93168 67.16942,-36.22679 97.29273,-12.45748 1.16002,-35.84265 19.00072,-54.21044 88.28416,-18.68625 -36.4897,-51.81107 -32.48714,-84.10888 45.04292,-80.9737 -70.12023,-18.72342 -69.18704,-49.35666 -25.22403,-87.20246 -51.43221,31.51902 -84.5081,36.24385 -73.87042,-22.83875 -51.69518,58.33217 -59.15793,22.00167 -68.46527,-10.38124 -21.49438,67.80726 -51.07901,47.9785 -82.87899,4.15248 0.85697,42.25813 -11.5645,67.02863 -68.46527,33.22 9.74473,30.69548 38.25234,73.0335 -28.82747,56.05873 35.93853,18.05019 48.80756,37.39719 0,60.21121 z"
       id="path907"
       inkscape:connector-curvature="0"
       sodipodi:nodetypes="ccccccccccccc" />
  </g>
  <g
     inkscape:groupmode="layer"
     id="layer1"
     inkscape:label="txt"
     style="display:inline">
    <path
       style="color:#000000;display:inline;overflow:visible;visibility:visible;fill:#ffffff;fill-opacity:1;fill-rule:nonzero;stroke:none;stroke-width:1px;marker:none;enable-background:accumulate"
       d="m 581.83722,3044.6997 c -16.45129,42.7371 -57.34368,52.6864 -79.08413,59.0603 -3.49561,-4.6209 -10.29733,-21.207 -10.29733,-21.207 0,0 -51.12826,31.5026 -68.86582,33.4378 -17.73755,1.9353 -19.57138,-14.8728 -19.57138,-14.8728 0,0 80.29422,-31.7712 95.58278,-42.4436 8.90084,13.0355 11.06276,18.6403 15.92522,23.5722 13.47897,-4.7946 53.36319,-19.1261 66.31066,-37.5469 z"
       id="path4456"
       inkscape:connector-curvature="0"
       sodipodi:nodetypes="cccscccc" />
    <text
       xml:space="preserve"
       style="font-style:normal;font-variant:normal;font-weight:normal;font-stretch:normal;line-height:0%;font-family:'小赖字体 SC';-inkscape-font-specification:'小赖字体 SC';text-align:center;letter-spacing:0px;word-spacing:0px;text-anchor:middle;fill:#000000;fill-opacity:1;stroke:none"
       x="741.34814"
       y="517.2735"
       id="text4246"
       sodipodi:linespacing="0%"><tspan
         sodipodi:role="line"
         style="font-style:normal;font-variant:normal;font-weight:normal;font-stretch:normal;font-size:45px;line-height:1.25;font-family:'小赖字体 SC';-inkscape-font-specification:'小赖字体 SC'"
         x="741.34814"
         y="517.2735"
         id="tspan3401">你想要一</tspan><tspan
         sodipodi:role="line"
         style="font-style:normal;font-variant:normal;font-weight:normal;font-stretch:normal;font-size:45px;line-height:1.25;font-family:'小赖字体 SC';-inkscape-font-specification:'小赖字体 SC'"
         x="741.34814"
         y="573.5235"
         id="tspan3405">棵团结树？</tspan></text>
    <text
       xml:space="preserve"
       style="font-style:normal;font-variant:normal;font-weight:normal;font-stretch:normal;line-height:0%;font-family:'小赖字体 SC';-inkscape-font-specification:'小赖字体 SC';text-align:center;letter-spacing:0px;word-spacing:0px;text-anchor:middle;fill:#000000;fill-opacity:1;stroke:none"
       x="1589.5806"
       y="1930.3943"
       id="text4246-7"
       sodipodi:linespacing="0%"><tspan
         sodipodi:role="line"
         style="font-style:normal;font-variant:normal;font-weight:normal;font-stretch:normal;font-size:45px;line-height:1.25;font-family:'小赖字体 SC';-inkscape-font-specification:'小赖字体 SC'"
         x="1589.5806"
         y="1930.3943"
         id="tspan4410">我们是混沌阿女巫，</tspan><tspan
         sodipodi:role="line"
         style="font-style:normal;font-variant:normal;font-weight:normal;font-stretch:normal;font-size:45px;line-height:1.25;font-family:'小赖字体 SC';-inkscape-font-specification:'小赖字体 SC'"
         x="1589.5806"
         y="1986.6443"
         id="tspan934">我们不做这种东西。</tspan></text>
    <text
       xml:space="preserve"
       style="font-style:normal;font-variant:normal;font-weight:normal;font-stretch:normal;line-height:0%;font-family:'小赖字体 SC';-inkscape-font-specification:'小赖字体 SC';text-align:center;letter-spacing:0px;word-spacing:0px;text-anchor:middle;fill:#000000;fill-opacity:1;stroke:none"
       x="257.39804"
       y="2917.25"
       id="text4246-7-6"
       sodipodi:linespacing="0%"><tspan
         sodipodi:role="line"
         style="font-style:normal;font-variant:normal;font-weight:normal;font-stretch:normal;font-size:45px;line-height:1.25;font-family:'小赖字体 SC';-inkscape-font-specification:'小赖字体 SC'"
         x="257.39804"
         y="2917.25"
         id="tspan1069">你最好还是</tspan><tspan
         sodipodi:role="line"
         style="font-style:normal;font-variant:normal;font-weight:normal;font-stretch:normal;font-size:45px;line-height:1.25;font-family:'小赖字体 SC';-inkscape-font-specification:'小赖字体 SC'"
         x="257.39804"
         y="2973.5"
         id="tspan3421">专心学习你的</tspan><tspan
         sodipodi:role="line"
         style="font-style:normal;font-variant:normal;font-weight:normal;font-stretch:normal;font-size:45px;line-height:1.25;font-family:'小赖字体 SC';-inkscape-font-specification:'小赖字体 SC'"
         x="257.39804"
         y="3029.75"
         id="tspan3423">“毁灭咒语”</tspan><tspan
         sodipodi:role="line"
         style="font-style:normal;font-variant:normal;font-weight:normal;font-stretch:normal;font-size:45px;line-height:1.25;font-family:'小赖字体 SC';-inkscape-font-specification:'小赖字体 SC'"
         x="257.39804"
         y="3086"
         id="tspan3425">吧！</tspan></text>
    <text
       xml:space="preserve"
       style="font-style:normal;font-variant:normal;font-weight:normal;font-stretch:normal;line-height:0%;font-family:'小赖字体 SC';-inkscape-font-specification:'小赖字体 SC';text-align:center;letter-spacing:0px;word-spacing:0px;text-anchor:middle;fill:#000000;fill-opacity:1;stroke:none"
       x="1323.0515"
       y="2489.2466"
       id="text4246-7-6-2"
       sodipodi:linespacing="0%"><tspan
         sodipodi:role="line"
         style="font-style:normal;font-variant:normal;font-weight:normal;font-stretch:normal;font-size:45px;line-height:1.25;font-family:'小赖字体 SC';-inkscape-font-specification:'小赖字体 SC'"
         x="1323.0515"
         y="2489.2466"
         id="tspan1069-6">毁灭？</tspan></text>
    <text
       xml:space="preserve"
       style="font-style:normal;font-variant:normal;font-weight:normal;font-stretch:normal;line-height:0%;font-family:'小赖字体 SC';-inkscape-font-specification:'小赖字体 SC';text-align:center;letter-spacing:0px;word-spacing:0px;text-anchor:middle;fill:#000000;fill-opacity:1;stroke:none"
       x="1315.3164"
       y="3080.103"
       id="text4246-7-6-2-0"
       sodipodi:linespacing="0%"><tspan
         sodipodi:role="line"
         style="font-style:normal;font-variant:normal;font-weight:normal;font-stretch:normal;font-size:45px;line-height:1.25;font-family:'小赖字体 SC';-inkscape-font-specification:'小赖字体 SC'"
         x="1315.3164"
         y="3080.103"
         id="tspan4434">在快要过节</tspan><tspan
         sodipodi:role="line"
         style="font-style:normal;font-variant:normal;font-weight:normal;font-stretch:normal;font-size:45px;line-height:1.25;font-family:'小赖字体 SC';-inkscape-font-specification:'小赖字体 SC'"
         x="1315.3164"
         y="3136.353"
         id="tspan3429">的时候？</tspan></text>
    <text
       xml:space="preserve"
       style="font-style:normal;font-variant:normal;font-weight:normal;font-stretch:normal;line-height:0%;font-family:'小赖字体 SC';-inkscape-font-specification:'小赖字体 SC';text-align:center;letter-spacing:0px;word-spacing:0px;text-anchor:middle;fill:#000000;fill-opacity:1;stroke:none"
       x="1277.3728"
       y="3260.9048"
       id="text4246-7-6-2-0-5"
       sodipodi:linespacing="0%"><tspan
         sodipodi:role="line"
         style="font-style:normal;font-variant:normal;font-weight:normal;font-stretch:normal;font-size:45px;line-height:1.25;font-family:'小赖字体 SC';-inkscape-font-specification:'小赖字体 SC'"
         x="1277.3728"
         y="3260.9048"
         id="tspan4447">为什么不学点儿</tspan><tspan
         sodipodi:role="line"
         style="font-style:normal;font-variant:normal;font-weight:normal;font-stretch:normal;font-size:45px;line-height:1.25;font-family:'小赖字体 SC';-inkscape-font-specification:'小赖字体 SC'"
         x="1277.3728"
         y="3317.1548"
         id="tspan3435">创造咒语呢？</tspan></text>
    <text
       xml:space="preserve"
       style="font-style:normal;font-variant:normal;font-weight:normal;font-stretch:normal;line-height:0%;font-family:'小赖字体 SC';-inkscape-font-specification:'小赖字体 SC';text-align:center;letter-spacing:0px;word-spacing:0px;text-anchor:middle;fill:#000000;fill-opacity:1;stroke:none;stroke-width:1.60000002;stroke-miterlimit:4;stroke-dasharray:none"
       x="2096.7573"
       y="2452.5276"
       id="text4246-7-6-2-04"
       sodipodi:linespacing="0%"><tspan
         sodipodi:role="line"
         style="font-style:normal;font-variant:normal;font-weight:normal;font-stretch:normal;font-size:45px;line-height:1.25;font-family:'小赖字体 SC';-inkscape-font-specification:'小赖字体 SC';stroke-width:1.60000002;stroke-miterlimit:4;stroke-dasharray:none"
         x="2096.7573"
         y="2452.5276"
         id="tspan4980">下次三月理事会马上就到了，</tspan><tspan
         sodipodi:role="line"
         style="font-style:normal;font-variant:normal;font-weight:normal;font-stretch:normal;font-size:45px;line-height:1.25;font-family:'小赖字体 SC';-inkscape-font-specification:'小赖字体 SC';stroke-width:1.60000002;stroke-miterlimit:4;stroke-dasharray:none"
         x="2096.7573"
         y="2508.7776"
         id="tspan3437">而你的考试也在同一时刻。</tspan><tspan
         sodipodi:role="line"
         style="font-style:normal;font-variant:normal;font-weight:normal;font-stretch:normal;font-size:45px;line-height:1.25;font-family:'小赖字体 SC';-inkscape-font-specification:'小赖字体 SC';stroke-width:1.60000002;stroke-miterlimit:4;stroke-dasharray:none"
         x="2096.7573"
         y="2565.0276"
         id="tspan3439">学习!学习!!学习!!!</tspan><tspan
         sodipodi:role="line"
         style="font-style:normal;font-variant:normal;font-weight:normal;font-stretch:normal;font-size:45px;line-height:1.25;font-family:'小赖字体 SC';-inkscape-font-specification:'小赖字体 SC';stroke-width:1.60000002;stroke-miterlimit:4;stroke-dasharray:none"
         x="2096.7573"
         y="2621.2776"
         id="tspan3441">别让这些乱七八糟的想法</tspan><tspan
         sodipodi:role="line"
         style="font-style:normal;font-variant:normal;font-weight:normal;font-stretch:normal;font-size:45px;line-height:1.25;font-family:'小赖字体 SC';-inkscape-font-specification:'小赖字体 SC';stroke:#000000;stroke-width:1.60000002;stroke-miterlimit:4;stroke-dasharray:none;stroke-opacity:1"
         x="2096.7573"
         y="2677.5276"
         id="tspan4456"><tspan
           id="tspan3451"
           style="font-style:normal;font-variant:normal;font-weight:normal;font-stretch:normal;font-size:45px;line-height:1.25;font-family:'小赖字体 SC';-inkscape-font-specification:'小赖字体 SC';stroke:none;stroke-width:1.60000002;stroke-miterlimit:4;stroke-dasharray:none"> 分了你的心!!</tspan></tspan></text>
    <flowRoot
       xml:space="preserve"
       id="flowRoot862"
       style="font-style:normal;font-variant:normal;font-weight:normal;font-stretch:normal;font-size:0.66666669px;line-height:318.00000668%;font-family:Neuropolitical;-inkscape-font-specification:Neuropolitical;text-align:center;letter-spacing:0px;word-spacing:0px;writing-mode:lr-tb;text-anchor:middle;fill:#000000;fill-opacity:1;stroke:none;stroke-width:1px;stroke-linecap:butt;stroke-linejoin:miter;stroke-opacity:1"><flowRegion
         id="flowRegion864"><rect
           id="rect866"
           width="103.5"
           height="5.75"
           x="1181.625"
           y="3275.875" /></flowRegion><flowPara
         id="flowPara868" /></flowRoot>    <text
       xml:space="preserve"
       style="font-style:normal;font-variant:normal;font-weight:normal;font-stretch:normal;font-size:14.71681118px;line-height:0%;font-family:'小赖字体 SC';-inkscape-font-specification:'小赖字体 SC';text-align:center;letter-spacing:0px;word-spacing:0px;text-anchor:middle;fill:#000000;fill-opacity:1;stroke:none;stroke-width:1"
       x="875.80847"
       y="682.29504"
       id="text4246-36"
       transform="matrix(1,0,-0.17625694,1,0,0)"
       sodipodi:linespacing="0%"><tspan
         sodipodi:role="line"
         style="font-style:normal;font-variant:normal;font-weight:normal;font-stretch:normal;font-size:55.18804169px;line-height:1.25;font-family:'小赖字体 SC';-inkscape-font-specification:'小赖字体 SC';stroke-width:1"
         x="875.80847"
         y="682.29504"
         id="tspan837-3">在这儿?!?</tspan></text>
    <text
       xml:space="preserve"
       style="font-style:normal;font-variant:normal;font-weight:normal;font-stretch:normal;font-size:19.04891968px;line-height:0%;font-family:'小赖字体 SC';-inkscape-font-specification:'小赖字体 SC';text-align:center;letter-spacing:0px;word-spacing:0px;text-anchor:middle;fill:#000000;fill-opacity:1;stroke:none;stroke-width:1.99999988;stroke-miterlimit:4;stroke-dasharray:none"
       x="1768.1459"
       y="1829.434"
       id="text4246-3"
       transform="matrix(1.0148714,0,-0.1559129,0.98534652,0,0)"
       sodipodi:linespacing="0%"><tspan
         sodipodi:role="line"
         style="font-style:normal;font-variant:normal;font-weight:normal;font-stretch:normal;font-size:71.43344879px;line-height:1.25;font-family:'小赖字体 SC';-inkscape-font-specification:'小赖字体 SC';stroke:#000000;stroke-width:1.99999988;stroke-miterlimit:4;stroke-dasharray:none;stroke-opacity:1"
         x="1768.1459"
         y="1829.434"
         id="tspan4252-6">不行！</tspan></text>
  </g>
</svg>
