<?xml version="1.0" encoding="UTF-8" standalone="no"?>
<!-- Created with Inkscape (http://www.inkscape.org/) -->

<svg
   xmlns:dc="http://purl.org/dc/elements/1.1/"
   xmlns:cc="http://creativecommons.org/ns#"
   xmlns:rdf="http://www.w3.org/1999/02/22-rdf-syntax-ns#"
   xmlns:svg="http://www.w3.org/2000/svg"
   xmlns="http://www.w3.org/2000/svg"
   xmlns:xlink="http://www.w3.org/1999/xlink"
   xmlns:sodipodi="http://sodipodi.sourceforge.net/DTD/sodipodi-0.dtd"
   xmlns:inkscape="http://www.inkscape.org/namespaces/inkscape"
   id="svg2"
   version="1.1"
   inkscape:version="0.92.2 2405546, 2018-03-11"
   width="2481"
   height="3503"
   sodipodi:docname="E26P02.svg">
  <metadata
     id="metadata8">
    <rdf:RDF>
      <cc:Work
         rdf:about="">
        <dc:format>image/svg+xml</dc:format>
        <dc:type
           rdf:resource="http://purl.org/dc/dcmitype/StillImage" />
        <dc:title />
      </cc:Work>
    </rdf:RDF>
  </metadata>
  <defs
     id="defs6">
    <filter
       style="color-interpolation-filters:sRGB"
       id="filter4375-4-1-1-15-1-3"
       inkscape:label="deevad outline effect">
      <feFlood
         id="feFlood4377-7-9-0-4-4-4"
         flood-opacity="1"
         flood-color="rgb(0,0,0)"
         result="flood" />
      <feComposite
         id="feComposite4379-3-8-8-6-0-7"
         in2="SourceGraphic"
         in="flood"
         operator="in"
         result="composite1" />
      <feMorphology
         id="feMorphology4393-1-0-49-8-2-7"
         operator="dilate"
         radius="0.69999999999999996"
         result="result3" />
      <feComposite
         id="feComposite4385-9-5-7-2-1-2"
         in2="result3"
         in="SourceGraphic"
         operator="over"
         result="composite2" />
    </filter>
    <filter
       style="color-interpolation-filters:sRGB"
       id="filter4375-4-1-1-15-1-3-0"
       inkscape:label="deevad outline effect">
      <feFlood
         id="feFlood4377-7-9-0-4-4-4-0"
         flood-opacity="1"
         flood-color="rgb(0,0,0)"
         result="flood" />
      <feComposite
         id="feComposite4379-3-8-8-6-0-7-3"
         in2="SourceGraphic"
         in="flood"
         operator="in"
         result="composite1" />
      <feMorphology
         id="feMorphology4393-1-0-49-8-2-7-4"
         operator="dilate"
         radius="0.90000000000000002"
         result="result3" />
      <feComposite
         id="feComposite4385-9-5-7-2-1-2-6"
         in2="result3"
         in="SourceGraphic"
         operator="over"
         result="composite2" />
    </filter>
  </defs>
  <sodipodi:namedview
     pagecolor="#ffffff"
     bordercolor="#666666"
     borderopacity="1"
     objecttolerance="10"
     gridtolerance="10"
     guidetolerance="10"
     inkscape:pageopacity="0"
     inkscape:pageshadow="2"
     inkscape:window-width="1920"
     inkscape:window-height="1033"
     id="namedview4"
     showgrid="false"
     inkscape:zoom="0.53165526"
     inkscape:cx="1403.8566"
     inkscape:cy="2966.8087"
     inkscape:window-x="0"
     inkscape:window-y="47"
     inkscape:window-maximized="0"
     inkscape:current-layer="layer3"
     inkscape:snap-global="false"
     borderlayer="true"
     inkscape:showpageshadow="false" />
  <g
     inkscape:groupmode="layer"
     id="layer2"
     inkscape:label="artwork"
     sodipodi:insensitive="true">
    <image
       sodipodi:absref="/home/midgard/git/peppercarrot/comics/ep26_Books-Are-Great/lang/ja/../gfx_Pepper-and-Carrot_by-David-Revoy_E26P02.png"
       xlink:href="../gfx_Pepper-and-Carrot_by-David-Revoy_E26P02.png"
       y="0"
       x="0"
       id="image10"
       height="3503"
       width="2481" />
  </g>
  <g
     inkscape:groupmode="layer"
     id="layer3"
     inkscape:label="speechbubbles">
    <path
       style="color:#000000;display:inline;overflow:visible;visibility:visible;fill:#ffffff;fill-opacity:1;fill-rule:nonzero;stroke:none;stroke-width:1.29816473px;marker:none;enable-background:accumulate"
       d="M 76.404345,661.00169 C 70.838277,637.97962 79.89746,533.58483 208.81204,524.31738 c 128.91468,-9.26747 167.08246,74.87042 170.69928,106.31448 3.61682,31.44388 -3.30624,66.53509 -32.28539,91.14313 -25.80578,22.1727 -53.99822,22.6164 -98.11554,29.5048 -50.89573,8.8109 -130.63681,-5.0701 -153.502823,-29.5142 C 72.741665,697.32155 84.94761,702.20924 76.404345,661.00169 Z"
       id="path3365-3"
       inkscape:connector-curvature="0"
       sodipodi:nodetypes="cssccsc" />
    <path
       style="color:#000000;display:inline;overflow:visible;visibility:visible;fill:#ffffff;fill-opacity:1;fill-rule:nonzero;stroke:none;stroke-width:1.63566649px;marker:none;enable-background:accumulate"
       d="M 181.80721,311.01848 C 194.59145,543.14637 235.94745,787.00744 378.6466,837.81258 276.65833,787.36708 219.49009,550.6603 218.48358,327.373 218.27015,280.02456 199.72673,307.82462 199.72673,307.82462 Z"
       id="path4440"
       inkscape:connector-curvature="0"
       sodipodi:nodetypes="ccscc" />
    <path
       style="fill:#ffffff;stroke:none;stroke-width:1.64498878"
       d="m 1120.891,87.95933 c 34.5123,-1.532213 201.2968,-8.793206 198.7027,138.97913 -3.2503,185.16307 -4.8879,269.77651 -183.4904,266.93189 C 944.2743,490.81507 982.88297,379.13978 981.38091,239.20332 980.05115,115.31647 1028.2815,92.437716 1120.891,87.95933 Z"
       id="path3280-8"
       inkscape:connector-curvature="0"
       sodipodi:nodetypes="csssc" />
    <path
       style="color:#000000;display:inline;overflow:visible;visibility:visible;fill:#ffffff;fill-opacity:1;fill-rule:nonzero;stroke:none;stroke-width:1.45930743px;marker:none;enable-background:accumulate"
       d="m 1227.6344,736.73286 c -52.2412,-10.38957 -90.1219,-52.2826 -82.2673,-117.43179 7.8551,-73.36812 7.6985,-80.57712 7.6985,-80.57712 l -55.1615,2.38205 c 0,0 3.3492,196.86393 129.7303,195.62686 z"
       id="path3072"
       inkscape:connector-curvature="0"
       inkscape:transform-center-x="-3.4248275"
       inkscape:transform-center-y="27.464172"
       sodipodi:nodetypes="ccccc" />
    <path
       style="fill:#ffffff;fill-rule:evenodd;stroke:none;stroke-width:1.16250026px;stroke-linecap:butt;stroke-linejoin:miter;stroke-opacity:1"
       d="m 981.72066,505.04897 c 29.14284,3.4952 58.14534,-1.8493 34.58444,-54.4718 22.8659,18.642 60.4906,38.2355 87.1567,-6.633 7.6374,56.8613 56.4713,24.3712 80.6153,-0.5503 -36.0124,59.1974 21.5951,43.42073 36.6538,11.85058 -10.8684,34.40947 7.3142,71.35023 35.0906,72.89203 -46.5322,31.15642 -35.4658,64.74649 -12.3129,87.10789 -57.7455,-16.5442 -62.0672,4.67491 -50.6768,35.9333 -23.917,-24.15186 -46.8737,-35.6778 -48.0514,-25.15339 -1.3169,11.76771 -16.5497,13.76509 -18.9481,32.34009 -14.8853,-21.7218 -19.5576,-66.617 -74.4313,2.3955 20.1784,-59.5777 -6.271,-53.3242 -49.0929,-23.9554 6.7111,-20.293 46.5984,-51.1514 -20.58744,-47.9112 41.96554,-19.2915 50.76594,-45.4244 0,-83.8443 z"
       id="path4584"
       inkscape:connector-curvature="0"
       sodipodi:nodetypes="ccccccccsccccc" />
    <path
       style="fill:#ffffff;fill-opacity:1;stroke:none;stroke-width:1.88949561"
       d="m 2041.6463,209.61523 c -4.2858,-59.44873 24.1406,-89.02168 50.0229,-103.03065 32.8021,-17.754389 299.7693,-37.542152 328.324,12.22036 26.2978,45.82971 14.6456,130.0876 -63.8799,171.70895 -78.5255,41.6212 -209.5791,18.82333 -231.8875,11.25595 -22.3084,-7.56755 -78.118,-27.83095 -82.5795,-92.15461 z"
       id="path3659-8"
       inkscape:connector-curvature="0"
       sodipodi:nodetypes="cssssc" />
    <path
       style="fill:#ffffff;stroke:none;stroke-width:1.33041334"
       d="m 2154.0154,352.9469 c -1.3875,-41.87209 40.0432,-51.27448 82.0873,-57.16805 42.044,-5.89345 172.7116,0.63901 163.1128,51.8773 -9.5984,51.23841 -72.8206,58.33952 -125.0562,56.07445 -52.236,-2.2652 -112.5644,-11.10871 -120.1439,-50.7837 z"
       id="path3938"
       inkscape:connector-curvature="0"
       sodipodi:nodetypes="csssc" />
    <path
       style="color:#000000;display:inline;overflow:visible;visibility:visible;fill:#ffffff;fill-opacity:1;fill-rule:nonzero;stroke:none;stroke-width:1px;marker:none;enable-background:accumulate"
       d="m 2155.8807,413.81052 c 41.2209,-1.94348 55.6641,-5.00539 71.331,-50.72285 15.6671,-45.71761 32.4158,-38.48457 32.4158,-38.48457 l 7.7097,32.88324 c 0,0 -40.1576,94.75832 -111.4565,56.32418 z"
       id="path3072-5"
       inkscape:connector-curvature="0" />
    <path
       style="color:#000000;display:inline;overflow:visible;visibility:visible;fill:#ffffff;fill-opacity:1;fill-rule:nonzero;stroke:none;stroke-width:1.19104683px;marker:none;enable-background:accumulate"
       d="m 1975.4198,944.32223 c 2.9402,-48.57029 28.546,-95.55366 194.812,-83.62349 102.0689,7.3238 184.5625,-10.43017 219.8466,11.21337 82.4768,50.59192 14.3275,164.67639 13.328,188.40829 -1.4268,33.8844 -31.4588,57.513 -57.1431,65.9841 -25.6843,8.4712 -143.2888,7.5215 -186.0961,0.7448 -116.3104,-16.371 -188.2777,-81.9167 -184.7474,-182.72707 z"
       id="path3365-5"
       inkscape:connector-curvature="0"
       sodipodi:nodetypes="csscccc" />
    <path
       style="fill:#ffffff;stroke:none;stroke-width:1"
       d="m 2284.5996,1034.0528 c -28.3487,40.1842 -21.9808,80.5701 -11.3851,96.8521 10.5958,16.2818 -14.1224,62.2852 -32.5966,66.3613 42.1318,-2.545 63.2033,-58.0225 57.8284,-106.2564 -1.5781,-14.1607 13.8192,-31.6694 32.5349,-30.4271 17.298,1.1482 33.3984,-19.3288 33.3984,-19.3288 z"
       id="path3276"
       inkscape:connector-curvature="0"
       sodipodi:nodetypes="cscsscc" />
    <path
       style="fill:#ffffff;stroke:none;stroke-width:1.08154464"
       d="m 61.728978,2233.8541 c -1.100037,-117.0147 18.643658,-178.5016 250.288192,-174.5571 324.23889,5.5212 350.61407,57.3309 350.61407,217.1782 0,188.011 -191.3284,155.929 -347.77087,157.3727 -269.967511,2.4914 -245.484579,-80.1685 -253.131392,-199.9938 z"
       id="path3280-8-0"
       inkscape:connector-curvature="0"
       sodipodi:nodetypes="csssc" />
    <path
       style="fill:#ffffff;stroke:none;stroke-width:1"
       d="m 716.96742,2541.2745 c 2.93496,93.8326 -9.83424,129.2078 -191.61842,140.434 -251.58908,15.5373 -274.342,-63.4001 -276.63071,-173.5175 -2.46933,-118.8091 117.87831,-108.3437 234.89701,-121.9031 208.41603,-24.1504 225.27396,58.9122 233.35212,154.9866 z"
       id="path3280-8-0-3"
       inkscape:connector-curvature="0"
       sodipodi:nodetypes="csssc" />
    <path
       style="color:#000000;display:inline;overflow:visible;visibility:visible;fill:#ffffff;fill-opacity:1;fill-rule:nonzero;stroke:none;stroke-width:0.99999994px;marker:none;enable-background:accumulate"
       d="m 1744.2918,2906.071 c -14.6505,-37.332 -18.7215,-134.1036 109.4872,-121.3537 99.6822,7.7943 129.3427,33.8298 132.7664,78.3557 3.4237,44.5261 10.9524,86.7873 -68.871,93.2417 -73.083,3.3184 -149.0698,0.977 -173.3826,-50.2437 z"
       id="path3525"
       inkscape:connector-curvature="0"
       sodipodi:nodetypes="cczcc" />
    <path
       style="color:#000000;display:inline;overflow:visible;visibility:visible;fill:#ffffff;fill-opacity:1;fill-rule:nonzero;stroke:none;stroke-width:0.932679px;marker:none;enable-background:accumulate"
       d="m 788.59271,2654.0243 c -38.61235,13.1991 -53.23313,15.8331 -88.53084,-16.7571 -35.29767,-32.5903 -47.30824,-20.5196 -47.30824,-20.5196 l 8.02128,30.2663 c 0,0 80.19331,64.7861 127.8178,7.0104 z"
       id="path3072-6"
       inkscape:connector-curvature="0" />
    <path
       style="color:#000000;display:inline;overflow:visible;visibility:visible;fill:#ffffff;fill-opacity:1;fill-rule:nonzero;stroke:none;stroke-width:1px;marker:none;enable-background:accumulate"
       d="m 1885.9302,2880.543 c -8.5379,-41.2674 -44.7927,-105.1616 -72.2125,-139.41 -35.1182,-43.864 -72.8214,-53.3837 -92.0424,-60.2184 -19.2212,-6.8347 -32.1844,10.3588 -49.896,10.3433 -15.217,-0.013 -25.6847,-6.7896 -32.7226,-18.2648 9.7927,27.8644 34.0049,32.1826 44.6949,29.5469 10.6902,-2.6357 26.8117,-12.6559 45.0036,-2.5829 24.2118,13.4064 47.6718,29.1496 76.3935,72.336 25.957,39.0295 44.3792,76.7753 41.8276,91.0824 -2.5517,14.3073 38.9539,17.1675 38.9539,17.1675 z"
       id="path4562"
       inkscape:connector-curvature="0"
       sodipodi:nodetypes="cssscssssc" />
  </g>
  <g
     inkscape:groupmode="layer"
     id="layer1"
     inkscape:label="txt">
    <path
       style="color:#000000;display:inline;overflow:visible;visibility:visible;fill:#ffffff;fill-opacity:1;fill-rule:nonzero;stroke:none;stroke-width:1.41941655px;marker:none;enable-background:accumulate"
       d="m 41.312985,210.90916 c -2.544907,-22.29049 22.116603,-88.46018 178.113045,-89.31804 204.8168,-1.12633 192.86353,111.20157 181.42367,144.20085 -9.77685,28.20228 -31.36239,43.83686 -64.44991,64.98562 -33.0875,21.14875 -126.92401,23.70185 -165.09808,17.75793 C 133.1279,342.59129 85.849281,341.41918 54.788189,302.83445 32.727591,275.43032 43.857903,216.85323 41.312985,210.90916 Z"
       id="path3365"
       inkscape:connector-curvature="0"
       sodipodi:nodetypes="csszcsc" />
    <text
       xml:space="preserve"
       style="font-style:normal;font-variant:normal;font-weight:normal;font-stretch:normal;line-height:0%;font-family:'Rounded M+ 1c';-inkscape-font-specification:'Rounded M+ 1c, Medium';text-align:center;letter-spacing:0px;word-spacing:0px;text-anchor:middle;fill:#000000;fill-opacity:1;stroke:none"
       x="232.33496"
       y="197.07907"
       id="text4246"><tspan
         sodipodi:role="line"
         style="font-size:45px;line-height:1.25"
         x="232.33496"
         y="197.07907"
         id="tspan835">...それから</tspan><tspan
         sodipodi:role="line"
         style="font-size:45px;line-height:1.25"
         x="232.33496"
         y="253.32907"
         id="tspan105">目を帽子で</tspan><tspan
         sodipodi:role="line"
         style="font-size:45px;line-height:1.25"
         x="232.33496"
         y="309.57907"
         id="tspan107">覆えば...</tspan></text>
    <text
       xml:space="preserve"
       style="font-style:normal;font-variant:normal;font-weight:normal;font-stretch:normal;line-height:0%;font-family:'Rounded M+ 1c';-inkscape-font-specification:'Rounded M+ 1c, Medium';text-align:center;letter-spacing:0px;word-spacing:0px;text-anchor:middle;fill:#000000;fill-opacity:1;stroke:none"
       x="225.03851"
       y="601.06323"
       id="text4246-3"><tspan
         sodipodi:role="line"
         style="font-size:45px;line-height:1.25"
         x="225.03851"
         y="601.06323"
         id="tspan901">...ドアは</tspan><tspan
         sodipodi:role="line"
         style="font-size:45px;line-height:1.25"
         x="225.03851"
         y="657.31323"
         id="tspan111">自動で</tspan><tspan
         sodipodi:role="line"
         style="font-size:45px;line-height:1.25"
         x="225.03851"
         y="713.56323"
         id="tspan120">空くはず!</tspan></text>
    <text
       xml:space="preserve"
       style="font-style:normal;font-variant:normal;font-weight:normal;font-stretch:normal;font-size:12.41686249px;line-height:0%;font-family:'Rounded M+ 1c';-inkscape-font-specification:'Rounded M+ 1c';text-align:center;letter-spacing:0px;word-spacing:0px;text-anchor:middle;fill:#000000;fill-opacity:1;stroke:none;stroke-width:1.03473854"
       x="1109.6244"
       y="169.5985"
       id="text4246-5"
       transform="scale(1.0347385,0.96642774)"><tspan
         sodipodi:role="line"
         style="font-style:normal;font-variant:normal;font-weight:normal;font-stretch:normal;font-size:45px;line-height:1.25;font-family:'Rounded M+ 1c';-inkscape-font-specification:'Rounded M+ 1c';font-variant-ligatures:normal;font-variant-caps:normal;font-variant-numeric:normal;font-feature-settings:normal;text-align:center;writing-mode:lr-tb;text-anchor:middle;stroke-width:1.03473854"
         x="1109.6244"
         y="169.5985"
         id="tspan98">それに</tspan><tspan
         sodipodi:role="line"
         style="font-style:normal;font-variant:normal;font-weight:normal;font-stretch:normal;font-size:45px;line-height:1.25;font-family:'Rounded M+ 1c';-inkscape-font-specification:'Rounded M+ 1c';font-variant-ligatures:normal;font-variant-caps:normal;font-variant-numeric:normal;font-feature-settings:normal;text-align:center;writing-mode:lr-tb;text-anchor:middle;stroke-width:1.03473854"
         x="1109.6244"
         y="225.84851"
         id="tspan122">帽子を</tspan><tspan
         sodipodi:role="line"
         style="font-style:normal;font-variant:normal;font-weight:normal;font-stretch:normal;font-size:45px;line-height:1.25;font-family:'Rounded M+ 1c';-inkscape-font-specification:'Rounded M+ 1c';font-variant-ligatures:normal;font-variant-caps:normal;font-variant-numeric:normal;font-feature-settings:normal;text-align:center;writing-mode:lr-tb;text-anchor:middle;stroke-width:1.03473854"
         x="1109.6244"
         y="282.09851"
         id="tspan124">残しておけば</tspan><tspan
         sodipodi:role="line"
         style="font-style:normal;font-variant:normal;font-weight:normal;font-stretch:normal;font-size:45px;line-height:1.25;font-family:'Rounded M+ 1c';-inkscape-font-specification:'Rounded M+ 1c';font-variant-ligatures:normal;font-variant-caps:normal;font-variant-numeric:normal;font-feature-settings:normal;text-align:center;writing-mode:lr-tb;text-anchor:middle;stroke-width:1.03473854"
         x="1109.6244"
         y="338.34851"
         id="tspan126">脱出も</tspan><tspan
         sodipodi:role="line"
         style="font-style:normal;font-variant:normal;font-weight:normal;font-stretch:normal;font-size:45px;line-height:1.25;font-family:'Rounded M+ 1c';-inkscape-font-specification:'Rounded M+ 1c';font-variant-ligatures:normal;font-variant-caps:normal;font-variant-numeric:normal;font-feature-settings:normal;text-align:center;writing-mode:lr-tb;text-anchor:middle;stroke-width:1.03473854"
         x="1109.6244"
         y="394.59851"
         id="tspan155">簡単だって</tspan><tspan
         sodipodi:role="line"
         style="font-style:normal;font-variant:normal;font-weight:normal;font-stretch:normal;font-size:45px;line-height:1.25;font-family:'Rounded M+ 1c';-inkscape-font-specification:'Rounded M+ 1c';font-variant-ligatures:normal;font-variant-caps:normal;font-variant-numeric:normal;font-feature-settings:normal;text-align:center;writing-mode:lr-tb;text-anchor:middle;stroke-width:1.03473854"
         x="1109.6244"
         y="450.84851"
         id="tspan157">書いてある!</tspan></text>
    <text
       xml:space="preserve"
       style="font-style:normal;font-variant:normal;font-weight:normal;font-stretch:normal;line-height:0%;font-family:'Rounded M+ 1c';-inkscape-font-specification:'Rounded M+ 1c, Medium';text-align:center;letter-spacing:0px;word-spacing:0px;text-anchor:middle;fill:#000000;fill-opacity:1;stroke:none"
       x="1118.3407"
       y="534.59955"
       id="text4246-1"><tspan
         sodipodi:role="line"
         style="font-style:normal;font-variant:normal;font-weight:bold;font-stretch:normal;font-size:45px;line-height:1.25;font-family:'Rounded M+ 1c';-inkscape-font-specification:'Rounded M+ 1c Bold'"
         x="1118.3407"
         y="534.59955"
         id="tspan1013">本って</tspan><tspan
         sodipodi:role="line"
         style="font-style:normal;font-variant:normal;font-weight:bold;font-stretch:normal;font-size:45px;line-height:1.25;font-family:'Rounded M+ 1c';-inkscape-font-specification:'Rounded M+ 1c Bold'"
         x="1118.3407"
         y="590.84955"
         id="tspan159">すごい!</tspan></text>
    <text
       xml:space="preserve"
       style="font-style:italic;font-variant:normal;font-weight:normal;font-stretch:normal;line-height:0%;font-family:'Rounded M+ 1c';-inkscape-font-specification:'Rounded M+ 1c Italic';text-align:center;letter-spacing:0px;word-spacing:0px;text-anchor:middle;fill:#000000;fill-opacity:1;stroke:none"
       x="2345.927"
       y="160.71069"
       id="text4246-5-5"><tspan
         sodipodi:role="line"
         style="font-style:italic;font-variant:normal;font-weight:normal;font-stretch:normal;font-size:45px;line-height:1.25;font-family:'Rounded M+ 1c';-inkscape-font-specification:'Rounded M+ 1c Italic';text-align:end;text-anchor:end"
         x="2345.927"
         y="160.71069"
         id="tspan906">「最初の</tspan><tspan
         sodipodi:role="line"
         style="font-style:italic;font-variant:normal;font-weight:normal;font-stretch:normal;font-size:45px;line-height:1.25;font-family:'Rounded M+ 1c';-inkscape-font-specification:'Rounded M+ 1c Italic';text-align:end;text-anchor:end"
         x="2345.927"
         y="216.96069"
         id="tspan165">バルコニーを</tspan><tspan
         sodipodi:role="line"
         style="font-style:italic;font-variant:normal;font-weight:normal;font-stretch:normal;font-size:45px;line-height:1.25;font-family:'Rounded M+ 1c';-inkscape-font-specification:'Rounded M+ 1c Italic';text-align:end;text-anchor:end"
         x="2345.927"
         y="273.21069"
         id="tspan926">飛び越す」</tspan></text>
    <text
       xml:space="preserve"
       style="font-style:normal;font-variant:normal;font-weight:bold;font-stretch:normal;line-height:0%;font-family:'Rounded M+ 1c';-inkscape-font-specification:'Rounded M+ 1c Bold';text-align:center;letter-spacing:0px;word-spacing:0px;text-anchor:middle;fill:#000000;fill-opacity:1;stroke:none"
       x="2275.5383"
       y="365.76685"
       id="text4246-1-3"><tspan
         sodipodi:role="line"
         style="font-style:normal;font-variant:normal;font-weight:bold;font-stretch:normal;font-size:45px;line-height:1.25;font-family:'Rounded M+ 1c';-inkscape-font-specification:'Rounded M+ 1c Bold'"
         x="2275.5383"
         y="365.76685"
         id="tspan1013-7">オッケー!</tspan></text>
    <text
       xml:space="preserve"
       style="color:#000000;font-style:normal;font-variant:normal;font-weight:bold;font-stretch:normal;font-size:12.00003719px;line-height:0.01%;font-family:'Rounded M+ 1c';-inkscape-font-specification:'Rounded M+ 1c Bold';font-variant-ligatures:normal;font-variant-caps:normal;font-variant-numeric:normal;font-feature-settings:normal;text-align:start;letter-spacing:0.00204969px;word-spacing:0px;writing-mode:lr-tb;text-anchor:start;display:inline;overflow:visible;visibility:visible;fill:#ffffff;fill-opacity:1;fill-rule:nonzero;stroke:#ffffff;stroke-width:0.0836072;stroke-linecap:butt;stroke-linejoin:miter;stroke-miterlimit:4;stroke-dasharray:none;stroke-dashoffset:0;stroke-opacity:1;marker:none;filter:url(#filter4375-4-1-1-15-1-3);enable-background:accumulate"
       x="1125.3203"
       y="1091.2349"
       id="text1702"
       transform="matrix(5.7002708,-3.8236609,4.4936667,6.6234627,-10757.229,-1056.1997)"><tspan
         sodipodi:role="line"
         id="tspan1032"
         x="1125.3203"
         y="1091.2349"
         style="font-style:normal;font-variant:normal;font-weight:bold;font-stretch:normal;font-family:'Rounded M+ 1c';-inkscape-font-specification:'Rounded M+ 1c Bold'">ボヨン</tspan></text>
    <text
       xml:space="preserve"
       style="color:#000000;font-style:normal;font-variant:normal;font-weight:bold;font-stretch:normal;font-size:12.00003719px;line-height:0.01%;font-family:'Rounded M+ 1c';-inkscape-font-specification:'Rounded M+ 1c Bold';font-variant-ligatures:normal;font-variant-caps:normal;font-variant-numeric:normal;font-feature-settings:normal;text-align:start;letter-spacing:0.00204969px;word-spacing:0px;writing-mode:lr-tb;text-anchor:start;display:inline;overflow:visible;visibility:visible;fill:#ffffff;fill-opacity:1;fill-rule:nonzero;stroke:#ffffff;stroke-width:0.12600572;stroke-linecap:butt;stroke-linejoin:miter;stroke-miterlimit:4;stroke-dasharray:none;stroke-dashoffset:0;stroke-opacity:1;marker:none;filter:url(#filter4375-4-1-1-15-1-3-0);enable-background:accumulate"
       x="1125.3203"
       y="1091.2349"
       id="text1702-6"
       transform="matrix(3.1869294,3.2574207,-3.7023322,3.8125721,2175.23,-6084.2675)"><tspan
         sodipodi:role="line"
         id="tspan1032-0"
         x="1125.3203"
         y="1091.2349"
         style="font-style:normal;font-variant:normal;font-weight:bold;font-stretch:normal;font-family:'Rounded M+ 1c';-inkscape-font-specification:'Rounded M+ 1c Bold';stroke-width:0.12600572;stroke-miterlimit:4;stroke-dasharray:none">ボヨン</tspan></text>
    <text
       xml:space="preserve"
       style="font-style:italic;font-variant:normal;font-weight:normal;font-stretch:normal;line-height:0%;font-family:'Rounded M+ 1c';-inkscape-font-specification:'Rounded M+ 1c Italic';text-align:center;letter-spacing:0px;word-spacing:0px;text-anchor:middle;fill:#000000;fill-opacity:1;stroke:none"
       x="2347.1755"
       y="936.49329"
       id="text4246-5-5-2"><tspan
         sodipodi:role="line"
         style="font-style:italic;font-variant:normal;font-weight:normal;font-stretch:normal;font-size:45px;line-height:1.25;font-family:'Rounded M+ 1c';-inkscape-font-specification:'Rounded M+ 1c Italic';text-align:end;text-anchor:end"
         x="2347.1755"
         y="936.49329"
         id="tspan1100">「落下する感覚が</tspan><tspan
         sodipodi:role="line"
         style="font-style:italic;font-variant:normal;font-weight:normal;font-stretch:normal;font-size:45px;line-height:1.25;font-family:'Rounded M+ 1c';-inkscape-font-specification:'Rounded M+ 1c Italic';text-align:end;text-anchor:end"
         x="2347.1755"
         y="992.74329"
         id="tspan175">するとしても</tspan><tspan
         sodipodi:role="line"
         style="font-style:italic;font-variant:normal;font-weight:normal;font-stretch:normal;font-size:45px;line-height:1.25;font-family:'Rounded M+ 1c';-inkscape-font-specification:'Rounded M+ 1c Italic';text-align:end;text-anchor:end"
         x="2347.1755"
         y="1048.9933"
         id="tspan177">問題はない</tspan><tspan
         sodipodi:role="line"
         style="font-style:italic;font-variant:normal;font-weight:normal;font-stretch:normal;font-size:45px;line-height:1.25;font-family:'Rounded M+ 1c';-inkscape-font-specification:'Rounded M+ 1c Italic';text-align:end;text-anchor:end"
         x="2347.1755"
         y="1105.2433"
         id="tspan544">近道だ」</tspan></text>
    <text
       xml:space="preserve"
       style="font-style:italic;font-variant:normal;font-weight:normal;font-stretch:normal;line-height:0%;font-family:'Rounded M+ 1c';-inkscape-font-specification:'Rounded M+ 1c Italic';text-align:center;letter-spacing:0px;word-spacing:0px;text-anchor:middle;fill:#000000;fill-opacity:1;stroke:none"
       x="372.71564"
       y="2149.1831"
       id="text4246-5-5-2-0"><tspan
         sodipodi:role="line"
         style="font-style:italic;font-variant:normal;font-weight:normal;font-stretch:normal;font-size:45px;line-height:1.25;font-family:'Rounded M+ 1c';-inkscape-font-specification:'Rounded M+ 1c Italic';text-align:center;text-anchor:middle"
         x="372.71564"
         y="2149.1831"
         id="tspan207">「光る蜘蛛の巣の</tspan><tspan
         sodipodi:role="line"
         style="font-style:italic;font-variant:normal;font-weight:normal;font-stretch:normal;font-size:45px;line-height:1.25;font-family:'Rounded M+ 1c';-inkscape-font-specification:'Rounded M+ 1c Italic';text-align:center;text-anchor:middle"
         x="372.71564"
         y="2205.4331"
         id="tspan211">柔らかさを楽しもう</tspan><tspan
         sodipodi:role="line"
         style="font-style:italic;font-variant:normal;font-weight:normal;font-stretch:normal;font-size:45px;line-height:1.25;font-family:'Rounded M+ 1c';-inkscape-font-specification:'Rounded M+ 1c Italic';text-align:center;text-anchor:middle"
         x="372.71564"
         y="2261.6831"
         id="tspan213">この蜘蛛たちは反射した</tspan><tspan
         sodipodi:role="line"
         style="font-style:italic;font-variant:normal;font-weight:normal;font-stretch:normal;font-size:45px;line-height:1.25;font-family:'Rounded M+ 1c';-inkscape-font-specification:'Rounded M+ 1c Italic';text-align:center;text-anchor:middle"
         x="372.71564"
         y="2317.9331"
         id="tspan215">光を使って</tspan><tspan
         sodipodi:role="line"
         style="font-style:italic;font-variant:normal;font-weight:normal;font-stretch:normal;font-size:45px;line-height:1.25;font-family:'Rounded M+ 1c';-inkscape-font-specification:'Rounded M+ 1c Italic';text-align:center;text-anchor:middle"
         x="372.71564"
         y="2374.1831"
         id="tspan564">光合成して生きている」</tspan></text>
    <flowRoot
       xml:space="preserve"
       id="flowRoot1141"
       style="fill:black;stroke:none;stroke-opacity:1;stroke-width:1px;stroke-linejoin:miter;stroke-linecap:butt;fill-opacity:1;font-family:Lavi;font-style:normal;font-weight:normal;font-size:0.66666667px;line-height:0%;letter-spacing:0px;word-spacing:0px;-inkscape-font-specification:Lavi;font-stretch:normal;font-variant:normal;text-anchor:middle;text-align:center;writing-mode:lr"><flowRegion
         id="flowRegion1143"><rect
           id="rect1145"
           width="37.375"
           height="11.5"
           x="1802.6249"
           y="2272.5" /></flowRegion><flowPara
         id="flowPara1147" /></flowRoot>    <text
       xml:space="preserve"
       style="font-style:italic;font-variant:normal;font-weight:normal;font-stretch:normal;line-height:0%;font-family:'Rounded M+ 1c';-inkscape-font-specification:'Rounded M+ 1c Italic';text-align:center;letter-spacing:0px;word-spacing:0px;text-anchor:middle;fill:#000000;fill-opacity:1;stroke:none"
       x="486.42404"
       y="2464.623"
       id="text4246-5-5-2-0-7"><tspan
         sodipodi:role="line"
         style="font-style:italic;font-variant:normal;font-weight:normal;font-stretch:normal;font-size:45px;line-height:1.25;font-family:'Rounded M+ 1c';-inkscape-font-specification:'Rounded M+ 1c Italic';text-align:center;text-anchor:middle"
         x="486.42404"
         y="2464.623"
         id="tspan93">「ここで</tspan><tspan
         sodipodi:role="line"
         style="font-style:italic;font-variant:normal;font-weight:normal;font-stretch:normal;font-size:45px;line-height:1.25;font-family:'Rounded M+ 1c';-inkscape-font-specification:'Rounded M+ 1c Italic';text-align:center;text-anchor:middle"
         x="486.42404"
         y="2520.873"
         id="tspan237">一休みして</tspan><tspan
         sodipodi:role="line"
         style="font-style:italic;font-variant:normal;font-weight:normal;font-stretch:normal;font-size:45px;line-height:1.25;font-family:'Rounded M+ 1c';-inkscape-font-specification:'Rounded M+ 1c Italic';text-align:center;text-anchor:middle"
         x="486.42404"
         y="2577.123"
         id="tspan227">体力回復することを</tspan><tspan
         sodipodi:role="line"
         style="font-style:italic;font-variant:normal;font-weight:normal;font-stretch:normal;font-size:45px;line-height:1.25;font-family:'Rounded M+ 1c';-inkscape-font-specification:'Rounded M+ 1c Italic';text-align:center;text-anchor:middle"
         x="486.42404"
         y="2633.373"
         id="tspan1226">おすすめする」</tspan></text>
    <text
       xml:space="preserve"
       style="font-style:normal;font-variant:normal;font-weight:bold;font-stretch:normal;font-size:14.09488487px;line-height:0%;font-family:'Rounded M+ 1c';-inkscape-font-specification:'Rounded M+ 1c Bold';text-align:center;letter-spacing:0px;word-spacing:0px;text-anchor:middle;fill:#000000;fill-opacity:1;stroke:none;stroke-width:1"
       x="1845.4795"
       y="2885.7871"
       id="text4246-1-8"
       transform="scale(1.0104523,0.98965582)"><tspan
         sodipodi:role="line"
         style="font-style:normal;font-variant:normal;font-weight:bold;font-stretch:normal;font-size:52.8558197px;line-height:1.25;font-family:'Rounded M+ 1c';-inkscape-font-specification:'Rounded M+ 1c Bold';stroke-width:1"
         x="1845.4795"
         y="2885.7871"
         id="tspan195">本は</tspan><tspan
         sodipodi:role="line"
         style="font-style:normal;font-variant:normal;font-weight:bold;font-stretch:normal;font-size:52.8558197px;line-height:1.25;font-family:'Rounded M+ 1c';-inkscape-font-specification:'Rounded M+ 1c Bold';stroke-width:1"
         x="1845.4795"
         y="2951.8569"
         id="tspan199">大好き!</tspan></text>
    <text
       xml:space="preserve"
       style="color:#000000;font-style:normal;font-variant:normal;font-weight:normal;font-stretch:normal;font-size:11.10639572px;line-height:0.01%;font-family:Arial;-inkscape-font-specification:Arial;letter-spacing:0.89570737px;word-spacing:0px;display:inline;overflow:visible;visibility:visible;fill:#e69d76;fill-opacity:1;fill-rule:nonzero;stroke:#e99f77;stroke-width:4.05566978;stroke-opacity:1;marker:none;enable-background:accumulate"
       x="610.2511"
       y="601.31281"
       id="text1711"
       transform="matrix(0.78576578,-0.49307246,0.54549744,0.93034115,0,0)"><tspan
         sodipodi:role="line"
         x="610.69897"
         y="601.31281"
         id="tspan1709"
         style="letter-spacing:0.89570737px;word-spacing:0px;fill:#ffffff;fill-opacity:1;stroke:#ffffff;stroke-width:4.05566978;stroke-opacity:1"><tspan
           x="610.2511"
           y="601.31281"
           style="color:#000000;font-style:normal;font-variant:normal;font-weight:normal;font-stretch:normal;font-size:59.2341156px;line-height:1.25;font-family:'Rounded M+ 1c';-inkscape-font-specification:'Rounded M+ 1c, Medium';text-align:center;letter-spacing:0.89570737px;word-spacing:0px;text-anchor:middle;display:inline;overflow:visible;visibility:visible;fill:#ffffff;fill-opacity:1;fill-rule:nonzero;stroke:#ffffff;stroke-width:3.1970036;stroke-miterlimit:4;stroke-dasharray:none;stroke-opacity:1;marker:none;enable-background:accumulate"
           id="tspan1707">ポンッ!</tspan></tspan></text>
    <flowRoot
       xml:space="preserve"
       id="flowRoot181"
       style="fill:black;fill-opacity:1;stroke:none;font-family:'Rounded M+ 1c';font-style:normal;font-weight:normal;font-size:40px;line-height:1.25;letter-spacing:0px;word-spacing:0px;-inkscape-font-specification:'Rounded M+ 1c';font-stretch:normal;font-variant:normal"><flowRegion
         id="flowRegion183"><rect
           id="rect185"
           width="173.04446"
           height="82.760399"
           x="2035.1533"
           y="1091.663" /></flowRegion><flowPara
         id="flowPara187" /></flowRoot>  </g>
  <g
     inkscape:groupmode="layer"
     id="layer4"
     inkscape:label="notes"
     style="display:inline"
     sodipodi:insensitive="true">
    <path
       style="color:#000000;clip-rule:nonzero;display:inline;overflow:visible;visibility:visible;opacity:0.481;isolation:auto;mix-blend-mode:normal;color-interpolation:sRGB;color-interpolation-filters:linearRGB;solid-color:#000000;solid-opacity:1;fill:#ffe680;fill-opacity:1;fill-rule:nonzero;stroke:#565656;stroke-width:1.20000005;stroke-linecap:butt;stroke-linejoin:miter;stroke-miterlimit:4;stroke-dasharray:none;stroke-dashoffset:0;stroke-opacity:1;marker:none;color-rendering:auto;image-rendering:auto;shape-rendering:auto;text-rendering:auto;enable-background:accumulate"
       d="M 1803.0237,-298.37057 H 846.35615 v 253.040394 h 289.92535 v 10 h -15.6308 l 26.9824,30.9825 26.9804,-30.9825 h -16.6171 v -10 h 645.0273 z"
       id="rect4191-6"
       inkscape:connector-curvature="0"
       sodipodi:nodetypes="cccccccccccc" />
    <flowRoot
       xml:space="preserve"
       id="flowRoot4212-7"
       style="font-style:normal;font-variant:normal;font-weight:normal;font-stretch:normal;line-height:0.01%;font-family:Lavi;-inkscape-font-specification:'Lavi, Normal';text-align:center;letter-spacing:0px;word-spacing:0px;writing-mode:lr-tb;text-anchor:middle;display:inline;opacity:0.68900003;fill:#000000;fill-opacity:1;stroke:none;stroke-width:0.79958946px;stroke-linecap:butt;stroke-linejoin:miter;stroke-opacity:1"
       transform="matrix(1.2506418,0,0,1.2506418,1218.2001,-1598.9961)"><flowRegion
         id="flowRegion4214-5"
         style="stroke-width:0.79958946px"><rect
           id="rect4216-3"
           width="718.88867"
           height="174.37697"
           x="-275.14545"
           y="1061.6674"
           style="stroke-width:0.79958946px" /></flowRegion><flowPara
         id="flowPara4564"
         style="font-size:25.3241539px;line-height:1.25;stroke-width:0.79958946px">This “they” means one person, without specifying their gender.</flowPara><flowPara
         style="font-size:25.3241539px;line-height:1.25;stroke-width:0.79958946px"
         id="flowPara936">If possible, please try to do the same in your language</flowPara><flowPara
         style="font-size:25.3241539px;line-height:1.25;stroke-width:0.79958946px"
         id="flowPara934">(suggestion: if your language doesn't have genderless pronouns, maybe you can translate as “the author”).</flowPara><flowPara
         style="font-size:25.3241539px;line-height:1.25;stroke-width:0.79958946px"
         id="flowPara920">If that doesn't really work well, assume the author is a woman.</flowPara></flowRoot>  </g>
</svg>
