<?xml version="1.0" encoding="UTF-8" standalone="no"?>
<svg
   sodipodi:docname="E35P12.svg"
   height="3503"
   width="2481"
   inkscape:version="1.2.1 (9c6d41e410, 2022-07-14)"
   version="1.1"
   id="svg2"
   xmlns:inkscape="http://www.inkscape.org/namespaces/inkscape"
   xmlns:sodipodi="http://sodipodi.sourceforge.net/DTD/sodipodi-0.dtd"
   xmlns:xlink="http://www.w3.org/1999/xlink"
   xmlns="http://www.w3.org/2000/svg"
   xmlns:svg="http://www.w3.org/2000/svg"
   xmlns:rdf="http://www.w3.org/1999/02/22-rdf-syntax-ns#"
   xmlns:cc="http://creativecommons.org/ns#"
   xmlns:dc="http://purl.org/dc/elements/1.1/">
  <metadata
     id="metadata8">
    <rdf:RDF>
      <cc:Work
         rdf:about="">
        <dc:format>image/svg+xml</dc:format>
        <dc:type
           rdf:resource="http://purl.org/dc/dcmitype/StillImage" />
        <dc:title />
      </cc:Work>
    </rdf:RDF>
  </metadata>
  <defs
     id="defs6" />
  <sodipodi:namedview
     inkscape:pagecheckerboard="0"
     inkscape:document-rotation="0"
     inkscape:current-layer="layer3"
     inkscape:window-maximized="1"
     inkscape:window-y="36"
     inkscape:window-x="1283"
     inkscape:cy="2356.8298"
     inkscape:cx="1267.908"
     inkscape:zoom="0.4665165"
     showgrid="false"
     id="namedview4"
     inkscape:window-height="1388"
     inkscape:window-width="1261"
     inkscape:pageshadow="2"
     inkscape:pageopacity="0"
     guidetolerance="10"
     gridtolerance="10"
     objecttolerance="10"
     borderopacity="1"
     bordercolor="#666666"
     pagecolor="#ffffff"
     inkscape:showpageshadow="2"
     inkscape:deskcolor="#d1d1d1" />
  <g
     sodipodi:insensitive="true"
     inkscape:label="artwork"
     id="layer2"
     inkscape:groupmode="layer">
    <image
       xlink:href="../gfx_Pepper-and-Carrot_by-David-Revoy_E35P12.png"
       width="2481"
       height="3503"
       id="image10"
       x="0"
       y="0" />
  </g>
  <g
     inkscape:label="speechbubbles"
     id="layer3"
     inkscape:groupmode="layer">
    <rect
       y="865.21362"
       x="126.66092"
       height="213.28534"
       width="423.54129"
       id="rect1254"
       style="color:#000000;font-variation-settings:normal;overflow:visible;opacity:1;vector-effect:none;fill:#ffffff;fill-opacity:1;stroke-width:0;stroke-linecap:round;stroke-linejoin:miter;stroke-miterlimit:4;stroke-dasharray:none;stroke-dashoffset:0;stroke-opacity:1;paint-order:stroke fill markers;stop-color:#000000;stop-opacity:1" />
    <rect
       y="1822.9106"
       x="1152.8663"
       height="171.94844"
       width="370.44141"
       id="rect1256"
       style="color:#000000;font-variation-settings:normal;overflow:visible;opacity:1;vector-effect:none;fill:#ffffff;fill-opacity:1;stroke-width:0;stroke-linecap:round;stroke-linejoin:miter;stroke-miterlimit:4;stroke-dasharray:none;stroke-dashoffset:0;stroke-opacity:1;paint-order:stroke fill markers;stop-color:#000000;stop-opacity:1" />
    <rect
       y="896.4519"
       x="1676.7125"
       height="114.96258"
       width="230.9469"
       id="rect1256-3"
       style="color:#000000;font-variation-settings:normal;overflow:visible;opacity:1;vector-effect:none;fill:#ffffff;fill-opacity:1;stroke-width:0;stroke-linecap:round;stroke-linejoin:miter;stroke-miterlimit:4;stroke-dasharray:none;stroke-dashoffset:0;stroke-opacity:1;paint-order:stroke fill markers;stop-color:#000000" />
  </g>
  <g
     inkscape:label="txt"
     id="layer1"
     inkscape:groupmode="layer">
    <text
       id="text4246-3-2-2"
       y="932.46271"
       x="335.09537"
       style="font-style:normal;font-variant:normal;font-weight:normal;font-stretch:normal;font-size:45px;line-height:1.25;font-family:Lavi;-inkscape-font-specification:Lavi;text-align:center;letter-spacing:0px;word-spacing:0px;text-anchor:middle;fill:#000000;fill-opacity:1;stroke:none"
       xml:space="preserve"><tspan
         id="tspan854"
         y="932.46271"
         x="335.09537"
         sodipodi:role="line"
         style="font-size:45px">Ongeacht het risico</tspan><tspan
         y="988.71271"
         x="335.09537"
         sodipodi:role="line"
         style="font-size:45px"
         id="tspan293">en het gevaar zal</tspan><tspan
         y="1044.9626"
         x="335.09537"
         sodipodi:role="line"
         style="font-size:45px"
         id="tspan295">ik vanaf nu</tspan></text>
    <text
       id="text4246-3-2-2-1"
       y="1896.0775"
       x="1341.5546"
       style="font-style:normal;font-variant:normal;font-weight:normal;font-stretch:normal;font-size:45px;line-height:1.25;font-family:Lavi;-inkscape-font-specification:Lavi;text-align:center;letter-spacing:0px;word-spacing:0px;text-anchor:middle;fill:#000000;fill-opacity:1;stroke:none"
       xml:space="preserve"><tspan
         id="tspan867"
         y="1896.0775"
         x="1341.5546"
         sodipodi:role="line"
         style="font-size:45px">trouw blijven</tspan><tspan
         y="1952.3275"
         x="1341.5546"
         sodipodi:role="line"
         style="font-size:45px"
         id="tspan299">aan wie ik ben.</tspan></text>
    <text
       id="text4246-3-2-2-1-6"
       y="970.85291"
       x="1790.2836"
       style="font-style:normal;font-variant:normal;font-weight:normal;font-stretch:normal;font-size:45px;line-height:1.25;font-family:Lavi;-inkscape-font-specification:Lavi;text-align:center;letter-spacing:0px;word-spacing:0px;text-anchor:middle;fill:#000000;fill-opacity:1;stroke:none"
       xml:space="preserve"><tspan
         id="tspan864-5"
         y="970.85291"
         x="1790.2836"
         sodipodi:role="line"
         style="font-size:45px">Beloofd!</tspan></text>
    <text
       transform="matrix(0.91327378,0,-0.07872707,1.0949619,0,0)"
       id="text4246-3-2-2-6-3-8"
       y="3162.175"
       x="2629.095"
       style="font-style:normal;font-variant:normal;font-weight:normal;font-stretch:normal;font-size:46.9748px;line-height:1.25;font-family:Lavi;-inkscape-font-specification:Lavi;text-align:center;letter-spacing:0px;word-spacing:0px;text-anchor:middle;fill:#000000;fill-opacity:1;stroke:none;stroke-width:1.04388"
       xml:space="preserve"><tspan
         y="3162.175"
         x="2629.095"
         id="tspan1097-2-6-7"
         sodipodi:role="line"
         style="font-style:normal;font-variant:normal;font-weight:bold;font-stretch:normal;font-size:46.9748px;font-family:Lavi;-inkscape-font-specification:'Lavi Bold';stroke-width:1.04388"> WORDT VERVOLGD...</tspan></text>
    <text
       id="text860"
       y="1890.0585"
       x="1372.5665"
       style="font-size:29.3333px;line-height:1.25;font-family:Sword;-inkscape-font-specification:Sword;text-align:center;letter-spacing:0px;word-spacing:0px;writing-mode:lr-tb;text-anchor:middle"
       xml:space="preserve"><tspan
         y="1890.0585"
         x="1372.5665"
         id="tspan858"
         sodipodi:role="line" /><tspan
         id="tspan862"
         y="1926.7251"
         x="1372.5665"
         sodipodi:role="line" /><tspan
         id="tspan865"
         y="1963.3917"
         x="1372.5665"
         sodipodi:role="line" /></text>
  </g>
</svg>
