<?xml version="1.0" encoding="UTF-8" standalone="no"?>
<svg
   sodipodi:docname="E35P02.svg"
   height="3503"
   width="2481"
   inkscape:version="1.2.1 (9c6d41e410, 2022-07-14)"
   version="1.1"
   id="svg2"
   xmlns:inkscape="http://www.inkscape.org/namespaces/inkscape"
   xmlns:sodipodi="http://sodipodi.sourceforge.net/DTD/sodipodi-0.dtd"
   xmlns:xlink="http://www.w3.org/1999/xlink"
   xmlns="http://www.w3.org/2000/svg"
   xmlns:svg="http://www.w3.org/2000/svg"
   xmlns:rdf="http://www.w3.org/1999/02/22-rdf-syntax-ns#"
   xmlns:cc="http://creativecommons.org/ns#"
   xmlns:dc="http://purl.org/dc/elements/1.1/">
  <metadata
     id="metadata8">
    <rdf:RDF>
      <cc:Work
         rdf:about="">
        <dc:format>image/svg+xml</dc:format>
        <dc:type
           rdf:resource="http://purl.org/dc/dcmitype/StillImage" />
        <dc:title />
      </cc:Work>
    </rdf:RDF>
  </metadata>
  <defs
     id="defs6" />
  <sodipodi:namedview
     inkscape:current-layer="layer3"
     inkscape:cy="2253.9396"
     inkscape:cx="1255.0467"
     inkscape:zoom="0.4665165"
     inkscape:pagecheckerboard="0"
     inkscape:snap-global="false"
     inkscape:document-rotation="0"
     inkscape:window-maximized="1"
     inkscape:window-y="36"
     inkscape:window-x="1283"
     showgrid="false"
     id="namedview4"
     inkscape:window-height="1388"
     inkscape:window-width="1261"
     inkscape:pageshadow="2"
     inkscape:pageopacity="0"
     guidetolerance="10"
     gridtolerance="10"
     objecttolerance="10"
     borderopacity="1"
     bordercolor="#666666"
     pagecolor="#ffffff"
     inkscape:showpageshadow="2"
     inkscape:deskcolor="#d1d1d1" />
  <g
     sodipodi:insensitive="true"
     inkscape:label="artwork"
     id="layer2"
     inkscape:groupmode="layer">
    <image
       xlink:href="../gfx_Pepper-and-Carrot_by-David-Revoy_E35P02.png"
       y="0"
       x="0"
       id="image10"
       height="3503"
       width="2481" />
  </g>
  <g
     inkscape:label="speechbubbles"
     id="layer3"
     inkscape:groupmode="layer">
    <path
       sodipodi:nodetypes="ccccccccccccccccccc"
       inkscape:connector-curvature="0"
       id="path3549-3-7-8"
       d="m 333.67031,2047.6299 c -7.18106,18.1265 -41.80295,17.1729 -54.30039,12.4732 24.44163,22.6399 22.81262,35.4837 -12.09389,34.9567 56.21359,41.6884 8.85572,32.5542 -1.08995,41.3644 45.07809,16.2366 28.77861,34.6901 -1.14013,41.5418 52.62684,4.379 39.128,16.6315 18.11091,34.1471 24.02245,-10.7212 60.49676,-17.0342 59.9228,15.5233 35.39753,-25.9036 52.7956,-24.0836 63.184,8.8747 11.78004,-26.9118 46.82895,-29.7068 58.4154,1.0831 13.74514,-39.5298 54.25848,-30.8771 77.45267,-9.5479 -12.85915,-14.7979 -2.25851,-36.8531 44.00321,-28.8722 -3.02355,-12.9277 3.77564,-28.4722 27.1494,-24.6543 -26.62653,-9.6122 -31.16455,-17.8604 19.5672,-22.6912 -38.18921,-3.601 -73.74867,-7.8761 -27.24051,-33.5513 -14.03361,-1.7238 -48.80059,19.9942 -29.20557,-49.5371 -42.40571,17.8385 -86.32512,25.3402 -81.69998,-18.2729 -16.67294,22.5594 -43.91938,32.3408 -53.79748,1.9299 -11.11951,26.9283 -39.45339,13.2529 -53.44037,-6.696 -11.01801,17.9861 -26.62502,29.5403 -53.79732,1.9287 z"
       style="color:#000000;display:inline;overflow:visible;visibility:visible;fill:#ffffff;fill-opacity:1;fill-rule:nonzero;stroke:none;stroke-width:1.03198px;marker:none;enable-background:accumulate" />
    <path
       sodipodi:nodetypes="csssc"
       inkscape:connector-curvature="0"
       id="path3280-8-6"
       d="m 416.44572,2014.2181 c 24.29871,-1.1151 141.72499,-6.3967 139.89859,101.0997 -2.2884,134.6965 -3.44138,196.2482 -129.18824,194.1791 -135.0591,-2.2225 -107.87633,-83.4609 -108.93384,-185.257 -0.93625,-90.1215 33.02084,-106.7644 98.22349,-110.0218 z"
       style="fill:#ffffff;stroke:none;stroke-width:1.0605" />
    <path
       inkscape:connector-curvature="0"
       id="path4456-3"
       d="m 599.71965,2340.7789 c -54.36956,-1.3158 -66.37353,-18.0831 -76.5499,-29.227 3.41593,-3.9672 8.07344,-11.8668 8.07344,-11.8668 0,0 -22.49109,-20.0802 -27.87182,-30.4304 -5.38071,-10.3501 9.28192,-17.9731 9.28192,-17.9731 0,0 44.94813,37.9871 57.64264,43.4391 -9.83295,10.5902 -13.21387,16.7305 -18.38931,19.4211 3.1733,8.211 28.66645,25.6349 47.81303,26.6371 z"
       style="color:#000000;display:inline;overflow:visible;visibility:visible;fill:#ffffff;fill-opacity:1;fill-rule:nonzero;stroke:none;stroke-width:1px;marker:none;enable-background:accumulate" />
    <path
       sodipodi:nodetypes="csssc"
       inkscape:connector-curvature="0"
       id="path5026-4"
       d="m 2047.4101,2174.4682 c -3.9687,-59.3192 5.4316,-131.596 131.533,-114.454 120.2292,16.3434 112.7201,38.8097 113.9932,114.1234 1.3413,79.3498 -47.7295,117.7742 -133.8753,110.1668 -50.4829,-4.4578 -100.7885,-8.677 -111.6509,-109.8362 z"
       style="color:#000000;display:inline;overflow:visible;visibility:visible;fill:#ffffff;fill-opacity:1;fill-rule:nonzero;stroke:none;stroke-width:0.788413px;marker:none;enable-background:accumulate" />
    <path
       sodipodi:nodetypes="cccccccccc"
       inkscape:connector-curvature="0"
       id="path4448"
       d="m 2105.3586,2220.7678 c -5.5436,-2.8356 -54.7137,50.1874 -54.7137,50.1874 l -46.4854,3.8789 1.6395,30.1944 -70.0315,-5.1205 46.1278,-9.2978 -2.5234,-29.7955 43.2902,-12.9423 39.1037,-38.0584 z"
       style="color:#000000;display:inline;overflow:visible;visibility:visible;fill:#ffffff;fill-opacity:1;fill-rule:nonzero;stroke:none;stroke-width:1.98599px;marker:none;enable-background:accumulate" />
    <path
       inkscape:connector-curvature="0"
       id="path3525"
       d="m 137.92882,2639.733 c -5.46661,-32.9854 9.111,-121.7205 121.17689,-118.765 112.06578,2.9554 130.28795,43.7493 133.02121,56.0926 2.73334,12.3432 26.42205,81.9729 -61.04395,104.0062 -87.46608,22.0331 -165.82099,5.334 -193.15415,-41.3338 z"
       style="color:#000000;display:inline;overflow:visible;visibility:visible;fill:#ffffff;fill-opacity:1;fill-rule:nonzero;stroke:none;stroke-width:1.026px;marker:none;enable-background:accumulate" />
    <path
       inkscape:connector-curvature="0"
       id="path3525-3"
       d="m 1173.2459,2504.4109 c -17.5875,0.6532 -35.4561,1.4275 -52.2981,5.5746 -22.4994,6.0014 -40.3188,21.3469 -44.1177,39.0328 -1.8465,11.0923 5.5906,22.3888 17.4846,28.9596 13.6468,7.8796 30.2869,12.1443 46.8658,15.1861 24.9136,4.3728 50.755,4.169 76.1459,2.9813 20.202,-1.0449 40.5334,-3.9298 58.8517,-10.5838 8.1424,-2.8423 16.2394,-6.7442 20.5216,-12.8508 5.6805,-7.7643 6.0888,-17.0436 4.1085,-25.5917 -2.4512,-10.5404 -9.8465,-20.6574 -21.6106,-26.9723 -12.9878,-7.2561 -29.0254,-10.575 -44.8207,-12.504 -14.7452,-1.7666 -29.6563,-2.5949 -44.5416,-3.3778 -5.534,-0.2277 -11.0617,-0.1054 -16.5894,0.146 z"
       style="color:#000000;display:inline;overflow:visible;visibility:visible;fill:#ffffff;fill-opacity:1;fill-rule:nonzero;stroke:none;stroke-width:0.729194px;marker:none;enable-background:accumulate" />
    <path
       sodipodi:nodetypes="csscscsssc"
       inkscape:connector-curvature="0"
       id="path4538-8"
       d="m 378.31396,2800.4734 c -21.81603,-7.0949 -24.7236,-25.0861 -23.81085,-40.8201 0.91307,-15.7353 3.43731,-25.4512 -10.14803,-44.9426 -13.58559,-19.4905 -43.44749,-20.9995 -26.36893,-39.8522 2.07754,-12.2197 3.18888,-22.813 8.63924,-34.9426 6.0118,-13.3799 -30.60834,-13.6489 -30.60834,-13.6489 0,0 -9.2601,42.7902 -8.60393,68.4695 0.65624,25.6793 37.98578,18.1214 49.29264,35.0787 10.55851,15.835 3.54145,43.2725 10.69223,54.7738 7.15061,11.5025 19.89022,15.6885 30.91597,15.8844 z"
       style="color:#000000;display:inline;overflow:visible;visibility:visible;fill:#ffffff;fill-opacity:1;fill-rule:nonzero;stroke:none;stroke-width:0.922389px;marker:none;enable-background:accumulate" />
    <path
       sodipodi:nodetypes="csssssssc"
       inkscape:connector-curvature="0"
       id="path4272-2"
       d="m 654.09651,2797.3265 c 22.47948,-7.6888 8.18259,-27.2917 13.56572,-36.5201 5.55722,-9.5269 47.07364,3.0903 52.88651,-5.37 5.81286,-8.4604 -12.6074,-31.2018 -3.16551,-44.2198 9.44226,-13.0187 37.29048,-1.0958 25.77916,13.6924 -11.51166,14.7889 6.85876,28.7751 -4.63767,39.1332 -19.17293,17.274 -46.18634,1.6002 -58.07288,2.8253 -7.86988,0.8115 -1.86593,15.6117 -9.63373,23.71 -7.76824,8.099 -16.7216,6.749 -16.7216,6.749 z"
       style="fill:#ffffff;fill-rule:evenodd;stroke:none;stroke-width:1.00018px;stroke-linecap:butt;stroke-linejoin:miter;stroke-opacity:1" />
    <path
       sodipodi:nodetypes="csssc"
       inkscape:connector-curvature="0"
       id="path3280-8-90"
       d="m 1718.7344,2729.5528 c -1.5688,-32.2039 26.5609,-112.8226 163.7753,-106.7591 137.2147,6.0636 180.1605,41.4871 184.1817,98.7291 6.3611,90.5563 -65.8275,114.7566 -169.4835,121.4636 -106.8583,6.9147 -180.1319,-55.2456 -178.4735,-113.4336 z"
       style="fill:#ffffff;stroke:none;stroke-width:1.13221" />
    <path
       inkscape:connector-curvature="0"
       id="path4480"
       d="m 1981.8954,2716.5742 c 21.7602,57.3157 81.8906,99.8161 102.9782,111.0989 -62.8332,-18.8149 -116.4083,-51.6111 -129.2847,-90.9766 -12.8765,-39.3656 26.3065,-20.1223 26.3065,-20.1223 z"
       style="color:#000000;display:inline;overflow:visible;visibility:visible;fill:#ffffff;fill-opacity:1;fill-rule:nonzero;stroke:none;stroke-width:1px;marker:none;enable-background:accumulate" />
    <path
       sodipodi:nodetypes="cssscscssccc"
       inkscape:connector-curvature="0"
       id="path1353"
       d="m 1143.9676,1163.2669 c -26.0092,0.1719 -52.1226,2.2999 -77.4175,8.0122 -9.4972,2.2259 -18.9352,4.8181 -27.9388,8.3882 -11.786,5.0794 -20.7066,14.3569 -27.3811,24.3713 -7.5787,11.4904 -12.39339,24.392 -14.76783,37.6039 -1.89837,10.3237 -2.83417,20.7821 -3.32675,31.2339 -0.49124,14.4005 1.2687,28.9736 6.4614,42.6292 6.09828,16.9722 16.27468,33.1071 31.25578,44.8099 14.3761,10.7742 32.0994,16.9074 49.8287,21.4061 29.215,7.0961 59.6545,8.1727 89.7308,8.1594 22.6545,-0.2194 45.1458,-3.6181 67.0574,-8.7369 16.8655,-3.6975 33.6882,-7.9166 49.6378,-14.2161 11.8959,-5.0306 22.879,-12.6907 29.4325,-23.238 8.738,-13.23 12.5616,-28.5089 15.7514,-43.5139 3.4592,-17.2049 5.1841,-35.095 1.0893,-52.3424 -3.9631,-16.3456 -13.6365,-30.9503 -24.5162,-44.2048 -13.9467,-15.9056 -33.8917,-26.7371 -55.0483,-32.6789 -22.7862,-6.4286 -46.8384,-7.3826 -70.5196,-7.6483 -13.1093,-0.081 -26.2196,-0.077 -39.329,-0.035 z"
       style="fill:#ffffff;fill-rule:evenodd;stroke:none;stroke-width:0.82161px;stroke-linecap:butt;stroke-linejoin:miter;stroke-opacity:1" />
    <path
       sodipodi:nodetypes="ccccccccccccccccccc"
       inkscape:transform-center-y="17.777857"
       inkscape:transform-center-x="43.812193"
       inkscape:connector-curvature="0"
       id="path4496-9"
       d="m 1567.2167,1263.2749 c -23.3951,-13.5874 -47.4345,-27.8488 -80.2438,-37.3029 -9.419,-2.6108 -19.456,-5.052 -29.7275,-6.2777 -10.8699,-0.2589 -18.5833,3.1803 -21.2691,7.3616 -4.9062,5.8321 -4.0751,13.3543 -14.8239,17.5815 -8.0334,2.9766 -20.4058,1.2285 -30.8948,0.151 -55.5613,-5.5966 -116.4529,-16.3815 -168.9125,-7.1839 -10.3316,2.0201 -20.2049,4.8402 -25.0559,9.4641 -13.7945,11.5007 -11.0257,28.0336 10.0671,40.719 14.9737,7.6682 42.5542,10.484 56.687,4.5569 7.5899,-3.0688 8.1735,-8.3583 5.5139,-13.1861 -1.2458,-8.9607 7.6217,0.022 24.0822,-3.6677 37.2334,-5.6014 77.5291,-14.6477 110.5037,-9.7254 10.0809,1.4739 25.6582,0.1256 35.3315,-0.599 12.5832,-2.5592 14.9137,-9.3886 15.3033,-15.3984 0.7726,-6.1637 0.047,-13.4883 11.1891,-17.2514 6.7172,-3.1499 17.8965,0.5337 26.5328,1.8753 27.2211,5.8451 51.5565,15.088 70.9679,25.6439 1.7031,1.0526 3.2274,2.1441 4.749,3.2392 z"
       style="color:#000000;display:inline;overflow:visible;visibility:visible;fill:#ffffff;fill-opacity:1;fill-rule:nonzero;stroke:none;stroke-width:1.32704px;marker:none;enable-background:accumulate" />
    <path
       sodipodi:nodetypes="csssc"
       inkscape:connector-curvature="0"
       id="path3280-8-0"
       d="m 831.33927,287.71062 c 2.95013,-73.17472 17.24919,-100.30707 190.69623,-103.09763 240.0506,-3.86266 256.8458,58.36 252.2854,144.19602 -4.9202,92.61157 -146.4978,92.87137 -262.2295,90.01044 C 812.37683,413.88273 833.13993,362.79957 831.33927,287.71062 Z"
       style="fill:#ffffff;stroke:none;stroke-width:0.71134" />
    <path
       sodipodi:nodetypes="csssc"
       inkscape:connector-curvature="0"
       id="path3280-8-2"
       d="m 907.41266,510.02948 c 3.68682,-62.80209 24.76458,-144.15851 219.40164,-137.65186 194.6368,6.50569 260.1308,48.92263 270.9714,118.12377 20.7657,132.55779 -78.1131,118.28188 -223.9374,126.99855 -150.3294,8.98538 -272.13271,-15.43278 -266.43564,-107.47046 z"
       style="display:inline;fill:#ffffff;stroke:none;stroke-width:0.920959" />
    <path
       sodipodi:nodetypes="zssssz"
       inkscape:connector-curvature="0"
       id="path4040-5"
       d="m 1354.4077,596.40351 c -51.1496,2.9387 -102.3658,3.96377 -153.57,4.73953 -54.8703,2.21122 -110.3544,6.38808 -163.2407,24.15365 -15.7698,7.08662 -26.0239,23.96168 -31.997,41.17991 -14.58312,36.64069 -18.93429,78.38909 -12.25945,117.82094 6.06819,27.57184 23.59595,51.06007 45.75475,64.27033 26.9143,17.43313 57.6049,25.2634 87.8357,31.65364 58.0675,11.03678 117.2061,8.17671 175.791,6.14426 52.314,-2.55382 104.9279,-7.52946 155.7332,-22.48947 21.9159,-8.50165 39.0271,-28.73308 48.6229,-52.0978 20.2943,-44.56285 20.4473,-101.13585 -2.9065,-144.30173 -16.0398,-29.32308 -43.1392,-49.16931 -71.9583,-59.30488 -25.0549,-9.13848 -51.5779,-11.9626 -77.8056,-11.76838 z"
       style="color:#000000;display:inline;overflow:visible;visibility:visible;fill:#ffffff;fill-opacity:1;fill-rule:nonzero;stroke:none;stroke-width:1.28912px;marker:none;enable-background:accumulate" />
    <path
       sodipodi:nodetypes="ccscc"
       inkscape:connector-curvature="0"
       id="path4035-4"
       d="m 870.0925,327.52019 c -13.93862,-43.79995 -75.39205,-33.32608 -131.42892,10.54697 35.43843,-36.41055 76.35778,-76.93843 143.98747,-47.05147 49.32789,21.79901 14.57754,15.53221 14.57754,15.53221 z"
       style="color:#000000;display:inline;overflow:visible;visibility:visible;fill:#ffffff;fill-opacity:1;fill-rule:nonzero;stroke:none;stroke-width:1px;marker:none;enable-background:accumulate" />
    <path
       sodipodi:nodetypes="cccccccccccccccccccccccc"
       inkscape:connector-curvature="0"
       id="path4289-9-2"
       d="m 1548.4515,71.619933 c 24.985,5.793404 24.4053,18.959491 12.7022,17.639048 7.502,22.947809 30.4769,75.029379 10.5214,81.465079 0.3216,63.9758 13.4148,96.99152 -1.5675,133.3805 55.2137,-16.22272 57.3634,11.34478 53.2124,37.36138 20.3681,-34.64111 35.9429,-12.07585 29.8359,19.78535 20.93,-34.83705 45.1859,-50.69323 41.2991,-13.35757 23.6513,-26.97855 24.8612,-39.45512 44.7286,-27.78038 36.1161,-32.36707 51.1793,12.81962 73.0469,32.93992 8.1542,-36.73832 23.3152,-29.5983 49.8625,-10.87598 9.0829,-15.46913 -12.0518,-42.91267 12.7553,-9.1895 -9.9891,-38.67303 40.684,-20.02028 51.0233,-14.32381 -12.6632,-17.39684 9.1057,-22.00167 70.4804,-11.89519 -23.7677,-9.30819 -33.969,-40.04329 13.7163,-61.82426 -62.5354,8.83659 -39.2315,-9.45622 -20.0369,-29.45507 -40.898,-30.71396 -0.2138,-59.34641 20.1138,-88.49783 -41.3041,13.50432 -56.3387,-44.502353 -63.9558,-58.334579 -62.6921,10.543316 -53.3929,4.67716 -47.3762,-0.440896 -38.8414,12.824672 -36.6646,1.446479 -46.7026,-2.724502 -106.7351,15.616521 -102.9554,-0.688504 -125.0299,-9.525581 -8.7451,18.669199 -31.2305,11.414952 -53.7729,4.053771 0.845,15.799861 -12.7693,11.180214 -26.0813,6.987641 -1.7053,6.812619 -14.9264,8.77544 -43.6739,4.198974 20.5299,5.623526 7.8516,6.563777 -55.1011,0.413485 z"
       style="display:inline;fill:#ffffff;fill-rule:evenodd;stroke:none;stroke-width:1.30048px;stroke-linecap:butt;stroke-linejoin:miter;stroke-opacity:1" />
    <path
       sodipodi:nodetypes="ccccccccccccccccccccccscccccccccsccccccccccccccccccc"
       inkscape:connector-curvature="0"
       id="path4212-3"
       d="m 2435.8059,801.30706 c -1.3457,6.894 -62.2003,60.52013 -24.1986,13.33868 l -35.556,13.18033 c -68.9197,-28.60828 -294.4001,-11.13733 -369.822,4.64535 l -20.6898,-28.37386 4.1268,23.81899 -23.9878,-35.27813 13.4433,47.50739 -12.662,-16.12814 5.318,17.80819 -12.2992,-8.65939 2.0805,15.24288 c -28.5956,14.15403 -44.8546,42.06212 -51.2958,70.85547 l -23.093,-2.6085 21.452,11.25865 c -0.2728,1.74791 -0.5189,3.49584 -0.7219,5.23861 -0.012,0.11926 -0.028,0.24162 -0.038,0.36089 l -24.2727,-4.11274 23.3073,15.33334 c -0.051,0.81948 -0.1017,1.63688 -0.1457,2.46355 l -46.4406,-9.60327 46.0481,26.09642 c -0.011,29.31155 3.3313,59.39113 5.0614,72.53963 1.1995,9.1159 2.4888,26.0205 9.4969,29.6441 l -43.2536,10.9456 57.3166,-5.9717 c 1.2174,0.1334 2.4602,0.2663 3.7084,0.3995 l -14.8075,3.7224 25.7781,-2.5925 c 2.6378,0.2621 5.3334,0.5227 8.0808,0.782 l -26.6954,8.339 39.8188,-7.1512 c 78.5635,6.8225 230.3959,13.6192 361.3148,4.7578 28.7958,-1.949 56.5799,-4.6556 82.3499,-8.2861 l 21.1254,4.3407 -8.1175,-6.2637 c 2.7906,-0.4326 6.3727,-0.875 6.5208,-1.3289 l 0.5013,0.1829 -0.332,-1.389 c 0.031,-0.2297 0.063,-0.4597 0.094,-0.6918 l 1.7081,3.0547 -1.2838,-16.2967 c 0.8093,-18.9259 1.0172,-40.4006 0.9172,-62.14878 l 1.5491,-13.0858 c -2.6777,6.77063 -1.7213,-8.12679 -0.038,-15.78884 l -1.5125,1.06006 c 0.1464,-17.60667 -0.3949,-49.89895 -1.1038,-66.753 l 0.07,-12.77934 c -1.241,1.22458 -0.4418,-9.77087 -0.016,-19.34535 -1.3627,8.61518 -1.1954,4.99597 -0.6595,-11.7532 -2.2949,4.77285 1.2287,-39.45052 1.8524,-50.52719 z"
       style="fill:#ffffff;fill-opacity:1;fill-rule:evenodd;stroke:none;stroke-width:1.07244px;stroke-linecap:butt;stroke-linejoin:miter;stroke-opacity:1" />
    <path
       sodipodi:nodetypes="cccc"
       inkscape:connector-curvature="0"
       id="path4667-2"
       d="m 2102.6149,731.75338 c 0.6806,46.88611 13.5699,112.73475 8.1415,134.13433 4.1542,74.41122 102.9122,-4.5123 46.8489,-20.11373 -23.7511,-41.19543 -38.7836,-74.21483 -54.9904,-114.0206 z"
       style="display:inline;fill:#ffffff;fill-rule:evenodd;stroke:none;stroke-width:1.54379px;stroke-linecap:butt;stroke-linejoin:miter;stroke-opacity:1" />
    <path
       inkscape:connector-curvature="0"
       id="path3525-3-5"
       d="m 668.24883,2619.3931 c -39.06775,-0.098 -79.51148,5.1296 -111.82161,19.5074 -22.27319,9.8584 -38.58229,26.2721 -37.56147,43.7335 0.77417,14.2429 15.12554,27.0138 33.76856,34.6216 21.25906,8.6903 46.60007,12.1176 71.27686,14.7287 42.65197,4.0973 85.9347,3.3432 128.90048,4.9003 27.14874,0.6389 55.02743,0.9884 81.24994,-4.1125 23.5106,-6.0439 38.06511,-21.5133 40.41299,-36.9608 2.42902,-15.5734 -0.93915,-32.4583 -16.48093,-45.2137 -14.62456,-11.5412 -37.29709,-17.3952 -59.29475,-21.357 -42.33132,-7.3926 -86.58651,-10.2257 -130.45007,-9.8475 z"
       style="color:#000000;display:inline;overflow:visible;visibility:visible;fill:#ffffff;fill-opacity:1;fill-rule:nonzero;stroke:none;stroke-width:1.06194px;marker:none;enable-background:accumulate" />
    <path
       sodipodi:nodetypes="csssssssc"
       inkscape:connector-curvature="0"
       id="path4272-2-3"
       d="m 1223.463,2688.0374 c 17.4992,-16.0693 -3.4666,-28.2803 -2.2428,-38.8936 1.2634,-10.9567 44.3518,-16.0746 46.2777,-26.1572 1.9258,-10.0826 -24.0767,-23.5119 -20.6577,-39.2259 3.4191,-15.7147 33.7111,-15.9794 29.1078,2.1868 -4.6033,18.167 17.8374,23.5982 11.4686,37.7013 -10.6216,23.5196 -41.6554,20.0139 -52.0494,25.9095 -6.8814,3.9037 4.5609,15.0468 0.6993,25.5829 -3.8618,10.5369 -12.6035,12.8962 -12.6035,12.8962 z"
       style="fill:#ffffff;fill-rule:evenodd;stroke:none;stroke-width:1.00018px;stroke-linecap:butt;stroke-linejoin:miter;stroke-opacity:1" />
    <path
       sodipodi:nodetypes="cccccccccccccccccccc"
       inkscape:connector-curvature="0"
       id="path3549-3-7-9-6"
       d="m 1576.3295,2522.3224 c -5.7684,19.7338 -39.7035,21.9845 -52.2549,18.2182 25.4795,21.5056 24.7762,35.1623 -9.4079,37.8903 57.881,38.545 10.9197,33.3934 1.801,43.5918 45.2233,12.8342 25.2862,30.1632 17.4829,47.2005 51.786,-0.3425 35.1891,27.0397 37.6484,48.5677 4.2597,-10.1977 24.7176,-41.3812 26.4129,-7.0964 0.011,-6.488 33.3756,-60.8477 84.6822,-9.4692 -1.5689,-26.8993 15.684,-32.7435 32.6119,4.1555 -6.0146,-40.161 52.4858,-29.5513 83.5547,-17.4684 -15.9307,-24.1109 8.624,-34.3802 34.9484,-29.9904 -3.8539,-13.3079 4.8952,-22.6579 24.8501,-28.4736 -26.7138,-7.6032 -31.7249,-15.8481 17.5691,-25.6962 -37.6086,-0.1964 -72.6912,-1.3483 -28.9741,-32.7151 -13.8479,-0.492 -46.3534,25.6094 -32.0043,-49.338 -23.4891,24.3307 -48.7079,37.9775 -81.1901,-11.5311 -14.7467,25.285 -40.7226,38.132 -52.494,7.0859 -3.9155,13.3936 -20.7963,18.707 -35.1738,19.5706 -5.6308,-5.1921 -11.4603,-12.2772 -17.5686,-21.587 -9.5316,19.9474 -23.9984,33.5613 -52.4939,7.0849 z"
       style="color:#000000;display:inline;overflow:visible;visibility:visible;fill:#ffffff;fill-opacity:1;fill-rule:nonzero;stroke:none;stroke-width:0.899927px;marker:none;enable-background:accumulate" />
    <path
       inkscape:connector-curvature="0"
       id="path5066-8"
       d="m 1834.6942,302.71538 c 13.3969,25.86728 33.5213,54.90113 39.2123,61.39746 7.9957,-8.63868 17.0744,-15.33555 24.0331,-20.64544 9.0197,12.83333 45.9509,74.58787 45.5696,92.05922 3.355,-43.2627 -19.8328,-91.86712 -36.9856,-111.86967 -10.7606,5.90497 -16.2791,10.46235 -22.0396,13.47435 -9.2965,-9.62452 -29.0289,-46.10687 -29.0289,-46.10687 z"
       style="color:#000000;display:inline;overflow:visible;visibility:visible;fill:#ffffff;fill-opacity:1;fill-rule:nonzero;stroke:none;stroke-width:1.22149px;marker:none;enable-background:accumulate" />
  </g>
  <g
     inkscape:label="txt"
     id="layer1"
     inkscape:groupmode="layer">
    <text
       id="text4246-3-2-2"
       y="263.81241"
       x="1047.1543"
       style="font-style:normal;font-variant:normal;font-weight:normal;font-stretch:normal;font-size:45px;line-height:1.25;font-family:Lavi;-inkscape-font-specification:Lavi;text-align:center;letter-spacing:0px;word-spacing:0px;text-anchor:middle;fill:#000000;fill-opacity:1;stroke:none"
       xml:space="preserve"><tspan
         y="263.81241"
         x="1047.1543"
         sodipodi:role="line"
         style="font-size:45px"
         id="tspan394">Ik sta op het punt</tspan><tspan
         y="320.06241"
         x="1047.1543"
         sodipodi:role="line"
         style="font-size:45px"
         id="tspan396">mijn supersnelheid</tspan><tspan
         y="376.31241"
         x="1047.1543"
         sodipodi:role="line"
         style="font-size:45px"
         id="tspan623">te verliezen,</tspan></text>
    <text
       id="text4246-3-2-2-3"
       y="459.63361"
       x="1152.0842"
       style="font-style:normal;font-variant:normal;font-weight:normal;font-stretch:normal;font-size:45px;line-height:1.25;font-family:Lavi;-inkscape-font-specification:Lavi;text-align:center;letter-spacing:0px;word-spacing:0px;text-anchor:middle;fill:#000000;fill-opacity:1;stroke:none"
       xml:space="preserve"><tspan
         y="459.63361"
         x="1152.0842"
         sodipodi:role="line"
         style="font-size:45px"
         id="tspan894">en die draak en</tspan><tspan
         y="515.88361"
         x="1152.0842"
         sodipodi:role="line"
         style="font-size:45px"
         id="tspan908">drakenrijder achter-</tspan><tspan
         y="572.13361"
         x="1152.0842"
         sodipodi:role="line"
         style="font-size:45px"
         id="tspan648">volgen ons al uren.</tspan></text>
    <text
       id="text4246-3-2-2-3-6"
       y="677.54871"
       x="1256.4082"
       style="font-style:normal;font-variant:normal;font-weight:normal;font-stretch:normal;font-size:45px;line-height:1.25;font-family:Lavi;-inkscape-font-specification:Lavi;text-align:center;letter-spacing:0px;word-spacing:0px;text-anchor:middle;fill:#000000;fill-opacity:1;stroke:none"
       xml:space="preserve"><tspan
         id="tspan949"
         y="677.54871"
         x="1256.4082"
         sodipodi:role="line"
         style="font-size:45px">Ze zullen geen enkel</tspan><tspan
         y="733.79871"
         x="1256.4082"
         sodipodi:role="line"
         style="font-size:45px"
         id="tspan997">probleem hebben ons</tspan><tspan
         y="790.04871"
         x="1256.4082"
         sodipodi:role="line"
         style="font-size:45px"
         id="tspan999">te vangen zodra we</tspan><tspan
         y="846.29871"
         x="1256.4082"
         sodipodi:role="line"
         style="font-size:45px"
         id="tspan1001">langzamer gaan.</tspan></text>
    <text
       id="text4246-3-2-2-3-6-3"
       y="182.27917"
       x="1780.5414"
       style="font-style:normal;font-variant:normal;font-weight:normal;font-stretch:normal;font-size:59.5686px;line-height:1.25;font-family:Lavi;-inkscape-font-specification:Lavi;text-align:center;letter-spacing:0px;word-spacing:0px;text-anchor:middle;fill:#000000;fill-opacity:1;stroke:none;stroke-width:1.32375"
       xml:space="preserve"><tspan
         id="tspan953"
         y="182.27917"
         x="1780.5414"
         sodipodi:role="line"
         style="font-size:59.5686px;stroke-width:1.32375">Hoe kon ik zo</tspan><tspan
         y="256.73993"
         x="1780.5414"
         sodipodi:role="line"
         style="font-size:59.5686px;stroke-width:1.32375"
         id="tspan1086">onnozel zijn!</tspan></text>
    <text
       id="text4246-3-2-2-3-6-2"
       y="887.08679"
       x="2149.4053"
       style="font-style:normal;font-variant:normal;font-weight:normal;font-stretch:normal;font-size:45px;line-height:1.25;font-family:Lavi;-inkscape-font-specification:Lavi;text-align:center;letter-spacing:0px;word-spacing:0px;text-anchor:middle;fill:#000000;fill-opacity:1;stroke:none"
       xml:space="preserve"><tspan
         y="887.08679"
         x="2149.4053"
         sodipodi:role="line"
         style="font-size:45px"
         id="tspan1110">Ik was er zeker</tspan><tspan
         y="943.33679"
         x="2149.4053"
         sodipodi:role="line"
         style="font-size:45px"
         id="tspan1116">van dat ze het uren</tspan><tspan
         y="999.58679"
         x="2149.4053"
         sodipodi:role="line"
         style="font-size:45px"
         id="tspan1118">geleden al opgegeven</tspan><tspan
         y="1055.8368"
         x="2149.4053"
         sodipodi:role="line"
         style="font-size:45px"
         id="tspan1120">zouden hebben!</tspan></text>
    <text
       id="text4246-3-2-2-3-6-2-7"
       y="1231.1812"
       x="1162.0076"
       style="font-style:normal;font-variant:normal;font-weight:normal;font-stretch:normal;font-size:45px;line-height:1.25;font-family:Lavi;-inkscape-font-specification:Lavi;text-align:center;letter-spacing:0px;word-spacing:0px;text-anchor:middle;fill:#000000;fill-opacity:1;stroke:none"
       xml:space="preserve"><tspan
         id="tspan976"
         y="1231.1812"
         x="1162.0076"
         sodipodi:role="line"
         style="font-size:45px">Kon ik ze</tspan><tspan
         y="1287.4312"
         x="1162.0076"
         sodipodi:role="line"
         style="font-size:45px"
         id="tspan1266">maar van me</tspan><tspan
         y="1343.6812"
         x="1162.0076"
         sodipodi:role="line"
         style="font-size:45px"
         id="tspan1268">afschudden.</tspan></text>
    <text
       id="text4246-3-2-2-3-6-2-7-2"
       y="2094.3264"
       x="433.03806"
       style="font-style:normal;font-variant:normal;font-weight:normal;font-stretch:normal;font-size:45px;line-height:1.25;font-family:Lavi;-inkscape-font-specification:Lavi;text-align:center;letter-spacing:0px;word-spacing:0px;text-anchor:middle;fill:#000000;fill-opacity:1;stroke:none"
       xml:space="preserve"><tspan
         id="tspan885"
         y="2094.3264"
         x="433.03806"
         sodipodi:role="line"
         style="font-size:45px"> <tspan
   style="font-weight:bold"
   id="tspan1352">NEE</tspan><tspan
   id="tspan998"
   style="font-style:normal;font-variant:normal;font-weight:bold;font-stretch:normal;font-family:Lavi;-inkscape-font-specification:'Lavi Bold'">. </tspan></tspan><tspan
         id="tspan996"
         y="2150.5764"
         x="433.03806"
         sodipodi:role="line"
         style="font-size:45px">Ik <tspan
   style="font-weight:bold"
   id="tspan1369">moet</tspan></tspan><tspan
         y="2206.8264"
         x="433.03806"
         sodipodi:role="line"
         style="font-size:45px"
         id="tspan1361">van ze af</tspan><tspan
         y="2263.0764"
         x="433.03806"
         sodipodi:role="line"
         style="font-size:45px"
         id="tspan1363">komen!</tspan></text>
    <text
       id="text4246-3-2-2-3-6-2-7-2-2"
       y="2128.7795"
       x="2165.3418"
       style="font-style:normal;font-variant:normal;font-weight:normal;font-stretch:normal;font-size:45px;line-height:1.25;font-family:Lavi;-inkscape-font-specification:Lavi;text-align:center;letter-spacing:0px;word-spacing:0px;text-anchor:middle;fill:#000000;fill-opacity:1;stroke:none"
       xml:space="preserve"><tspan
         id="tspan1009"
         y="2128.7795"
         x="2165.3418"
         sodipodi:role="line"
         style="font-size:45px"> Voordat</tspan><tspan
         y="2185.0295"
         x="2165.3418"
         sodipodi:role="line"
         style="font-size:45px"
         id="tspan1459">ze ons</tspan><tspan
         y="2241.2795"
         x="2165.3418"
         sodipodi:role="line"
         style="font-size:45px"
         id="tspan1461">vangen!</tspan></text>
    <text
       id="text4246-3-2-2-3-6-2-7-2-3"
       y="2595.384"
       x="267.49057"
       style="font-style:normal;font-variant:normal;font-weight:normal;font-stretch:normal;font-size:45px;line-height:1.25;font-family:Lavi;-inkscape-font-specification:Lavi;text-align:center;letter-spacing:0px;word-spacing:0px;text-anchor:middle;fill:#000000;fill-opacity:1;stroke:none"
       xml:space="preserve"><tspan
         y="2595.384"
         x="267.49057"
         sodipodi:role="line"
         style="font-size:45px"
         id="tspan1552">Maar ik</tspan><tspan
         y="2651.634"
         x="267.49057"
         sodipodi:role="line"
         style="font-size:45px"
         id="tspan1556">ben zó...</tspan></text>
    <text
       id="text4246-3-2-2-3-6-2-7-2-3-3-3"
       y="2691.9717"
       x="703.28534"
       style="font-style:normal;font-variant:normal;font-weight:normal;font-stretch:normal;font-size:45px;line-height:1.25;font-family:Lavi;-inkscape-font-specification:Lavi;text-align:center;letter-spacing:0px;word-spacing:0px;text-anchor:middle;fill:#000000;fill-opacity:1;stroke:none"
       xml:space="preserve"><tspan
         sodipodi:role="line"
         id="tspan1318-9-6"
         y="2691.9717"
         x="703.28534"
         style="font-size:45px">...ontzettend...</tspan><tspan
         sodipodi:role="line"
         id="tspan1356-7"
         y="2748.2217"
         x="703.28534"
         style="font-size:45px" /></text>
    <text
       id="text4246-3-2-2-3-6-2-7-2-3-3"
       y="2507.2249"
       x="1192.5862"
       style="font-style:normal;font-variant:normal;font-weight:normal;font-stretch:normal;font-size:45px;line-height:1.25;font-family:Lavi;-inkscape-font-specification:Lavi;text-align:center;letter-spacing:0px;word-spacing:0px;text-anchor:middle;fill:#000000;fill-opacity:1;stroke:none"
       xml:space="preserve"><tspan
         id="tspan1318-9"
         y="2507.2249"
         x="1192.5862"
         sodipodi:role="line"
         style="font-size:45px" /><tspan
         id="tspan1356"
         y="2563.4749"
         x="1199.6174"
         sodipodi:role="line"
         style="font-size:45px">...moe... </tspan></text>
    <text
       id="text4246-3-2-2-3-6-2-7-2-3-3-4"
       y="2628.5286"
       x="1690.2407"
       style="font-style:normal;font-variant:normal;font-weight:normal;font-stretch:normal;font-size:64.434px;line-height:1.25;font-family:Lavi;-inkscape-font-specification:Lavi;text-align:center;letter-spacing:0px;word-spacing:0px;text-anchor:middle;fill:#000000;fill-opacity:1;stroke:none;stroke-width:1.43187"
       xml:space="preserve"><tspan
         id="tspan1356-4"
         y="2628.5286"
         x="1690.2407"
         sodipodi:role="line"
         style="font-style:normal;font-variant:normal;font-weight:bold;font-stretch:normal;font-size:64.434px;font-family:Lavi;-inkscape-font-specification:'Lavi Bold';stroke-width:1.43187">OEPS!</tspan></text>
    <text
       id="text4246-3-2-2-3-6-2-7-2-3-5"
       y="2693.7734"
       x="1888.8866"
       style="font-style:normal;font-variant:normal;font-weight:normal;font-stretch:normal;font-size:45px;line-height:1.25;font-family:Lavi;-inkscape-font-specification:Lavi;text-align:center;letter-spacing:0px;word-spacing:0px;text-anchor:middle;fill:#000000;fill-opacity:1;stroke:none"
       xml:space="preserve"><tspan
         id="tspan1024"
         y="2693.7734"
         x="1888.8866"
         sodipodi:role="line"
         style="font-size:45px">Wel je hoofd</tspan><tspan
         y="2750.0234"
         x="1888.8866"
         sodipodi:role="line"
         style="font-size:45px"
         id="tspan1896">erbij houden,</tspan><tspan
         y="2806.2734"
         x="1888.8866"
         sodipodi:role="line"
         style="font-size:45px"
         id="tspan1898">Pepper!</tspan></text>
  </g>
</svg>
