<?xml version="1.0" encoding="UTF-8" standalone="no"?>
<svg
   sodipodi:docname="E35P06.svg"
   height="3503"
   width="2481"
   inkscape:version="1.2.1 (9c6d41e410, 2022-07-14)"
   version="1.1"
   id="svg2"
   xmlns:inkscape="http://www.inkscape.org/namespaces/inkscape"
   xmlns:sodipodi="http://sodipodi.sourceforge.net/DTD/sodipodi-0.dtd"
   xmlns:xlink="http://www.w3.org/1999/xlink"
   xmlns="http://www.w3.org/2000/svg"
   xmlns:svg="http://www.w3.org/2000/svg"
   xmlns:rdf="http://www.w3.org/1999/02/22-rdf-syntax-ns#"
   xmlns:cc="http://creativecommons.org/ns#"
   xmlns:dc="http://purl.org/dc/elements/1.1/">
  <metadata
     id="metadata8">
    <rdf:RDF>
      <cc:Work
         rdf:about="">
        <dc:format>image/svg+xml</dc:format>
        <dc:type
           rdf:resource="http://purl.org/dc/dcmitype/StillImage" />
        <dc:title />
      </cc:Work>
    </rdf:RDF>
  </metadata>
  <defs
     id="defs6" />
  <sodipodi:namedview
     inkscape:pagecheckerboard="0"
     inkscape:snap-global="false"
     inkscape:document-rotation="0"
     inkscape:current-layer="layer1"
     inkscape:window-maximized="1"
     inkscape:window-y="36"
     inkscape:window-x="1283"
     inkscape:cy="2284.7324"
     inkscape:cx="1229.4478"
     inkscape:zoom="0.48517716"
     showgrid="false"
     id="namedview4"
     inkscape:window-height="1388"
     inkscape:window-width="1261"
     inkscape:pageshadow="2"
     inkscape:pageopacity="0"
     guidetolerance="10"
     gridtolerance="10"
     objecttolerance="10"
     borderopacity="1"
     bordercolor="#666666"
     pagecolor="#ffffff"
     inkscape:showpageshadow="2"
     inkscape:deskcolor="#d1d1d1" />
  <g
     sodipodi:insensitive="true"
     inkscape:label="artwork"
     id="layer2"
     inkscape:groupmode="layer">
    <image
       xlink:href="../gfx_Pepper-and-Carrot_by-David-Revoy_E35P06.png"
       width="2481"
       height="3503"
       id="image10"
       x="0"
       y="0" />
  </g>
  <g
     style="display:inline"
     inkscape:label="speechbubbles"
     id="layer3"
     inkscape:groupmode="layer">
    <path
       sodipodi:nodetypes="csssssssc"
       inkscape:connector-curvature="0"
       id="path3286-6"
       d="m 607.92137,384.51193 c -18.97658,-0.28048 -37.9164,-1.23673 -56.78172,-2.49152 -29.1325,-2.09423 -58.25901,-5.55963 -85.58161,-12.29842 -32.44041,-8.71777 -56.6466,-27.67441 -64.35279,-48.98868 -12.26955,-25.44667 -13.2775,-53.37675 0.77968,-78.67177 9.23675,-15.59964 29.88156,-27.85631 53.68405,-35.03131 38.54181,-11.97934 81.62008,-18.39272 124.72339,-18.07244 26.1732,-0.0574 52.36235,0.55433 78.42988,1.98244 31.94412,1.96455 64.08756,6.90228 91.50347,17.55682 18.22472,7.13794 32.99044,17.84784 40.28692,30.50258 6.46288,10.68112 7.66552,22.25764 6.92384,33.57344 -0.49818,19.19733 -1.69749,38.75181 -11.48367,57.15145 -6.57799,11.88762 -20.81483,21.6789 -37.43173,28.62822 -11.42167,4.77632 -24.17467,8.12007 -36.78213,11.4731 -30.02869,7.63411 -61.84534,12.74716 -94.20213,14.40592 -3.2334,0.15215 -6.47387,0.24299 -9.71545,0.28017 z"
       style="fill:#ffffff;stroke:none;stroke-width:0.912362" />
    <path
       sodipodi:nodetypes="cccccccccccccccccccccccc"
       id="path961"
       d="m -11.698607,1502.9614 c 47.285128,0.9709 41.020285,18.9206 23.991775,40.2832 13.099827,-1.4369 43.737529,-21.2257 25.570695,10.0555 39.667306,-11.3646 56.420658,15.5887 53.197356,27.1509 19.484341,-3.9803 39.465281,-0.6376 19.136541,40.2724 19.63803,-9.167 36.84145,-36.8642 34.60501,7.2244 15.89818,-5.4725 36.78638,-26.5581 39.43737,9.4172 21.01567,-17.7601 41.89473,-32.9121 60.6718,-7.9194 19.53008,-36.1747 39.245,-23.3546 52.60208,12.4772 6.27564,-43.4296 43.52626,-25.9104 66.90689,19.5777 -7.42371,-37.6335 -38.94668,-89.6447 54.67081,-13.5228 -39.72841,-55.9177 -44.6055,-77.4348 72.48794,-15.7856 -14.94217,-22.6503 -39.19887,-77.1061 56.32185,-18.4508 -64.83065,-67.3048 -26.58017,-74.4012 20.0383,-86.5626 -56.61095,-1.7957 -73.29896,-19.4105 -12.88074,-26.8793 -92.57779,-8.7403 -70.1637,-30.4201 -40.69585,-66.7128 -47.37424,27.6916 -40.57833,11.5769 -29.22077,-3.1512 -84.20036,29.1003 -49.08304,-16.958 -41.30815,-34.9119 -41.35702,19.0141 -54.17414,16.8415 -50.28863,-11.8494 -22.95791,24.5753 -47.24278,23.9494 -45.05674,14.2836 l -57.8602,-8.2257 -275.30273,5.4155 -12.063932,88.2476 c 72.623699,-4.1891 28.465227,14.6958 -14.960675,19.5663 z"
       style="display:inline;fill:#ffffff;fill-rule:evenodd;stroke:none;stroke-width:1.36247px;stroke-linecap:butt;stroke-linejoin:miter;stroke-opacity:1" />
    <path
       inkscape:connector-curvature="0"
       id="path3525-0"
       d="m 653.44096,2284.6197 c -5.29636,-32.2232 8.82751,-117.8181 117.40465,-110.7687 108.57713,7.0484 126.23198,47.3286 128.88017,59.4118 2.64817,12.0843 25.59947,80.5602 -59.14361,98.6855 -84.74325,18.1262 -160.65891,-1.0073 -187.14121,-47.3286 z"
       style="color:#000000;display:inline;overflow:visible;visibility:visible;fill:#ffffff;fill-opacity:1;fill-rule:nonzero;stroke:none;stroke-width:0.796521px;marker:none;enable-background:accumulate" />
    <path
       inkscape:connector-curvature="0"
       id="path3072-56"
       d="m 777.45911,2075.5812 c 24.221,32.672 31.0089,45.658 8.1243,87.146 -22.8847,41.487 -7.3195,49.577 -7.3195,49.577 l 28.2503,-15.376 c 0,0 42.659,-91.848 -29.0551,-121.347 z"
       style="color:#000000;display:inline;overflow:visible;visibility:visible;fill:#ffffff;fill-opacity:1;fill-rule:nonzero;stroke:none;stroke-width:1px;marker:none;enable-background:accumulate" />
    <path
       sodipodi:nodetypes="ccccc"
       inkscape:connector-curvature="0"
       id="path3072-5-5"
       d="m 790.05117,430.42235 c -47.0829,-20.24287 -67.22496,-54.55991 -84.15983,-115.70701 -17.59681,-45.717 -36.07245,-33.52653 -36.07245,-33.52653 l 6.37734,17.91035 c 0,0 -3.04742,117.01808 113.85494,131.32319 z"
       style="color:#000000;display:inline;overflow:visible;visibility:visible;fill:#ffffff;fill-opacity:1;fill-rule:nonzero;stroke:none;stroke-width:1px;marker:none;enable-background:accumulate" />
    <path
       sodipodi:nodetypes="csccssscc"
       inkscape:connector-curvature="0"
       id="path3282-7"
       d="m 393.56677,1606.3671 c 21.51156,33.7205 38.79051,39.1501 50.26035,53.0664 11.46981,13.9172 -2.88402,43.4737 0.19353,53.5399 3.70439,9.4958 0.69509,16.2497 29.83986,39.4536 -46.26,-20.9908 -40.86354,-33.0957 -44.26871,-41.9175 -4.68096,-12.128 3.84885,-26.4644 -8.51834,-37.4754 -11.9791,-10.667 -55.59571,-40.8524 -64.07404,-63.4543 -8.47865,-22.6019 -12.84256,-23.9886 -12.84256,-23.9886 z"
       style="display:inline;fill:#ffffff;fill-opacity:1;stroke:none;stroke-width:1.10947" />
  </g>
  <g
     inkscape:label="txt"
     id="layer1"
     inkscape:groupmode="layer">
    <text
       id="text4246-3-2-2"
       y="275.44324"
       x="595.95026"
       style="font-style:normal;font-variant:normal;font-weight:normal;font-stretch:normal;font-size:45px;line-height:1.25;font-family:Lavi;-inkscape-font-specification:Lavi;text-align:center;letter-spacing:0px;word-spacing:0px;text-anchor:middle;fill:#000000;fill-opacity:1;stroke:none"
       xml:space="preserve"><tspan
         y="275.44324"
         x="595.95026"
         sodipodi:role="line"
         style="font-size:45px"
         id="tspan306">De grot van het</tspan><tspan
         y="331.69324"
         x="595.95026"
         sodipodi:role="line"
         style="font-size:45px"
         id="tspan312">Hoornmeer!</tspan><tspan
         id="tspan905"
         y="387.94324"
         x="595.95026"
         sodipodi:role="line"
         style="font-size:45px" /></text>
    <text
       id="text4246-3-2-2-3"
       y="1507.2617"
       x="295.54977"
       style="font-style:normal;font-variant:normal;font-weight:normal;font-stretch:normal;font-size:45px;line-height:1.25;font-family:Lavi;-inkscape-font-specification:Lavi;text-align:center;letter-spacing:0px;word-spacing:0px;text-anchor:middle;fill:#000000;fill-opacity:1;stroke:none"
       xml:space="preserve"><tspan
         id="tspan880"
         y="1507.2617"
         x="295.54977"
         sodipodi:role="line"
         style="font-size:45px">Carrot, dit </tspan><tspan
         y="1563.5117"
         x="295.54977"
         sodipodi:role="line"
         style="font-size:45px"
         id="tspan363">is onze kans!</tspan></text>
    <text
       id="text4246-3-2-2-3-5"
       y="2236.7644"
       x="781.18762"
       style="font-style:normal;font-variant:normal;font-weight:normal;font-stretch:normal;font-size:45px;line-height:1.25;font-family:Lavi;-inkscape-font-specification:Lavi;text-align:center;letter-spacing:0px;word-spacing:0px;text-anchor:middle;fill:#000000;fill-opacity:1;stroke:none"
       xml:space="preserve"><tspan
         id="tspan884"
         y="2236.7644"
         x="781.18762"
         sodipodi:role="line"
         style="font-size:45px"> Ik ken  </tspan><tspan
         y="2293.0144"
         x="781.18762"
         sodipodi:role="line"
         style="font-size:45px"
         id="tspan367">deze grot.</tspan></text>
    <text
       id="text4246-3-2-2-3-5-9"
       y="2549.3845"
       x="201.94211"
       style="font-style:normal;font-variant:normal;font-weight:normal;font-stretch:normal;font-size:45px;line-height:1.25;font-family:Lavi;-inkscape-font-specification:Lavi;text-align:center;letter-spacing:0px;word-spacing:0px;text-anchor:middle;fill:#ffffff;fill-opacity:1;stroke:none"
       xml:space="preserve"><tspan
         id="tspan889"
         y="2549.3845"
         x="201.94211"
         sodipodi:role="line"
         style="font-size:45px;text-align:start;text-anchor:start;fill:#ffffff">Het is een kronkelende gang die</tspan><tspan
         y="2605.6345"
         x="201.94211"
         sodipodi:role="line"
         style="font-size:45px;text-align:start;text-anchor:start;fill:#ffffff"
         id="tspan410">uitloopt op een ingestorte zaal.</tspan></text>
    <text
       id="text4246-3-2-2-3-5-9-7"
       y="3059.7258"
       x="1335.3069"
       style="font-style:normal;font-variant:normal;font-weight:normal;font-stretch:normal;font-size:45px;line-height:1.25;font-family:Lavi;-inkscape-font-specification:Lavi;text-align:center;letter-spacing:0px;word-spacing:0px;text-anchor:middle;fill:#ffffff;fill-opacity:1;stroke:none"
       xml:space="preserve"><tspan
         y="3059.7258"
         x="1335.3069"
         sodipodi:role="line"
         style="font-size:45px;text-align:end;text-anchor:end;fill:#ffffff"
         id="tspan418"> De stalactieten aan het plafond van die zaal vormen nu</tspan><tspan
         y="3115.9758"
         x="1335.3069"
         sodipodi:role="line"
         style="font-size:45px;text-align:end;text-anchor:end;fill:#ffffff"
         id="tspan422">een muur van spiezen. Het is een dodelijke val!</tspan></text>
    <text
       id="text4246-3-2-2-3-5-9-7-3"
       y="2753.425"
       x="1482.9749"
       style="font-style:normal;font-variant:normal;font-weight:normal;font-stretch:normal;font-size:45px;line-height:1.25;font-family:Lavi;-inkscape-font-specification:Lavi;text-align:center;letter-spacing:0px;word-spacing:0px;text-anchor:middle;fill:#000000;fill-opacity:1;stroke:none"
       xml:space="preserve"><tspan
         id="tspan908"
         y="2753.425"
         x="1482.9749"
         sodipodi:role="line"
         style="font-size:45px;text-align:start;text-anchor:start;fill:#ffffff">Er is een kleine opening die net</tspan><tspan
         y="2809.675"
         x="1482.9749"
         sodipodi:role="line"
         style="font-size:45px;text-align:start;text-anchor:start;fill:#ffffff"
         id="tspan468">groot genoeg is om ons er</tspan><tspan
         y="2865.925"
         x="1482.9749"
         sodipodi:role="line"
         style="font-size:45px;text-align:start;text-anchor:start;fill:#ffffff"
         id="tspan470">doorheen te wurmen,</tspan></text>
    <text
       id="text4246-3-2-2-3-5-9-7-3-3"
       y="3223.4587"
       x="2301.0408"
       style="font-style:normal;font-variant:normal;font-weight:normal;font-stretch:normal;font-size:45px;line-height:1.25;font-family:Lavi;-inkscape-font-specification:Lavi;text-align:center;letter-spacing:0px;word-spacing:0px;text-anchor:middle;fill:#000000;fill-opacity:1;stroke:none;stroke-width:1.25015"
       xml:space="preserve"><tspan
         id="tspan927"
         y="3223.4587"
         x="2301.0408"
         sodipodi:role="line"
         style="font-size:45px;text-align:end;text-anchor:end;fill:#ffffff;stroke-width:1.25015">maar de draak zal nooit op tijd kunnen</tspan><tspan
         y="3279.7087"
         x="2301.0408"
         sodipodi:role="line"
         style="font-size:45px;text-align:end;text-anchor:end;fill:#ffffff;stroke-width:1.25015"
         id="tspan524">stoppen om niet op hoge snelheid op</tspan><tspan
         y="3335.9587"
         x="2301.0408"
         sodipodi:role="line"
         style="font-size:45px;text-align:end;text-anchor:end;fill:#ffffff;stroke-width:1.25015"
         id="tspan479">de muur in te vliegen! Mwahahaha!</tspan></text>
  </g>
</svg>
