<?xml version="1.0" encoding="UTF-8" standalone="no"?>
<!-- Created with Inkscape (http://www.inkscape.org/) -->

<svg
   xmlns:dc="http://purl.org/dc/elements/1.1/"
   xmlns:cc="http://creativecommons.org/ns#"
   xmlns:rdf="http://www.w3.org/1999/02/22-rdf-syntax-ns#"
   xmlns:svg="http://www.w3.org/2000/svg"
   xmlns="http://www.w3.org/2000/svg"
   xmlns:xlink="http://www.w3.org/1999/xlink"
   xmlns:sodipodi="http://sodipodi.sourceforge.net/DTD/sodipodi-0.dtd"
   xmlns:inkscape="http://www.inkscape.org/namespaces/inkscape"
   id="svg2"
   version="1.1"
   inkscape:version="0.92.4 5da689c313, 2019-01-14"
   width="2481"
   height="3503"
   sodipodi:docname="E28P09.svg">
  <metadata
     id="metadata8">
    <rdf:RDF>
      <cc:Work
         rdf:about="">
        <dc:format>image/svg+xml</dc:format>
        <dc:type
           rdf:resource="http://purl.org/dc/dcmitype/StillImage" />
        <dc:title />
      </cc:Work>
    </rdf:RDF>
  </metadata>
  <defs
     id="defs6" />
  <sodipodi:namedview
     pagecolor="#ffffff"
     bordercolor="#666666"
     borderopacity="1"
     objecttolerance="10"
     gridtolerance="10"
     guidetolerance="10"
     inkscape:pageopacity="0"
     inkscape:pageshadow="2"
     inkscape:window-width="1920"
     inkscape:window-height="1001"
     id="namedview4"
     showgrid="false"
     inkscape:zoom="0.36415091"
     inkscape:cx="962.03947"
     inkscape:cy="3021.8804"
     inkscape:window-x="0"
     inkscape:window-y="45"
     inkscape:window-maximized="1"
     inkscape:current-layer="layer3" />
  <g
     inkscape:groupmode="layer"
     id="layer2"
     inkscape:label="artwork"
     sodipodi:insensitive="true">
    <image
       sodipodi:absref="/home/ambernite/peppercarrot/webcomics/ep28_The-Festivities/lang/kr/../gfx_Pepper-and-Carrot_by-David-Revoy_E28P09.png"
       xlink:href="../gfx_Pepper-and-Carrot_by-David-Revoy_E28P09.png"
       width="2481"
       height="3503"
       id="image10"
       x="0"
       y="0" />
  </g>
  <g
     inkscape:groupmode="layer"
     id="layer3"
     inkscape:label="speechbubbles">
    <path
       style="fill:#ffffff;fill-rule:evenodd;stroke:none;stroke-width:0.88319981px;stroke-linecap:butt;stroke-linejoin:miter;stroke-opacity:1"
       d="m 1178.8263,270.41041 c 18.3925,-55.19692 45.2737,-75.47334 77.8143,-79.97921 32.5405,-4.50587 149.9693,-3.37941 189.5838,-2.25293 39.6145,1.12646 94.7919,12.39114 103.2807,49.56458 8.4889,37.17343 8.4889,122.78499 -14.1481,144.18787 -22.6368,21.40289 -74.9846,34.92051 -127.3324,33.79404 -52.3477,-1.12647 -168.3616,10.1382 -199.4874,-28.1617 -31.1257,-38.2999 -32.5405,-88.99095 -29.7109,-117.15265 z"
       id="path889"
       inkscape:connector-curvature="0" />
    <path
       style="fill:#ffffff;fill-rule:evenodd;stroke:none;stroke-width:1px;stroke-linecap:butt;stroke-linejoin:miter;stroke-opacity:1"
       d="m 1115.0193,506.87426 c 34.1115,-49.03527 51.8779,-64.6697 63.2484,-73.19757 -2.8427,27.00493 -2.8427,32.69017 4.2639,32.69017 7.1066,0 170.5574,-137.15661 170.5574,-137.15661 l -87.4106,23.45165 c 0,0 -32.6902,47.61396 -46.9033,61.11642 -14.2132,13.50246 -29.1369,24.87296 -29.1369,24.87296 0,0 6.3959,-14.92378 4.2639,-19.89837 -2.132,-4.97459 -20.609,-17.7664 -78.8828,88.12135 z"
       id="path891"
       inkscape:connector-curvature="0" />
    <path
       style="fill:#ffffff;fill-rule:evenodd;stroke:none;stroke-width:0.8465783px;stroke-linecap:butt;stroke-linejoin:miter;stroke-opacity:1"
       d="m 2104.5271,120.38398 c 6.8741,-36.33592 24.6002,-35.141934 36.9004,-35.959188 12.3002,-0.817255 123.0016,-0.817255 140.5733,1.634508 17.5717,2.451764 33.3861,16.34509 35.1433,36.77645 1.7571,20.43136 4.8456,52.62495 -20.5003,68.64937 -27.1135,17.14205 -134.1303,16.34509 -162.8307,4.90353 -28.7004,-11.44157 -36.1602,-39.66874 -29.286,-76.00467 z"
       id="path893"
       inkscape:connector-curvature="0"
       sodipodi:nodetypes="zsscssz" />
    <path
       style="fill:#ffffff;fill-rule:evenodd;stroke:none;stroke-width:1px;stroke-linecap:butt;stroke-linejoin:miter;stroke-opacity:1"
       d="m 2267.1497,172.17705 c -25.3365,54.38062 -31.9986,68.79 -36.9423,79.91331 -4.9437,11.12331 1.2237,26.43947 21.9453,22.50245 28.8196,-5.4756 85.7031,8.41081 27.3562,113.25288 42.6394,-101.96369 -1.8539,-98.25592 -18.5389,-93.93019 -16.6849,4.32573 -76.0093,8.65147 -60.5602,-45.11121 15.449,-53.76267 50.0549,-124.2103 50.0549,-124.2103 l 25.9544,16.68497 z"
       id="path895"
       inkscape:connector-curvature="0"
       sodipodi:nodetypes="csscccccc" />
    <path
       style="fill:#ffffff;fill-rule:evenodd;stroke:none;stroke-width:0.78601813px;stroke-linecap:butt;stroke-linejoin:miter;stroke-opacity:1"
       d="m 2030.7352,1018.3127 c 7.0992,-65.50215 67.9267,-85.20122 130.2091,-78.39563 62.2823,6.80558 94.3908,49.3144 95.5111,86.85223 0.2421,31.1419 -7.8479,78.9591 -71.9121,88.8286 -64.0642,9.8696 -159.5091,-2.882 -153.8081,-97.2852 z"
       id="path912"
       inkscape:connector-curvature="0"
       sodipodi:nodetypes="cscsc" />
    <path
       style="fill:#ffffff;fill-rule:evenodd;stroke:none;stroke-width:1px;stroke-linecap:butt;stroke-linejoin:miter;stroke-opacity:1"
       d="m 2172.6623,824.46041 c 28.5876,33.55943 48.4747,75.81945 -1.243,121.8083 -49.7176,45.98884 31.0736,31.07354 31.0736,31.07354 0,0 72.0906,-75.81945 -29.8306,-152.88184 z"
       id="path914"
       inkscape:connector-curvature="0" />
    <text
       transform="matrix(0.96049651,0,-0.32716292,1.0411282,0,0)"
       id="text877"
       y="3330.1455"
       x="2426.7747"
       style="font-style:normal;font-variant:normal;font-weight:normal;font-stretch:normal;font-size:64.77378082px;line-height:100%;font-family:'Nanum Pen Script OTF';-inkscape-font-specification:'Nanum Pen Script OTF';font-variant-ligatures:normal;font-variant-caps:normal;font-variant-numeric:normal;font-feature-settings:normal;text-align:center;letter-spacing:0px;word-spacing:0px;writing-mode:lr-tb;text-anchor:middle;display:inline;fill:#241c1c;fill-opacity:1;stroke:#000000;stroke-width:1.21402836;stroke-miterlimit:4;stroke-dasharray:none;stroke-opacity:1"
       xml:space="preserve"><tspan
         style="font-style:normal;font-variant:normal;font-weight:normal;font-stretch:normal;font-size:64.77378082px;line-height:100%;font-family:'Nanum Pen Script OTF';-inkscape-font-specification:'Nanum Pen Script OTF';font-variant-ligatures:normal;font-variant-caps:normal;font-variant-numeric:normal;font-feature-settings:normal;text-align:center;writing-mode:lr-tb;text-anchor:middle;stroke-width:1.21402836"
         y="3330.1455"
         x="2426.7747"
         id="tspan875"
         sodipodi:role="line">다음 화에 계속...</tspan></text>
  </g>
  <g
     inkscape:groupmode="layer"
     id="layer1"
     inkscape:label="txt">
    <text
       id="text841"
       y="265.03949"
       x="1371.3904"
       style="font-style:normal;font-variant:normal;font-weight:normal;font-stretch:normal;font-size:14.65134907px;line-height:100%;font-family:'Nanum Pen Script OTF';-inkscape-font-specification:'Nanum Pen Script OTF';text-align:center;letter-spacing:0px;word-spacing:0px;text-anchor:middle;fill:#000000;fill-opacity:1;stroke:none;stroke-width:1.22094572"
       xml:space="preserve"><tspan
         id="tspan833"
         y="265.03949"
         x="1371.3904"
         style="font-style:normal;font-variant:normal;font-weight:normal;font-stretch:normal;font-size:54.94255829px;line-height:100%;font-family:'Nanum Pen Script OTF';-inkscape-font-specification:'Nanum Pen Script OTF';stroke-width:1.22094572"
         sodipodi:role="line">오! 후추야!?</tspan><tspan
         id="tspan839"
         y="319.98206"
         x="1371.3904"
         style="font-style:normal;font-variant:normal;font-weight:normal;font-stretch:normal;font-size:54.94255829px;line-height:100%;font-family:'Nanum Pen Script OTF';-inkscape-font-specification:'Nanum Pen Script OTF';stroke-width:1.22094572"
         sodipodi:role="line">혹시 우리가</tspan><tspan
         y="374.92462"
         x="1371.3904"
         style="font-style:normal;font-variant:normal;font-weight:normal;font-stretch:normal;font-size:54.94255829px;line-height:100%;font-family:'Nanum Pen Script OTF';-inkscape-font-specification:'Nanum Pen Script OTF';stroke-width:1.22094572"
         sodipodi:role="line"
         id="tspan857">기분 나쁘게 했니?</tspan></text>
    <text
       id="text845"
       y="161.3587"
       x="2212.6846"
       style="font-style:normal;font-variant:normal;font-weight:normal;font-stretch:normal;font-size:15.22448063px;line-height:100%;font-family:'Nanum Pen Script OTF';-inkscape-font-specification:'Nanum Pen Script OTF';text-align:center;letter-spacing:0px;word-spacing:0px;text-anchor:middle;fill:#000000;fill-opacity:1;stroke:none;stroke-width:1.26870668"
       xml:space="preserve"><tspan
         id="tspan843"
         y="161.3587"
         x="2212.6846"
         style="font-style:normal;font-variant:normal;font-weight:normal;font-stretch:normal;font-size:57.09180069px;line-height:100%;font-family:'Nanum Pen Script OTF';-inkscape-font-specification:'Nanum Pen Script OTF';stroke-width:1.26870668"
         sodipodi:role="line">아니야!</tspan></text>
    <text
       id="text851"
       y="1018.264"
       x="2142.0857"
       style="font-style:normal;font-variant:normal;font-weight:normal;font-stretch:normal;font-size:15.3731966px;line-height:100%;font-family:'Nanum Pen Script OTF';-inkscape-font-specification:'Nanum Pen Script OTF';text-align:center;letter-spacing:0px;word-spacing:0px;text-anchor:middle;fill:#000000;fill-opacity:1;stroke:none;stroke-width:1.28109968"
       xml:space="preserve"><tspan
         id="tspan849"
         y="1018.264"
         x="2142.0857"
         style="font-style:normal;font-variant:normal;font-weight:normal;font-stretch:normal;font-size:57.64948654px;line-height:100%;font-family:'Nanum Pen Script OTF';-inkscape-font-specification:'Nanum Pen Script OTF';stroke-width:1.28109968"
         sodipodi:role="line">고마워,</tspan><tspan
         y="1075.9135"
         x="2142.0857"
         style="font-style:normal;font-variant:normal;font-weight:normal;font-stretch:normal;font-size:57.64948654px;line-height:100%;font-family:'Nanum Pen Script OTF';-inkscape-font-specification:'Nanum Pen Script OTF';stroke-width:1.28109968"
         sodipodi:role="line"
         id="tspan865">친구들!</tspan></text>
  </g>
</svg>
