<?xml version="1.0" encoding="UTF-8" standalone="no"?>
<svg
   xmlns:dc="http://purl.org/dc/elements/1.1/"
   xmlns:cc="http://creativecommons.org/ns#"
   xmlns:rdf="http://www.w3.org/1999/02/22-rdf-syntax-ns#"
   xmlns:svg="http://www.w3.org/2000/svg"
   xmlns="http://www.w3.org/2000/svg"
   xmlns:xlink="http://www.w3.org/1999/xlink"
   xmlns:sodipodi="http://sodipodi.sourceforge.net/DTD/sodipodi-0.dtd"
   xmlns:inkscape="http://www.inkscape.org/namespaces/inkscape"
   sodipodi:docname="E35P12.svg"
   height="3503"
   width="2481"
   inkscape:version="0.91 r13725"
   version="1.1"
   id="svg2">
  <metadata
     id="metadata8">
    <rdf:RDF>
      <cc:Work
         rdf:about="">
        <dc:format>image/svg+xml</dc:format>
        <dc:type
           rdf:resource="http://purl.org/dc/dcmitype/StillImage" />
        <dc:title />
      </cc:Work>
    </rdf:RDF>
  </metadata>
  <defs
     id="defs6" />
  <sodipodi:namedview
     inkscape:pagecheckerboard="0"
     inkscape:document-rotation="0"
     inkscape:current-layer="layer1"
     inkscape:window-maximized="1"
     inkscape:window-y="24"
     inkscape:window-x="65"
     inkscape:cy="390.99372"
     inkscape:cx="1459.4866"
     inkscape:zoom="0.24734684"
     showgrid="false"
     id="namedview4"
     inkscape:window-height="576"
     inkscape:window-width="959"
     inkscape:pageshadow="2"
     inkscape:pageopacity="0"
     guidetolerance="10"
     gridtolerance="10"
     objecttolerance="10"
     borderopacity="1"
     bordercolor="#666666"
     pagecolor="#ffffff" />
  <g
     sodipodi:insensitive="true"
     inkscape:label="artwork"
     id="layer2"
     inkscape:groupmode="layer">
    <image
       sodipodi:absref="/home/denez/Desktop/Link to Projet ADG/AdG 2-Travaux/5-BD pepper trad/35/gfx_Pepper-and-Carrot_by-David-Revoy_E35P12.png"
       xlink:href="../gfx_Pepper-and-Carrot_by-David-Revoy_E35P12.png"
       y="0"
       x="0"
       id="image10"
       height="3503"
       width="2481" />
  </g>
  <g
     inkscape:label="speechbubbles"
     id="layer3"
     inkscape:groupmode="layer">
    <rect
       y="865.21362"
       x="126.66092"
       height="222.37225"
       width="423.54129"
       id="rect1254"
       style="color:#000000;font-variation-settings:normal;overflow:visible;opacity:1;vector-effect:none;fill:#ffffff;fill-opacity:1;stroke-width:0;stroke-linecap:round;stroke-linejoin:miter;stroke-miterlimit:4;stroke-dasharray:none;stroke-dashoffset:0;stroke-opacity:1;paint-order:stroke fill markers;stop-color:#000000;stop-opacity:1" />
    <rect
       y="1822.9106"
       x="1138.6371"
       height="183.42383"
       width="396.67682"
       id="rect1256"
       style="color:#000000;font-variation-settings:normal;overflow:visible;opacity:1;vector-effect:none;fill:#ffffff;fill-opacity:1;stroke-width:0;stroke-linecap:round;stroke-linejoin:miter;stroke-miterlimit:4;stroke-dasharray:none;stroke-dashoffset:0;stroke-opacity:1;paint-order:stroke fill markers;stop-color:#000000;stop-opacity:1" />
    <rect
       y="888.93719"
       x="1634.1818"
       height="130.19362"
       width="349.26062"
       id="rect1256-3"
       style="color:#000000;font-variation-settings:normal;overflow:visible;opacity:1;vector-effect:none;fill:#ffffff;fill-opacity:1;stroke-width:0;stroke-linecap:round;stroke-linejoin:miter;stroke-miterlimit:4;stroke-dasharray:none;stroke-dashoffset:0;stroke-opacity:1;paint-order:stroke fill markers;stop-color:#000000" />
  </g>
  <g
     inkscape:label="txt"
     id="layer1"
     inkscape:groupmode="layer">
    <text
       id="text4246-3-2-2"
       y="935.68262"
       x="344.936"
       style="font-style:normal;font-variant:normal;font-weight:normal;font-stretch:normal;font-size:45px;line-height:1.25;font-family:Lavi;-inkscape-font-specification:Lavi;text-align:center;letter-spacing:0px;word-spacing:0px;text-anchor:middle;fill:#000000;fill-opacity:1;stroke:none"
       xml:space="preserve"><tspan
         y="935.68262"
         x="344.936"
         sodipodi:role="line"
         style="font-size:45px"
         id="tspan3938">Maezei, n’y a pas</tspan><tspan
         y="991.93262"
         x="344.936"
         sodipodi:role="line"
         style="font-size:45px"
         id="tspan3940">choês lez risqes</tspan><tspan
         y="1048.1826"
         x="344.936"
         sodipodi:role="line"
         style="font-size:45px"
         id="tspan3942">e lez en-chaod,</tspan></text>
    <text
       id="text4246-3-2-2-1"
       y="1874.0775"
       x="1335.5546"
       style="font-style:normal;font-variant:normal;font-weight:normal;font-stretch:normal;font-size:45px;line-height:1.25;font-family:Lavi;-inkscape-font-specification:Lavi;text-align:center;letter-spacing:0px;word-spacing:0px;text-anchor:middle;fill:#000000;fill-opacity:1;stroke:none"
       xml:space="preserve"><tspan
         id="tspan867"
         y="1874.0775"
         x="1335.5546"
         sodipodi:role="line"
         style="font-size:45px">pus qhession</tspan><tspan
         y="1930.3275"
         x="1342.7177"
         sodipodi:role="line"
         style="font-size:45px"
         id="tspan3956"> jamaez de </tspan><tspan
         y="1986.5775"
         x="1335.5546"
         sodipodi:role="line"
         style="font-size:45px"
         id="tspan3958">me déconaettr</tspan></text>
    <text
       id="text4246-3-2-2-1-6"
       y="968.28711"
       x="1806.0106"
       style="font-style:normal;font-variant:normal;font-weight:normal;font-stretch:normal;font-size:45px;line-height:1.25;font-family:Lavi;-inkscape-font-specification:Lavi;text-align:center;letter-spacing:0px;word-spacing:0px;text-anchor:middle;fill:#000000;fill-opacity:1;stroke:none"
       xml:space="preserve"><tspan
         id="tspan864-5"
         y="968.28711"
         x="1806.0106"
         sodipodi:role="line"
         style="font-size:45px">Je promets !</tspan></text>
    <text
       transform="matrix(0.91327378,0,-0.07872707,1.0949619,0,0)"
       id="text4246-3-2-2-6-3-8"
       y="3167.2151"
       x="2696.0061"
       style="font-style:normal;font-variant:normal;font-weight:normal;font-stretch:normal;font-size:46.97480011px;line-height:1.25;font-family:Lavi;-inkscape-font-specification:Lavi;text-align:center;letter-spacing:0px;word-spacing:0px;text-anchor:middle;fill:#000000;fill-opacity:1;stroke:none;stroke-width:1.04387999"
       xml:space="preserve"><tspan
         y="3167.2151"
         x="2696.0061"
         id="tspan1097-2-6-7"
         sodipodi:role="line"
         style="font-style:normal;font-variant:normal;font-weight:bold;font-stretch:normal;font-size:46.97480011px;font-family:Lavi;-inkscape-font-specification:'Lavi Bold';stroke-width:1.04387999">A SIEUDR ...</tspan></text>
    <text
       id="text860"
       y="1890.0585"
       x="1372.5665"
       style="font-size:29.3333px;line-height:1.25;font-family:Sword;-inkscape-font-specification:Sword;text-align:center;letter-spacing:0px;word-spacing:0px;writing-mode:lr-tb;text-anchor:middle"
       xml:space="preserve"><tspan
         y="1890.0585"
         x="1372.5665"
         id="tspan858"
         sodipodi:role="line" /><tspan
         id="tspan862"
         y="1926.7251"
         x="1372.5665"
         sodipodi:role="line" /><tspan
         id="tspan865"
         y="1963.3917"
         x="1372.5665"
         sodipodi:role="line" /></text>
  </g>
</svg>
