<?xml version="1.0" encoding="UTF-8" standalone="no"?>
<!-- Created with Inkscape (http://www.inkscape.org/) -->

<svg
   xmlns:dc="http://purl.org/dc/elements/1.1/"
   xmlns:cc="http://creativecommons.org/ns#"
   xmlns:rdf="http://www.w3.org/1999/02/22-rdf-syntax-ns#"
   xmlns:svg="http://www.w3.org/2000/svg"
   xmlns="http://www.w3.org/2000/svg"
   xmlns:xlink="http://www.w3.org/1999/xlink"
   xmlns:sodipodi="http://sodipodi.sourceforge.net/DTD/sodipodi-0.dtd"
   xmlns:inkscape="http://www.inkscape.org/namespaces/inkscape"
   id="svg2"
   version="1.1"
   inkscape:version="0.92.4 5da689c313, 2019-01-14"
   width="2481"
   height="3503"
   sodipodi:docname="E29P03.svg">
  <metadata
     id="metadata8">
    <rdf:RDF>
      <cc:Work
         rdf:about="">
        <dc:format>image/svg+xml</dc:format>
        <dc:type
           rdf:resource="http://purl.org/dc/dcmitype/StillImage" />
        <dc:title />
      </cc:Work>
    </rdf:RDF>
  </metadata>
  <defs
     id="defs6" />
  <sodipodi:namedview
     pagecolor="#ffffff"
     bordercolor="#666666"
     borderopacity="1"
     objecttolerance="10"
     gridtolerance="10"
     guidetolerance="10"
     inkscape:pageopacity="0"
     inkscape:pageshadow="2"
     inkscape:window-width="1366"
     inkscape:window-height="713"
     id="namedview4"
     showgrid="false"
     inkscape:zoom="0.3740595"
     inkscape:cx="1112.8342"
     inkscape:cy="477.43176"
     inkscape:window-x="0"
     inkscape:window-y="27"
     inkscape:window-maximized="1"
     inkscape:current-layer="layer1" />
  <g
     inkscape:groupmode="layer"
     id="layer2"
     inkscape:label="artwork"
     sodipodi:insensitive="true">
    <image
       sodipodi:absref="/home/midgard/git/peppercarrot/comics/ep29_Destroyer-of-Worlds/lang/es/../gfx_Pepper-and-Carrot_by-David-Revoy_E29P03.png"
       xlink:href="../gfx_Pepper-and-Carrot_by-David-Revoy_E29P03.png"
       width="2481"
       height="3503"
       id="image10"
       x="0"
       y="0" />
  </g>
  <g
     inkscape:groupmode="layer"
     id="layer3"
     inkscape:label="speechbubbles">
    <path
       style="color:#000000;display:inline;overflow:visible;visibility:visible;fill:#ffffff;fill-opacity:1;fill-rule:nonzero;stroke:none;stroke-width:1.04760158px;marker:none;enable-background:accumulate"
       d="m 137.08154,193.68168 c 2.8482,-26.75408 1.36479,-54.14742 39.05555,-65.84551 43.9467,-13.63974 179.54705,-10.18087 279.28344,-10.00847 53.49883,0.0925 141.78471,-0.0987 182.73112,15.19077 26.75257,9.98947 38.56113,25.74989 33.49593,64.75358 -5.06519,39.00365 -28.16042,53.45261 -77.15112,64.85431 -48.99071,11.40169 -98.50173,13.15079 -141.62517,14.51604 -41.63711,1.31818 -87.16671,0.31987 -142.74713,-2.64877 -55.58041,-2.96865 -129.49446,-17.58881 -145.38497,-31.08615 -15.67591,-13.31505 -29.7642,-29.93833 -27.65765,-49.7258 z"
       id="path4546-6"
       inkscape:connector-curvature="0"
       sodipodi:nodetypes="ssssssssss" />
    <path
       style="color:#000000;display:inline;overflow:visible;visibility:visible;fill:#ffffff;fill-opacity:1;fill-rule:nonzero;stroke:none;stroke-width:1.02931046px;marker:none;enable-background:accumulate"
       d="m 1740.1591,149.46082 c 37.6569,-35.7225 559.0011,-39.03783 607.0072,15.46094 43.174,49.01314 10.2483,241.00112 -44.894,276.51042 -64.8967,41.79071 -398.203,23.78152 -489.4255,0.48741 -86.7889,-22.16198 -102.0251,-90.05101 -106.402,-163.79281 -1.7866,-30.0969 -3.9427,-92.94336 33.7143,-128.66596 z"
       id="path4040-4"
       inkscape:connector-curvature="0"
       sodipodi:nodetypes="zssssz" />
    <path
       style="color:#000000;display:inline;overflow:visible;visibility:visible;fill:#ffffff;fill-opacity:1;fill-rule:nonzero;stroke:none;stroke-width:0.99999994px;marker:none;enable-background:accumulate"
       d="m 1889.7486,510.91936 c 3.1131,-27.92669 10.1318,-50.08154 48.7458,-62.36647 38.6142,-12.28493 108.8239,-20.04669 197.8977,-15.21408 47.7129,2.58861 115.5083,6.35815 153.5316,18.02744 38.0234,11.6693 46.2744,36.58512 42.2679,77.49314 -4.0065,40.908 -18.0184,62.69956 -62.0007,72.842 -43.9821,10.14243 -117.9351,8.63574 -134.033,9.66758 -42.0919,-3.24918 -123.2537,1.35913 -174.8496,-7.24059 -51.5961,-8.59972 -73.6258,-30.40745 -71.5597,-93.20902 z"
       id="path4546-6-0"
       inkscape:connector-curvature="0"
       sodipodi:nodetypes="cssssscsc" />
    <path
       style="color:#000000;display:inline;overflow:visible;visibility:visible;fill:#ffffff;fill-opacity:1;fill-rule:nonzero;stroke:none;stroke-width:0.90079409px;marker:none;enable-background:accumulate"
       d="m 141.23901,1721.6242 c 3.32085,-35.5956 3.79753,-69.961 47.72157,-90.8547 43.92404,-20.8937 121.30633,-26.6782 218.50372,-21.4886 52.06415,2.7799 117.6515,6.5265 159.16859,20.9746 41.51707,14.448 58.96389,39.5974 54.70344,91.7332 -4.26046,52.1358 -27.25173,74.914 -75.2112,88.3055 -47.95947,13.3916 -120.88714,17.3967 -138.44802,18.8849 -17.56087,1.4882 -72.02692,0.206 -126.06514,-5.8153 -54.03822,-6.0211 -91.00009,-10.231 -106.84971,-27.6991 -24.84685,-22.1216 -35.03421,-48.132 -33.52325,-74.0405 z"
       id="path4546-6-2"
       inkscape:connector-curvature="0"
       sodipodi:nodetypes="cssssssscc" />
    <path
       style="color:#000000;display:inline;overflow:visible;visibility:visible;fill:#ffffff;fill-opacity:1;fill-rule:nonzero;stroke:none;stroke-width:1px;marker:none;enable-background:accumulate"
       d="m 521.869,1655.1001 c 16.11108,-12.2669 15.86616,-23.0299 15.86632,-28.1369 10e-5,-5.107 -4.54529,-18.6761 -3.34265,-24.7247 1.02193,-4.995 3.12956,-18.1154 7.70997,-16.7463 4.58049,1.369 41.01203,26.2432 51.36903,17.3665 10.35713,-8.8768 11.10734,-20.8369 5.69423,-31.5145 -5.41309,-10.6777 -12.30128,-24.7121 -5.30101,-32.1137 7.00027,-7.4017 18.59276,-5.447 23.97197,-2.6844 5.3792,2.7626 35.49917,23.7296 45.22292,25.6243 9.7237,1.8947 23.71407,1.7027 43.50196,-19.9526 -14.8657,10.0411 -26.23617,15.9908 -34.47171,12.561 -8.23568,-3.4298 -23.77359,-8.4777 -30.56794,-16.4657 -6.79439,-7.9881 -19.06179,-24.7851 -27.96463,-25.3584 -8.9028,-0.5734 -30.44585,-2.3321 -37.17011,6.2487 -6.72431,8.5806 -9.50599,21.5672 -1.38826,37.7993 4.40691,11.1306 5.56687,16.9279 3.01621,18.7834 -2.55071,1.8553 -15.98612,-1.694 -23.40319,-10.6812 -7.41712,-8.9873 -15.67928,-14.4795 -30.30826,-9.5821 -15.5687,3.9577 -23.51473,25.3051 -27.43064,29.9131 -2.73121,11.1832 -10.25128,59.7905 -19.09981,53.7189 z"
       id="path5058"
       inkscape:connector-curvature="0"
       sodipodi:nodetypes="cscsssssscssssccscccc" />
    <path
       style="color:#000000;display:inline;overflow:visible;visibility:visible;fill:#ffffff;fill-opacity:1;fill-rule:nonzero;stroke:none;stroke-width:0.99999994px;marker:none;enable-background:accumulate"
       d="m 561.2656,1954.8179 c 39.23172,-16.0639 382.69702,-14.2596 442.3146,-9.0905 45.6941,3.9619 99.9583,4.2063 135.9652,18.4002 36.0069,14.1939 49.25,36.0762 49.4304,80.6818 0.1818,44.9529 -19.8184,84.683 -62.3584,94.1289 -42.5398,9.4459 -83.09,10.336 -98.559,10.8608 -10.2907,0.3491 -53.63272,1.2939 -83.02218,1.5265 -34.79026,0.2754 -281.34242,3.398 -335.74957,-12.6036 -59.85173,-22.732 -86.89246,-44.1087 -90.60366,-82.9515 -3.34253,-65.6299 16.89831,-89.6757 42.58261,-100.9526 z"
       id="path4546-6-28"
       inkscape:connector-curvature="0"
       sodipodi:nodetypes="cssssssccc" />
    <path
       style="fill:#ffffff;fill-rule:evenodd;stroke:none;stroke-width:1px;stroke-linecap:butt;stroke-linejoin:miter;stroke-opacity:1"
       d="m 1309.2027,1984.7216 c 30.9476,-4.5331 63.1267,-6.2219 43.3325,-43.1074 26.4224,23.1337 60.2505,31.7053 62.3418,-9.3383 24.8149,32.4742 62.8795,33.4676 89.0577,1.3435 11.221,31.7468 37.0642,40.863 79.117,9.9547 -24.4118,39.1099 25.0315,37.1548 57.5962,28.3022 -62.3969,44.4003 -29.6317,58.521 -5.0451,75.2441 -61.3214,-12.3727 -103.3295,-0.2731 -82.8143,27.9538 -50.6773,-29.2045 -109.1534,-23.5745 -92.0839,4.2937 -12.5714,-13.2298 -11.2418,-40.9431 -79.0405,1.7915 21.4279,-44.5555 -6.6594,-39.8788 -52.1332,-17.9152 7.1268,-15.1762 49.4842,-38.2538 -21.8622,-35.8306 44.5643,-14.4273 60.0459,-25.3946 1.534,-42.692 z"
       id="path4584"
       inkscape:connector-curvature="0"
       sodipodi:nodetypes="ccccccccccccc" />
    <path
       style="color:#000000;display:inline;overflow:visible;visibility:visible;fill:#ffffff;fill-opacity:1;fill-rule:nonzero;stroke:none;stroke-width:1px;marker:none;enable-background:accumulate"
       d="m 1472.7384,2047.3416 c 0.2312,29.9074 3.2778,68.8487 8.7074,74.7102 -9.1366,-3.6864 -17.8817,-5.2616 -24.6773,-6.6173 -2.08,14.7875 9.0067,61.8116 14.5567,88.5609 -25.1053,-37.9041 -39.0273,-94.4 -38.8725,-117.7051 8.4834,5.8822 16.5056,8.882 21.4065,8.8433 5.497,-10.4938 -6.7061,-51.3933 -7.3939,-51.6226 z"
       id="path5066"
       inkscape:connector-curvature="0"
       sodipodi:nodetypes="cccccccc" />
    <path
       style="color:#000000;display:inline;overflow:visible;visibility:visible;fill:#ffffff;fill-opacity:1;fill-rule:nonzero;stroke:none;stroke-width:1px;marker:none;enable-background:accumulate"
       d="m 253.05612,2870.4648 c 30.23896,-30.1099 424.87909,-41.5502 476.69398,11.7202 37.49069,38.5439 45.83104,178.7364 1.55101,208.6665 -52.11296,35.2246 -357.69187,33.4976 -430.94478,13.8635 -69.69277,-18.68 -83.02744,-54.5135 -86.54226,-116.6691 -1.43457,-25.3683 9.00285,-87.4711 39.24205,-117.5811 z"
       id="path4040-4-0"
       inkscape:connector-curvature="0"
       sodipodi:nodetypes="zssssz" />
    <path
       style="color:#000000;display:inline;overflow:visible;visibility:visible;fill:#ffffff;fill-opacity:1;fill-rule:nonzero;stroke:none;stroke-width:0.99999994px;marker:none;enable-background:accumulate"
       d="m 205.35017,3099.2915 c 43.08996,-22.7948 382.26211,-35.194 461.85885,6.4287 61.75354,32.2921 79.3394,206.9031 -3.43933,253.0444 -57.19273,31.8795 -366.22363,33.6361 -439.19188,6.5309 -81.25174,-30.1822 -88.87647,-104.3077 -77.47897,-156.4758 5.85886,-26.8169 15.16137,-86.7334 58.25133,-109.5282 z"
       id="path4040-4-0-6"
       inkscape:connector-curvature="0"
       sodipodi:nodetypes="zssssz" />
    <path
       style="color:#000000;display:inline;overflow:visible;visibility:visible;fill:#ffffff;fill-opacity:1;fill-rule:nonzero;stroke:none;stroke-width:1px;marker:none;enable-background:accumulate"
       d="m 1749.9471,2874.0743 c 34.9804,-35.7225 474.1182,-41.5861 553.9325,19.471 64.0562,49.0024 40.8309,234.3178 -26.8033,269.8271 -65.1605,34.2107 -397.219,30.4651 -481.958,7.171 -80.6207,-22.1621 -83.5988,-98.0713 -87.6648,-171.8131 -1.6594,-30.0969 7.5128,-88.9334 42.4936,-124.656 z"
       id="path4040-4-0-6-3"
       inkscape:connector-curvature="0"
       sodipodi:nodetypes="zssssz" />
    <path
       style="display:inline;fill:#ffffff;fill-rule:evenodd;stroke:none;stroke-width:1.0732336px;stroke-linecap:butt;stroke-linejoin:miter;stroke-opacity:1"
       d="m 1691.3853,3166.2871 c 72.544,23.6939 90.8166,18.3468 89.5713,-36.7289 34.6104,59.516 85.811,61.3918 100.0554,32.0679 45.8217,25.2051 74.4413,18.1349 97.1634,0 8.4691,23.3227 26.6312,13.9112 42.3493,12.7527 5.177,5.2766 51.8376,16.9566 123.6721,-0.5097 4.6529,6.9841 10.9211,12.9986 52.9979,-2.4859 10.901,28.3478 45.8758,-1.5711 81.7059,-33.5595 -22.3232,39.327 -13.0666,44.8817 15.4579,29.8306 -13.0412,16.1952 -20.8413,28.7321 28.7069,1.243 -16.9626,29.893 27.5394,9.3746 99.3719,-33.5594 -35.9316,31.7365 -131.2145,85.226 -68.4558,80.7912 -8.7522,9.356 -39.9704,17.5077 52.998,32.3165 -17.356,6.3488 -70.3432,-2.9287 -26.1423,23.9523 5.9221,3.1422 -13.9034,5.061 23.9342,13.3359 -22.3361,-0.5629 -36.0341,1.4482 -15.4579,13.6724 -40.7713,-0.661 -25.5165,12.1929 4.4165,28.5876 -59.0426,-21.0297 -62.2918,-13.3866 -64.0396,-4.9717 -73.9975,-28.6707 -98.6911,-18.2145 -83.2429,4.9096 -32.6764,-31.2227 -109.4445,-14.8219 -113.2924,10.0057 -11.4017,-24.0089 -138.3724,-28.9731 -167.5584,-2.548 18.0894,-28.1589 -19.8997,-14.8988 -58.0855,-4.4746 20.9114,-31.6061 -32.1591,-22.2982 -99.3719,8.452 37.639,-34.902 -5.11,-22.2946 -68.4561,2.4859 23.9342,-34.2877 -15.0449,-50.8697 -108.2046,-52.2036 44.5891,-12.368 70.5909,-27.9328 24.291,-55.9324 52.1933,8.2446 38.9328,-15.1367 2.0864,-45.5538 56.9293,24.9661 55.7417,11.6241 33.5293,-21.8758 z"
       id="path4508"
       inkscape:connector-curvature="0"
       sodipodi:nodetypes="cccccccccccccccccccccccccccc" />
    <path
       style="color:#000000;display:inline;overflow:visible;visibility:visible;fill:#ffffff;fill-opacity:1;fill-rule:nonzero;stroke:none;stroke-width:1px;marker:none;enable-background:accumulate"
       d="m 737.72283,2952.5981 c 58.74459,-31.8831 133.6737,-22.4689 151.46532,-4.8409 -26.0629,-31.5484 -110.87474,-48.9787 -156.02352,-29.9411 -36.86673,19.522 4.5582,34.782 4.5582,34.782 z"
       id="path4480"
       inkscape:connector-curvature="0"
       sodipodi:nodetypes="cccc" />
    <path
       style="color:#000000;display:inline;overflow:visible;visibility:visible;fill:#ffffff;fill-opacity:1;fill-rule:nonzero;stroke:none;stroke-width:0.99999994px;marker:none;enable-background:accumulate"
       d="m 1729.525,3105.1967 c -45.0341,26.3761 -102.4755,18.588 -116.1149,4.0048 19.9802,26.0992 84.9979,40.5188 119.6093,24.7695 28.2623,-16.1501 -3.4944,-28.7743 -3.4944,-28.7743 z"
       id="path4480-2"
       inkscape:connector-curvature="0"
       sodipodi:nodetypes="cccc"
       inkscape:transform-center-x="-155.62645"
       inkscape:transform-center-y="34.210293" />
    <path
       style="fill:#ffffff;stroke:none;stroke-width:1"
       d="m 240.20205,385.0669 c -58.13838,-27.45721 -59.25417,-104.2317 6.40363,-135.1495 33.25786,-15.66089 31.21798,-5.00947 31.21798,-5.00947 l -6.80518,-52.3863 c 0,0 17.27652,-20.93641 -34.72953,12.43271 -52.00605,33.36911 -110.96723,129.16604 3.9131,180.11256 z"
       id="path3063"
       inkscape:connector-curvature="0"
       sodipodi:nodetypes="cscczc" />
    <path
       style="color:#000000;display:inline;overflow:visible;visibility:visible;fill:#ffffff;fill-opacity:1;fill-rule:nonzero;stroke:none;stroke-width:0.99999994px;marker:none;enable-background:accumulate"
       d="m 1452.7839,260.97042 c 32.5901,-37.14844 120.5249,-77.58678 199.7918,-73.40468 42.0311,2.21755 81.2853,18.77332 113.3871,43.73164 54.8474,16.58165 18.1095,-34.39627 18.1095,-34.39627 -9.1911,-10.4538 -45.1517,-22.91599 -79.6603,-28.40181 -77.1713,-12.26787 -186.4105,2.0063 -251.6281,92.47112 z"
       id="path3984"
       inkscape:connector-curvature="0"
       sodipodi:nodetypes="csccsc" />
    <path
       style="color:#000000;display:inline;overflow:visible;visibility:visible;fill:#ffffff;fill-opacity:1;fill-rule:nonzero;stroke:none;stroke-width:1px;marker:none;enable-background:accumulate"
       d="m 876.44075,2262.2076 c 27.46212,-10.0522 29.72719,-13.3589 28.53705,-27.8918 -1.19034,-14.5328 -9.92446,-26.5364 7.13822,-46.8557 17.0627,-20.3194 23.42581,-21.4269 33.84191,-22.8653 -10.7962,-15.1116 -24.19769,-37.3822 -37.83781,-39.5812 -13.64004,-2.1992 45.1695,-29.6441 45.1695,-29.6441 0,0 22.75583,46.3627 21.99513,70.4189 -5.53179,28.827 -31.7847,25.0277 -45.6068,37.2789 -13.82198,12.2511 -2.66123,31.1992 -11.63877,43.0536 -8.97788,11.8543 -27.71027,14.1688 -41.59843,16.0867 z"
       id="path4538"
       inkscape:connector-curvature="0"
       sodipodi:nodetypes="cccccccscc" />
    <path
       style="color:#000000;display:inline;overflow:visible;visibility:visible;fill:#ffffff;fill-opacity:1;fill-rule:nonzero;stroke:none;stroke-width:0.89287502px;marker:none;enable-background:accumulate"
       d="m 1769.2555,1053.1866 c 6.5519,-8.191 22.2105,-16.0982 57.85,-20.5671 35.6393,-4.4691 79.5723,-3.4298 127.0554,-2.4796 47.483,0.9501 47.2921,0.1997 90.4794,0.2074 45.9613,0.01 80.5776,4.3596 108.0062,29.9903 27.4286,25.6306 29.5596,53.564 29.4012,85.639 -0.1584,32.0752 3.3057,60.1212 -22.079,81.7212 -25.3847,21.5999 -67.2742,43.0591 -116.6194,46.6093 -49.3451,3.5504 -167.6142,7.1605 -227.5202,-14.9363 -59.9063,-22.0973 -67.0823,-49.5519 -70.1286,-117.1854 -1.2432,-27.6041 -2.6523,-56.2351 23.555,-88.9988 z"
       id="path4040"
       inkscape:connector-curvature="0"
       sodipodi:nodetypes="sssszzzzsss" />
    <path
       style="color:#000000;display:inline;overflow:visible;visibility:visible;fill:#ffffff;fill-opacity:1;fill-rule:nonzero;stroke:none;stroke-width:1.0653249px;marker:none;enable-background:accumulate"
       d="m 1896.6758,1209.0726 c -41.8665,122.7323 -35.3869,185.6777 42.5567,264.4098 -47.4291,-53.5721 -48.443,-140.458 -27.8836,-196.5656 17.5953,-48.018 24.528,-47.5096 24.528,-47.5096 z"
       id="path4440"
       inkscape:connector-curvature="0"
       sodipodi:nodetypes="ccscc" />
  </g>
  <g
     inkscape:groupmode="layer"
     id="layer1"
     inkscape:label="txt">
    <text
       xml:space="preserve"
       style="font-style:normal;font-variant:normal;font-weight:normal;font-stretch:normal;line-height:0%;font-family:Lavi;-inkscape-font-specification:Lavi;text-align:center;letter-spacing:0px;word-spacing:0px;text-anchor:middle;fill:#000000;fill-opacity:1;stroke:none"
       x="404.0256"
       y="186.78044"
       id="text4246"><tspan
         sodipodi:role="line"
         style="font-size:45px;line-height:1.20000005"
         x="404.0256"
         y="186.78044"
         id="tspan4252">Jaja, ¡es un poco díficil</tspan><tspan
         sodipodi:role="line"
         style="font-size:45px;line-height:1.20000005"
         x="404.0256"
         y="240.78044"
         id="tspan823">de explicar!</tspan></text>
    <text
       xml:space="preserve"
       style="font-style:normal;font-variant:normal;font-weight:normal;font-stretch:normal;line-height:0%;font-family:Lavi;-inkscape-font-specification:Lavi;text-align:center;letter-spacing:0px;word-spacing:0px;text-anchor:middle;fill:#000000;fill-opacity:1;stroke:none"
       x="2038.8622"
       y="203.0822"
       id="text4246-3"><tspan
         sodipodi:role="line"
         style="font-size:45px;line-height:1.20000005"
         x="2038.8622"
         y="203.0822"
         id="tspan823-7">Pero bueno, se podría decir</tspan><tspan
         sodipodi:role="line"
         style="font-size:45px;line-height:1.20000005"
         x="2038.8622"
         y="257.08221"
         id="tspan82">que está basado en la</tspan><tspan
         sodipodi:role="line"
         style="font-size:45px;line-height:1.20000005"
         x="2038.8622"
         y="311.08221"
         id="tspan84">comprensión de las leyes</tspan><tspan
         sodipodi:role="line"
         style="font-size:45px;line-height:1.20000005"
         x="2045.8934"
         y="365.08221"
         id="tspan86">que están detrás de los </tspan><tspan
         sodipodi:role="line"
         style="font-size:45px;line-height:1.20000005"
         x="2038.8622"
         y="419.08221"
         id="tspan854">sistemas caóticos...</tspan></text>
    <text
       xml:space="preserve"
       style="font-style:normal;font-variant:normal;font-weight:normal;font-stretch:normal;line-height:0%;font-family:Lavi;-inkscape-font-specification:Lavi;text-align:center;letter-spacing:0px;word-spacing:0px;text-anchor:middle;fill:#000000;fill-opacity:1;stroke:none"
       x="2111.001"
       y="514.42065"
       id="text4246-3-5"><tspan
         sodipodi:role="line"
         style="font-size:45px;line-height:1.20000005"
         x="2111.001"
         y="514.42065"
         id="tspan854-9">...del más pequeño</tspan><tspan
         sodipodi:role="line"
         style="font-size:45px;line-height:1.20000005"
         x="2111.001"
         y="568.42065"
         id="tspan900">al más grande.</tspan></text>
    <text
       xml:space="preserve"
       style="font-style:normal;font-variant:normal;font-weight:normal;font-stretch:normal;line-height:0%;font-family:Lavi;-inkscape-font-specification:Lavi;text-align:center;letter-spacing:0px;word-spacing:0px;text-anchor:middle;fill:#000000;fill-opacity:1;stroke:none"
       x="379.26578"
       y="1678.55"
       id="text4246-3-5-1"><tspan
         sodipodi:role="line"
         style="font-size:45px;line-height:1.20000005"
         x="379.26578"
         y="1678.55"
         id="tspan900-7">Bueno, es cierto</tspan><tspan
         sodipodi:role="line"
         style="font-size:45px;line-height:1.20000005"
         x="379.26578"
         y="1732.55"
         id="tspan106">que así ha quedado</tspan><tspan
         sodipodi:role="line"
         style="font-size:45px;line-height:1.20000005"
         x="379.26578"
         y="1786.55"
         id="tspan927">más claro...</tspan></text>
    <text
       xml:space="preserve"
       style="font-style:normal;font-variant:normal;font-weight:normal;font-stretch:normal;line-height:0%;font-family:Lavi;-inkscape-font-specification:Lavi;text-align:center;letter-spacing:0px;word-spacing:0px;text-anchor:middle;fill:#000000;fill-opacity:1;stroke:none"
       x="1967.9979"
       y="1106.0626"
       id="text4246-3-5-1-0"><tspan
         sodipodi:role="line"
         style="font-size:45px;line-height:1.20000005"
         x="1967.9979"
         y="1106.0626"
         id="tspan927-6">Hum, esperad,</tspan><tspan
         sodipodi:role="line"
         style="font-size:45px;line-height:1.20000005"
         x="1967.9979"
         y="1160.0626"
         id="tspan958">os voy a mostrar</tspan><tspan
         sodipodi:role="line"
         style="font-size:45px;line-height:1.20000005"
         x="1967.9979"
         y="1214.0626"
         id="tspan962">un ejemplo fácil.</tspan></text>
    <text
       xml:space="preserve"
       style="font-style:normal;font-variant:normal;font-weight:normal;font-stretch:normal;line-height:0%;font-family:Lavi;-inkscape-font-specification:Lavi;text-align:center;letter-spacing:0px;word-spacing:0px;text-anchor:middle;fill:#000000;fill-opacity:1;stroke:none"
       x="853.19385"
       y="2006.5769"
       id="text4246-3-5-1-0-0"><tspan
         sodipodi:role="line"
         style="font-size:45px;line-height:1.20000005"
         x="853.19385"
         y="2006.5769"
         id="tspan962-1">Dejadme sólo un segundo</tspan><tspan
         sodipodi:role="line"
         style="font-size:45px;line-height:1.20000005"
         x="853.19385"
         y="2060.5769"
         id="tspan1002">que me inspire con la</tspan><tspan
         sodipodi:role="line"
         style="font-size:45px;line-height:1.20000005"
         x="853.19385"
         y="2114.5769"
         id="tspan1006">sabiduría de Chaosah...</tspan></text>
    <text
       xml:space="preserve"
       style="font-style:normal;font-variant:normal;font-weight:normal;font-stretch:normal;line-height:0%;font-family:Lavi;-inkscape-font-specification:Lavi;text-align:center;letter-spacing:0px;word-spacing:0px;text-anchor:middle;fill:#000000;fill-opacity:1;stroke:none"
       x="1477.0964"
       y="2020.1494"
       id="text4246-3-5-1-0-0-8"><tspan
         sodipodi:role="line"
         style="font-size:45px;line-height:1.20000005"
         x="1477.0964"
         y="2020.1494"
         id="tspan1006-2">¡Lo tengo!</tspan></text>
    <text
       xml:space="preserve"
       style="font-style:normal;font-variant:normal;font-weight:normal;font-stretch:normal;font-size:10.15074348px;line-height:0%;font-family:Lavi;-inkscape-font-specification:Lavi;text-align:center;letter-spacing:0px;word-spacing:0px;text-anchor:middle;opacity:0.5;fill:#000000;fill-opacity:1;stroke:none;stroke-width:1"
       x="1565.6989"
       y="1755.6455"
       id="text4246-37"
       transform="matrix(0.95687977,-0.3398346,0.04566864,1.0288442,0,0)"><tspan
         sodipodi:role="line"
         style="font-style:normal;font-variant:normal;font-weight:bold;font-stretch:normal;font-size:38.06529236px;line-height:1.20000005;font-family:Lavi;-inkscape-font-specification:'Lavi Bold';stroke-width:1"
         x="1565.6989"
         y="1755.6455"
         id="tspan4252-5">RAS</tspan></text>
    <text
       xml:space="preserve"
       style="font-style:normal;font-variant:normal;font-weight:normal;font-stretch:normal;font-size:8.30989456px;line-height:0%;font-family:Lavi;-inkscape-font-specification:Lavi;text-align:center;letter-spacing:0px;word-spacing:0px;text-anchor:middle;opacity:0.5;fill:#000000;fill-opacity:1;stroke:none;stroke-width:0.99999994"
       x="1771.7487"
       y="1590.5714"
       id="text4246-37-9"
       transform="matrix(1.0008589,-0.17574317,-0.12562566,1.0212007,0,0)"><tspan
         sodipodi:role="line"
         style="font-style:normal;font-variant:normal;font-weight:bold;font-stretch:normal;font-size:31.16210556px;line-height:1.20000005;font-family:Lavi;-inkscape-font-specification:'Lavi Bold';stroke-width:0.99999994"
         x="1771.7487"
         y="1590.5714"
         id="tspan4252-5-2">RAS</tspan></text>
    <text
       xml:space="preserve"
       style="font-style:normal;font-variant:normal;font-weight:normal;font-stretch:normal;line-height:0%;font-family:Lavi;-inkscape-font-specification:Lavi;text-align:center;letter-spacing:0px;word-spacing:0px;text-anchor:middle;fill:#000000;fill-opacity:1;stroke:none"
       x="484.34381"
       y="2916.1687"
       id="text4246-3-5-1-0-0-8-9"><tspan
         sodipodi:role="line"
         style="font-size:45px;line-height:1.20000005"
         x="484.34381"
         y="2916.1687"
         id="tspan1006-2-7">Mirad este pincho</tspan><tspan
         sodipodi:role="line"
         style="font-size:45px;line-height:1.20000005"
         x="484.34381"
         y="2970.1687"
         id="tspan128">de brocheta que estaba</tspan><tspan
         sodipodi:role="line"
         style="font-size:45px;line-height:1.20000005"
         x="491.37506"
         y="3024.1687"
         id="tspan130">atrapado entre </tspan><tspan
         sodipodi:role="line"
         style="font-size:45px;line-height:1.20000005"
         x="484.34381"
         y="3078.1687"
         id="tspan1200">esos adoquines.</tspan></text>
    <text
       xml:space="preserve"
       style="font-style:normal;font-variant:normal;font-weight:normal;font-stretch:normal;line-height:0%;font-family:Lavi;-inkscape-font-specification:Lavi;text-align:center;letter-spacing:0px;word-spacing:0px;text-anchor:middle;fill:#000000;fill-opacity:1;stroke:none"
       x="429.8186"
       y="3164.918"
       id="text4246-3-5-1-0-0-8-9-3"><tspan
         sodipodi:role="line"
         style="font-size:45px;line-height:1.20000005"
         x="429.8186"
         y="3164.918"
         id="tspan1200-2">El hecho de haberlo</tspan><tspan
         sodipodi:role="line"
         style="font-size:45px;line-height:1.20000005"
         x="429.8186"
         y="3218.918"
         id="tspan144">encontrado y retirado</tspan><tspan
         sodipodi:role="line"
         style="font-size:45px;line-height:1.20000005"
         x="429.8186"
         y="3272.918"
         id="tspan146">ha evitado con seguridad</tspan><tspan
         sodipodi:role="line"
         style="font-size:45px;line-height:1.20000005"
         x="429.8186"
         y="3326.918"
         id="tspan1237">que alguien lo pisase.</tspan></text>
    <text
       xml:space="preserve"
       style="font-style:normal;font-variant:normal;font-weight:normal;font-stretch:normal;line-height:0%;font-family:Lavi;-inkscape-font-specification:Lavi;text-align:center;letter-spacing:0px;word-spacing:0px;text-anchor:middle;fill:#000000;fill-opacity:1;stroke:none"
       x="2024.1924"
       y="2927.4075"
       id="text4246-3-5-1-0-0-8-9-3-9"><tspan
         sodipodi:role="line"
         style="font-size:45px;line-height:1.20000005"
         x="2024.1924"
         y="2927.4075"
         id="tspan1237-7">Un pequeño cambio</tspan><tspan
         sodipodi:role="line"
         style="font-size:45px;line-height:1.20000005"
         x="2024.1924"
         y="2981.4075"
         id="tspan164">positivo en un gran sistema</tspan><tspan
         sodipodi:role="line"
         style="font-size:45px;line-height:1.20000005"
         x="2024.1924"
         y="3035.4075"
         id="tspan166">caótico de la existencia</tspan><tspan
         sodipodi:role="line"
         style="font-size:45px;line-height:1.20000005"
         x="2024.1924"
         y="3089.4075"
         id="tspan168">puede tener enormes</tspan><tspan
         sodipodi:role="line"
         style="font-size:45px;line-height:1.20000005"
         x="2024.1924"
         y="3143.4075"
         id="tspan1289">consecuencias.</tspan></text>
    <text
       xml:space="preserve"
       style="font-style:normal;font-variant:normal;font-weight:normal;font-stretch:normal;font-size:11.48328495px;line-height:0%;font-family:Lavi;-inkscape-font-specification:Lavi;text-align:center;letter-spacing:0px;word-spacing:0px;text-anchor:middle;fill:#000000;fill-opacity:1;stroke:none;stroke-width:1"
       x="2018.8721"
       y="3269.3684"
       id="text4246-3-5-1-0-0-8-9-3-9-8"><tspan
         sodipodi:role="line"
         style="font-size:61.24419022px;line-height:1.20000005;stroke-width:1"
         x="2018.8721"
         y="3269.3684"
         id="tspan1289-6">¡Así funciona Chaosah!</tspan></text>
  </g>
</svg>
