<?xml version="1.0" encoding="UTF-8" standalone="no"?>
<!-- Created with Inkscape (http://www.inkscape.org/) -->

<svg
   xmlns:dc="http://purl.org/dc/elements/1.1/"
   xmlns:cc="http://creativecommons.org/ns#"
   xmlns:rdf="http://www.w3.org/1999/02/22-rdf-syntax-ns#"
   xmlns:svg="http://www.w3.org/2000/svg"
   xmlns="http://www.w3.org/2000/svg"
   xmlns:xlink="http://www.w3.org/1999/xlink"
   xmlns:sodipodi="http://sodipodi.sourceforge.net/DTD/sodipodi-0.dtd"
   xmlns:inkscape="http://www.inkscape.org/namespaces/inkscape"
   id="svg2"
   version="1.1"
   inkscape:version="0.92.1 r15371"
   width="2481"
   height="3503"
   sodipodi:docname="E21P07.svg">
  <sodipodi:namedview
     pagecolor="#ffffff"
     bordercolor="#666666"
     inkscape:pageopacity="0"
     inkscape:pageshadow="2"
     inkscape:window-width="1366"
     inkscape:window-height="705"
     id="namedview70"
     showgrid="false"
     inkscape:zoom="0.29598719"
     inkscape:cx="1608.1194"
     inkscape:cy="1718.4003"
     inkscape:current-layer="layer1"
     inkscape:window-x="-8"
     inkscape:window-y="-8"
     inkscape:window-maximized="1" />
  <metadata
     id="metadata8">
    <rdf:RDF>
      <cc:Work
         rdf:about="">
        <dc:format>image/svg+xml</dc:format>
        <dc:type
           rdf:resource="http://purl.org/dc/dcmitype/StillImage" />
        <dc:title />
      </cc:Work>
    </rdf:RDF>
  </metadata>
  <defs
     id="defs6">
    <filter
       style="color-interpolation-filters:sRGB"
       inkscape:label="Drop Shadow"
       id="filter5558-7">
      <feFlood
         flood-opacity="1"
         flood-color="rgb(0,0,0)"
         result="flood"
         id="feFlood5560-45" />
      <feComposite
         in="flood"
         in2="SourceGraphic"
         operator="in"
         result="composite1"
         id="feComposite5562-2" />
      <feGaussianBlur
         in="composite1"
         stdDeviation="1"
         result="blur"
         id="feGaussianBlur5564-5" />
      <feOffset
         dx="2.5"
         dy="2.5"
         result="offset"
         id="feOffset5566-47" />
      <feComposite
         in="SourceGraphic"
         in2="offset"
         operator="over"
         result="composite2"
         id="feComposite5568-4" />
    </filter>
    <filter
       style="color-interpolation-filters:sRGB"
       inkscape:label="Drop Shadow"
       id="filter5546">
      <feFlood
         flood-opacity="1"
         flood-color="rgb(0,0,0)"
         result="flood"
         id="feFlood5548" />
      <feComposite
         in="flood"
         in2="SourceGraphic"
         operator="in"
         result="composite1"
         id="feComposite5550" />
      <feGaussianBlur
         in="composite1"
         stdDeviation="1"
         result="blur"
         id="feGaussianBlur5552" />
      <feOffset
         dx="2.5"
         dy="2.5"
         result="offset"
         id="feOffset5554" />
      <feComposite
         in="SourceGraphic"
         in2="offset"
         operator="over"
         result="composite2"
         id="feComposite5556" />
    </filter>
    <filter
       style="color-interpolation-filters:sRGB"
       inkscape:label="Drop Shadow"
       id="filter5522-4">
      <feFlood
         flood-opacity="1"
         flood-color="rgb(0,0,0)"
         result="flood"
         id="feFlood5524-3" />
      <feComposite
         in="flood"
         in2="SourceGraphic"
         operator="in"
         result="composite1"
         id="feComposite5526-14" />
      <feGaussianBlur
         in="composite1"
         stdDeviation="1"
         result="blur"
         id="feGaussianBlur5528-92" />
      <feOffset
         dx="2.5"
         dy="2.5"
         result="offset"
         id="feOffset5530-0" />
      <feComposite
         in="SourceGraphic"
         in2="offset"
         operator="over"
         result="composite2"
         id="feComposite5532-6" />
    </filter>
    <filter
       style="color-interpolation-filters:sRGB"
       inkscape:label="Drop Shadow"
       id="filter5534-8">
      <feFlood
         flood-opacity="1"
         flood-color="rgb(0,0,0)"
         result="flood"
         id="feFlood5536-9" />
      <feComposite
         in="flood"
         in2="SourceGraphic"
         operator="in"
         result="composite1"
         id="feComposite5538-26" />
      <feGaussianBlur
         in="composite1"
         stdDeviation="1"
         result="blur"
         id="feGaussianBlur5540-64" />
      <feOffset
         dx="2.5"
         dy="2.5"
         result="offset"
         id="feOffset5542-95" />
      <feComposite
         in="SourceGraphic"
         in2="offset"
         operator="over"
         result="composite2"
         id="feComposite5544-0" />
    </filter>
    <filter
       style="color-interpolation-filters:sRGB"
       inkscape:label="Drop Shadow"
       id="filter5558-7-2">
      <feFlood
         flood-opacity="1"
         flood-color="rgb(0,0,0)"
         result="flood"
         id="feFlood5560-45-6" />
      <feComposite
         in="flood"
         in2="SourceGraphic"
         operator="in"
         result="composite1"
         id="feComposite5562-2-1" />
      <feGaussianBlur
         in="composite1"
         stdDeviation="1"
         result="blur"
         id="feGaussianBlur5564-5-8" />
      <feOffset
         dx="2.5"
         dy="2.5"
         result="offset"
         id="feOffset5566-47-7" />
      <feComposite
         in="SourceGraphic"
         in2="offset"
         operator="over"
         result="composite2"
         id="feComposite5568-4-9" />
    </filter>
    <filter
       style="color-interpolation-filters:sRGB"
       inkscape:label="Drop Shadow"
       id="filter5546-2">
      <feFlood
         flood-opacity="1"
         flood-color="rgb(0,0,0)"
         result="flood"
         id="feFlood5548-0" />
      <feComposite
         in="flood"
         in2="SourceGraphic"
         operator="in"
         result="composite1"
         id="feComposite5550-2" />
      <feGaussianBlur
         in="composite1"
         stdDeviation="1"
         result="blur"
         id="feGaussianBlur5552-3" />
      <feOffset
         dx="2.5"
         dy="2.5"
         result="offset"
         id="feOffset5554-7" />
      <feComposite
         in="SourceGraphic"
         in2="offset"
         operator="over"
         result="composite2"
         id="feComposite5556-5" />
    </filter>
    <filter
       style="color-interpolation-filters:sRGB"
       inkscape:label="Drop Shadow"
       id="filter5546-3-4">
      <feFlood
         flood-opacity="1"
         flood-color="rgb(0,0,0)"
         result="flood"
         id="feFlood5548-6-3" />
      <feComposite
         in="flood"
         in2="SourceGraphic"
         operator="in"
         result="composite1"
         id="feComposite5550-7-0" />
      <feGaussianBlur
         in="composite1"
         stdDeviation="1"
         result="blur"
         id="feGaussianBlur5552-5-78" />
      <feOffset
         dx="2.5"
         dy="2.5"
         result="offset"
         id="feOffset5554-3-68" />
      <feComposite
         in="SourceGraphic"
         in2="offset"
         operator="over"
         result="composite2"
         id="feComposite5556-5-8" />
    </filter>
    <filter
       style="color-interpolation-filters:sRGB"
       inkscape:label="Drop Shadow"
       id="filter5522-4-9">
      <feFlood
         flood-opacity="1"
         flood-color="rgb(0,0,0)"
         result="flood"
         id="feFlood5524-3-2" />
      <feComposite
         in="flood"
         in2="SourceGraphic"
         operator="in"
         result="composite1"
         id="feComposite5526-14-2" />
      <feGaussianBlur
         in="composite1"
         stdDeviation="1"
         result="blur"
         id="feGaussianBlur5528-92-8" />
      <feOffset
         dx="2.5"
         dy="2.5"
         result="offset"
         id="feOffset5530-0-9" />
      <feComposite
         in="SourceGraphic"
         in2="offset"
         operator="over"
         result="composite2"
         id="feComposite5532-6-7" />
    </filter>
    <filter
       style="color-interpolation-filters:sRGB"
       inkscape:label="Drop Shadow"
       id="filter5534-8-3">
      <feFlood
         flood-opacity="1"
         flood-color="rgb(0,0,0)"
         result="flood"
         id="feFlood5536-9-6" />
      <feComposite
         in="flood"
         in2="SourceGraphic"
         operator="in"
         result="composite1"
         id="feComposite5538-26-1" />
      <feGaussianBlur
         in="composite1"
         stdDeviation="1"
         result="blur"
         id="feGaussianBlur5540-64-2" />
      <feOffset
         dx="2.5"
         dy="2.5"
         result="offset"
         id="feOffset5542-95-9" />
      <feComposite
         in="SourceGraphic"
         in2="offset"
         operator="over"
         result="composite2"
         id="feComposite5544-0-3" />
    </filter>
    <filter
       style="color-interpolation-filters:sRGB"
       id="filter4375-4-1-1-1-9"
       inkscape:label="deevad outline effect">
      <feFlood
         id="feFlood4377-7-9-0-8-1"
         flood-opacity="1"
         flood-color="rgb(0,0,0)"
         result="flood" />
      <feComposite
         id="feComposite4379-3-8-8-2-77"
         in2="SourceGraphic"
         in="flood"
         operator="in"
         result="composite1" />
      <feMorphology
         id="feMorphology4393-1-0-49-8-9"
         operator="dilate"
         radius="4"
         result="result3" />
      <feComposite
         id="feComposite4385-9-5-7-0-8"
         in2="result3"
         in="SourceGraphic"
         operator="over"
         result="composite2" />
    </filter>
    <filter
       style="color-interpolation-filters:sRGB"
       id="filter4375-4-1-1-1-9-6"
       inkscape:label="deevad outline effect">
      <feFlood
         id="feFlood4377-7-9-0-8-1-0"
         flood-opacity="1"
         flood-color="rgb(0,0,0)"
         result="flood" />
      <feComposite
         id="feComposite4379-3-8-8-2-77-6"
         in2="SourceGraphic"
         in="flood"
         operator="in"
         result="composite1" />
      <feMorphology
         id="feMorphology4393-1-0-49-8-9-2"
         operator="dilate"
         radius="4"
         result="result3" />
      <feComposite
         id="feComposite4385-9-5-7-0-8-6"
         in2="result3"
         in="SourceGraphic"
         operator="over"
         result="composite2" />
    </filter>
    <filter
       style="color-interpolation-filters:sRGB"
       id="filter4375-4-1-1-1-9-6-9"
       inkscape:label="deevad outline effect">
      <feFlood
         id="feFlood4377-7-9-0-8-1-0-2"
         flood-opacity="1"
         flood-color="rgb(0,0,0)"
         result="flood" />
      <feComposite
         id="feComposite4379-3-8-8-2-77-6-0"
         in2="SourceGraphic"
         in="flood"
         operator="in"
         result="composite1" />
      <feMorphology
         id="feMorphology4393-1-0-49-8-9-2-2"
         operator="dilate"
         radius="4"
         result="result3" />
      <feComposite
         id="feComposite4385-9-5-7-0-8-6-3"
         in2="result3"
         in="SourceGraphic"
         operator="over"
         result="composite2" />
    </filter>
    <filter
       style="color-interpolation-filters:sRGB"
       id="filter4375-4-1-1-1-9-6-9-2"
       inkscape:label="deevad outline effect">
      <feFlood
         id="feFlood4377-7-9-0-8-1-0-2-2"
         flood-opacity="1"
         flood-color="rgb(0,0,0)"
         result="flood" />
      <feComposite
         id="feComposite4379-3-8-8-2-77-6-0-8"
         in2="SourceGraphic"
         in="flood"
         operator="in"
         result="composite1" />
      <feMorphology
         id="feMorphology4393-1-0-49-8-9-2-2-9"
         operator="dilate"
         radius="4"
         result="result3" />
      <feComposite
         id="feComposite4385-9-5-7-0-8-6-3-7"
         in2="result3"
         in="SourceGraphic"
         operator="over"
         result="composite2" />
    </filter>
    <filter
       style="color-interpolation-filters:sRGB"
       id="filter4375-4-1-1-1-9-6-9-2-2"
       inkscape:label="deevad outline effect">
      <feFlood
         id="feFlood4377-7-9-0-8-1-0-2-2-0"
         flood-opacity="1"
         flood-color="rgb(0,0,0)"
         result="flood" />
      <feComposite
         id="feComposite4379-3-8-8-2-77-6-0-8-6"
         in2="SourceGraphic"
         in="flood"
         operator="in"
         result="composite1" />
      <feMorphology
         id="feMorphology4393-1-0-49-8-9-2-2-9-1"
         operator="dilate"
         radius="4"
         result="result3" />
      <feComposite
         id="feComposite4385-9-5-7-0-8-6-3-7-5"
         in2="result3"
         in="SourceGraphic"
         operator="over"
         result="composite2" />
    </filter>
    <filter
       x="-0.3"
       width="1.6"
       y="-0.3"
       height="1.6"
       style="color-interpolation-filters:sRGB;"
       inkscape:label="speaker"
       id="filter5869">
      <feGaussianBlur
         stdDeviation="0.31 0.31"
         result="blur"
         id="feGaussianBlur5871" />
      <feComposite
         in="SourceGraphic"
         in2="blur"
         operator="atop"
         result="composite1"
         id="feComposite5873" />
      <feComposite
         in2="composite1"
         operator="in"
         result="composite2"
         id="feComposite5875" />
      <feComposite
         in2="composite2"
         operator="in"
         result="composite3"
         id="feComposite5877" />
      <feTurbulence
         type="fractalNoise"
         numOctaves="1"
         seed="12"
         baseFrequency="0.0060000000000000001 0"
         result="turbulence"
         id="feTurbulence5879" />
      <feDisplacementMap
         in="blur"
         in2="turbulence"
         xChannelSelector="R"
         scale="62.4"
         yChannelSelector="G"
         result="map"
         id="feDisplacementMap5881" />
      <feColorMatrix
         values="1 0 0 0 0 0 1 0 0 0 0 0 1 0 0 0 0 0 10.53 -0 "
         result="colormatrix"
         id="feColorMatrix5883" />
      <feComposite
         in="composite3"
         in2="colormatrix"
         operator="over"
         result="composite4"
         id="feComposite5885" />
    </filter>
    <filter
       style="color-interpolation-filters:sRGB"
       id="filter4375-4-1-1-1-9-6-9-2-2-3"
       inkscape:label="deevad outline effect">
      <feFlood
         id="feFlood4377-7-9-0-8-1-0-2-2-0-6"
         flood-opacity="1"
         flood-color="rgb(0,0,0)"
         result="flood" />
      <feComposite
         id="feComposite4379-3-8-8-2-77-6-0-8-6-7"
         in2="SourceGraphic"
         in="flood"
         operator="in"
         result="composite1" />
      <feMorphology
         id="feMorphology4393-1-0-49-8-9-2-2-9-1-5"
         operator="dilate"
         radius="4"
         result="result3" />
      <feComposite
         id="feComposite4385-9-5-7-0-8-6-3-7-5-3"
         in2="result3"
         in="SourceGraphic"
         operator="over"
         result="composite2" />
    </filter>
    <filter
       inkscape:collect="always"
       style="color-interpolation-filters:sRGB"
       id="filter4312"
       x="-0.0015646424"
       width="1.0031292"
       y="-0.0054591582"
       height="1.0109183">
      <feGaussianBlur
         inkscape:collect="always"
         stdDeviation="0.22677911"
         id="feGaussianBlur4314" />
    </filter>
    <filter
       inkscape:collect="always"
       style="color-interpolation-filters:sRGB"
       id="filter4348"
       x="-0.0014468089"
       width="1.0028936"
       y="-0.0075239502"
       height="1.0150479">
      <feGaussianBlur
         inkscape:collect="always"
         stdDeviation="0.11691531"
         id="feGaussianBlur4350" />
    </filter>
    <filter
       inkscape:collect="always"
       style="color-interpolation-filters:sRGB"
       id="filter4328"
       x="-0.0014189417"
       width="1.0028379"
       y="-0.0084152343"
       height="1.0168304">
      <feGaussianBlur
         inkscape:collect="always"
         stdDeviation="0.12139503"
         id="feGaussianBlur4330" />
    </filter>
    <filter
       inkscape:collect="always"
       style="color-interpolation-filters:sRGB"
       id="filter4320"
       x="-0.0015717377"
       width="1.0031435"
       y="-0.0049304236"
       height="1.0098608">
      <feGaussianBlur
         inkscape:collect="always"
         stdDeviation="0.083000097"
         id="feGaussianBlur4322" />
    </filter>
  </defs>
  <sodipodi:namedview
     pagecolor="#ffffff"
     bordercolor="#666666"
     borderopacity="1"
     objecttolerance="10"
     gridtolerance="10"
     guidetolerance="10"
     inkscape:pageopacity="0"
     inkscape:pageshadow="2"
     inkscape:window-width="1920"
     inkscape:window-height="1025"
     id="namedview4"
     showgrid="false"
     inkscape:zoom="0.28124563"
     inkscape:cx="1576.7921"
     inkscape:cy="1681.9196"
     inkscape:window-x="0"
     inkscape:window-y="26"
     inkscape:window-maximized="1"
     inkscape:current-layer="layer1"
     showguides="false" />
  <g
     inkscape:groupmode="layer"
     id="layer2"
     inkscape:label="artwork"
     sodipodi:insensitive="true"
     style="display:inline">
    <image
       sodipodi:absref="C:\Users\Stefan\Documents\AR GRIPI\Pepper&amp;Carrot\ep21_The-Magic-Contest_lang-pack\lang\br\../gfx_Pepper-and-Carrot_by-David-Revoy_E21P07.png"
       xlink:href="../gfx_Pepper-and-Carrot_by-David-Revoy_E21P07.png"
       width="2481"
       height="3503"
       id="image10"
       x="0"
       y="0" />
  </g>
  <g
     inkscape:groupmode="layer"
     id="layer3"
     inkscape:label="speechbubbles"
     style="display:inline">
    <path
       style="color:#000000;display:inline;overflow:visible;visibility:visible;fill:#fff6d5;fill-opacity:1;fill-rule:nonzero;stroke:none;stroke-width:1px;marker:none;enable-background:accumulate"
       d="m 1185.2179,114.1216 c 21.9228,4.66052 32.1243,10.56216 39.2232,16.06236 -3.2091,1.34059 -15.1662,10.82335 -15.1662,10.82335 0,0 27.1796,11.69458 29.6607,17.43659 2.4812,5.74204 -15.3972,13.86141 -15.3972,13.86141 0,0 -25.4451,-23.5558 -37.038,-29.60484 2.5511,-2.98474 10.101,-8.54022 15.3959,-12.16686 0,0 -2.2938,-12.93116 -16.6784,-16.41201 z"
       id="path4456-3-7-5"
       inkscape:connector-curvature="0"
       sodipodi:nodetypes="cccscccc" />
    <path
       style="color:#000000;display:inline;overflow:visible;visibility:visible;fill:#fff6d5;fill-opacity:1;fill-rule:nonzero;stroke:none;stroke-width:1px;marker:none;enable-background:accumulate"
       d="m 538.25298,1272.5645 c 20.45798,-36.2998 42.67436,-41.2045 58.20957,-45.9418 3.06497,3.0448 9.91934,7.6668 9.91934,7.6668 0,0 29.44836,-11.3291 42.45141,-12.9929 13.00274,-1.6637 24.65816,31.3337 24.65816,31.3337 0,0 -59.05708,-7.2155 -69.36031,0.2891 -7.93167,-8.6084 -14.09059,-8.2381 -15.16794,-12.2245 -9.93189,0.5834 -42.92701,19.188 -50.71023,31.8696 z"
       id="path4456-1"
       inkscape:connector-curvature="0"
       sodipodi:nodetypes="cccscccc" />
    <path
       style="color:#000000;display:inline;overflow:visible;visibility:visible;fill:#ffffff;fill-opacity:1;fill-rule:nonzero;stroke:none;stroke-width:1px;marker:none;enable-background:accumulate"
       d="m 1547.792,890.7287 c -14.3458,-10.84651 -18.2327,-25.8897 -16.798,-32.08774 1.4344,-6.19796 14.3456,-37.96275 30.126,-41.83651 15.7803,-3.87377 57.2326,-1.89358 66.5573,1.98017 9.3248,3.87368 35.2974,22.81188 35.2974,35.98257 0,13.17078 -5.021,38.73754 -19.3668,46.48499 -14.3457,7.74752 -78.601,17.36755 -95.8159,-10.52348 z"
       id="path3349"
       inkscape:connector-curvature="0"
       sodipodi:nodetypes="csssssc" />
    <path
       style="color:#000000;display:inline;overflow:visible;visibility:visible;fill:#ffffff;fill-opacity:1;fill-rule:nonzero;stroke:none;stroke-width:1px;marker:none;enable-background:accumulate"
       d="m 1647.543,865.98918 c -39.2056,-13.69388 -37.9939,-12.65236 -37.9939,-12.65236 l 9.9076,29.96372 c 0,0 97.3701,20.07588 154.0625,-66.38395 -43.9648,47.37763 -93.8599,60.0056 -125.9762,49.07259 z"
       id="path3072"
       inkscape:connector-curvature="0"
       sodipodi:nodetypes="ccccc" />
    <path
       style="color:#000000;display:inline;overflow:visible;visibility:visible;fill:#fff6d5;fill-opacity:1;fill-rule:nonzero;stroke:none;stroke-width:1px;marker:none;enable-background:accumulate"
       d="m 1202.5937,486.55218 c 21.9228,4.66052 28.1369,10.56216 35.2358,16.06236 -3.2091,1.34059 -13.6455,9.73711 -13.6455,9.73711 0,0 29.1477,16.58945 31.6288,22.33146 2.4812,5.74204 -14.8986,10.05278 -14.8986,10.05278 0,0 -25.4451,-23.5558 -37.038,-29.60484 2.5511,-2.98474 10.101,-8.54022 15.3959,-12.16686 0,0 -2.2938,-12.93116 -16.6784,-16.41201 z"
       id="path4456-3-7-5-3"
       inkscape:connector-curvature="0"
       sodipodi:nodetypes="cccscccc" />
    <path
       style="color:#000000;display:inline;overflow:visible;visibility:visible;fill:#fff6d5;fill-opacity:1;fill-rule:nonzero;stroke:none;stroke-width:1px;marker:none;enable-background:accumulate"
       d="m 1196.6286,867.2445 c 21.9228,4.66052 28.1369,10.56216 35.2358,16.06236 -3.2091,1.34059 -15.1662,10.82335 -15.1662,10.82335 0,0 27.8442,17.6757 30.3253,23.41771 2.4812,5.74204 -12.0744,7.88029 -12.0744,7.88029 0,0 -25.4451,-23.5558 -37.038,-29.60484 2.5511,-2.98474 13.099,-10.78875 18.3939,-14.41539 0,0 -8.2898,-8.18427 -19.6764,-14.16348 z"
       id="path4456-3-7-5-3-6"
       inkscape:connector-curvature="0"
       sodipodi:nodetypes="cccscccc" />
    <rect
       rx="35.768253"
       style="color:#000000;clip-rule:nonzero;display:inline;overflow:visible;visibility:visible;opacity:1;isolation:auto;mix-blend-mode:normal;color-interpolation:sRGB;color-interpolation-filters:linearRGB;solid-color:#000000;solid-opacity:1;fill:#fff6d5;fill-opacity:1;fill-rule:nonzero;stroke:none;stroke-width:2.5999999;stroke-linecap:butt;stroke-linejoin:miter;stroke-miterlimit:4;stroke-dasharray:none;stroke-dashoffset:0;stroke-opacity:1;marker:none;color-rendering:auto;image-rendering:auto;shape-rendering:auto;text-rendering:auto;enable-background:accumulate"
       id="rect4632-7"
       width="357.573"
       height="137.83736"
       x="621.901"
       y="1183.8312"
       ry="35.768253" />
    <rect
       rx="70.464211"
       style="color:#000000;clip-rule:nonzero;display:inline;overflow:visible;visibility:visible;opacity:1;isolation:auto;mix-blend-mode:normal;color-interpolation:sRGB;color-interpolation-filters:linearRGB;solid-color:#000000;solid-opacity:1;fill:#fff6d5;fill-opacity:1;fill-rule:nonzero;stroke:none;stroke-width:2.5999999;stroke-linecap:butt;stroke-linejoin:miter;stroke-miterlimit:4;stroke-dasharray:none;stroke-dashoffset:0;stroke-opacity:1;marker:none;color-rendering:auto;image-rendering:auto;shape-rendering:auto;text-rendering:auto;enable-background:accumulate"
       id="rect4632-8"
       width="598.01105"
       height="271.54251"
       x="1182.0499"
       y="520.18066"
       ry="70.464211" />
    <path
       style="color:#000000;display:inline;overflow:visible;visibility:visible;fill:#fff6d5;fill-opacity:1;fill-rule:nonzero;stroke:none;stroke-width:1px;marker:none;enable-background:accumulate"
       d="m 1328.8409,342.60162 c -6.4462,16.23212 -42.8035,17.59325 -56.1876,14.29379 26.9793,18.15861 26.0387,29.44085 -10.5915,31.19263 61.4295,32.72657 11.2301,27.77427 1.3286,36.0728 48.2336,11.27829 26.6534,25.31442 18.0662,39.28713 55.4397,0.47994 37.2968,22.87774 39.6335,40.71615 4.6999,-8.37058 27.0281,-33.85431 28.3716,-5.47988 36.6701,-27.07074 80.8384,-44.55708 84.3455,2.81681 14.775,-23.83251 29.5057,-33.9051 28.3716,-5.47988 36.6079,-36.97058 69.5052,-23.66291 102.5974,-13.21363 8.6915,-11.1586 9.7042,-28.30143 37.8232,-24.2841 -3.9426,-11.06017 5.5516,-18.66289 26.9926,-23.1777 -28.4917,-6.68113 -33.7426,-13.57256 19.16,-20.9888 -40.2558,-0.71736 -77.7946,-2.18707 -30.5658,-27.47863 -14.817,-0.61198 -49.9718,20.49198 -33.5813,-41.26923 -25.4786,19.77192 -52.662,30.68462 -86.7525,-10.73251 -16.1333,20.69118 -44.1162,30.93 -56.2902,5.08507 -4.3755,11.01815 -22.519,15.1619 -37.9214,15.66442 -5.9561,-4.37663 -12.0992,-10.32118 -18.5098,-18.10951 -10.4775,16.35342 -26.1508,27.3978 -56.2901,5.08507 z"
       id="path3549-3-7"
       inkscape:connector-curvature="0"
       sodipodi:nodetypes="cccccccccccccccccccc" />
    <rect
       rx="66.215843"
       style="color:#000000;clip-rule:nonzero;display:inline;overflow:visible;visibility:visible;opacity:1;isolation:auto;mix-blend-mode:normal;color-interpolation:sRGB;color-interpolation-filters:linearRGB;solid-color:#000000;solid-opacity:1;fill:#fff6d5;fill-opacity:1;fill-rule:nonzero;stroke:none;stroke-width:2.76657867;stroke-linecap:butt;stroke-linejoin:miter;stroke-miterlimit:4;stroke-dasharray:none;stroke-dashoffset:0;stroke-opacity:1;marker:none;color-rendering:auto;image-rendering:auto;shape-rendering:auto;text-rendering:auto;enable-background:accumulate"
       id="rect4632"
       width="614.99579"
       height="259.18616"
       x="1185.6587"
       y="119.72362"
       ry="67.25779" />
    <path
       style="display:inline;fill:#ffffff;fill-rule:evenodd;stroke:none;stroke-width:1.09646881px;stroke-linecap:butt;stroke-linejoin:miter;stroke-opacity:1"
       d="m 660.92313,665.23591 c 33.3931,-63.32714 60.07048,4.88267 72.95219,26.92946 25.95278,-28.90041 51.87694,-57.94798 94.71094,0 16.6839,-24.0688 33.38455,-54.40476 98.88224,-27.10919 -37.5166,-41.46929 -54.81169,-74.06358 80.1777,-126.9529 -135.5212,41.77294 -124.39426,16.16451 -90.09272,-38.13175 -41.62843,10.75778 -45.79885,-15.15156 -32.47289,-59.48727 -31.83234,33.0888 -55.49788,-0.25226 -45.08045,-44.41224 -40.06605,35.07623 -57.02293,18.94774 -76.52764,-10.39407 -16.75088,26.41589 -35.27078,47.58121 -69.06006,23.42578 9.06486,46.69711 -8.65116,64.48952 -37.48974,70.27737 0,0 18.3728,59.20801 -1.97315,99.5596 36.8988,17.25301 5.90662,56.89556 5.97358,86.29521 z"
       id="path4519"
       inkscape:connector-curvature="0"
       sodipodi:nodetypes="ccccccccccccc" />
    <path
       style="color:#000000;display:inline;overflow:visible;visibility:visible;fill:#ffffff;fill-opacity:1;fill-rule:nonzero;stroke:none;stroke-width:1px;marker:none;enable-background:accumulate"
       d="m 279.21661,331.69196 c -17.89496,13.4838 -14.9399,40.88726 -5.8528,60.48693 -10.79523,-7.26829 -41.56822,-38.45159 -17.52982,-69.80029 31.24478,-40.74661 33.87904,-1.92254 33.87904,-1.92254 z"
       id="path4035"
       inkscape:connector-curvature="0"
       sodipodi:nodetypes="ccscc" />
    <path
       style="color:#000000;display:inline;overflow:visible;visibility:visible;fill:#ffffff;fill-opacity:1;fill-rule:nonzero;stroke:none;stroke-width:1.05049038px;marker:none;enable-background:accumulate"
       d="m 208.71785,150.20647 c 29.52437,-19.32863 261.05855,-41.12435 330.20379,8.95423 83.44301,60.43378 30.26868,136.1553 -17.44405,159.17603 -47.71262,23.02085 -199.77706,36.92723 -263.01276,15.99693 -63.23583,-20.93031 -99.90489,-41.39288 -102.14068,-103.254 -0.9125,-25.24797 22.86932,-61.54458 52.3937,-80.87319 z"
       id="path4040"
       inkscape:connector-curvature="0"
       sodipodi:nodetypes="zssssz" />
    <path
       style="color:#000000;display:inline;overflow:visible;visibility:visible;fill:#ffffff;fill-opacity:1;fill-rule:nonzero;stroke:none;stroke-width:1px;marker:none;enable-background:accumulate"
       d="m 953.96585,2378.0068 c 91.60845,1.0576 119.92095,46.0751 119.02895,63.76 -1.1961,23.7151 -32.4826,56.8064 -52.0006,60.5022 -18.0215,3.4124 -74.22239,7.8137 -102.47946,5.0351 -23.56819,-2.3175 -71.76034,-24.4159 -75.56267,-62.9365 -3.80234,-38.5205 71.35022,-66.6703 111.01378,-66.3608 z"
       id="path3365"
       inkscape:connector-curvature="0"
       sodipodi:nodetypes="cssszc" />
    <path
       style="color:#000000;display:inline;overflow:visible;visibility:visible;fill:#ffffff;fill-opacity:1;fill-rule:nonzero;stroke:none;stroke-width:1px;marker:none;enable-background:accumulate"
       d="m 962.92249,2468.739 c -12.15708,1.3875 -18.70143,14.2811 -25.16876,25.649 6.78095,9.7272 26.21986,29.2591 30.11741,42.0273 5.85042,13.5697 2.98997,32.7922 -0.82062,48.4992 -6.2353,19.9631 -19.30985,41.3545 -16.92844,63.4923 5.761,9.2474 17.94131,8.84 26.8911,13.0828 7.28226,2.4674 13.09451,9.745 11.43812,17.8043 -0.12781,14.6241 -15.89533,69.7885 -13.43656,84.2688 4.76461,8.6581 15.06046,11.9508 22.75186,17.3573 10.0682,6.4074 14.3937,3.3387 21.4706,13.44 4.5347,8.9513 -9.0648,29.0249 1.4375,43.5565 14.0204,15.3755 42.157,3.4357 58.4245,24.6159 -4.7878,-25.1732 -36.0948,-18.3617 -47.0162,-28.7673 -10.9214,-10.4056 0.7276,-35.8435 -1.8696,-46.5418 -10.04,-14.4469 -32.9532,-16.6357 -38.2417,-30.8747 -4.69774,-9.6962 11.6366,-67.5418 11.5788,-77.8459 0.4303,-10.6893 1.9342,-15.5124 -4.07954,-24.8673 -7.73555,-8.1621 -19.25467,-12.6542 -29.55556,-15.3955 27.93616,-42.6932 34.5821,-103.8713 12.32779,-140.1322 -3.91145,-5.8667 -12.64966,-29.6478 -19.3207,-29.3687 z"
       id="path5050"
       inkscape:connector-curvature="0"
       sodipodi:nodetypes="ccccccccccccsccccccc" />
    <rect
       rx="36.70179"
       style="color:#000000;clip-rule:nonzero;display:inline;overflow:visible;visibility:visible;opacity:1;isolation:auto;mix-blend-mode:normal;color-interpolation:sRGB;color-interpolation-filters:linearRGB;solid-color:#000000;solid-opacity:1;fill:#fff6d5;fill-opacity:1;fill-rule:nonzero;stroke:none;stroke-width:2.5999999;stroke-linecap:butt;stroke-linejoin:miter;stroke-miterlimit:4;stroke-dasharray:none;stroke-dashoffset:0;stroke-opacity:1;marker:none;color-rendering:auto;image-rendering:auto;shape-rendering:auto;text-rendering:auto;enable-background:accumulate"
       id="rect4632-8-5"
       width="252.41261"
       height="141.43484"
       x="1189.1006"
       y="903.9024"
       ry="36.70179" />
  </g>
  <g
     inkscape:groupmode="layer"
     id="layer1"
     inkscape:label="txt"
     style="display:inline">
    <text
       xml:space="preserve"
       style="font-style:normal;font-variant:normal;font-weight:normal;font-stretch:normal;line-height:0%;font-family:Lavi;-inkscape-font-specification:Lavi;text-align:center;letter-spacing:0px;word-spacing:0px;text-anchor:middle;fill:#000000;fill-opacity:1;stroke:none;stroke-width:2.4000001;stroke-miterlimit:4;stroke-dasharray:none"
       x="370.22446"
       y="187.47813"
       id="text4246-2-3-1-3-9-3-7-60"><tspan
         sodipodi:role="line"
         style="font-size:45px;line-height:1.25;stroke-width:2.4000001;stroke-miterlimit:4;stroke-dasharray:none"
         x="370.22446"
         y="187.47813"
         id="tspan4440">C'ha-c'ha!</tspan><tspan
         sodipodi:role="line"
         style="font-size:45px;line-height:1.25;stroke-width:2.4000001;stroke-miterlimit:4;stroke-dasharray:none"
         x="370.22446"
         y="243.72813"
         id="tspan4448">Trugarez, Spirulin!</tspan><tspan
         sodipodi:role="line"
         style="font-size:45px;line-height:1.25;stroke-width:2.4000001;stroke-miterlimit:4;stroke-dasharray:none"
         x="370.22446"
         y="299.97815"
         id="tspan4438">Ha digarez...</tspan></text>
    <text
       xml:space="preserve"
       style="font-style:normal;font-variant:normal;font-weight:normal;font-stretch:normal;line-height:0%;font-family:Lavi;-inkscape-font-specification:Lavi;text-align:center;letter-spacing:0px;word-spacing:0px;text-anchor:middle;fill:#000000;fill-opacity:1;stroke:none;stroke-width:2.4000001;stroke-miterlimit:4;stroke-dasharray:none"
       x="768.88843"
       y="420.15039"
       id="text4246-2-3-1-3-9-3-7-60-9"><tspan
         sodipodi:role="line"
         style="font-size:45px;line-height:1.25;stroke-width:2.4000001;stroke-miterlimit:4;stroke-dasharray:none"
         x="768.88843"
         y="423.63818"
         id="tspan193" /><tspan
         sodipodi:role="line"
         style="font-size:45px;line-height:1.25;stroke-width:2.4000001;stroke-miterlimit:4;stroke-dasharray:none"
         x="768.88843"
         y="461.35464"
         id="tspan201">'Vont</tspan><tspan
         sodipodi:role="line"
         style="font-size:45px;line-height:1.25;stroke-width:2.4000001;stroke-miterlimit:4;stroke-dasharray:none"
         x="768.88843"
         y="517.60468"
         id="tspan197">da b'lec'h</tspan><tspan
         sodipodi:role="line"
         style="font-size:45px;line-height:1.25;stroke-width:2.4000001;stroke-miterlimit:4;stroke-dasharray:none"
         x="768.88843"
         y="573.85468"
         id="tspan207">'maout?!</tspan></text>
    <text
       xml:space="preserve"
       style="font-style:normal;font-variant:normal;font-weight:normal;font-stretch:normal;line-height:0%;font-family:Lavi;-inkscape-font-specification:Lavi;text-align:center;letter-spacing:0px;word-spacing:0px;text-anchor:middle;fill:#000000;fill-opacity:1;stroke:#000000;stroke-width:2.23461556;stroke-miterlimit:4;stroke-dasharray:none;stroke-opacity:1"
       x="934.93097"
       y="572.8689"
       id="text4246-2-3-1-3-9-3-7-9-3"
       transform="matrix(0.91065665,0,-0.11970024,1.0981087,0,0)"><tspan
         sodipodi:role="line"
         style="font-size:38.67604446px;line-height:1.25;stroke:#000000;stroke-width:2.23461556;stroke-miterlimit:4;stroke-dasharray:none;stroke-opacity:1"
         x="934.93097"
         y="572.8689"
         id="tspan4814-3-7"> DEUS 'MAÑ!</tspan></text>
    <text
       xml:space="preserve"
       style="font-style:normal;font-variant:normal;font-weight:normal;font-stretch:normal;line-height:0%;font-family:Lavi;-inkscape-font-specification:Lavi;text-align:center;letter-spacing:0px;word-spacing:0px;text-anchor:middle;fill:#000000;fill-opacity:1;stroke:none;stroke-width:2.4000001;stroke-miterlimit:4;stroke-dasharray:none"
       x="1490.4664"
       y="183.39438"
       id="text4246-2-3-1-3-9-3-7-6"><tspan
         sodipodi:role="line"
         style="font-size:45px;line-height:1.25;stroke-width:2.4000001;stroke-miterlimit:4;stroke-dasharray:none"
         x="1490.4664"
         y="183.39438"
         id="tspan4534">Hem! Setu 'ta hor perzhiadez</tspan><tspan
         sodipodi:role="line"
         style="font-size:45px;line-height:1.25;stroke-width:2.4000001;stroke-miterlimit:4;stroke-dasharray:none"
         x="1490.4664"
         y="239.64438"
         id="tspan211">diwezhañ, ganti hudouriezh...</tspan><tspan
         sodipodi:role="line"
         style="font-size:45px;line-height:1.25;stroke-width:2.4000001;stroke-miterlimit:4;stroke-dasharray:none"
         x="1490.4664"
         y="295.89438"
         id="tspan4536">eee... n'haller ket doareañ,</tspan><tspan
         sodipodi:role="line"
         style="font-size:45px;line-height:1.25;stroke-width:2.4000001;stroke-miterlimit:4;stroke-dasharray:none"
         x="1490.4664"
         y="352.14438"
         id="tspan223">&quot;Kaosah&quot;...</tspan></text>
    <text
       xml:space="preserve"
       style="font-style:normal;font-variant:normal;font-weight:normal;font-stretch:normal;line-height:0%;font-family:Lavi;-inkscape-font-specification:Lavi;text-align:center;letter-spacing:0px;word-spacing:0px;text-anchor:middle;fill:#000000;fill-opacity:1;stroke:#000000;stroke-width:3.5321846;stroke-miterlimit:4;stroke-dasharray:none;stroke-opacity:1"
       x="1579.5811"
       y="413.80066"
       id="text4246-2-3-1-3-9-3-7-9"
       transform="matrix(0.93835319,0,-0.12334078,1.0656968,0,0)"><tspan
         sodipodi:role="line"
         style="font-size:61.13397217px;line-height:1.25;stroke:#000000;stroke-width:3.5321846;stroke-miterlimit:4;stroke-dasharray:none;stroke-opacity:1"
         x="1579.5811"
         y="413.80066"
         id="tspan4814-3"> PEPPER !</tspan></text>
    <text
       xml:space="preserve"
       style="font-style:normal;font-variant:normal;font-weight:normal;font-stretch:normal;line-height:0%;font-family:Lavi;-inkscape-font-specification:Lavi;text-align:center;letter-spacing:0px;word-spacing:0px;text-anchor:middle;fill:#000000;fill-opacity:1;stroke:none;stroke-width:2.4000001;stroke-miterlimit:4;stroke-dasharray:none"
       x="1477.8523"
       y="575.1593"
       id="text4246-2-3-1-3-9-3-7"><tspan
         sodipodi:role="line"
         style="font-size:45px;line-height:1.25;stroke-width:2.4000001;stroke-miterlimit:4;stroke-dasharray:none"
         x="1477.8523"
         y="575.1593"
         id="tspan225">hag hi gouenerez veur</tspan><tspan
         sodipodi:role="line"
         style="font-size:45px;line-height:1.25;stroke-width:2.4000001;stroke-miterlimit:4;stroke-dasharray:none"
         x="1477.8523"
         y="631.4093"
         id="tspan3552"> ar genstrivadeg drammoù,</tspan><tspan
         sodipodi:role="line"
         style="font-size:45px;line-height:1.25;stroke-width:2.4000001;stroke-miterlimit:4;stroke-dasharray:none"
         x="1477.8523"
         y="687.6593"
         id="tspan231">Divizet hon eus reiñ dezhi</tspan><tspan
         sodipodi:role="line"
         style="font-size:45px;line-height:1.25;stroke-width:2.4000001;stroke-miterlimit:4;stroke-dasharray:none"
         x="1485.7625"
         y="743.9093"
         id="tspan3554">ur plas eus ar c'hentañ! </tspan></text>
    <text
       xml:space="preserve"
       style="font-style:normal;font-variant:normal;font-weight:normal;font-stretch:normal;line-height:0%;font-family:Lavi;-inkscape-font-specification:Lavi;text-align:center;letter-spacing:0px;word-spacing:0px;text-anchor:middle;fill:#000000;fill-opacity:1;stroke:none;stroke-width:2.4000001;stroke-miterlimit:4;stroke-dasharray:none"
       x="1594.0984"
       y="878.17847"
       id="text4246-2-3-1-3-9-3-7-0"><tspan
         sodipodi:role="line"
         style="font-size:45px;line-height:1.25;stroke-width:2.4000001;stroke-miterlimit:4;stroke-dasharray:none"
         x="1594.0984"
         y="878.17847"
         id="tspan4418-43">?!...</tspan></text>
    <text
       xml:space="preserve"
       style="font-style:normal;font-variant:normal;font-weight:normal;font-stretch:normal;line-height:0%;font-family:Lavi;-inkscape-font-specification:Lavi;text-align:center;letter-spacing:0px;word-spacing:0px;text-anchor:middle;fill:#000000;fill-opacity:1;stroke:none;stroke-width:2.4000001;stroke-miterlimit:4;stroke-dasharray:none"
       x="1321.4937"
       y="961.88837"
       id="text4246-2-3-1-3-9-3-7-8"><tspan
         sodipodi:role="line"
         style="font-size:45px;line-height:1.25;stroke-width:2.4000001;stroke-miterlimit:4;stroke-dasharray:none"
         x="1329.4038"
         y="961.88837"
         id="tspan3554-9">End-eeun, </tspan><tspan
         sodipodi:role="line"
         style="font-size:45px;line-height:1.25;stroke-width:2.4000001;stroke-miterlimit:4;stroke-dasharray:none"
         x="1329.4038"
         y="1018.1384"
         id="tspan3632">bez' e vo... </tspan></text>
    <text
       xml:space="preserve"
       style="font-style:normal;font-variant:normal;font-weight:normal;font-stretch:normal;line-height:0%;font-family:Lavi;-inkscape-font-specification:Lavi;text-align:center;letter-spacing:0px;word-spacing:0px;text-anchor:middle;fill:#000000;fill-opacity:1;stroke:none;stroke-width:2.4000001;stroke-miterlimit:4;stroke-dasharray:none"
       x="795.5321"
       y="1236.5873"
       id="text4246-2-3-1-3-9-3"><tspan
         sodipodi:role="line"
         style="font-size:45px;line-height:1.25;stroke-width:2.4000001;stroke-miterlimit:4;stroke-dasharray:none"
         x="795.5321"
         y="1236.5873"
         id="tspan3445-5">... lod en hor</tspan><tspan
         sodipodi:role="line"
         style="font-size:45px;line-height:1.25;stroke-width:2.4000001;stroke-miterlimit:4;stroke-dasharray:none"
         x="803.44226"
         y="1292.8373"
         id="tspan3476"> <tspan
   style="stroke:#000000;stroke-width:2.4000001;stroke-miterlimit:4;stroke-dasharray:none;stroke-opacity:1"
   id="tspan4323">bodad barn</tspan>! </tspan></text>
    <text
       xml:space="preserve"
       style="font-style:normal;font-variant:normal;font-weight:normal;font-stretch:normal;line-height:0%;font-family:Lavi;-inkscape-font-specification:Lavi;letter-spacing:0px;word-spacing:0px;fill:#000000;fill-opacity:1;stroke:#000000;stroke-width:0.99236238;stroke-miterlimit:4;stroke-dasharray:none;stroke-opacity:1;filter:url(#filter4375-4-1-1-1-9-6-9-2-2-3)"
       x="787.65729"
       y="1584.5073"
       id="text4580-1-7-3-5-5"
       transform="matrix(0.38168385,-0.18570307,-0.01961658,0.54485753,937.50786,710.54866)"><tspan
         sodipodi:role="line"
         id="tspan4582-8-5-6-4-6"
         x="787.65729"
         y="1584.5073"
         style="font-size:70px;line-height:1.25;letter-spacing:8.44860268px;fill:#ffffff">Bañw</tspan></text>
    <text
       xml:space="preserve"
       style="font-style:normal;font-variant:normal;font-weight:normal;font-stretch:normal;line-height:0%;font-family:Lavi;-inkscape-font-specification:Lavi;letter-spacing:0px;word-spacing:0px;fill:#000000;fill-opacity:1;stroke:#000000;stroke-width:0.99236238;stroke-miterlimit:4;stroke-dasharray:none;stroke-opacity:1;filter:url(#filter4375-4-1-1-1-9)"
       x="787.65729"
       y="1584.5073"
       id="text4580"
       transform="matrix(0.61472835,-0.30739297,-0.11348792,0.81453426,1588.4038,242.87115)"><tspan
         sodipodi:role="line"
         id="tspan4582"
         x="787.65729"
         y="1584.5073"
         style="font-size:70px;line-height:1.25;fill:#ffffff">Stlak</tspan></text>
    <text
       xml:space="preserve"
       style="font-style:normal;font-variant:normal;font-weight:normal;font-stretch:normal;line-height:0%;font-family:Lavi;-inkscape-font-specification:Lavi;letter-spacing:0px;word-spacing:0px;fill:#000000;fill-opacity:1;stroke:#000000;stroke-width:0.99236238;stroke-miterlimit:4;stroke-dasharray:none;stroke-opacity:1;filter:url(#filter4375-4-1-1-1-9-6-9-2-2)"
       x="787.65729"
       y="1584.5073"
       id="text4580-1-7-3-5"
       transform="matrix(0.5246323,-0.30193047,-0.09685486,0.80005969,1692.7653,320.34331)"><tspan
         sodipodi:role="line"
         id="tspan4582-8-5-6-4"
         x="787.65729"
         y="1584.5073"
         style="font-size:70px;line-height:1.25;fill:#ffffff">Stlak</tspan></text>
    <text
       xml:space="preserve"
       style="font-style:normal;font-variant:normal;font-weight:normal;font-stretch:normal;line-height:0%;font-family:Lavi;-inkscape-font-specification:Lavi;letter-spacing:0px;word-spacing:0px;fill:#000000;fill-opacity:1;stroke:#000000;stroke-width:0.99236238;stroke-miterlimit:4;stroke-dasharray:none;stroke-opacity:1;filter:url(#filter4375-4-1-1-1-9-6)"
       x="787.65729"
       y="1584.5073"
       id="text4580-1"
       transform="matrix(0.76268723,-0.38265658,-0.14080331,1.0139688,1620.7121,-35.004103)"><tspan
         sodipodi:role="line"
         id="tspan4582-8"
         x="787.65729"
         y="1584.5073"
         style="font-size:70px;line-height:1.25;fill:#ffffff">Stlak</tspan></text>
    <text
       xml:space="preserve"
       style="font-style:normal;font-variant:normal;font-weight:normal;font-stretch:normal;line-height:0%;font-family:Lavi;-inkscape-font-specification:Lavi;letter-spacing:0px;word-spacing:0px;fill:#000000;fill-opacity:1;stroke:#000000;stroke-width:0.99236238;stroke-miterlimit:4;stroke-dasharray:none;stroke-opacity:1;filter:url(#filter4375-4-1-1-1-9-6-9)"
       x="787.65729"
       y="1584.5073"
       id="text4580-1-7"
       transform="matrix(0.65118448,-0.35236992,-0.12021825,0.93371485,1748.8132,125.85575)"><tspan
         sodipodi:role="line"
         id="tspan4582-8-5"
         x="787.65729"
         y="1584.5073"
         style="font-size:70px;line-height:1.25;fill:#ffffff">Stlak</tspan></text>
    <text
       xml:space="preserve"
       style="font-style:normal;font-variant:normal;font-weight:normal;font-stretch:normal;line-height:0%;font-family:Lavi;-inkscape-font-specification:Lavi;letter-spacing:0px;word-spacing:0px;fill:#000000;fill-opacity:1;stroke:#000000;stroke-width:0.99236238;stroke-miterlimit:4;stroke-dasharray:none;stroke-opacity:1;filter:url(#filter4375-4-1-1-1-9-6-9-2)"
       x="787.65729"
       y="1584.5073"
       id="text4580-1-7-3"
       transform="matrix(0.65118448,-0.35236992,-0.12021825,0.93371485,1869.0321,70.146387)"><tspan
         sodipodi:role="line"
         id="tspan4582-8-5-6"
         x="787.65729"
         y="1584.5073"
         style="font-size:70px;line-height:1.25;fill:#ffffff">Stlak</tspan></text>
    <text
       xml:space="preserve"
       style="font-style:normal;font-variant:normal;font-weight:normal;font-stretch:normal;line-height:0%;font-family:Lavi;-inkscape-font-specification:Lavi;text-align:center;letter-spacing:0px;word-spacing:0px;text-anchor:middle;display:inline;opacity:0.6;fill:#000000;fill-opacity:1;stroke:none;filter:url(#filter4312)"
       x="1170.1934"
       y="2020.8383"
       id="text4246"
       transform="matrix(0.83018334,0.00799514,0.01889419,0.78469023,222.7135,402.05875)"><tspan
         sodipodi:role="line"
         style="font-style:normal;font-variant:normal;font-weight:normal;font-stretch:normal;font-size:41.73017502px;line-height:1.26999998;font-family:Fondamento;-inkscape-font-specification:Fondamento;stroke:#000000;stroke-width:0.69550294;stroke-opacity:1"
         x="1170.1934"
         y="2020.8383"
         id="tspan4172">Kenstrivadeg Hudouriezh</tspan><tspan
         sodipodi:role="line"
         style="font-style:normal;font-variant:normal;font-weight:normal;font-stretch:normal;font-size:41.73017502px;line-height:1.26999998;font-family:Fondamento;-inkscape-font-specification:Fondamento;stroke:#000000;stroke-width:0.69550294;stroke-opacity:1"
         x="1170.1934"
         y="2073.8357"
         id="tspan4321">Bodad Barn Kefridiel</tspan></text>
    <text
       xml:space="preserve"
       style="font-style:normal;font-variant:normal;font-weight:normal;font-stretch:normal;line-height:0%;font-family:Lavi;-inkscape-font-specification:Lavi;text-align:center;letter-spacing:0px;word-spacing:0px;text-anchor:middle;fill:#000000;fill-opacity:1;stroke:none"
       x="956.04541"
       y="2461.3206"
       id="text4246-2-3-1-3-9"><tspan
         sodipodi:role="line"
         style="font-size:45px;line-height:1.25"
         x="956.04541"
         y="2461.3206"
         id="tspan3445">Youc'hou.</tspan></text>
    <text
       xml:space="preserve"
       style="font-style:normal;font-variant:normal;font-weight:normal;font-stretch:normal;line-height:0%;font-family:Lavi;-inkscape-font-specification:Lavi;text-align:center;letter-spacing:0px;word-spacing:0px;text-anchor:middle;display:inline;opacity:0.6;fill:#000000;fill-opacity:1;stroke:none;filter:url(#filter4348)"
       x="1041.0745"
       y="3267.8125"
       id="text4246-3-2-1"
       transform="matrix(0.95811116,-0.02724761,0.08440435,0.8567817,-682.3706,408.94595)"><tspan
         sodipodi:role="line"
         style="font-style:normal;font-variant:normal;font-weight:normal;font-stretch:normal;font-size:39.51785278px;line-height:1.26999998;font-family:Fondamento;-inkscape-font-specification:Fondamento;stroke:#000000;stroke-width:0.65863091;stroke-opacity:1"
         x="1045.8984"
         y="3267.8125"
         id="tspan4321-6-9-2">Queen Aiel </tspan></text>
    <text
       xml:space="preserve"
       style="font-style:normal;font-variant:normal;font-weight:normal;font-stretch:normal;line-height:0%;font-family:Lavi;-inkscape-font-specification:Lavi;text-align:center;letter-spacing:0px;word-spacing:0px;text-anchor:middle;display:inline;opacity:0.6;fill:#000000;fill-opacity:1;stroke:none;filter:url(#filter4320)"
       x="706.49316"
       y="3289.8411"
       id="text4246-3"
       transform="matrix(1.0242285,-0.10439088,-0.043955,0.98082457,953.23565,44.98305)"><tspan
         sodipodi:role="line"
         style="font-style:normal;font-variant:normal;font-weight:normal;font-stretch:normal;font-size:39.51785278px;line-height:1.26999998;font-family:Fondamento;-inkscape-font-specification:Fondamento;stroke:#000000;stroke-width:0.65863091;stroke-opacity:1"
         x="706.49316"
         y="3289.8411"
         id="tspan4321-6">Pepper</tspan></text>
    <text
       xml:space="preserve"
       style="font-style:normal;font-variant:normal;font-weight:normal;font-stretch:normal;line-height:0%;font-family:Lavi;-inkscape-font-specification:Lavi;text-align:center;letter-spacing:0px;word-spacing:0px;text-anchor:middle;display:inline;opacity:0.6;fill:#000000;fill-opacity:1;stroke:none;filter:url(#filter4328)"
       x="1600.3759"
       y="3276.0305"
       id="text4246-3-2"
       transform="matrix(0.91400549,-0.03630287,0.173692,0.85100893,98.290871,460.90615)"><tspan
         sodipodi:role="line"
         style="font-style:normal;font-variant:normal;font-weight:normal;font-stretch:normal;font-size:39.51785278px;line-height:1.26999998;font-family:Fondamento;-inkscape-font-specification:Fondamento;stroke:#000000;stroke-width:0.65863091;stroke-opacity:1"
         x="1605.1998"
         y="3276.0305"
         id="tspan4321-6-9">Lord Azeirf </tspan></text>
    <text
       xml:space="preserve"
       style="font-style:normal;font-variant:normal;font-weight:normal;font-stretch:normal;line-height:0%;font-family:Lavi;-inkscape-font-specification:Lavi;text-align:center;letter-spacing:0px;word-spacing:0px;text-anchor:middle;opacity:1;fill:#241c1c;fill-opacity:1;stroke:#000000;stroke-width:0.82200003;stroke-miterlimit:4;stroke-dasharray:none;stroke-opacity:1"
       x="3492.3425"
       y="3319.1055"
       id="text4213"
       transform="matrix(0.96049651,0,-0.32716292,1.0411282,0,0)"><tspan
         sodipodi:role="line"
         id="tspan3562"
         x="3492.3425"
         y="3319.1055"
         style="font-size:43.85788345px;line-height:1.25">Da heul...</tspan></text>
  </g>
</svg>
