<?xml version="1.0" encoding="UTF-8" standalone="no"?>
<!-- Created with Inkscape (http://www.inkscape.org/) -->

<svg
   xmlns:dc="http://purl.org/dc/elements/1.1/"
   xmlns:cc="http://creativecommons.org/ns#"
   xmlns:rdf="http://www.w3.org/1999/02/22-rdf-syntax-ns#"
   xmlns:svg="http://www.w3.org/2000/svg"
   xmlns="http://www.w3.org/2000/svg"
   xmlns:xlink="http://www.w3.org/1999/xlink"
   xmlns:sodipodi="http://sodipodi.sourceforge.net/DTD/sodipodi-0.dtd"
   xmlns:inkscape="http://www.inkscape.org/namespaces/inkscape"
   id="svg2"
   version="1.1"
   inkscape:version="0.92.3 (2405546, 2018-03-11)"
   width="2481"
   height="3503"
   sodipodi:docname="E19P05.svg">
  <sodipodi:namedview
     pagecolor="#ffffff"
     bordercolor="#666666"
     inkscape:pageopacity="0"
     inkscape:pageshadow="2"
     inkscape:window-width="1813"
     inkscape:window-height="955"
     id="namedview70"
     showgrid="false"
     inkscape:zoom="0.28284271"
     inkscape:cx="1744.6631"
     inkscape:cy="1103.121"
     inkscape:current-layer="layer3"
     inkscape:window-x="64"
     inkscape:window-y="0"
     inkscape:window-maximized="0" />
  <metadata
     id="metadata8">
    <rdf:RDF>
      <cc:Work
         rdf:about="">
        <dc:format>image/svg+xml</dc:format>
        <dc:type
           rdf:resource="http://purl.org/dc/dcmitype/StillImage" />
        <dc:title />
      </cc:Work>
    </rdf:RDF>
  </metadata>
  <defs
     id="defs6">
    <filter
       inkscape:collect="always"
       style="color-interpolation-filters:sRGB"
       id="filter4436"
       x="-0.009420248"
       width="1.0188405"
       y="-0.0097332714"
       height="1.0194665">
      <feGaussianBlur
         inkscape:collect="always"
         stdDeviation="0.80032609"
         id="feGaussianBlur4438" />
    </filter>
    <filter
       style="color-interpolation-filters:sRGB"
       id="filter4375-4-1-1-1-9"
       inkscape:label="deevad outline effect">
      <feFlood
         id="feFlood4377-7-9-0-8-1"
         flood-opacity="1"
         flood-color="rgb(0,0,0)"
         result="flood" />
      <feComposite
         id="feComposite4379-3-8-8-2-77"
         in2="SourceGraphic"
         in="flood"
         operator="in"
         result="composite1" />
      <feMorphology
         id="feMorphology4393-1-0-49-8-9"
         operator="dilate"
         radius="4"
         result="result3" />
      <feComposite
         id="feComposite4385-9-5-7-0-8"
         in2="result3"
         in="SourceGraphic"
         operator="over"
         result="composite2" />
    </filter>
  </defs>
  <sodipodi:namedview
     pagecolor="#ffffff"
     bordercolor="#666666"
     borderopacity="1"
     objecttolerance="10"
     gridtolerance="10"
     guidetolerance="10"
     inkscape:pageopacity="0"
     inkscape:pageshadow="2"
     inkscape:window-width="1920"
     inkscape:window-height="1025"
     id="namedview4"
     showgrid="false"
     inkscape:zoom="0.34350663"
     inkscape:cx="1492.3002"
     inkscape:cy="1051.3698"
     inkscape:window-x="0"
     inkscape:window-y="26"
     inkscape:window-maximized="1"
     inkscape:current-layer="layer1" />
  <g
     inkscape:groupmode="layer"
     id="layer2"
     inkscape:label="artwork"
     sodipodi:insensitive="true">
    <image
       sodipodi:absref="/home/fici/Desktop/P&amp;C/all/sl/../gfx_Pepper-and-Carrot_by-David-Revoy_E19P05.png"
       xlink:href="../gfx_Pepper-and-Carrot_by-David-Revoy_E19P05.png"
       y="0"
       x="0"
       id="image10"
       height="3503"
       width="2481" />
  </g>
  <g
     inkscape:groupmode="layer"
     id="layer3"
     inkscape:label="speechbubbles">
    <path
       style="color:#000000;display:inline;overflow:visible;visibility:visible;fill:#ffffff;fill-opacity:1;fill-rule:nonzero;stroke:none;stroke-width:0.83201319px;marker:none;enable-background:accumulate"
       d="m 253.24616,226.73894 c 5.16944,-52.0116 57.03914,-90.0969 189.8583,-80.40172 71.14511,5.19322 151.97911,8.57647 145.23285,84.76925 -6.74637,76.19269 -122.98882,74.31232 -147.02838,76.11015 -24.03957,1.79793 -148.91194,-6.10773 -170.27682,-32.00991 -13.37392,-16.21407 -18.4885,-32.3601 -17.78595,-48.46777 z"
       id="path4546"
       inkscape:connector-curvature="0"
       sodipodi:nodetypes="cssssc" />
    <path
       style="color:#000000;display:inline;overflow:visible;visibility:visible;fill:#ffffff;fill-opacity:1;fill-rule:nonzero;stroke:none;stroke-width:1.0112803px;marker:none;enable-background:accumulate"
       d="m 288.15973,393.75525 c 4.2771,-71.19865 113.20299,-76.35068 152.62212,-77.6029 19.45784,0.36932 131.3275,-6.49317 226.0275,-2.64655 94.69999,3.84661 172.97587,13.86324 178.10718,65.77999 8.85748,89.61659 -59.9989,74.49677 -142.8448,81.3127 -82.84589,6.81593 -178.66097,1.14928 -222.70057,2.24528 -86.85774,2.16159 -197.62362,6.22324 -191.21143,-69.08852 z"
       id="path3145"
       inkscape:connector-curvature="0"
       sodipodi:nodetypes="ccssssc" />
    <path
       style="color:#000000;display:inline;overflow:visible;visibility:visible;fill:#ffffff;fill-opacity:1;fill-rule:nonzero;stroke:none;stroke-width:1px;marker:none;enable-background:accumulate"
       d="m 446.27152,300.25044 c 18.72085,42.63412 151.10363,129.12034 165.81283,143.73771 14.70919,14.61736 73.7025,51.80706 97.77206,55.46145 24.06968,3.65429 34.61383,-5.53274 55.60142,-7.98778 12.78199,-1.49519 17.18619,22.92918 50.77997,17.07051 -42.14888,-6.98958 -22.50416,-29.88571 -64.91129,-24.54594 -12.88206,1.62207 -29.12682,8.03372 -50.16944,-3.7592 -55.77193,-31.25628 -135.87479,-117.85288 -157.27,-121.50717 -21.39521,-3.6544 -71.63519,-52.34757 -71.63519,-68.18304 0,-15.83557 -25.98036,9.71346 -25.98036,9.71346 z"
       id="path4562"
       inkscape:connector-curvature="0"
       sodipodi:nodetypes="cssscssssc" />
    <path
       style="color:#000000;display:inline;overflow:visible;visibility:visible;fill:#ffffff;fill-opacity:1;fill-rule:nonzero;stroke:none;stroke-width:1.01817429px;marker:none;enable-background:accumulate"
       d="m 1814.5668,517.7331 c 8.4592,-67.32211 51.2564,-92.46233 187.2693,-88.7597 174.719,4.75631 269.9309,-14.33022 271.7516,112.41855 1.4249,99.19595 -180.8751,91.33916 -213.3024,92.49988 -32.4272,1.16084 -202.1191,-4.78193 -226.6536,-38.67656 -16.3024,-22.52195 -20.4749,-56.58901 -19.0649,-77.48217 z"
       id="path4546-6"
       inkscape:connector-curvature="0"
       sodipodi:nodetypes="cssssc" />
    <path
       style="color:#000000;display:inline;overflow:visible;visibility:visible;fill:#ffffff;fill-opacity:1;fill-rule:nonzero;stroke:none;stroke-width:1px;marker:none;enable-background:accumulate"
       d="m 1701.8598,502.58041 c 34.2355,-19.71173 54.3987,3.34417 62.5308,8.32687 8.132,4.9827 37.4163,23.21994 64.0425,5.43127 26.6264,-17.78869 62.8269,-3.31025 62.8269,-3.31025 l -39.1174,27.48072 c 0,0 -38.4369,7.20044 -59.7592,-0.984 -21.3223,-8.18441 -44.9876,-30.85789 -56.2316,-33.04337 -11.2438,-2.1855 -22.2733,-7.94404 -34.292,-3.90124 z"
       id="path4018"
       inkscape:connector-curvature="0" />
    <path
       style="fill:#ffffff;fill-rule:evenodd;stroke:none;stroke-width:1px;stroke-linecap:butt;stroke-linejoin:miter;stroke-opacity:1"
       d="m 588.40376,914.65231 c 3.19663,-13.63689 11.80483,-23.98359 21.17352,-30.89066 4.45851,-3.33465 9.55466,-5.77835 14.76954,-5.13556 5.18067,0.38408 10.24092,2.67713 15.47891,1.88067 6.36924,-0.26307 12.85031,-1.41081 19.14642,0.2292 5.59702,1.78949 11.36355,2.71628 17.13927,2.77002 4.07461,-1.13586 7.80313,1.89157 11.44199,3.70231 3.26677,1.95593 6.60351,4.00801 9.3474,7.03352 2.52795,4.24716 5.55485,7.9421 8.11232,12.15145 1.67342,2.30123 1.51263,5.47984 1.43554,8.42157 -0.21734,6.02406 -0.58538,12.14319 -1.95147,17.94685 -0.81749,3.68454 -3.8391,4.90391 -6.16085,6.59704 -5.49361,3.57416 -11.32711,6.28455 -16.57007,10.49061 -5.19427,2.15366 -10.71435,1.1463 -16.04131,0.82083 -4.46364,-0.64109 -8.95383,-1.53507 -13.45583,-0.78954 -5.72997,0.54557 -11.44255,1.95821 -17.19303,1.77726 -7.20377,-1.24165 -14.10302,-4.29889 -21.08408,-6.75135 -6.26328,-2.16161 -11.97173,-6.2263 -17.44914,-10.57451 -2.92584,-2.46919 -6.02317,-5.33924 -7.05575,-9.88965 -0.84645,-3.13334 -1.04589,-6.48839 -1.08338,-9.79006 z"
       id="path4365"
       inkscape:connector-curvature="0" />
    <path
       style="fill:#ffffff;stroke:none"
       d="m 585.80257,1016.9897 c 25.0585,-22.43253 22.34002,-27.88279 18.28192,-33.62356 -4.05789,-5.74087 -9.0117,-10.26487 -5.47683,-15.76954 3.53471,-5.50448 11.83641,-12.20928 18.64507,-16.88605 6.80865,-4.67676 -0.15106,-6.98609 -1.33267,-11.71084 -1.18153,-4.72486 8.47495,-35.26533 8.47495,-35.26533 0,0 18.8861,11.27031 21.85273,16.73523 2.96681,5.46474 4.10423,7.43623 4.14842,10.18949 0.044,2.75343 -1.45956,10.07055 -7.37678,15.64632 -5.91727,5.57568 -12.97777,12.61891 -18.44474,16.52839 -5.46711,3.90944 -14.50851,8.27169 -13.27858,13.63411 1.23003,5.36237 10.23798,8.00805 0.82597,18.96164 -8.0678,9.38924 -26.31946,21.56014 -26.31946,21.56014 z"
       id="path3023-2"
       inkscape:connector-curvature="0"
       sodipodi:nodetypes="csssscssssssc" />
    <path
       style="fill:#ffffff;stroke:none"
       d="m 920.60629,888.38152 c -0.56464,-16.47336 17.65795,-62.04816 95.76041,-56.80467 78.1024,5.24349 102.2046,24.00836 103.9101,53.30904 2.6982,46.35286 -38.6713,57.58421 -97.7876,59.38885 -60.94251,1.86043 -98.55,-14.22681 -101.88291,-55.89322 z"
       id="path3280"
       inkscape:connector-curvature="0"
       sodipodi:nodetypes="csssc" />
    <path
       style="color:#000000;display:inline;overflow:visible;visibility:visible;fill:#ffffff;fill-opacity:1;fill-rule:nonzero;stroke:none;stroke-width:0.85738587px;marker:none;enable-background:accumulate"
       d="m 1207.2581,969.24415 c 69.2107,1.37571 141.1858,9.74716 159.5387,26.98476 37.1856,34.92549 20.0946,96.82119 -19.7145,116.22759 -39.8093,19.4065 -168.5682,25.7499 -223.7467,18.6014 -50.3917,-6.5284 -96.8607,-25.3457 -101.1158,-81.3237 11.3833,-98.13378 132.9989,-81.36916 185.0383,-80.49005 z"
       id="path4040-6"
       inkscape:connector-curvature="0"
       sodipodi:nodetypes="cssscc" />
    <path
       style="color:#000000;display:inline;overflow:visible;visibility:visible;fill:#ffffff;fill-opacity:1;fill-rule:nonzero;stroke:none;stroke-width:1px;marker:none;enable-background:accumulate"
       d="m 1300.3321,1185.0371 c 19.4758,-56.0536 -15.5086,-73.6442 -35.8993,-79.8259 -46.2488,-14.0212 -31.454,-39.2745 -31.454,-39.2745 l 33.7545,-1.1746 c 0,0 85.1517,57.8008 33.5988,120.275 z"
       id="path3072"
       inkscape:connector-curvature="0"
       sodipodi:nodetypes="csccc" />
    <path
       inkscape:connector-curvature="0"
       style="color:#000000;display:inline;overflow:visible;visibility:visible;fill:#ffffff;fill-opacity:1;fill-rule:nonzero;stroke:none;stroke-width:0.96735668px;marker:none;enable-background:accumulate"
       d="m 2344.8962,1926.0728 -61.0079,46.7573 -0.9621,-15.9101 -19.9584,11.4352 c -81.1112,-18.8111 -185.3332,-19.8416 -267.2577,-12.0624 l -22.2233,-12.0205 -3.9137,14.8906 c -3.7399,0.4699 -7.4392,0.9525 -11.0431,1.459 l -24.0566,-14.7718 2.331,18.1893 c -0.4495,0.079 -0.8919,0.1585 -1.3384,0.2379 l -33.524,-16.5815 5.3902,22.4821 c -1.6142,0.4002 -3.1949,0.8036 -4.7363,1.2121 l -42.3825,-34.9229 15.9001,43.9946 c -2.6335,1.2349 -4.9144,2.4877 -6.8625,3.7556 l -25.4957,-14.4911 13.6741,24.6153 c -2.5863,2.4021 -5.0331,4.7525 -7.3813,7.0672 l -20.0539,-4.1905 9.5818,13.2118 c -19.4551,22.4896 -29.7456,46.7749 -29.3512,69.6612 0.079,4.5938 0.4003,9.0543 0.9343,13.3965 l -11.8984,4.8626 14.9344,10.8858 c 1.3729,5.1525 4.4162,21.4888 6.4544,26.272 l -15.1931,8.727 18.1458,9.7859 -20.3224,15.0563 42.4825,-6.5319 c 0.5906,0.5924 1.1976,1.1749 1.8012,1.7601 l -52.0843,31.7963 68.9974,-10.2514 -33.8458,33.5397 67.2764,-17.8855 -19.2112,21.8371 51.0887,-7.8357 3.8522,0.099 c 11.4114,4.5533 25.6119,4.7376 37.929,8.7724 83.7716,7.8899 186.0305,18.0791 274.5692,2.1072 l 42.6525,19.5707 -17.553,-24.5809 c 0.9365,-0.21 6.2554,-1.344 7.1791,-1.5557 l 44.3303,29.1105 -8.7999,-22.5811 42.9533,20.802 -25.963,-39.1567 23.8392,12.0864 -16.3328,-19.8457 c 2.0511,-1.04 4.0949,-2.1333 6.1304,-3.2778 l 22.2668,6.1566 -13.4777,-11.4682 c 3.3969,-2.1961 6.7425,-4.5267 10.0086,-6.9942 l 34.6445,10.2106 -18.1714,-24.5135 c 2.0013,-1.9981 3.9494,-4.0467 5.8242,-6.15 l 26.5565,1.0855 -11.2648,-22.1226 c 18.6562,-32.5053 19.9161,-72.6427 -17.507,-112.5987 l -18.8057,-33.1202 -17.4966,2.9383 15.5299,-24.4196 -28.9267,11.3616 10.5997,-28.0439 -31.1623,18.2766 z"
       id="path4040-0"
       sodipodi:nodetypes="ccccccccccccccccccccccccccccccccccccccccccccccccccccccccccccccccccc" />
    <path
       style="fill:#ffffff;fill-rule:evenodd;stroke:none;stroke-width:1px;stroke-linecap:butt;stroke-linejoin:miter;stroke-opacity:1"
       d="m 1731.8549,2318.594 120.8192,-66.2832 -29.5759,-16.5028 85.742,-43.3793 -33.6402,-26.9702 -85.496,68.298 33.0867,19.9442 z"
       id="path4667"
       inkscape:connector-curvature="0"
       sodipodi:nodetypes="cccccccc" />
    <path
       style="color:#000000;display:inline;overflow:visible;visibility:visible;fill:#ffffff;fill-opacity:1;fill-rule:nonzero;stroke:none;stroke-width:0.93365741px;marker:none;enable-background:accumulate"
       d="m 293.18135,2914.6622 c -4.22335,-19.5168 7.03893,-71.3582 93.61814,-67.0887 86.57912,4.2691 100.65711,28.665 102.76875,35.9838 2.11172,7.3188 20.41299,48.7919 -47.16099,59.7701 -67.57403,10.9781 -128.109,-0.61 -149.2259,-28.6652 z"
       id="path3525-3"
       inkscape:connector-curvature="0" />
    <path
       style="color:#000000;display:inline;overflow:visible;visibility:visible;fill:#ffffff;fill-opacity:1;fill-rule:nonzero;stroke:none;stroke-width:1px;marker:none;enable-background:accumulate"
       d="m 355.9403,2986.457 c -5.6772,-23.6599 9.46198,-86.5065 125.845,-81.3308 116.38293,5.1755 135.30707,34.7504 138.14562,43.6228 2.83865,8.8725 27.43991,59.1498 -63.39556,72.4585 -90.83555,13.3087 -172.20894,-0.7394 -200.59506,-34.7505 z"
       id="path3525"
       inkscape:connector-curvature="0" />
    <path
       style="fill:#ffffff;stroke:none"
       d="m 724.63292,3064.4492 c -44.91832,1.4919 -47.24791,-20.9854 -51.14037,-36.6761 -3.89249,-15.6906 -9.27998,-21.4201 -18.52846,-26.6309 -9.24849,-5.2108 -33.08962,-10.6584 -43.77395,-10.0458 -10.68446,0.6125 -3.78477,-12.8605 -8.59152,-22.916 -4.80685,-10.0553 -42.89306,-56.1468 -42.89306,-56.1468 0,0 -0.46939,45.2647 3.90172,59.0142 4.37109,13.7495 5.89801,18.7988 9.17784,23.8049 3.27992,5.0062 13.2003,16.1642 24.30406,18.3477 11.1037,2.1836 22.60012,-1.08 31.36483,-1.2946 8.7647,-0.2149 19.3795,8.4967 24.91751,19.762 5.53802,11.2652 21.97398,34.9274 40.25618,36.5842 18.28219,1.6569 31.00522,-3.8028 31.00522,-3.8028 z"
       id="path3023"
       inkscape:connector-curvature="0"
       sodipodi:nodetypes="csssscssssssc" />
    <path
       style="color:#000000;display:inline;overflow:visible;visibility:visible;fill:#ffffff;fill-opacity:1;fill-rule:nonzero;stroke:none;stroke-width:1.0277673px;marker:none;enable-background:accumulate"
       d="m 1877.3176,2913.4064 c 33.5821,-28.4057 315.3175,-56.8794 413.761,3.2714 98.4437,60.1507 37.8535,130.6127 -19.0952,152.6701 -56.9485,22.0575 -224.1975,45.207 -300.2628,25.0996 -76.0656,-20.1074 -135.202,-49.6393 -138.5909,-108.9765 -1.3832,-24.2178 10.6057,-43.6586 44.1879,-72.0646 z"
       id="path4040"
       inkscape:connector-curvature="0"
       sodipodi:nodetypes="zssssz" />
    <path
       style="fill:#ffffff;stroke:none"
       d="m 1854.1663,2946.4442 c -8.425,34.8165 -37.2307,31.7581 -50.3591,42.8222 -13.1284,11.0641 -8.0197,44.4997 -12.2154,54.2156 -4.7715,8.9032 -18.1291,14.1138 -43.3638,18.6556 52.3708,5.3281 53.8843,-8.2619 58.2801,-16.545 6.0434,-11.3863 -1.0961,-29.4638 12.6351,-37.1378 13.3002,-7.4336 60.8072,-25.2812 71.8205,-46.5825 11.0135,-21.3015 15.5932,-21.3472 15.5932,-21.3472 z"
       id="path3282"
       inkscape:connector-curvature="0"
       sodipodi:nodetypes="csccssscc" />
  </g>
  <g
     inkscape:groupmode="layer"
     id="layer1"
     inkscape:label="txt">
    <text
       xml:space="preserve"
       style="font-style:normal;font-variant:normal;font-weight:normal;font-stretch:normal;line-height:0%;font-family:Lavi;-inkscape-font-specification:Lavi;text-align:center;letter-spacing:0px;word-spacing:0px;text-anchor:middle;fill:#000000;fill-opacity:1;stroke:none"
       x="421.11551"
       y="203.75937"
       id="text4246-3-3-2"><tspan
         sodipodi:role="line"
         style="font-size:45px;line-height:1.25"
         x="421.11551"
         y="203.75937"
         id="tspan3752">Vsi smo</tspan><tspan
         sodipodi:role="line"
         style="font-size:45px;line-height:1.25"
         x="421.11551"
         y="260.00937"
         id="tspan878">delali napake.</tspan></text>
    <text
       xml:space="preserve"
       style="font-style:normal;font-variant:normal;font-weight:normal;font-stretch:normal;line-height:0%;font-family:Lavi;-inkscape-font-specification:Lavi;text-align:center;letter-spacing:0px;word-spacing:0px;text-anchor:middle;fill:#000000;fill-opacity:1;stroke:none"
       x="566.86279"
       y="369.82779"
       id="text4246-3-3-2-3"><tspan
         sodipodi:role="line"
         style="font-size:45px;line-height:1.25"
         x="566.86279"
         y="369.82779"
         id="tspan4148-7">In jaz nisem več ta</tspan><tspan
         sodipodi:role="line"
         style="font-size:45px;line-height:1.25"
         x="566.86279"
         y="426.07779"
         id="tspan4173">Cayenne, ki je to napisala.</tspan></text>
    <text
       xml:space="preserve"
       style="font-style:normal;font-variant:normal;font-weight:normal;font-stretch:normal;line-height:0%;font-family:Lavi;-inkscape-font-specification:Lavi;text-align:center;letter-spacing:0px;word-spacing:0px;text-anchor:middle;fill:#000000;fill-opacity:1;stroke:none"
       x="2045.6348"
       y="490.67374"
       id="text4246-3-3-2-3-5"><tspan
         sodipodi:role="line"
         style="font-size:45px;line-height:1.25"
         x="2045.6348"
         y="490.67374"
         id="tspan3742">Ta dnevnik je bil</tspan><tspan
         sodipodi:role="line"
         style="font-size:45px;line-height:1.25"
         x="2045.6348"
         y="546.92371"
         id="tspan885">zakopan s sposebnim</tspan><tspan
         sodipodi:role="line"
         style="font-size:45px;line-height:1.25"
         x="2045.6348"
         y="603.17371"
         id="tspan887">razlogom.</tspan></text>
    <text
       xml:space="preserve"
       style="font-style:normal;font-variant:normal;font-weight:normal;font-stretch:normal;line-height:0%;font-family:Lavi;-inkscape-font-specification:Lavi;text-align:center;letter-spacing:0px;word-spacing:0px;text-anchor:middle;fill:#000000;fill-opacity:1;stroke:none"
       x="649.6814"
       y="918.87958"
       id="text4246-3-3-2-3-5-6"><tspan
         sodipodi:role="line"
         style="font-size:45px;line-height:1.25"
         x="649.6814"
         y="918.87958"
         id="tspan4208-1">...</tspan></text>
    <text
       xml:space="preserve"
       style="font-style:normal;font-variant:normal;font-weight:normal;font-stretch:normal;line-height:0%;font-family:Lavi;-inkscape-font-specification:Lavi;text-align:center;letter-spacing:0px;word-spacing:0px;text-anchor:middle;fill:#000000;fill-opacity:1;stroke:none"
       x="1020.2921"
       y="900.67383"
       id="text4246-3-3-2-3-5-6-2"><tspan
         sodipodi:role="line"
         style="font-size:45px;line-height:1.25"
         x="1020.2921"
         y="900.67383"
         id="tspan4208-1-7">V redu!</tspan></text>
    <text
       xml:space="preserve"
       style="font-style:normal;font-variant:normal;font-weight:normal;font-stretch:normal;line-height:0%;font-family:Lavi;-inkscape-font-specification:Lavi;text-align:center;letter-spacing:0px;word-spacing:0px;text-anchor:middle;fill:#000000;fill-opacity:1;stroke:none"
       x="1206.6096"
       y="1034.7484"
       id="text4246-3-3-2-3-5-6-2-0"><tspan
         sodipodi:role="line"
         style="font-size:45px;line-height:1.25"
         x="1206.6096"
         y="1034.7484"
         id="tspan891">Kaj pa potem</tspan><tspan
         sodipodi:role="line"
         style="font-size:45px;line-height:1.25"
         x="1206.6096"
         y="1090.9984"
         id="tspan895">praviš na to?</tspan></text>
    <text
       id="text4178-6-5-9-0-7-0-4"
       style="font-style:normal;font-variant:normal;font-weight:normal;font-stretch:normal;line-height:0%;font-family:Lavi;-inkscape-font-specification:Lavi;text-align:center;letter-spacing:0px;word-spacing:0px;text-anchor:middle;opacity:0.64099995;fill:#241c1c;fill-opacity:1;stroke:none;filter:url(#filter4436)"
       xml:space="preserve"
       y="3129.8394"
       x="1318.7137"
       transform="matrix(0.68323005,-0.18026525,0.27547669,0.60843919,-261.43744,-182.58505)"><tspan
         y="3129.8394"
         x="1318.7137"
         style="font-style:normal;font-variant:normal;font-weight:normal;font-stretch:normal;font-size:40.67671585px;line-height:1.25;font-family:Fondamento;-inkscape-font-specification:Fondamento;fill:#241c1c;fill-opacity:1"
         sodipodi:role="line"
         id="tspan4293-1-6-3-5-0-2">CHAOSAH</tspan><tspan
         y="3180.6853"
         x="1318.7137"
         style="font-style:normal;font-variant:normal;font-weight:normal;font-stretch:normal;font-size:40.67671585px;line-height:1.25;font-family:Fondamento;-inkscape-font-specification:Fondamento;fill:#241c1c;fill-opacity:1"
         sodipodi:role="line"
         id="tspan4422">SUTRA</tspan><tspan
         y="3224.1907"
         x="1318.7137"
         style="font-style:normal;font-variant:normal;font-weight:normal;font-stretch:normal;font-size:32.06008911px;line-height:1.25;font-family:Fondamento;-inkscape-font-specification:Fondamento;fill:#241c1c;fill-opacity:1"
         sodipodi:role="line"
         id="tspan4426">od</tspan><tspan
         y="3264.2659"
         x="1318.7137"
         style="font-style:normal;font-variant:normal;font-weight:normal;font-stretch:normal;font-size:32.06008911px;line-height:1.25;font-family:Fondamento;-inkscape-font-specification:Fondamento;fill:#241c1c;fill-opacity:1"
         sodipodi:role="line"
         id="tspan4430">Thyme</tspan></text>
    <text
       xml:space="preserve"
       style="font-style:normal;font-variant:normal;font-weight:normal;font-stretch:normal;line-height:0%;font-family:Lavi;-inkscape-font-specification:Lavi;text-align:center;letter-spacing:0px;word-spacing:0px;text-anchor:middle;fill:#000000;fill-opacity:1;stroke:none"
       x="2106.5142"
       y="2025.1499"
       id="text4246-3-3-2-3-5-6-2-0-3"><tspan
         sodipodi:role="line"
         style="font-size:45px;line-height:1.25"
         x="2106.5142"
         y="2025.1499"
         id="tspan899">To je samo napaka iz</tspan><tspan
         sodipodi:role="line"
         style="font-size:45px;line-height:1.25"
         x="2106.5142"
         y="2081.3999"
         id="tspan903">moje mladosti, ki poleg</tspan><tspan
         sodipodi:role="line"
         style="font-size:45px;line-height:1.25"
         x="2106.5142"
         y="2137.6499"
         id="tspan3719">tega še ni primerna za</tspan><tspan
         sodipodi:role="line"
         style="font-size:45px;line-height:1.25"
         x="2106.5142"
         y="2193.8999"
         id="tspan3721">tvojo starost!</tspan></text>
    <use
       x="0"
       y="0"
       xlink:href="#text4178-6-5-9-0-7-0-4"
       id="use4440"
       transform="matrix(1.7191858,0.78546962,-0.89078499,2.0163672,807.20751,-1621.7765)"
       width="100%"
       height="100%" />
    <text
       xml:space="preserve"
       style="font-style:normal;font-variant:normal;font-weight:normal;font-stretch:normal;line-height:0%;font-family:Lavi;-inkscape-font-specification:Lavi;text-align:center;letter-spacing:0px;word-spacing:0px;text-anchor:middle;fill:#000000;fill-opacity:1;stroke:none"
       x="394.99265"
       y="2910.467"
       id="text4246-3-3-2-3-5-6-2-0-3-6"><tspan
         sodipodi:role="line"
         style="font-size:45px;line-height:1.25"
         x="394.99265"
         y="2910.467"
         id="tspan4328-8">Hmm...</tspan></text>
    <text
       xml:space="preserve"
       style="font-style:normal;font-variant:normal;font-weight:normal;font-stretch:normal;line-height:0%;font-family:Lavi;-inkscape-font-specification:Lavi;text-align:center;letter-spacing:0px;word-spacing:0px;text-anchor:middle;fill:#000000;fill-opacity:1;stroke:none"
       x="499.70013"
       y="2979.9417"
       id="text4246-3-3-2-3-5-6-2-0-3-6-7"><tspan
         sodipodi:role="line"
         style="font-size:45px;line-height:1.25"
         x="499.70013"
         y="2979.9417"
         id="tspan4328-8-9">že vidim...</tspan></text>
    <text
       xml:space="preserve"
       style="font-style:normal;font-variant:normal;font-weight:normal;font-stretch:normal;line-height:0%;font-family:Lavi;-inkscape-font-specification:Lavi;text-align:center;letter-spacing:0px;word-spacing:0px;text-anchor:middle;fill:#000000;fill-opacity:1;stroke:none"
       x="2088.4399"
       y="2944.7842"
       id="text4246-3-3-2-3-5-6-2-0-3-6-7-2"><tspan
         sodipodi:role="line"
         style="font-size:45px;line-height:1.25"
         x="2088.4399"
         y="2944.7842"
         id="tspan3708">Res vam ne more</tspan><tspan
         sodipodi:role="line"
         style="font-size:45px;line-height:1.25"
         x="2088.4399"
         y="3001.0342"
         id="tspan3609">biti nerodno zaradi</tspan><tspan
         sodipodi:role="line"
         style="font-size:45px;line-height:1.25"
         x="2088.4399"
         y="3057.2842"
         id="tspan3702">česarkoli tukaj...</tspan></text>
  </g>
</svg>
