<?xml version="1.0" encoding="UTF-8" standalone="no"?>
<!-- Created with Inkscape (http://www.inkscape.org/) -->

<svg
   id="svg2"
   version="1.1"
   inkscape:version="1.1.1 (3bf5ae0d25, 2021-09-20, custom)"
   width="2481"
   height="3503"
   sodipodi:docname="E24P01.svg"
   xmlns:inkscape="http://www.inkscape.org/namespaces/inkscape"
   xmlns:sodipodi="http://sodipodi.sourceforge.net/DTD/sodipodi-0.dtd"
   xmlns:xlink="http://www.w3.org/1999/xlink"
   xmlns="http://www.w3.org/2000/svg"
   xmlns:svg="http://www.w3.org/2000/svg"
   xmlns:rdf="http://www.w3.org/1999/02/22-rdf-syntax-ns#"
   xmlns:cc="http://creativecommons.org/ns#"
   xmlns:dc="http://purl.org/dc/elements/1.1/">
  <metadata
     id="metadata8">
    <rdf:RDF>
      <cc:Work
         rdf:about="">
        <dc:format>image/svg+xml</dc:format>
        <dc:type
           rdf:resource="http://purl.org/dc/dcmitype/StillImage" />
        <dc:title />
      </cc:Work>
    </rdf:RDF>
  </metadata>
  <defs
     id="defs6">
    <filter
       style="color-interpolation-filters:sRGB"
       id="filter4375-4-1-1-1-9"
       inkscape:label="deevad outline effect"
       x="-0.0018662838"
       y="-0.0046116991"
       width="1.0037326"
       height="1.0092234">
      <feFlood
         id="feFlood4377-7-9-0-8-1"
         flood-opacity="1"
         flood-color="rgb(0,0,0)"
         result="flood" />
      <feComposite
         id="feComposite4379-3-8-8-2-77"
         in2="SourceGraphic"
         in="flood"
         operator="in"
         result="composite1" />
      <feMorphology
         id="feMorphology4393-1-0-49-8-9"
         operator="dilate"
         radius="4"
         result="result3" />
      <feComposite
         id="feComposite4385-9-5-7-0-8"
         in2="result3"
         in="SourceGraphic"
         operator="over"
         result="composite2" />
    </filter>
  </defs>
  <sodipodi:namedview
     pagecolor="#ffffff"
     bordercolor="#666666"
     borderopacity="1"
     objecttolerance="10"
     gridtolerance="10"
     guidetolerance="10"
     inkscape:pageopacity="0"
     inkscape:pageshadow="2"
     inkscape:window-width="1888"
     inkscape:window-height="1146"
     id="namedview4"
     showgrid="false"
     inkscape:zoom="0.49190037"
     inkscape:cx="1378.3279"
     inkscape:cy="2221.9947"
     inkscape:window-x="32"
     inkscape:window-y="0"
     inkscape:window-maximized="1"
     inkscape:current-layer="layer1"
     inkscape:snap-global="false"
     inkscape:pagecheckerboard="0" />
  <g
     inkscape:groupmode="layer"
     id="layer2"
     inkscape:label="artwork"
     sodipodi:insensitive="true">
    <image
       xlink:href="../gfx_Pepper-and-Carrot_by-David-Revoy_E24P01.png"
       y="0"
       x="0"
       id="image10"
       height="3503"
       width="2481" />
  </g>
  <g
     inkscape:groupmode="layer"
     id="layer3"
     inkscape:label="speechbubbles">
    <path
       style="fill:#ffffff;fill-rule:evenodd;stroke:none;stroke-width:1.011482px;stroke-linecap:butt;stroke-linejoin:miter;stroke-opacity:1"
       d="m 549.40754,452.26917 c 32.82471,9.97609 62.49594,16.17847 52.40831,-25.19895 58.10184,56.17602 49.76715,17.70307 58.95936,4.19979 34.54365,39.68255 64.26567,34.02751 90.07677,-8.39959 14.5914,61.19908 45.12531,31.54771 72.06138,22.39905 -0.0664,17.21015 -7.4203,36.94463 72.06148,26.59894 -22.72591,15.54373 -31.20277,29.65447 19.65312,37.79851 -35.32681,12.49767 -54.72766,25.79613 -16.37766,41.99841 -20.37314,23.60286 -6.74678,37.62996 21.29092,47.59808 -65.64793,1.3804 -74.173,3.67288 -63.64095,15.90619 -55.89216,-25.15162 -39.37743,-4.38912 -34.62462,14.89255 -26.01456,-11.0609 -45.24271,-37.20443 -91.71449,-2.7998 -13.82126,-11.41836 -26.56143,-25.83984 -57.32162,9.79957 -2.16992,-31.08735 -24.65943,-29.91789 -57.32162,-12.59947 -8.61483,-29.15418 -40.96378,-14.35164 -75.33695,4.19988 28.05635,-28.45509 30.08943,-52.22703 -24.56639,-65.79745 52.96608,-16.27836 43.32141,-29.40863 22.92863,-41.99831 20.14742,-11.83876 33.28376,-24.735 -19.6531,-47.59816 30.95088,3.55438 63.90636,8.13692 31.11743,-20.99924 z"
       id="path4582"
       inkscape:connector-curvature="0"
       sodipodi:nodetypes="ccccccccccccccccccc" />
    <path
       style="color:#000000;display:inline;overflow:visible;visibility:visible;fill:#ffffff;fill-opacity:1;fill-rule:nonzero;stroke:none;stroke-width:0.99999994px;marker:none;enable-background:accumulate"
       d="m 1120.4405,700.1743 c -32.2265,-17.97546 -75.6905,-29.21797 -94.8601,-55.01638 l -18.7309,38.20697 c -21.19647,-1.31166 -26.2338,-14.07539 -36.75813,-22.95055 l -18.52445,25.72405 C 902.21848,682.47077 878.08971,666.613 844.32571,653.77368 l -19.93547,22.60875 c 41.44339,8.00317 86.22663,23.6167 121.36515,31.70826 l 22.07602,-17.34663 c 14.0695,3.48337 27.30829,7.5971 36.83679,14.52656 l 23.5694,-31.97386 z"
       id="path4032"
       inkscape:connector-curvature="0"
       sodipodi:nodetypes="cccccccccccc" />
    <path
       style="color:#000000;display:inline;overflow:visible;visibility:visible;fill:#ffffff;fill-opacity:1;fill-rule:nonzero;stroke:none;stroke-width:0.99999994px;marker:none;enable-background:accumulate"
       d="m 1373.3502,1868.2437 c 6.6851,-9.6035 35.5763,-37.7572 31.3268,-2.86 46.4175,-40.2666 78.7953,-19.5262 111.971,-2.2535 11.4973,-12.4731 16.0323,-33.3022 45.1957,-24.5731 -1.9873,-14.0664 9.629,-22.0812 33.3836,-24.6967 -29.027,-12.0387 -33.2191,-21.179 24.6468,-23.0767 -42.759,-6.3379 -82.4984,-13.2357 -27.1003,-37.773 -15.6687,-2.7585 -57.3593,18.2946 -27.5245,-55.0444 -31.1129,20.7342 -62.2582,30.3971 -90.297,-24.8989 -14.441,18.5866 -33.3418,29.9721 -60.9951,-1.4146 -10.1201,18.985 -49.1487,15.6954 -62.7522,9.8432 25.1172,25.8757 21.8709,39.5499 -17.5185,36.7247 58.9158,48.3718 6.4035,35.5263 -5.8106,44.3362 49.1464,20.3406 23.3399,34.5624 11.3904,50.4926 58.9887,8.1069 35.1654,33.0527 34.0839,55.1942 z"
       id="path3549-3"
       inkscape:connector-curvature="0"
       sodipodi:nodetypes="ccccccccccccccc" />
    <path
       style="color:#000000;display:inline;overflow:visible;visibility:visible;fill:#ffffff;fill-opacity:1;fill-rule:nonzero;stroke:none;stroke-width:0.99999988px;marker:none;enable-background:accumulate"
       d="m 1335.6889,1948.0036 c 5.1172,-75.8195 85.041,-136.0769 263.8508,-119.3503 95.7804,8.9596 216.8537,11.5576 210.468,122.6433 -6.3854,111.0853 -174.9845,109.9946 -207.223,112.1526 -32.2388,2.1584 -208.0182,-2.3501 -237.6367,-40.5729 -18.5412,-23.9266 -29.8367,-51.3744 -29.4591,-74.8727 z"
       id="path4546-6"
       inkscape:connector-curvature="0"
       sodipodi:nodetypes="cssssc" />
    <path
       style="color:#000000;display:inline;overflow:visible;visibility:visible;fill:#ffffff;fill-opacity:1;fill-rule:nonzero;stroke:none;stroke-width:1px;marker:none;enable-background:accumulate"
       d="m 1725.1844,1861.3342 c 6.612,11.2759 86.9477,-29.2003 85.8796,-32.4046 0,0 27.5174,7.7754 31.5141,6.9248 1.9994,-6.4636 4.2729,-17.2204 4.2729,-17.2204 l 43.1705,1.271 -34.6999,8.0734 0.1804,21.2585 -36.6531,-7.0896 c -19.044,13.242 -51.208,25.1719 -50.7716,40.3619 z"
       id="path4448"
       inkscape:connector-curvature="0"
       sodipodi:nodetypes="cccccccccc" />
    <path
       style="color:#000000;display:inline;overflow:visible;visibility:visible;fill:#ffffff;fill-opacity:1;fill-rule:nonzero;stroke:none;stroke-width:1.00638092px;marker:none;enable-background:accumulate"
       d="m 29.261586,3131.9891 c 54.725539,9.2603 50.117308,43.0958 35.220109,54.7763 61.236255,-41.7258 100.170385,-28.632 68.994255,13.3205 106.49531,-57.586 88.05927,-9.3094 80.24736,16.5375 50.7256,-54.8946 85.39868,-35.1456 106.16642,-1.3099 0.50865,-35.1103 65.01002,-37.0668 85.60563,-12.6725 26.72173,-60.5925 54.4684,-41.9022 105.52457,-26.9081 -38.77716,-22.7783 -68.10782,-42.766 36.05769,-71.9133 -55.82933,8.4406 -78.42012,-12.8315 17.55731,-36.3908 -95.15904,-1.1325 -101.84999,-34.074 -0.80123,-49.4951 -98.14792,0.1126 -95.83695,-22.0853 -51.0447,-50.4983 -68.89387,7.9315 -86.05274,-18.2217 -21.72174,-60.095 -107.8129,37.6719 -113.13948,14.4102 -105.9424,-34.1132 -60.82695,53.1313 -55.80774,28.3765 -67.98278,-21.9652 -12.82878,37.0098 -45.83022,64.6653 -113.98683,21.46 10.50109,24.0529 11.04192,50.3448 -82.06179,22.8994 49.82316,28.9214 17.32905,66.8975 -127.825049,66.252 67.726165,19.1109 148.664759,59.57 55.768584,65.5357 37.147013,6.2857 46.880999,23.8771 44.671335,38.1961 -16.731276,4.6049 -38.956632,9.0626 -67.654813,13.3911 54.111701,13.0059 88.448723,29.7249 3.208069,52.9928 z"
       id="path3549-3-7"
       inkscape:connector-curvature="0"
       sodipodi:nodetypes="ccccccccccccccccccccc" />
    <path
       style="fill:#ffffff;stroke:none;stroke-width:1"
       d="m 1312.0471,2636.6402 c 24.8572,-23.3618 23.0898,-34.098 20.1693,-46.0928 -2.9204,-11.9949 -6.7783,-22.4564 -2.996,-29.6912 3.7822,-7.2345 11.9314,-13.7504 18.5182,-17.7105 6.5867,-3.9602 0.6895,-11.8462 0.1992,-20.4782 -0.4905,-8.632 11.6694,-54.4912 11.6694,-54.4912 0,0 15.4128,29.8223 17.3984,40.7257 1.9857,10.9032 2.7616,14.8752 2.4762,19.5352 -0.2855,4.6599 -2.4809,16.1126 -8.3834,22.0982 -5.9026,5.9855 -13.8607,8.5198 -19.1677,11.9592 -5.307,3.4394 -4.2207,13.2301 -3.7625,22.963 0.4583,9.7331 -0.6146,16.9839 -10.2491,30.0137 -8.2583,11.169 -25.872,21.1689 -25.872,21.1689 z"
       id="path3023-2"
       inkscape:connector-curvature="0"
       sodipodi:nodetypes="csssscssssssc" />
    <path
       style="color:#000000;display:inline;overflow:visible;visibility:visible;fill:#ffffff;fill-opacity:1;fill-rule:nonzero;stroke:none;stroke-width:0.99999994px;marker:none;enable-background:accumulate"
       d="m 1316.0029,3034.7179 c 5.2109,-36.069 14.5234,-83.1655 -40.179,-91.5576 2.7742,1.4246 74.681,-16.1526 71.113,92.3401 -3.568,108.4926 -13.868,120.9339 -13.868,120.9339 z"
       id="path4064"
       inkscape:connector-curvature="0"
       sodipodi:nodetypes="ccscc" />
    <path
       style="color:#000000;display:inline;overflow:visible;visibility:visible;fill:#ffffff;fill-opacity:1;fill-rule:nonzero;stroke:none;stroke-width:1px;marker:none;enable-background:accumulate"
       d="m 1077.2562,3295.7847 c -1.1856,-61.9807 37.6091,-99.5237 45.0474,-104.6787 67.1345,-46.525 276.2566,-29.3302 312.9622,2.7546 30.822,26.1698 37.9349,44.0753 34.3784,67.4904 -3.5564,23.4149 -22.5239,85.3957 -66.386,103.3013 -43.8619,17.9055 -145.8117,26.1697 -199.1577,12.3961 -53.3458,-13.7735 -131.5863,-27.5469 -126.8443,-81.2637 z"
       id="path3517"
       inkscape:connector-curvature="0"
       sodipodi:nodetypes="cscsccc" />
    <path
       style="color:#000000;display:inline;overflow:visible;visibility:visible;fill:#ffffff;fill-opacity:1;fill-rule:nonzero;stroke:none;stroke-width:0.94315904px;marker:none;enable-background:accumulate"
       d="m 1176.3821,3111.4108 c -1.0449,-31.62 18.9732,-64.5566 29.4217,-74.6749 10.4487,-10.1185 73.853,-20.0204 97.8847,-20.0204 24.0316,0 125.7141,5.6137 143.4767,28.3802 17.7623,22.7664 38.3279,39.919 26.8345,77.863 -11.4935,37.9439 -83.5882,56.916 -99.2611,60.7103 -15.6727,3.7944 -60.6017,6.324 -75.2295,5.0593 -14.6279,-1.2649 -126.2614,-25.4606 -123.127,-77.3175 z"
       id="path3357"
       inkscape:connector-curvature="0"
       inkscape:transform-center-x="-223.593"
       inkscape:transform-center-y="-147.27939"
       sodipodi:nodetypes="ccsscccc" />
    <path
       style="fill:#ffffff;fill-rule:evenodd;stroke:none;stroke-width:0.90377229px;stroke-linecap:butt;stroke-linejoin:miter;stroke-opacity:1"
       d="m 1157.7648,2479.4885 c 7.9031,-21.9811 29.1852,-38.6588 52.3476,-49.7922 11.0227,-5.3751 23.622,-9.3141 36.5148,-8.278 12.8084,0.6191 25.3189,4.3153 38.2688,3.0315 15.7468,-0.4241 31.77,-2.2741 47.336,0.3694 13.8376,2.8844 28.0942,4.3783 42.3736,4.4649 10.0737,-1.8308 19.2917,3.049 28.2882,5.9677 8.0765,3.1528 16.3259,6.4605 23.1097,11.3372 6.2499,6.846 13.7333,12.8018 20.0561,19.5869 4.1373,3.7092 3.7397,8.8327 3.5491,13.5746 -0.5372,9.71 -1.4472,19.5733 -4.8246,28.9281 -2.021,5.9391 -9.4914,7.9046 -15.2314,10.6337 -13.5821,5.7612 -28.0043,10.1299 -40.9666,16.9097 -12.8417,3.4714 -26.4892,1.8477 -39.6591,1.3231 -11.0355,-1.0333 -22.1366,-2.4743 -33.267,-1.2727 -14.1663,0.8794 -28.2896,3.1564 -42.5066,2.8647 -17.8099,-2.0014 -34.867,-6.9292 -52.1264,-10.8823 -15.4848,-3.4843 -29.5979,-10.0361 -43.1397,-17.0449 -7.2336,-3.9801 -14.8912,-8.6063 -17.4441,-15.941 -2.0927,-5.0506 -2.5857,-10.4586 -2.6784,-15.7804 z"
       id="path4365"
       inkscape:connector-curvature="0" />
    <path
       style="color:#000000;display:inline;overflow:visible;visibility:visible;fill:#ffffff;fill-opacity:1;fill-rule:nonzero;stroke:none;stroke-width:0.95681459px;marker:none;enable-background:accumulate"
       d="m 2429.6985,2353.6636 c -237.1536,4.8133 -445.1443,-1.5822 -580.9649,-2.6671 1.098,24.9258 -28.097,18.9783 -55.7362,6.5592 22.0044,49.6227 -14.4867,53.494 -69.7643,29.8662 55.7931,49.4981 -0.1795,42.3514 -68.8346,10.7601 66.2011,49.3166 117.7002,95.3796 -12.1998,65.4914 76.9732,32.6547 111.3554,48.3687 40.8456,64.8688 68.6131,19.1113 55.8803,42.9303 -12.6363,46.3352 122.9014,29.6011 36.2136,43.6252 -13.9692,53.4072 138.6464,16.1681 47.1506,37.3585 -27.946,77.4526 86.8532,-12.321 170.0245,-27.4427 82.0504,25.7697 157.588,-31.0082 110.4736,-5.8878 23.229,45.597 49.8266,-15.5331 180.4357,-40.4508 142.0097,0.1817 63.5997,-25.687 37.1383,9.3382 32.4312,29.9163 8.3262,-6.7513 35.5578,-47.1507 44.4583,-19.7905 16.2248,-19.7471 29.9125,-15.9048 28.1819,12.0359 13.9942,-16.2345 46.9646,-33.5058 35.0559,0.6442 20.73,-34.1703 25.8188,-6.2457 15.8967,21.0906 51.826,-53.1213 59.3172,-55.7419 64.0596,3.6502 21.6315,-33.4409 47.5416,-67.5736 89.8238,-10.4934 0.055,-18.9751 7.4226,-51.1332 76.4996,7.1875 -27.8121,-60.0155 40.3224,-48.3637 69.1764,9.3112 -35.2141,-73.5102 10.2267,-107.4774 67.4272,-30.6217 5.624,-100.9091 32.4278,-362.1003 30.906,-446.5523 z"
       id="path4024"
       inkscape:connector-curvature="0"
       sodipodi:nodetypes="cccccccccccccccccccccccc" />
    <path
       style="fill:#ffffff;fill-rule:evenodd;stroke:none;stroke-width:0.99999994px;stroke-linecap:butt;stroke-linejoin:miter;stroke-opacity:1"
       d="m 2341.2094,2883.2075 -104.7993,23.8723 35.3091,-63.5261 -55.1226,9.6806 85.4593,-168.5266 -83.9438,4.5725 -36.0739,197.149 47.5446,-12.4615 -33.0942,66.0889 z"
       id="path5002"
       inkscape:connector-curvature="0"
       sodipodi:nodetypes="cccccccccc" />
    <text
       xml:space="preserve"
       style="font-style:normal;font-variant:normal;font-weight:normal;font-stretch:normal;line-height:0%;font-family:Lavi;-inkscape-font-specification:Lavi;letter-spacing:0px;word-spacing:0px;fill:#ffffff;fill-opacity:1;stroke:#000000;stroke-width:0.576256;stroke-miterlimit:4;stroke-dasharray:none;stroke-opacity:1;filter:url(#filter4375-4-1-1-1-9)"
       x="787.65729"
       y="1584.5073"
       id="text4580"
       transform="matrix(0.47590856,-0.23101257,-0.08785973,0.61214035,2051.4196,1281.2253)"><tspan
         sodipodi:role="line"
         id="tspan4582"
         x="787.65729"
         y="1584.5073"
         style="font-size:70px;line-height:1.25;letter-spacing:5.6281px;fill:#ffffff;stroke-width:0.576256;stroke-miterlimit:4;stroke-dasharray:none"><tspan
           style="font-size:61.4673px"
           id="tspan896">PAF</tspan><tspan
           style="font-size:80.4001px;letter-spacing:5.6281px;fill:#ffffff;stroke-width:0.576256;stroke-miterlimit:4;stroke-dasharray:none"
           id="tspan4617">!</tspan></tspan></text>
    <path
       style="fill:#ffffff;fill-rule:evenodd;stroke:none;stroke-width:1.01164699px;stroke-linecap:butt;stroke-linejoin:miter;stroke-opacity:1"
       d="m 599.45688,688.13568 c 55.03938,-14.71022 47.40482,20.21656 42.29465,53.14407 38.6907,-43.59903 56.56206,-29.85149 63.44201,14.17175 34.41308,-62.22579 60.6453,-30.90893 87.84276,-10.62881 1.04735,-30.58118 17.15519,-46.25269 79.70918,-15.94322 -32.94548,-44.20554 -29.33168,-71.76224 40.66793,-69.08729 -63.30949,-15.97494 -62.46694,-42.11142 -22.77404,-74.4017 -46.43663,26.89223 -76.29988,30.92349 -66.69543,-19.48617 -46.67406,49.76939 -53.41197,18.77197 -61.81529,-8.85734 -19.40665,57.85359 -46.11773,40.93556 -74.82901,3.54293 0.77373,36.0549 -10.44124,57.18925 -61.81528,28.34351 8.79823,26.18958 34.53691,62.31265 -26.02748,47.82967 32.44785,15.40054 44.06692,31.90752 0,51.3726 z"
       id="path907"
       inkscape:connector-curvature="0"
       sodipodi:nodetypes="ccccccccccccc" />
  </g>
  <g
     inkscape:groupmode="layer"
     id="layer1"
     inkscape:label="txt"
     style="display:inline">
    <path
       style="color:#000000;display:inline;overflow:visible;visibility:visible;fill:#ffffff;fill-opacity:1;fill-rule:nonzero;stroke:none;stroke-width:1px;marker:none;enable-background:accumulate"
       d="m 643.30092,3062.9957 c -16.45129,42.7371 -57.34368,52.6864 -79.08413,59.0603 -3.49561,-4.6209 -10.29733,-21.207 -10.29733,-21.207 0,0 -73.99284,20.9972 -91.7304,22.9324 -17.73755,1.9353 -27.60488,-25.996 -27.60488,-25.996 -1.49889,4.9963 104.15858,-3.83 127.4154,-18.4787 8.90084,13.0355 10.12822,16.304 14.99068,21.2359 13.47897,-4.7946 53.36319,-19.1261 66.31066,-37.5469 z"
       id="path4456"
       inkscape:connector-curvature="0"
       sodipodi:nodetypes="cccscccc" />
    <text
       xml:space="preserve"
       style="font-style:normal;font-variant:normal;font-weight:normal;font-stretch:normal;line-height:0%;font-family:Lavi;-inkscape-font-specification:Lavi;text-align:center;letter-spacing:0px;word-spacing:0px;text-anchor:middle;fill:#000000;fill-opacity:1;stroke:none"
       x="719.42944"
       y="527.9353"
       id="text4246"><tspan
         sodipodi:role="line"
         style="font-size:45px;line-height:1.25"
         x="719.42944"
         y="527.9353"
         id="tspan837">Rada bi drevo</tspan><tspan
         sodipodi:role="line"
         style="font-size:45px;line-height:1.25"
         x="719.42944"
         y="584.1853"
         id="tspan90">Združenja?</tspan></text>
    <text
       xml:space="preserve"
       style="font-style:normal;font-variant:normal;font-weight:normal;font-stretch:normal;line-height:0%;font-family:Lavi;-inkscape-font-specification:Lavi;text-align:center;letter-spacing:0px;word-spacing:0px;text-anchor:middle;fill:#000000;fill-opacity:1;stroke:none"
       x="1573.7701"
       y="1899.7333"
       id="text4246-7"><tspan
         sodipodi:role="line"
         style="font-size:45px;line-height:1.25"
         x="1573.7701"
         y="1899.7333"
         id="tspan4414">Me smo Chaosah</tspan><tspan
         sodipodi:role="line"
         style="font-size:45px;line-height:1.25"
         x="1573.7701"
         y="1955.9833"
         id="tspan74">čarovnice;</tspan><tspan
         sodipodi:role="line"
         style="font-size:45px;line-height:1.25"
         x="1573.7701"
         y="2012.2333"
         id="tspan934">tega NE počnemo.</tspan></text>
    <text
       xml:space="preserve"
       style="font-style:normal;font-variant:normal;font-weight:normal;font-stretch:normal;line-height:0%;font-family:Lavi;-inkscape-font-specification:Lavi;text-align:center;letter-spacing:0px;word-spacing:0px;text-anchor:middle;fill:#000000;fill-opacity:1;stroke:none"
       x="284.96054"
       y="3002.0625"
       id="text4246-7-6"><tspan
         sodipodi:role="line"
         style="font-size:45px;line-height:1.25"
         x="284.96054"
         y="3002.0625"
         id="tspan4426">Raje se posveti</tspan><tspan
         sodipodi:role="line"
         style="font-size:45px;line-height:1.25"
         x="284.96054"
         y="3058.3125"
         id="tspan78"> učenju tvojih</tspan><tspan
         sodipodi:role="line"
         style="font-size:45px;line-height:1.25"
         x="284.96054"
         y="3114.5625"
         id="tspan1069">“Urokov uničenja”!</tspan></text>
    <text
       xml:space="preserve"
       style="font-style:normal;font-variant:normal;font-weight:normal;font-stretch:normal;line-height:0%;font-family:Lavi;-inkscape-font-specification:Lavi;text-align:center;letter-spacing:0px;word-spacing:0px;text-anchor:middle;fill:#000000;fill-opacity:1;stroke:none"
       x="1309.3973"
       y="2493.7979"
       id="text4246-7-6-2"><tspan
         sodipodi:role="line"
         style="font-size:45px;line-height:1.25"
         x="1309.3973"
         y="2493.7979"
         id="tspan1069-6">Uničenja?</tspan></text>
    <text
       xml:space="preserve"
       style="font-style:normal;font-variant:normal;font-weight:normal;font-stretch:normal;line-height:0%;font-family:Lavi;-inkscape-font-specification:Lavi;text-align:center;letter-spacing:0px;word-spacing:0px;text-anchor:middle;fill:#000000;fill-opacity:1;stroke:none"
       x="1321.6658"
       y="3086.6912"
       id="text4246-7-6-2-0"><tspan
         sodipodi:role="line"
         style="font-size:45px;line-height:1.25"
         x="1321.6658"
         y="3086.6912"
         id="tspan4434">V tem času</tspan><tspan
         sodipodi:role="line"
         style="font-size:45px;line-height:1.25"
         x="1321.6658"
         y="3142.9412"
         id="tspan77">leta?</tspan></text>
    <text
       xml:space="preserve"
       style="font-style:normal;font-variant:normal;font-weight:normal;font-stretch:normal;line-height:0%;font-family:Lavi;-inkscape-font-specification:Lavi;text-align:center;letter-spacing:0px;word-spacing:0px;text-anchor:middle;fill:#000000;fill-opacity:1;stroke:none"
       x="1268.27"
       y="3233.5964"
       id="text4246-7-6-2-0-5"><tspan
         sodipodi:role="line"
         style="font-size:45px;line-height:1.25"
         x="1268.27"
         y="3233.5964"
         id="tspan4447">Zakaj se ne bi</tspan><tspan
         sodipodi:role="line"
         style="font-size:45px;line-height:1.25"
         x="1268.27"
         y="3289.8464"
         id="tspan84">raje učila urokov</tspan><tspan
         sodipodi:role="line"
         style="font-size:45px;line-height:1.25"
         x="1268.27"
         y="3346.0964"
         id="tspan86">ustvarjanja?</tspan></text>
    <text
       xml:space="preserve"
       style="font-style:normal;font-variant:normal;font-weight:normal;font-stretch:normal;line-height:0%;font-family:Lavi;-inkscape-font-specification:Lavi;text-align:center;letter-spacing:0px;word-spacing:0px;text-anchor:middle;fill:#000000;fill-opacity:1;stroke:none;stroke-width:1.6;stroke-miterlimit:4;stroke-dasharray:none"
       x="2079.8679"
       y="2427.7297"
       id="text4246-7-6-2-04"><tspan
         sodipodi:role="line"
         style="font-size:45px;line-height:1.25;stroke:none;stroke-width:1.6;stroke-miterlimit:4;stroke-dasharray:none"
         x="2079.8679"
         y="2427.7297"
         id="tspan98">Naslednji posvet Treh lun</tspan><tspan
         sodipodi:role="line"
         style="font-size:45px;line-height:1.25;stroke:none;stroke-width:1.6;stroke-miterlimit:4;stroke-dasharray:none"
         x="2079.8679"
         y="2483.9797"
         id="tspan5000">se bliža in tvoji izpiti prav tako.</tspan><tspan
         sodipodi:role="line"
         style="font-size:45px;line-height:1.25;stroke:none;stroke-width:1.6;stroke-miterlimit:4;stroke-dasharray:none"
         x="2086.8992"
         y="2540.2297"
         id="tspan4986">Uči se! <tspan
   style="stroke:#000000;stroke-width:1.6;stroke-miterlimit:4;stroke-dasharray:none;stroke-opacity:1"
   id="tspan874">Uči se! UČI SE!!! </tspan></tspan><tspan
         sodipodi:role="line"
         style="font-size:45px;line-height:1.25;stroke:#000000;stroke-width:1.6;stroke-miterlimit:4;stroke-dasharray:none;stroke-opacity:1"
         x="2079.8679"
         y="2596.4797"
         id="tspan4454">IN PRENEHAJ ODVRAČATI</tspan><tspan
         sodipodi:role="line"
         style="font-size:45px;line-height:1.25;stroke:#000000;stroke-width:1.6;stroke-miterlimit:4;stroke-dasharray:none;stroke-opacity:1"
         x="2079.8679"
         y="2652.7297"
         id="tspan106">POZORNOST S TEMI</tspan><tspan
         sodipodi:role="line"
         style="font-size:45px;line-height:1.25;stroke:#000000;stroke-width:1.6;stroke-miterlimit:4;stroke-dasharray:none;stroke-opacity:1"
         x="2079.8679"
         y="2708.9797"
         id="tspan4456">TRAPASTIMI IDEJAMI!!!</tspan></text>
    <flowRoot
       xml:space="preserve"
       id="flowRoot862"
       style="font-style:normal;font-variant:normal;font-weight:normal;font-stretch:normal;font-size:0.666667px;line-height:318%;font-family:Neuropolitical;-inkscape-font-specification:Neuropolitical;text-align:center;letter-spacing:0px;word-spacing:0px;writing-mode:lr-tb;text-anchor:middle;fill:#000000;fill-opacity:1;stroke:none;stroke-width:1px;stroke-linecap:butt;stroke-linejoin:miter;stroke-opacity:1"><flowRegion
         id="flowRegion864"><rect
           id="rect866"
           width="103.5"
           height="5.75"
           x="1181.625"
           y="3275.875" /></flowRegion><flowPara
         id="flowPara868" /></flowRoot>
    <text
       xml:space="preserve"
       style="font-style:normal;font-variant:normal;font-weight:normal;font-stretch:normal;font-size:14.7168px;line-height:0%;font-family:Lavi;-inkscape-font-specification:Lavi;text-align:center;letter-spacing:0px;word-spacing:0px;text-anchor:middle;fill:#000000;fill-opacity:1;stroke:none;stroke-width:1"
       x="866.46472"
       y="682.29504"
       id="text4246-36"
       transform="skewX(-9.9961078)"><tspan
         sodipodi:role="line"
         style="font-size:55.188px;line-height:1.25;stroke-width:1"
         x="866.46472"
         y="682.29504"
         id="tspan837-3">Tukaj?!?</tspan></text>
    <text
       xml:space="preserve"
       style="font-style:normal;font-variant:normal;font-weight:normal;font-stretch:normal;font-size:19.0489px;line-height:0%;font-family:Lavi;-inkscape-font-specification:Lavi;text-align:center;letter-spacing:0px;word-spacing:0px;text-anchor:middle;fill:#000000;fill-opacity:1;stroke:none;stroke-width:2;stroke-miterlimit:4;stroke-dasharray:none"
       x="1711.0228"
       y="1822.5054"
       id="text4246-3"
       transform="matrix(1.0148714,0,-0.1559129,0.98534652,0,0)"><tspan
         sodipodi:role="line"
         style="font-size:71.4334px;line-height:1.25;stroke:#000000;stroke-width:2;stroke-miterlimit:4;stroke-dasharray:none;stroke-opacity:1"
         x="1711.0228"
         y="1822.5054"
         id="tspan4252-6">NE!</tspan></text>
  </g>
</svg>
