<?xml version="1.0" encoding="UTF-8" standalone="no"?>
<!-- Created with Inkscape (http://www.inkscape.org/) -->

<svg
   xmlns:dc="http://purl.org/dc/elements/1.1/"
   xmlns:cc="http://creativecommons.org/ns#"
   xmlns:rdf="http://www.w3.org/1999/02/22-rdf-syntax-ns#"
   xmlns:svg="http://www.w3.org/2000/svg"
   xmlns="http://www.w3.org/2000/svg"
   xmlns:xlink="http://www.w3.org/1999/xlink"
   xmlns:sodipodi="http://sodipodi.sourceforge.net/DTD/sodipodi-0.dtd"
   xmlns:inkscape="http://www.inkscape.org/namespaces/inkscape"
   id="svg2"
   version="1.1"
   inkscape:version="0.92.4 (5da689c313, 2019-01-14)"
   width="2481"
   height="3503"
   sodipodi:docname="E28P05.svg">
  <metadata
     id="metadata8">
    <rdf:RDF>
      <cc:Work
         rdf:about="">
        <dc:format>image/svg+xml</dc:format>
        <dc:type
           rdf:resource="http://purl.org/dc/dcmitype/StillImage" />
        <dc:title />
      </cc:Work>
    </rdf:RDF>
  </metadata>
  <defs
     id="defs6" />
  <sodipodi:namedview
     pagecolor="#ffffff"
     bordercolor="#666666"
     borderopacity="1"
     objecttolerance="10"
     gridtolerance="10"
     guidetolerance="10"
     inkscape:pageopacity="0"
     inkscape:pageshadow="2"
     inkscape:window-width="1871"
     inkscape:window-height="1056"
     id="namedview4"
     showgrid="false"
     inkscape:zoom="0.51498715"
     inkscape:cx="944.37611"
     inkscape:cy="2683.5621"
     inkscape:window-x="49"
     inkscape:window-y="24"
     inkscape:window-maximized="1"
     inkscape:current-layer="layer1" />
  <g
     inkscape:groupmode="layer"
     id="layer2"
     inkscape:label="artwork"
     sodipodi:insensitive="true">
    <image
       sodipodi:absref="/felles/omsetting/pepper-carrot/webcomics/ep28_The-Festivities/lang/nn/../gfx_Pepper-and-Carrot_by-David-Revoy_E28P05.png"
       xlink:href="../gfx_Pepper-and-Carrot_by-David-Revoy_E28P05.png"
       y="0"
       x="0"
       id="image10"
       height="3503"
       width="2481" />
  </g>
  <g
     inkscape:groupmode="layer"
     id="layer3"
     inkscape:label="speechbubbles">
    <path
       style="fill:#ffffff;fill-rule:evenodd;stroke:none;stroke-width:0.92832726px;stroke-linecap:butt;stroke-linejoin:miter;stroke-opacity:1"
       d="m 173.50454,193.62839 c 25.66186,-21.76099 63.82767,-32.86351 101.06132,-39.93067 34.83868,-6.73293 71.13892,-6.89368 106.87801,-5.43205 45.32104,1.92804 91.22578,4.30189 134.93304,13.83931 13.36303,2.78876 25.94553,7.8797 34.25455,16.19048 35.18591,28.14192 60.67157,64.78533 59.8116,103.57511 -3.53989,57.00491 -5.31073,114.08172 -10.34424,171.03309 -1.52797,18.75313 -7.49417,38.52955 -26.27465,52.31384 -21.56703,16.56618 -50.16251,27.7461 -80.6345,32.70941 -48.48242,8.38626 -98.60701,4.48069 -148.35559,3.84174 -51.12843,-0.41312 -126.08313,12.74871 -148.12704,-18.93452 -62.821,-90.29125 -61.20931,-168.47908 -57.00944,-244.10308 1.14558,-14.26647 0.24757,-28.84524 7.2136,-42.47831 6.34318,-14.92702 14.5784,-29.61907 26.59334,-42.62435 z"
       id="path1006"
       inkscape:connector-curvature="0"
       sodipodi:nodetypes="ccccccccccsccc" />
    <path
       style="fill:#ffffff;fill-rule:evenodd;stroke:none;stroke-width:1px;stroke-linecap:butt;stroke-linejoin:miter;stroke-opacity:1"
       d="M 333.27358,346.17986 C 395.90659,299.25879 684.65819,123.37673 1012.4941,266.75583 759.55842,143.42811 491.69794,181.66189 330.00219,300.24071 Z"
       id="path1008"
       inkscape:connector-curvature="0"
       sodipodi:nodetypes="cccc" />
    <path
       style="fill:#ffffff;fill-rule:evenodd;stroke:none;stroke-width:1px;stroke-linecap:butt;stroke-linejoin:miter;stroke-opacity:1"
       d="m 1819.6761,521.16397 c 116.7092,-13.15033 182.4608,-4.93138 226.8431,52.60129 44.3824,57.53267 34.5196,90.40848 23.0131,80.54574 -11.5065,-9.86274 -23.0131,-151.22873 -249.8562,-133.14703 z"
       id="path1011"
       inkscape:connector-curvature="0" />
    <path
       style="fill:#ffffff;fill-rule:evenodd;stroke:none;stroke-width:1px;stroke-linecap:butt;stroke-linejoin:miter;stroke-opacity:1"
       d="m 2128.8256,552.39599 c 99.4248,1.64379 151.9511,13.15032 172.5864,29.58823 20.6354,16.4379 48.7744,60.82025 39.3947,87.12089 -9.3797,26.30065 -45.0225,69.03921 -148.1992,65.75163 -103.1766,-3.28759 -178.2141,-19.72549 -202.6013,-52.6013 -24.3871,-32.87581 9.3797,-101.91501 48.7744,-113.42155 39.3947,-11.50653 45.0226,-14.79411 90.045,-16.4379 z"
       id="path1013"
       inkscape:connector-curvature="0" />
    <path
       style="fill:#ffffff;fill-rule:evenodd;stroke:none;stroke-width:1px;stroke-linecap:butt;stroke-linejoin:miter;stroke-opacity:1"
       d="m 1981.2351,734.25711 c 66.7402,-49.31372 147.7926,-46.02614 169.4832,-42.73856 21.6904,3.28759 76.0796,8.29912 116.6946,11.50654 18.7801,1.48309 87.634,32.97559 92.5725,87.12089 2.9912,32.79479 0,65.75163 -46.7181,78.90195 -46.718,13.15032 -115.4285,13.15032 -173.8262,11.50653 -58.3976,-1.64379 -128.9551,6.86529 -163.9937,-22.72294 -35.0385,-29.58823 -40.9303,-77.54828 5.7877,-123.57441 z"
       id="path1015"
       inkscape:connector-curvature="0"
       sodipodi:nodetypes="cssssssc" />
    <path
       style="fill:#ffffff;fill-rule:evenodd;stroke:none;stroke-width:1px;stroke-linecap:butt;stroke-linejoin:miter;stroke-opacity:1"
       d="m 377.85108,1052.2015 c 111.31549,1.5544 199.6611,1.5544 224.39788,17.0992 24.73677,15.5448 72.44341,51.2978 74.21031,85.4962 1.76692,34.1985 0.97921,99.0454 -32.59213,122.3625 -33.57134,23.3172 -96.39247,26.8673 -156.46749,34.6397 -60.07502,7.7724 -180.22506,7.7724 -220.86404,0 -40.63899,-7.7724 -111.31548,-34.1984 -120.15005,-60.6245 -8.83456,-26.4262 -12.36838,-91.7142 -1.76691,-118.1404 10.60148,-26.4261 61.84194,-59.07 113.08239,-68.3969 51.24046,-9.3269 120.15004,-12.4358 120.15004,-12.4358 z"
       id="path1017"
       inkscape:connector-curvature="0"
       sodipodi:nodetypes="csscssccsc" />
    <path
       style="fill:#ffffff;fill-rule:evenodd;stroke:none;stroke-width:1px;stroke-linecap:butt;stroke-linejoin:miter;stroke-opacity:1"
       d="m 464.5495,1496.1462 c 57.17532,-75.7573 57.17532,-148.6559 4.28815,-244.4245 -52.88717,-95.7687 -80.04545,-97.1981 -80.04545,-97.1981 l -4.28815,52.8872 c 0,0 168.6672,128.6445 80.04545,288.7354 z"
       id="path1019"
       inkscape:connector-curvature="0" />
    <path
       style="fill:#ffffff;fill-rule:evenodd;stroke:none;stroke-width:1.00006592px;stroke-linecap:butt;stroke-linejoin:miter;stroke-opacity:1"
       d="m 1977.2774,1181.6164 c -2.7606,-54.1268 69.0345,-99.5753 163.3404,-99.9637 94.3058,-0.3882 176.3109,22.2488 175.7933,78.152 -0.5176,55.9032 -16.6396,103.0846 -137.9016,103.3563 -121.2619,0.2718 -196.1424,-14.7742 -201.2321,-81.5446 z"
       id="path1021"
       inkscape:connector-curvature="0" />
    <path
       style="fill:#ffffff;fill-rule:evenodd;stroke:none;stroke-width:1px;stroke-linecap:butt;stroke-linejoin:miter;stroke-opacity:1"
       d="m 2223.4008,1243.0202 c 9.6724,22.1135 -3.7615,81.471 -16.6581,91.9459 -8.9785,11.3235 4.9225,16.0942 9.6724,15.1304 4.2989,-2.9097 37.6151,-18.04 42.9887,-9.3111 5.3736,8.7291 -48.8996,51.2105 -42.9887,57.0298 5.911,5.8194 27.9427,-8.1471 30.6294,-3.4916 2.6868,4.6554 -4.2988,17.4581 -16.6581,25.6052 20.957,-6.9833 30.0921,-18.6219 25.7932,-26.769 -4.2988,-8.1471 -12.3592,-6.9833 -17.7328,-5.8194 10.2098,-8.7291 49.9875,-38.2659 39.7777,-53.9782 -10.2098,-15.7122 -36.0426,-12.0787 -41.9536,-9.169 14.5087,-12.8026 28.0737,-53.8649 21.6254,-85.8713 -6.4483,-32.0065 -34.4955,4.6983 -34.4955,4.6983 z"
       id="path1023"
       inkscape:connector-curvature="0"
       sodipodi:nodetypes="ccccsccccccsc" />
    <path
       style="fill:#ffffff;fill-rule:evenodd;stroke:none;stroke-width:1px;stroke-linecap:butt;stroke-linejoin:miter;stroke-opacity:1"
       d="m 826.50712,2344.762 c -4.84388,-45.1118 77.62049,-55.2416 126.20077,-52.849 48.58031,2.3928 105.48451,2.2084 113.46181,56.2586 -7.5568,32.6904 -22.5938,47.3641 -106.01283,51.6227 -40.69949,1.3458 -127.93162,10.6454 -133.64975,-55.0323 z"
       id="path1025"
       inkscape:connector-curvature="0"
       sodipodi:nodetypes="ccccc" />
    <path
       style="fill:#ffffff;fill-rule:evenodd;stroke:none;stroke-width:1px;stroke-linecap:butt;stroke-linejoin:miter;stroke-opacity:1"
       d="m 891.05439,2384.5928 c 8.97846,20.1058 2.08504,29.2013 -7.53169,42.2988 -9.61674,13.0974 -3.91478,26.6928 6.89341,31.8628 10.80819,5.1701 22.50997,25.1418 21.87169,42.5477 -2.42546,-50.8389 -20.08451,-46.2816 -21.10575,-59.2259 -1.02125,-12.9442 20.21215,-24.3759 22.42485,-32.7054 2.2127,-8.3295 0.51063,-29.1055 -5.14877,-40.9009 -5.65941,-11.7954 -17.40374,16.1229 -17.40374,16.1229 z"
       id="path1027"
       inkscape:connector-curvature="0"
       sodipodi:nodetypes="cccccssc" />
  </g>
  <g
     inkscape:groupmode="layer"
     id="layer1"
     inkscape:label="txt">
    <text
       xml:space="preserve"
       style="font-style:normal;font-variant:normal;font-weight:normal;font-stretch:normal;line-height:0%;font-family:Lavi;-inkscape-font-specification:Lavi;text-align:center;letter-spacing:0px;word-spacing:0px;text-anchor:middle;fill:#000000;fill-opacity:1;stroke:none"
       x="374.05789"
       y="230.26927"
       id="text4246"><tspan
         sodipodi:role="line"
         style="font-size:45px;line-height:1.20000005"
         x="374.05789"
         y="230.26927"
         id="tspan833">Alle veninnene</tspan><tspan
         sodipodi:role="line"
         style="font-size:45px;line-height:1.20000005"
         x="374.05789"
         y="284.26929"
         id="tspan868">mine er så vellukka.</tspan><tspan
         sodipodi:role="line"
         style="font-size:45px;line-height:1.20000005"
         x="374.05789"
         y="338.26929"
         id="tspan870">Av og til skulle eg</tspan><tspan
         sodipodi:role="line"
         style="font-size:45px;line-height:1.20000005"
         x="374.05789"
         y="392.26929"
         id="tspan872">ynskja eg hadde</tspan><tspan
         sodipodi:role="line"
         style="font-size:45px;line-height:1.20000005"
         x="374.05789"
         y="446.26929"
         id="tspan874">berre ein brøkdel</tspan><tspan
         sodipodi:role="line"
         style="font-size:45px;line-height:1.20000005"
         x="374.05789"
         y="500.26929"
         id="tspan856">av det dei har.</tspan></text>
    <text
       xml:space="preserve"
       style="font-style:normal;font-variant:normal;font-weight:normal;font-stretch:normal;line-height:0%;font-family:Lavi;-inkscape-font-specification:Lavi;text-align:center;letter-spacing:0px;word-spacing:0px;text-anchor:middle;fill:#000000;fill-opacity:1;stroke:none"
       x="2161.2708"
       y="630.23462"
       id="text4246-3"><tspan
         sodipodi:role="line"
         style="font-size:45px;line-height:1.20000005"
         x="2161.2708"
         y="630.23462"
         id="tspan898">Koriander er</tspan><tspan
         sodipodi:role="line"
         style="font-size:45px;line-height:1.20000005"
         x="2161.2708"
         y="684.23462"
         id="tspan878">dronning.</tspan></text>
    <text
       xml:space="preserve"
       style="font-style:normal;font-variant:normal;font-weight:normal;font-stretch:normal;line-height:0%;font-family:Lavi;-inkscape-font-specification:Lavi;text-align:center;letter-spacing:0px;word-spacing:0px;text-anchor:middle;fill:#000000;fill-opacity:1;stroke:none"
       x="2157.8171"
       y="776.11542"
       id="text4246-3-9"><tspan
         sodipodi:role="line"
         style="font-size:45px;line-height:1.20000005"
         x="2157.8171"
         y="776.11542"
         id="tspan923">Og Safran ei</tspan><tspan
         sodipodi:role="line"
         style="font-size:45px;line-height:1.20000005"
         x="2157.8171"
         y="830.11542"
         id="tspan882">rik superstjerne.</tspan></text>
    <text
       xml:space="preserve"
       style="font-style:normal;font-variant:normal;font-weight:normal;font-stretch:normal;line-height:0%;font-family:Lavi;-inkscape-font-specification:Lavi;text-align:center;letter-spacing:0px;word-spacing:0px;text-anchor:middle;fill:#000000;fill-opacity:1;stroke:none"
       x="405.54092"
       y="1119.7123"
       id="text4246-3-9-7"><tspan
         sodipodi:role="line"
         style="font-size:45px;line-height:1.20000005"
         x="405.54092"
         y="1119.7123"
         id="tspan950">Også Shichimi</tspan><tspan
         sodipodi:role="line"
         style="font-size:45px;line-height:1.20000005"
         x="405.54092"
         y="1173.7123"
         id="tspan889">ser så perfekt ut,</tspan><tspan
         sodipodi:role="line"
         style="font-size:45px;line-height:1.20000005"
         x="405.54092"
         y="1227.7123"
         id="tspan891">der ho vandrar saman</tspan><tspan
         sodipodi:role="line"
         style="font-size:45px;line-height:1.20000005"
         x="405.54092"
         y="1281.7123"
         id="tspan893">med skulen sin.</tspan></text>
    <text
       xml:space="preserve"
       style="font-style:normal;font-variant:normal;font-weight:normal;font-stretch:normal;line-height:0%;font-family:Lavi;-inkscape-font-specification:Lavi;text-align:center;letter-spacing:0px;word-spacing:0px;text-anchor:middle;fill:#000000;fill-opacity:1;stroke:none"
       x="2145.928"
       y="1158.6777"
       id="text4246-3-9-7-3"><tspan
         sodipodi:role="line"
         style="font-size:45px;line-height:1.20000005"
         x="2145.928"
         y="1158.6777"
         id="tspan981">Og eg?</tspan><tspan
         sodipodi:role="line"
         style="font-size:45px;line-height:1.20000005"
         x="2145.928"
         y="1212.6777"
         id="tspan897">Kva har eg?</tspan></text>
    <text
       xml:space="preserve"
       style="font-style:normal;font-variant:normal;font-weight:normal;font-stretch:normal;line-height:0%;font-family:Lavi;-inkscape-font-specification:Lavi;text-align:center;letter-spacing:0px;word-spacing:0px;text-anchor:middle;fill:#000000;fill-opacity:1;stroke:none"
       x="945.5542"
       y="2363.4546"
       id="text4246-3-9-7-3-2"><tspan
         sodipodi:role="line"
         style="font-size:45px;line-height:1.20000005"
         x="945.5542"
         y="2363.4546"
         id="tspan981-1">Det her.</tspan></text>
  </g>
</svg>
