<?xml version="1.0" encoding="UTF-8" standalone="no"?>
<!-- Created with Inkscape (http://www.inkscape.org/) -->

<svg
   xmlns:dc="http://purl.org/dc/elements/1.1/"
   xmlns:cc="http://creativecommons.org/ns#"
   xmlns:rdf="http://www.w3.org/1999/02/22-rdf-syntax-ns#"
   xmlns:svg="http://www.w3.org/2000/svg"
   xmlns="http://www.w3.org/2000/svg"
   xmlns:xlink="http://www.w3.org/1999/xlink"
   xmlns:sodipodi="http://sodipodi.sourceforge.net/DTD/sodipodi-0.dtd"
   xmlns:inkscape="http://www.inkscape.org/namespaces/inkscape"
   id="svg2"
   version="1.1"
   inkscape:version="0.92.4 (5da689c313, 2019-01-14)"
   width="2481"
   height="3503"
   sodipodi:docname="E28P07.svg">
  <metadata
     id="metadata8">
    <rdf:RDF>
      <cc:Work
         rdf:about="">
        <dc:format>image/svg+xml</dc:format>
        <dc:type
           rdf:resource="http://purl.org/dc/dcmitype/StillImage" />
        <dc:title />
      </cc:Work>
    </rdf:RDF>
  </metadata>
  <defs
     id="defs6" />
  <sodipodi:namedview
     pagecolor="#ffffff"
     bordercolor="#666666"
     borderopacity="1"
     objecttolerance="10"
     gridtolerance="10"
     guidetolerance="10"
     inkscape:pageopacity="0"
     inkscape:pageshadow="2"
     inkscape:window-width="1871"
     inkscape:window-height="1056"
     id="namedview4"
     showgrid="false"
     inkscape:zoom="0.51498715"
     inkscape:cx="944.37611"
     inkscape:cy="1363.1408"
     inkscape:window-x="49"
     inkscape:window-y="24"
     inkscape:window-maximized="1"
     inkscape:current-layer="layer1" />
  <g
     inkscape:groupmode="layer"
     id="layer2"
     inkscape:label="artwork"
     sodipodi:insensitive="true">
    <image
       sodipodi:absref="/felles/omsetting/pepper-carrot/webcomics/ep28_The-Festivities/lang/nn/../gfx_Pepper-and-Carrot_by-David-Revoy_E28P07.png"
       xlink:href="../gfx_Pepper-and-Carrot_by-David-Revoy_E28P07.png"
       y="0"
       x="0"
       id="image10"
       height="3503"
       width="2481" />
  </g>
  <g
     inkscape:groupmode="layer"
     id="layer3"
     inkscape:label="speechbubbles">
    <path
       style="fill:#ffffff;fill-rule:evenodd;stroke:none;stroke-width:1px;stroke-linecap:butt;stroke-linejoin:miter;stroke-opacity:1"
       d="m 139.4599,119.38529 c 58.20387,-38.453819 160.13208,-38.34134 216.01266,-37.378358 55.88058,0.962982 192.35159,0.0267 224.826,23.602808 32.4744,23.57612 53.81219,25.58786 52.90585,78.18134 -0.90633,52.59349 -14.50788,78.66366 -52.76262,104.30897 -38.25473,25.64532 -189.60263,31.25733 -232.36316,32.16448 -42.76053,0.90715 -149.5344,-4.22094 -182.03715,-26.15351 -32.50273,-21.93255 -61.40681,-61.88749 -59.19681,-94.7301 2.21002,-32.8426 14.2813,-65.51527 32.61523,-79.99563 z"
       id="path1035"
       inkscape:connector-curvature="0" />
    <path
       style="fill:#ffffff;fill-rule:evenodd;stroke:none;stroke-width:1px;stroke-linecap:butt;stroke-linejoin:miter;stroke-opacity:1"
       d="m 196.4271,253.96422 c -32.89449,39.47339 -40.41323,56.39055 -51.69134,74.24756 -11.27811,17.85701 -8.45859,59.21009 6.57889,70.4882 15.03749,11.27811 23.49607,17.857 15.97733,33.83433 -7.51874,15.97732 -7.37083,33.58627 -0.79194,42.9847 6.5789,9.39842 29.92706,24.68396 29.92706,24.68396 0,0 -21.13136,-17.00501 -23.34412,-22.26143 -3.75295,-8.91514 -2.08603,-20.48379 2.61318,-28.94238 4.69922,-8.45858 19.28439,-35.64147 -2.76513,-53.11871 -14.61974,-11.58813 -21.61638,-35.71402 -1.87968,-65.78898 19.73669,-30.07496 90.22489,-81.76631 90.22489,-81.76631 z"
       id="path1037"
       inkscape:connector-curvature="0"
       sodipodi:nodetypes="csssccscsscc" />
    <path
       style="fill:#ffffff;fill-rule:evenodd;stroke:none;stroke-width:0.99999994px;stroke-linecap:butt;stroke-linejoin:miter;stroke-opacity:1"
       d="m 134.94036,931.47279 c 22.2274,-67.80795 58.96964,-74.33225 114.85345,-79.01623 55.88379,-4.68399 257.56576,-12.79688 306.67577,5.24057 49.11,18.03742 62.80909,40.93266 77.01181,86.39365 12.37773,39.61941 15.96626,123.23162 4.11212,151.57092 -11.85414,28.3397 -32.2685,64.7382 -83.07196,67.6118 -50.80345,2.8735 -300.22738,4.49 -330.70946,3.9296 -30.48207,-0.5605 -89.84565,-18.9091 -101.69986,-70.5307 -11.85416,-51.6211 -9.39926,-97.39169 12.82813,-165.19961 z"
       id="path1039"
       inkscape:connector-curvature="0"
       sodipodi:nodetypes="zsssccssz" />
    <path
       style="fill:#ffffff;fill-rule:evenodd;stroke:none;stroke-width:1px;stroke-linecap:butt;stroke-linejoin:miter;stroke-opacity:1"
       d="m 201.23517,879.5374 c -17.7664,-36.95411 -18.47706,-61.82707 -3.55328,-69.64429 14.92378,-7.81721 21.31968,-12.7918 12.79181,-21.31968 -8.52787,-8.52787 -16.34509,-27.71558 -9.94919,-39.08608 6.39591,-11.37049 16.34509,-17.05574 26.29428,-18.47705 -15.63444,9.23852 -19.89837,17.05574 -19.18772,25.58361 0.71066,8.52787 2.84263,19.18771 12.79181,25.58362 9.94919,6.3959 23.45165,22.74099 2.13197,39.08608 -21.31968,16.34509 43.35002,66.09101 43.35002,66.09101 z"
       id="path1041"
       inkscape:connector-curvature="0" />
    <path
       style="fill:#ffffff;fill-rule:evenodd;stroke:none;stroke-width:0.99999994px;stroke-linecap:butt;stroke-linejoin:miter;stroke-opacity:1"
       d="m 1810.3054,188.73057 c 11.3167,-30.89516 36.4649,-41.58964 52.8112,-43.96619 16.3463,-2.37655 57.8408,1.18827 81.7315,2.37655 23.8908,1.18827 96.8206,1.18827 103.1076,0 6.2871,-1.18828 110.652,7.12965 125.741,4.7531 15.0889,-2.37655 52.9449,-4.4733 70.5486,-2.09675 17.6038,2.37655 46.5243,20.20068 49.039,29.70689 2.5148,9.5062 8.6682,25.86225 3.6384,41.30983 -5.0295,15.44758 -35.2073,32.08343 -65.3852,40.40137 -30.1779,8.31792 -116.939,1.18827 -129.5131,-1.18829 -12.5742,-2.37654 -57.8409,-10.69447 -82.989,-5.94136 -25.1483,4.75309 -96.8205,11.88274 -135.8002,7.12965 -38.9797,-4.75311 -71.6724,-19.01241 -72.9298,-33.27171 -1.2574,-14.25931 -3.7723,-10.69448 0,-39.21309 z"
       id="path1043"
       inkscape:connector-curvature="0"
       sodipodi:nodetypes="csscssccsccscc" />
    <path
       style="fill:#ffffff;fill-rule:evenodd;stroke:none;stroke-width:1px;stroke-linecap:butt;stroke-linejoin:miter;stroke-opacity:1"
       d="m 1944.3016,233.0595 c -22.8961,17.75617 -71.9593,58.40848 -78.0338,64.01569 -6.0744,5.60722 -9.8126,23.83066 4.2055,19.15798 14.018,-4.67267 32.2414,-13.0835 37.8487,-14.01803 5.6072,-0.93454 9.8126,-1.86907 13.5507,-1.4018 -18.2234,4.20541 -68.2211,21.49432 -96.7244,92.51903 35.5123,-65.4175 80.37,-77.0992 89.2481,-80.37007 8.8781,-3.27088 23.8307,-7.47629 24.298,-14.95257 0.4672,-7.47629 -9.8127,-14.95257 -27.5688,-10.27989 22.4288,-13.08351 59.343,-45.32499 73.8283,-45.32499 14.4853,0 -40.6523,-9.34535 -40.6523,-9.34535 z"
       id="path1045"
       inkscape:connector-curvature="0" />
    <path
       style="fill:#ffffff;fill-rule:evenodd;stroke:none;stroke-width:1.04479074px;stroke-linecap:butt;stroke-linejoin:miter;stroke-opacity:1"
       d="m 275.56637,1362.7906 c 31.61286,-28.0194 42.4798,-26.1515 55.32255,-28.9534 12.84272,-2.8018 110.64507,-6.5378 129.41523,-4.6699 18.77016,1.8681 102.74187,9.3398 129.41525,35.4912 26.67335,26.1515 52.35883,48.5669 49.39513,87.794 -2.96372,39.2271 -10.86694,110.2096 -28.64918,133.5589 -17.78226,23.3495 -56.31045,39.2272 -99.77816,47.633 -43.46772,8.4058 -168.93136,-3.7359 -187.70151,-5.6039 -18.77015,-1.8679 -64.21367,-19.6136 -79.0322,-42.963 -14.81854,-23.3495 -36.55241,-75.6523 -29.63708,-110.2095 6.91531,-34.5571 23.70966,-81.2562 61.24997,-112.0774 z"
       id="path1047"
       inkscape:connector-curvature="0" />
    <path
       style="fill:#ffffff;fill-rule:evenodd;stroke:none;stroke-width:1px;stroke-linecap:butt;stroke-linejoin:miter;stroke-opacity:1"
       d="m 294.38792,1596.4597 c 50.90952,-22.9051 82.32177,-25.7681 111.56765,-27.6769 29.24591,-1.9088 95.31996,0.9543 126.73221,13.3612 31.41226,12.4069 53.07588,36.2663 60.65814,48.6732 7.58227,12.4068 14.08136,52.4905 2.16637,70.6237 -11.915,18.133 -51.9927,44.8555 -75.82268,53.4449 -23.82998,8.5894 -128.89857,11.4525 -172.22581,0 -43.32725,-11.4525 -74.7395,-29.5856 -85.57132,-55.3537 -10.83181,-25.7681 -10.83181,-82.0762 32.49544,-103.0724 z"
       id="path1049"
       inkscape:connector-curvature="0" />
    <path
       style="fill:#ffffff;fill-rule:evenodd;stroke:none;stroke-width:1px;stroke-linecap:butt;stroke-linejoin:miter;stroke-opacity:1"
       d="m 571.51827,1489.8102 c 22.69719,-37.8287 85.61623,-110.0078 124.52571,-129.4625 38.90949,-19.4548 94.88053,-25.0946 113.25446,-22.933 15.70987,1.7353 35.90084,19.0754 55.12176,42.152 -15.13146,-30.263 -47.25978,-48.6478 -52.66387,-49.7286 -18.40862,-4.2887 -108.87383,-25.5751 -222.35983,69.5369 -113.48599,95.1121 -51.38362,121.779 -51.38362,121.779 z"
       id="path1051"
       inkscape:connector-curvature="0"
       sodipodi:nodetypes="cccccscc" />
    <path
       style="fill:#ffffff;fill-rule:evenodd;stroke:none;stroke-width:0.94600838px;stroke-linecap:butt;stroke-linejoin:miter;stroke-opacity:1"
       d="m 204.17777,2222.383 c -1.20472,-31.4542 22.88966,-42.3423 43.36987,-45.9716 20.48021,-3.6294 91.55861,-3.6294 103.6058,-1.2098 12.04717,2.4195 83.12557,0 97.58219,1.2098 14.45662,1.2097 61.44064,9.6782 69.87369,31.4543 8.43302,21.776 20.4802,27.8249 8.43302,48.3912 -12.0472,20.5663 -26.50381,38.713 -75.89728,43.5521 -49.39345,4.8392 -155.40868,1.2098 -199.98326,-10.888 -44.57459,-12.0978 -46.98403,-36.2934 -46.98403,-66.538 z"
       id="path1053"
       inkscape:connector-curvature="0" />
    <path
       style="fill:#ffffff;fill-rule:evenodd;stroke:none;stroke-width:1px;stroke-linecap:butt;stroke-linejoin:miter;stroke-opacity:1"
       d="m 348.19942,2246.5661 c -29.42116,45.7663 -39.16091,33.6645 -43.24718,61.4512 -4.08627,27.7866 9.73975,53.7817 22.81582,64.406 13.07607,10.6243 34.32468,25.3349 15.52783,41.68 -18.79685,16.3451 -40.04547,26.1521 -35.95919,72.7356 4.08627,46.5835 21.24861,49.0353 27.78665,53.1215 -25.33489,-10.1025 -30.23842,-73.5529 -15.52784,-93.167 14.71058,-19.6141 16.91712,-15.0754 32.69018,-26.1521 13.88076,-9.7478 27.00207,-30.3114 -3.85728,-57.4442 -30.85936,-27.1329 -14.46952,-78.6996 28.77766,-101.4055 85.22691,-44.7462 -29.00665,-15.2255 -29.00665,-15.2255 z"
       id="path1055"
       inkscape:connector-curvature="0"
       sodipodi:nodetypes="csssscsszsc" />
    <path
       style="fill:#ffffff;fill-rule:evenodd;stroke:none;stroke-width:0.99320918px;stroke-linecap:butt;stroke-linejoin:miter;stroke-opacity:1"
       d="m 810.31827,2202.508 c 26.72211,-57.6939 56.02015,-64.1754 96.00365,-73.296 86.64739,-10.5941 160.22598,3.452 243.35748,0.3303 43.0409,-1.6968 101.8216,22.0595 121.0828,52.6032 19.2615,30.5438 49.0219,122.175 42.1998,151.0219 -6.8222,28.8469 -32.979,109.09 -61.8619,129.4524 -28.8829,20.3625 -36.6287,35.1447 -85.4175,40.2353 -48.7889,5.0906 -233.88685,-1.2246 -256.23396,-2.9215 -22.34716,-1.6969 -78.8937,-19.3829 -97.22397,-71.9861 -18.33027,-52.603 -28.34203,-174.5332 -1.9064,-225.4395 z"
       id="path1057"
       inkscape:connector-curvature="0"
       sodipodi:nodetypes="cccscssssc" />
    <path
       style="fill:#ffffff;fill-rule:evenodd;stroke:none;stroke-width:1px;stroke-linecap:butt;stroke-linejoin:miter;stroke-opacity:1"
       d="m 1078.5698,2470.4285 c 7.4155,31.516 12.9772,52.5267 19.7748,59.9423 6.7976,7.4155 22.8646,14.2131 33.3699,15.449 10.5054,1.236 21.0107,6.1796 6.1796,23.4826 -14.831,17.3029 -1.8538,54.9986 45.1112,57.4704 -46.965,-11.7413 -43.8752,-47.583 -27.8082,-54.3806 16.067,-6.7976 20.3927,-39.5496 -16.685,-50.6729 -32.752,-8.6514 -11.1233,-129.7719 -11.1233,-129.7719 z"
       id="path1059"
       inkscape:connector-curvature="0" />
  </g>
  <g
     inkscape:groupmode="layer"
     id="layer1"
     inkscape:label="txt"
     style="opacity:1">
    <text
       xml:space="preserve"
       style="font-style:normal;font-variant:normal;font-weight:normal;font-stretch:normal;line-height:0%;font-family:Lavi;-inkscape-font-specification:Lavi;text-align:center;letter-spacing:0px;word-spacing:0px;text-anchor:middle;fill:#000000;fill-opacity:1;stroke:none"
       x="371.40958"
       y="167.38466"
       id="text4246"><tspan
         sodipodi:role="line"
         style="font-size:45px;line-height:1.20000005"
         x="371.40958"
         y="167.38466"
         id="tspan825">Det kjennest rart ut</tspan><tspan
         sodipodi:role="line"
         style="font-size:45px;line-height:1.20000005"
         x="371.40958"
         y="221.38466"
         id="tspan864">å måtta snika seg unna</tspan><tspan
         sodipodi:role="line"
         style="font-size:45px;line-height:1.20000005"
         x="371.40958"
         y="275.38467"
         id="tspan866">for å få ein matbit.</tspan></text>
    <text
       xml:space="preserve"
       style="font-style:normal;font-variant:normal;font-weight:normal;font-stretch:normal;line-height:0%;font-family:Lavi;-inkscape-font-specification:Lavi;text-align:center;letter-spacing:0px;word-spacing:0px;text-anchor:middle;fill:#000000;fill-opacity:1;stroke:none"
       x="376.97238"
       y="910.46436"
       id="text4246-3"><tspan
         sodipodi:role="line"
         style="font-size:45px;line-height:1.20000005"
         x="376.97238"
         y="910.46436"
         id="tspan868">Men læraren vår</tspan><tspan
         sodipodi:role="line"
         style="font-size:45px;line-height:1.20000005"
         x="376.97238"
         y="964.46436"
         id="tspan878">seier at me må te</tspan><tspan
         sodipodi:role="line"
         style="font-size:45px;line-height:1.20000005"
         x="376.97238"
         y="1018.4644"
         id="tspan880">oss som reine sjeler –</tspan><tspan
         sodipodi:role="line"
         style="font-size:45px;line-height:1.20000005"
         x="376.97238"
         y="1072.4644"
         id="tspan882">utan teikn på at me har</tspan><tspan
         sodipodi:role="line"
         style="font-size:45px;line-height:1.20000005"
         x="376.97238"
         y="1126.4644"
         id="tspan871">menneskelege behov.</tspan></text>
    <text
       xml:space="preserve"
       style="font-style:normal;font-variant:normal;font-weight:normal;font-stretch:normal;line-height:0%;font-family:Lavi;-inkscape-font-specification:Lavi;text-align:center;letter-spacing:0px;word-spacing:0px;text-anchor:middle;fill:#000000;fill-opacity:1;stroke:none"
       x="2053.8857"
       y="219.40169"
       id="text4246-3-3"><tspan
         sodipodi:role="line"
         style="font-size:45px;line-height:1.20000005"
         x="2053.8857"
         y="219.40169"
         id="tspan868-9">Så det er her de er!</tspan></text>
    <text
       xml:space="preserve"
       style="font-style:normal;font-variant:normal;font-weight:normal;font-stretch:normal;line-height:0%;font-family:Lavi;-inkscape-font-specification:Lavi;text-align:center;letter-spacing:0px;word-spacing:0px;text-anchor:middle;fill:#000000;fill-opacity:1;stroke:none"
       x="426.31387"
       y="1404.5085"
       id="text4246-3-3-1"><tspan
         sodipodi:role="line"
         style="font-size:45px;line-height:1.20000005"
         x="426.31387"
         y="1404.5085"
         id="tspan924">Endeleg!</tspan><tspan
         sodipodi:role="line"
         style="font-size:45px;line-height:1.20000005"
         x="426.31387"
         y="1458.5085"
         id="tspan889">Ein stad eg kan</tspan><tspan
         sodipodi:role="line"
         style="font-size:45px;line-height:1.20000005"
         x="426.31387"
         y="1512.5085"
         id="tspan895">sleppa unna</tspan><tspan
         sodipodi:role="line"
         style="font-size:45px;line-height:1.20000005"
         x="426.31387"
         y="1566.5085"
         id="tspan891">alle fotografane!</tspan></text>
    <text
       xml:space="preserve"
       style="font-style:normal;font-variant:normal;font-weight:normal;font-stretch:normal;line-height:0%;font-family:Lavi;-inkscape-font-specification:Lavi;text-align:center;letter-spacing:0px;word-spacing:0px;text-anchor:middle;fill:#000000;fill-opacity:1;stroke:none"
       x="424.46146"
       y="1655.4659"
       id="text4246-3-3-1-7"><tspan
         sodipodi:role="line"
         style="font-size:45px;line-height:1.20000005"
         x="424.46146"
         y="1655.4659"
         id="tspan966">Eg vert heilt</tspan><tspan
         sodipodi:role="line"
         style="font-size:45px;line-height:1.20000005"
         x="424.46146"
         y="1709.4659"
         id="tspan899">sprø av dei!</tspan></text>
    <text
       xml:space="preserve"
       style="font-style:normal;font-variant:normal;font-weight:normal;font-stretch:normal;line-height:0%;font-family:Lavi;-inkscape-font-specification:Lavi;text-align:center;letter-spacing:0px;word-spacing:0px;text-anchor:middle;fill:#000000;fill-opacity:1;stroke:none"
       x="367.50485"
       y="2251.155"
       id="text4246-3-3-1-7-0"><tspan
         sodipodi:role="line"
         style="font-size:45px;line-height:1.20000005"
         x="367.50485"
         y="2251.155"
         id="tspan966-2">Fotografar?</tspan></text>
    <text
       xml:space="preserve"
       style="font-style:normal;font-variant:normal;font-weight:normal;font-stretch:normal;line-height:0%;font-family:Lavi;-inkscape-font-specification:Lavi;text-align:center;letter-spacing:0px;word-spacing:0px;text-anchor:middle;fill:#000000;fill-opacity:1;stroke:none"
       x="1049.7054"
       y="2192.1785"
       id="text4246-3-3-1-7-0-6"><tspan
         sodipodi:role="line"
         style="font-size:45px;line-height:1.20000005"
         x="1049.7054"
         y="2192.1785"
         id="tspan1023">Prøv å sleppa</tspan><tspan
         sodipodi:role="line"
         style="font-size:45px;line-height:1.20000005"
         x="1049.7054"
         y="2246.1785"
         id="tspan917">unna endelause</tspan><tspan
         sodipodi:role="line"
         style="font-size:45px;line-height:1.20000005"
         x="1049.7054"
         y="2300.1785"
         id="tspan875">samtalar med keisame</tspan><tspan
         sodipodi:role="line"
         style="font-size:45px;line-height:1.20000005"
         x="1049.7054"
         y="2354.1785"
         id="tspan919">politikarar når du går</tspan><tspan
         sodipodi:role="line"
         style="font-size:45px;line-height:1.20000005"
         x="1049.7054"
         y="2408.1785"
         id="tspan923">rundt med ei slik ei</tspan><tspan
         sodipodi:role="line"
         style="font-size:45px;line-height:1.20000005"
         x="1049.7054"
         y="2462.1785"
         id="tspan865">på hovudet, du.</tspan></text>
    <text
       xml:space="preserve"
       style="font-style:normal;font-variant:normal;font-weight:normal;font-stretch:normal;font-size:13.67166328px;line-height:0%;font-family:Lavi;-inkscape-font-specification:Lavi;text-align:center;letter-spacing:0px;word-spacing:0px;text-anchor:middle;fill:#ffffff;fill-opacity:0.43137255;stroke:#ffffff;stroke-width:0.41015574;stroke-miterlimit:4;stroke-dasharray:none;stroke-opacity:1"
       x="1677.3835"
       y="2550.6589"
       id="text4246-8"
       transform="matrix(0.89761483,-0.24846861,0.02683826,1.1066345,0,0)"><tspan
         sodipodi:role="line"
         style="font-size:35.04694366px;line-height:1.25;fill:#ffffff;fill-opacity:0.43137255;stroke:#ffffff;stroke-width:0.41015574;stroke-miterlimit:4;stroke-dasharray:none;stroke-opacity:1"
         x="1677.3835"
         y="2550.6589"
         id="tspan1033">klø, klø</tspan></text>
  </g>
</svg>
