<?xml version="1.0" encoding="UTF-8" standalone="no"?>
<!-- Created with Inkscape (http://www.inkscape.org/) -->

<svg
   id="svg2"
   version="1.1"
   inkscape:version="1.1 (c68e22c387, 2021-05-23)"
   width="2481"
   height="3503"
   sodipodi:docname="E36P01.svg"
   xmlns:inkscape="http://www.inkscape.org/namespaces/inkscape"
   xmlns:sodipodi="http://sodipodi.sourceforge.net/DTD/sodipodi-0.dtd"
   xmlns:xlink="http://www.w3.org/1999/xlink"
   xmlns="http://www.w3.org/2000/svg"
   xmlns:svg="http://www.w3.org/2000/svg"
   xmlns:rdf="http://www.w3.org/1999/02/22-rdf-syntax-ns#"
   xmlns:cc="http://creativecommons.org/ns#"
   xmlns:dc="http://purl.org/dc/elements/1.1/">
  <metadata
     id="metadata8">
    <rdf:RDF>
      <cc:Work
         rdf:about="">
        <dc:format>image/svg+xml</dc:format>
        <dc:type
           rdf:resource="http://purl.org/dc/dcmitype/StillImage" />
      </cc:Work>
    </rdf:RDF>
  </metadata>
  <defs
     id="defs6" />
  <sodipodi:namedview
     pagecolor="#1e1e1e"
     bordercolor="#111111"
     borderopacity="1"
     objecttolerance="10"
     gridtolerance="10"
     guidetolerance="10"
     inkscape:pageopacity="0"
     inkscape:pageshadow="2"
     inkscape:window-width="1920"
     inkscape:window-height="1057"
     id="namedview4"
     showgrid="false"
     inkscape:zoom="0.3740595"
     inkscape:cx="1144.203"
     inkscape:cy="2329.8432"
     inkscape:window-x="1358"
     inkscape:window-y="-8"
     inkscape:window-maximized="1"
     inkscape:current-layer="layer1"
     inkscape:pagecheckerboard="0"
     inkscape:snap-global="false" />
  <g
     inkscape:groupmode="layer"
     id="layer2"
     inkscape:label="artwork"
     sodipodi:insensitive="true">
    <image
       xlink:href="../gfx_Pepper-and-Carrot_by-David-Revoy_E36P01.png"
       y="0"
       x="0"
       id="image10"
       height="3503"
       width="2481" />
  </g>
  <g
     inkscape:groupmode="layer"
     id="layer3"
     inkscape:label="speechbubbles"
     style="display:inline">
    <path
       style="display:inline;fill:#ffffff;fill-rule:evenodd;stroke:none;stroke-width:1.19344px;stroke-linecap:butt;stroke-linejoin:miter;stroke-opacity:1"
       d="m 1029.5582,1752.3669 c 64.2802,33.0935 100.8952,19.6353 99.7917,-57.2908 30.6678,83.129 51.95,101.7209 64.5715,60.7629 40.602,35.2046 65.9612,25.3289 86.095,0 7.5045,32.5753 20.2607,25.8284 55.6772,-10.1522 -6.5865,17.9486 -13.4995,61.2905 50.7311,6.6491 -29.5839,32.1765 -8.0469,32.7932 29.2369,11.1656 -12.2329,32.9227 34.1703,9.0384 73.7223,-38.9119 -28.3958,49.6322 -16.9495,56.5269 8.3256,35.505 -11.5557,22.6201 -4.9761,36.3951 30.8084,7.8967 -15.0304,41.7522 0.7598,25.0587 57.87,-14.9094 -47.1292,44.0823 -65.016,79.6541 -30.4761,80.88 -10.6872,3.7722 -35.4168,24.4535 46.961,45.1372 -19.2789,1.9825 -55.1477,7.1703 -21.0975,25.4294 -20.5562,-5.9704 -29.6799,4.7094 -1.0669,22.0592 -20.589,-2.7737 -44.4544,-9.8734 -12.3317,17.2714 -36.1266,-0.9222 -30.6704,5.4474 -4.1472,28.3456 -52.3166,-29.3731 -47.9207,53.2002 -49.4692,64.9544 -65.5682,-40.046 -47.9868,-19.8828 -56.8378,-11.5417 -31.9597,0.3117 -65.7216,-66.1809 -97.6813,-21.5214 -8.3698,-27.777 -25.15,-1.6096 -95.8785,18.0361 31.0551,-35.3384 -24.8492,-4.0449 -58.6855,10.5146 18.5294,-44.1457 -11.8926,-40.174 -71.4491,2.7761 33.3513,-48.7489 -9.4059,-62.4661 -65.5358,-27.8547 21.2073,-47.8913 -13.3314,-71.0514 -95.8788,-72.9152 38.8164,-18.8093 62.5497,-39.0139 21.52389,-78.1219 46.24781,11.515 60.04301,0.819 27.39401,-41.6659 50.4439,34.8712 27.5088,-15.7075 7.8268,-62.4982 z"
       id="path4508-2"
       inkscape:connector-curvature="0"
       sodipodi:nodetypes="cccccccccccccccccccccccccccc" />
    <path
       style="display:inline;fill:#ffffff;fill-rule:evenodd;stroke:none;stroke-width:0.656932px;stroke-linecap:butt;stroke-linejoin:miter;stroke-opacity:1"
       d="m 1389.8816,2077.7723 c -39.4512,-18.1486 -66.4449,-21.4518 -57.2385,14.3623 -38.5049,-35.1135 -43.9011,-20.9977 -51.7472,-1.9834 -34.1581,-27.3448 -49.0577,-11.8017 -56.4796,0.696 -7.6882,-25.5633 -20.3977,-6.1517 -28.582,1.5954 2.1923,-22.4576 -7.5773,-25.1726 -34.4433,-0.1691 5.26,-10.0167 13.3493,-28.8981 -26.9942,-7.5337 7.9292,-20.9878 -18.3493,-6.8475 -40.698,12.2261 12.394,-25.523 -4.5083,-19.8234 -20.8665,-9.9124 7.3412,-10.5382 24.6474,-26.9446 -11.69,-14.1461 17.4247,-15.4107 0.3899,-12.0615 -32.0719,3.5227 26.9669,-20.1006 51.0656,-35.3882 14.6507,-32.0788 4.9489,-6.0966 22.9749,-11.5776 -31.2853,-20.4623 9.9945,-4.2192 40.9326,1.385 14.8413,-15.635 -3.4888,-1.9842 8.007,-3.3639 -14.1098,-8.4296 12.9916,0.2035 20.9245,-1.1921 8.7829,-8.9281 23.7096,0.1338 14.652,-8.0468 -2.9904,-18.4055 34.6317,13.1399 30.6036,-12.0406 31.495,-17.4807 43.4382,17.961 48.7363,6.6537 54.4542,2.7307 20.9627,-0.4023 41.1307,15.5347 61.6235,-5.345 5.7852,12.7582 17.8191,15.4071 64.0097,5.7641 -19.9981,16.5682 19.1155,5.2187 41.1583,-1.7775 -11.6877,20.5338 14.9728,15.7406 53.5874,-4.5727 -21.3622,22.7791 39.4362,10.3934 58.3323,3.616 -2.3174,9.1976 -18.7606,39.9156 35.4114,40.1089 -25.7358,8.2956 -34.4765,16.1296 -7.1485,33.8558 -30.4613,-4.9432 -39.3978,0.1072 -17.5295,19.4605 -44.1107,-9.2776 -26.5298,12.687 -4.472,28.9214 z"
       id="path4508-2-3"
       inkscape:connector-curvature="0"
       sodipodi:nodetypes="cccccccccccccccccccccccccccc" />
    <path
       style="fill:#ffffff;fill-rule:evenodd;stroke:none;stroke-width:1.01927px;stroke-linecap:butt;stroke-linejoin:miter;stroke-opacity:1"
       d="m 795.85859,2075.6026 c 68.17018,-19.9402 107.76468,-24.6985 129.19825,-26.9041 -9.4626,14.6823 -10.93703,18.8605 -3.60753,19.5618 12.56737,1.2024 323.02739,-38.3324 323.02739,-38.3324 l -134.9102,-3.9965 c 0,0 -88.3447,16.493 -115.60557,20.8649 -27.26123,4.3719 -53.63946,7.3565 -53.63946,7.3565 0,0 11.08456,-17.0097 8.79652,-16.5151 -9.73596,2.1047 -32.55208,-8.0957 -153.2594,37.9649 z"
       id="path891"
       inkscape:connector-curvature="0"
       sodipodi:nodetypes="ccsccscsc" />
    <path
       style="display:inline;fill:#ffffff;fill-rule:evenodd;stroke:none;stroke-width:1.32902px;stroke-linecap:butt;stroke-linejoin:miter;stroke-opacity:1"
       d="m 983.6653,2513.5778 c 38.5592,34.085 58.4852,60.774 1.8104,37.0453 28.3414,21.5205 20.7491,24.8361 -4.81999,30.3589 22.54589,14.4301 55.07429,46.2428 8.71863,56.8178 66.84906,9.4652 31.10406,36.7362 -3.81835,56.6045 102.01901,-22.8067 90.74451,2.8066 68.11241,28.9088 50.6176,-32.7144 52.9761,-23.0057 30.0499,20.5624 32.9785,-31.49 41.7852,-40.6024 41.1526,-4.2266 20.3964,-30.1013 46.9832,-48.797 66.7141,-14.1622 26.6161,-49.7852 56.4147,-6.3705 79.0544,10.8879 5.5538,-36.9925 26.3691,-46.6073 63.6985,-9.9254 3.7711,-22.3614 35.3059,-21.735 62.341,10.2753 -33.8237,-62.8774 25.1932,-6.2663 35.0346,-2.5454 -16.0425,-32.3544 21.2812,-37.9013 88.1614,-10.2102 -47.9878,-30.2071 -38.9389,-44.2996 2.9146,-57.0873 -40.2842,-14.0879 -49.8576,-47.6329 16.4295,-49.0658 -82.926,-21.3847 -21.4724,-55.0924 17.1238,-75.3839 -72.5438,12.0524 -131.5373,17.7795 -93.4868,-27.2707 -83.0477,29.1411 -67.9858,12.9296 -57.397,-1.2147 -55.4663,35.4437 -56.6606,2.6573 -55.1207,-7.5248 -74.512,38.5493 -118.2367,12.8559 -134.9273,-15.8395 -19.5683,40.3424 -56.5173,21.0737 -79.2672,0.7332 11.8861,37.9319 -12.0993,34.9347 -36.2089,19.3121 5.9322,25.4973 -16.6348,47.5269 -55.8483,11.6075 13.0362,17.7959 11.6825,43.8619 -60.4213,-8.6572 z"
       id="path4289-9"
       inkscape:connector-curvature="0"
       sodipodi:nodetypes="ccccccccccccccccccccccccc" />
    <path
       style="display:inline;fill:#ffffff;fill-rule:evenodd;stroke:none;stroke-width:1px;stroke-linecap:butt;stroke-linejoin:miter;stroke-opacity:1"
       d="m 839.35758,2683.1542 126.85528,-18.3923 -13.09351,-16.3937 103.27445,-9.3803 -13.3725,-26.4414 -117.98262,26.0585 15.22178,19.3955 z"
       id="path4667"
       inkscape:connector-curvature="0"
       sodipodi:nodetypes="cccccccc" />
  </g>
  <g
     inkscape:groupmode="layer"
     id="layer1"
     inkscape:label="txt"
     style="display:inline">
    <text
       xml:space="preserve"
       style="font-style:normal;font-variant:normal;font-weight:normal;font-stretch:normal;font-size:45px;line-height:1.25;font-family:Lavi;-inkscape-font-specification:Lavi;text-align:center;letter-spacing:0px;word-spacing:0px;text-anchor:middle;fill:#000000;fill-opacity:1;stroke:none;stroke-width:0.818387"
       x="1531.6472"
       y="1834.7717"
       id="text4246-3-2-2-6-3-7-9-3-3-56-9-3-20-3-3-2"
       transform="skewX(-7.1285625)"><tspan
         style="font-style:normal;font-variant:normal;font-weight:bold;font-stretch:normal;font-size:45px;font-family:Lavi;-inkscape-font-specification:'Lavi Bold';stroke-width:0.818387"
         sodipodi:role="line"
         x="1531.6472"
         y="1834.7717"
         id="tspan3855">SINA WILE PONA E </tspan><tspan
         style="font-style:normal;font-variant:normal;font-weight:bold;font-stretch:normal;font-size:45px;font-family:Lavi;-inkscape-font-specification:'Lavi Bold';stroke-width:0.818387"
         sodipodi:role="line"
         x="1531.6472"
         y="1891.0217"
         id="tspan3859">IKE SINA KEPEKEN </tspan><tspan
         style="font-style:normal;font-variant:normal;font-weight:bold;font-stretch:normal;font-size:45px;font-family:Lavi;-inkscape-font-specification:'Lavi Bold';stroke-width:0.818387"
         sodipodi:role="line"
         x="1531.6472"
         y="1947.2717"
         id="tspan3861">TOKI ANU SEME?</tspan></text>
    <text
       id="text4246-4-2-7"
       y="2031.6934"
       x="1212.6045"
       style="font-style:normal;font-variant:normal;font-weight:normal;font-stretch:normal;line-height:0%;font-family:Lavi;-inkscape-font-specification:Lavi;text-align:center;letter-spacing:0px;word-spacing:0px;text-anchor:middle;fill:#000000;fill-opacity:1;stroke:none"
       xml:space="preserve"
       inkscape:label="pepperB"><tspan
         y="2031.6934"
         x="1212.6045"
         style="font-size:45px;line-height:1.25"
         sodipodi:role="line"
         id="tspan6461">ni li ken ala!</tspan></text>
    <text
       xml:space="preserve"
       style="font-style:normal;font-variant:normal;font-weight:normal;font-stretch:normal;font-size:45px;line-height:1.25;font-family:Lavi;-inkscape-font-specification:Lavi;text-align:center;letter-spacing:0px;word-spacing:0px;text-anchor:middle;fill:#000000;fill-opacity:1;stroke:none;stroke-width:0.818387"
       x="1586.7991"
       y="2605.0286"
       id="text4246-3-2-2-6-3-7-9-3-3-56-9-3-20-3-3-2-7"
       transform="skewX(-7.1285625)"><tspan
         style="font-style:normal;font-variant:normal;font-weight:bold;font-stretch:normal;font-size:45px;font-family:Lavi;-inkscape-font-specification:'Lavi Bold';stroke-width:0.818387"
         sodipodi:role="line"
         x="1586.7991"
         y="2605.0286"
         id="tspan14740">O PANA E ONA IKE </tspan><tspan
         style="font-style:normal;font-variant:normal;font-weight:bold;font-stretch:normal;font-size:45px;font-family:Lavi;-inkscape-font-specification:'Lavi Bold';stroke-width:0.818387"
         sodipodi:role="line"
         x="1586.7991"
         y="2661.2786"
         id="tspan1474">TAWA POKI AWEN!</tspan></text>
  </g>
</svg>
