<?xml version="1.0" encoding="UTF-8" standalone="no"?>
<!-- Created with Inkscape (http://www.inkscape.org/) -->

<svg
   id="svg2"
   version="1.1"
   inkscape:version="1.1 (c68e22c387, 2021-05-23)"
   width="2481"
   height="3503"
   sodipodi:docname="E36P11.svg"
   xmlns:inkscape="http://www.inkscape.org/namespaces/inkscape"
   xmlns:sodipodi="http://sodipodi.sourceforge.net/DTD/sodipodi-0.dtd"
   xmlns:xlink="http://www.w3.org/1999/xlink"
   xmlns="http://www.w3.org/2000/svg"
   xmlns:svg="http://www.w3.org/2000/svg"
   xmlns:rdf="http://www.w3.org/1999/02/22-rdf-syntax-ns#"
   xmlns:cc="http://creativecommons.org/ns#"
   xmlns:dc="http://purl.org/dc/elements/1.1/">
  <metadata
     id="metadata8">
    <rdf:RDF>
      <cc:Work
         rdf:about="">
        <dc:format>image/svg+xml</dc:format>
        <dc:type
           rdf:resource="http://purl.org/dc/dcmitype/StillImage" />
        <dc:title />
      </cc:Work>
    </rdf:RDF>
  </metadata>
  <defs
     id="defs6" />
  <sodipodi:namedview
     pagecolor="#1e1e1e"
     bordercolor="#111111"
     borderopacity="1"
     objecttolerance="10"
     gridtolerance="10"
     guidetolerance="10"
     inkscape:pageopacity="0"
     inkscape:pageshadow="2"
     inkscape:window-width="1920"
     inkscape:window-height="1057"
     id="namedview4"
     showgrid="false"
     inkscape:zoom="0.46000002"
     inkscape:cx="1278.2608"
     inkscape:cy="2179.3477"
     inkscape:window-x="1358"
     inkscape:window-y="-8"
     inkscape:window-maximized="1"
     inkscape:current-layer="layer1"
     inkscape:pagecheckerboard="0"
     inkscape:snap-global="false" />
  <g
     inkscape:groupmode="layer"
     id="layer2"
     inkscape:label="artwork"
     sodipodi:insensitive="true">
    <image
       xlink:href="../gfx_Pepper-and-Carrot_by-David-Revoy_E36P11.png"
       y="0"
       x="0"
       id="image10"
       height="3503"
       width="2481" />
  </g>
  <g
     inkscape:groupmode="layer"
     id="layer3"
     inkscape:label="speechbubbles"
     style="display:inline">
    <path
       style="color:#000000;display:inline;overflow:visible;visibility:visible;fill:#ffffff;fill-opacity:1;fill-rule:nonzero;stroke:none;stroke-width:0.664697px;marker:none;enable-background:accumulate"
       d="m 382.61835,282.95177 c -38.25645,21.41551 -84.93857,17.53589 -127.5946,16.52247 -44.54111,-3.44423 -97.49058,-16.67254 -117.63635,-58.54734 -18.81488,-38.78476 2.19997,-87.11707 42.37547,-105.22628 36.86068,-16.98124 79.24473,-18.66814 119.5232,-19.46171 52.29659,1.16875 109.74026,32.33519 117.84578,84.58625 4.41264,30.58574 -9.96614,62.20135 -34.5135,82.12661 z"
       id="path4040-40"
       inkscape:connector-curvature="0"
       sodipodi:nodetypes="zssssz" />
    <path
       style="color:#000000;display:inline;overflow:visible;visibility:visible;fill:#ffffff;fill-opacity:1;fill-rule:nonzero;stroke:none;stroke-width:0.895703px;marker:none;enable-background:accumulate"
       d="m 617.61025,105.88672 c -27.34146,0.48289 -55.30789,1.99485 -81.01026,10.55273 -19.27663,6.28483 -36.60817,17.59434 -46.89078,32.88401 -10.78797,15.11503 -15.24648,32.66921 -17.99958,49.9598 -3.75274,20.5909 -5.45897,42.02901 1.14989,62.34728 10.14236,29.028 40.31222,51.93542 75.16053,58.49046 45.59561,10.88095 94.50308,13.37614 140.83587,4.25676 26.56867,-5.64189 52.37207,-15.47968 72.95579,-30.96068 13.87857,-11.91714 20.4242,-28.63021 21.90443,-45.0154 2.97723,-25.0214 3.57178,-50.80265 -4.83215,-75.17205 -8.00131,-22.85714 -29.42504,-41.60583 -55.43746,-50.51416 -20.18886,-7.20666 -41.79469,-10.9992 -63.31684,-14.11157 -14.05315,-1.87992 -28.28771,-2.85024 -42.51944,-2.71718 z"
       id="path3365-90"
       inkscape:connector-curvature="0"
       sodipodi:nodetypes="csssssc" />
    <path
       style="color:#000000;display:inline;overflow:visible;visibility:visible;fill:#ffffff;fill-opacity:1;fill-rule:nonzero;stroke:none;stroke-width:0.976718px;marker:none;enable-background:accumulate"
       d="m 841.7647,253.23429 c 0.60665,-53.37318 12.42387,-103.84716 117.18111,-102.10038 78.54749,1.30895 99.46519,42.43199 101.20539,96.38138 1.2265,38.01967 -41.2683,73.2116 -108.75404,71.34686 -64.50346,-1.78194 -104.91519,-24.9245 -109.63246,-65.62786 z"
       id="path5026-3"
       inkscape:connector-curvature="0"
       sodipodi:nodetypes="csssc" />
    <path
       style="color:#000000;display:inline;overflow:visible;visibility:visible;fill:#ffffff;fill-opacity:1;fill-rule:nonzero;stroke:none;stroke-width:1.06703px;marker:none;enable-background:accumulate"
       d="m 958.1944,309.83323 c -43.34053,0.0194 -52.18434,75.22752 -14.63328,128.2568 -16.5114,-21.59304 -72.61174,-61.13455 -7.77479,-172.66812 29.32893,-50.45175 14.74185,29.39163 14.74185,29.39163 z"
       id="path4035-4"
       inkscape:connector-curvature="0"
       sodipodi:nodetypes="ccscc" />
    <path
       style="color:#000000;display:inline;overflow:visible;visibility:visible;fill:#ffffff;fill-opacity:1;fill-rule:nonzero;stroke:none;stroke-width:0.9173px;marker:none;enable-background:accumulate"
       d="m 1005.012,1110.6247 c -26.43581,1.0029 -53.24587,6.7706 -76.27963,20.5504 -16.40054,10.8103 -26.93722,29.2081 -31.19305,48.4378 -7.94354,33.722 -10.6984,69.09 -5.14873,103.443 2.35716,14.018 5.9219,27.9883 12.17216,40.7455 4.1586,8.0641 10.51963,14.9526 18.3892,19.2706 10.67207,6.4988 22.22492,11.293 33.76261,15.8995 22.82406,8.3361 47.08524,11.3559 71.13634,13.0514 11.3654,0.7232 22.7583,-0.6605 33.8165,-3.3399 14.447,-3.4583 28.4874,-8.5983 42.046,-14.738 17.888,-8.6759 34.6397,-21.4297 44.7245,-39.2156 9.8558,-17.3125 13.0333,-37.54 14.4971,-57.2503 2.0786,-25.6082 1.301,-52.0446 -7.1468,-76.484 -7.7166,-21.5968 -23.8246,-39.9866 -44.2321,-49.6577 -23.7669,-11.8236 -50.1839,-16.1409 -76.1744,-19.3281 -10.0801,-1.0909 -20.2336,-1.6584 -30.3697,-1.3846 z"
       id="path3365-90-4"
       inkscape:connector-curvature="0"
       sodipodi:nodetypes="csssssc" />
    <path
       style="fill:#ffffff;fill-rule:evenodd;stroke:none;stroke-width:1.18884px;stroke-linecap:butt;stroke-linejoin:miter;stroke-opacity:1"
       d="m 1047.5368,1120.645 c -7.0579,-18.4075 1.4646,-58.4739 28.7582,-72.4342 -20.0938,4.5574 -50.5407,19.6541 -55.3048,46.5586 -7.4355,41.9896 24.8168,27.8537 24.8168,27.8537 z"
       id="path4248"
       inkscape:connector-curvature="0"
       sodipodi:nodetypes="ccscc" />
    <path
       style="color:#000000;display:inline;overflow:visible;visibility:visible;fill:#ffffff;fill-opacity:1;fill-rule:nonzero;stroke:none;stroke-width:1.60005px;marker:none;enable-background:accumulate"
       d="m 1763.9574,1143.1944 c -56.3611,1.3442 -112.5304,6.3483 -168.5344,12.1028 -24.5232,2.9101 -49.9985,6.5574 -71.2162,19.0738 -32.3721,19.0635 -53.7211,53.7072 -53.176,89.3118 -1.1856,26.4639 3.4221,54.3053 19.8893,76.5857 17.8172,23.6984 47.1755,38.4529 77.5693,43.4869 42.0022,8.0815 84.958,10.4016 127.2542,16.7799 67.0651,8.3084 133.9737,18.2976 201.52,22.7323 65.6628,2.5145 131.203,-9.0109 193.2235,-28.3776 26.4481,-7.4825 53.6078,-16.0152 74.7673,-33.1011 20.3392,-16.2104 32.0225,-40.5862 33.2332,-65.1934 2.6522,-24.4499 0.7059,-49.9091 -9.8242,-72.7112 -9.6077,-18.9169 -27.3829,-33.8309 -48.1605,-41.9166 -29.3744,-12.7492 -61.5472,-18.254 -93.1517,-24.1212 -55.9671,-9.3772 -112.9564,-11.6595 -169.7216,-12.5516 -37.8849,-0.9139 -75.7684,-2.1887 -113.6722,-2.1005 z"
       id="path4546-6-5"
       inkscape:connector-curvature="0"
       sodipodi:nodetypes="cssssc" />
    <path
       style="color:#000000;display:inline;overflow:visible;visibility:visible;fill:#ffffff;fill-opacity:1;fill-rule:nonzero;stroke:none;stroke-width:1.00376px;marker:none;enable-background:accumulate"
       d="m 1708.9009,1378.7198 c -15.0304,0.7686 -30.249,1.5531 -44.9132,6.4878 -18.5042,6.7228 -35.8964,21.5376 -45.4583,43.0811 -6.6099,15.3973 -6.9698,34.7592 -0.4532,49.9925 7.0948,17.3844 20.2639,29.2546 33.9736,37.5218 22.3514,13.303 47.4044,17.0248 71.9404,19.2006 29.727,2.4153 59.5797,1.7256 89.3745,2.3266 56.3471,0.3822 112.7396,1.051 169.0932,-2.7314 21.6206,-1.8246 43.3711,-4.3611 64.4621,-11.3215 15.6195,-5.5469 31.2213,-14.8541 41.8022,-30.9849 11.6127,-18.2228 14.0073,-44.8387 5.6618,-65.318 -7.0161,-18.297 -20.7172,-31.6625 -36.1216,-37.2899 -32.8504,-14.7003 -68.4978,-19.0046 -103.37,-14.3817 -21.4518,2.5405 -42.9758,6.3149 -64.5066,4.5964 -24.2307,-1.2172 -48.4294,-3.4825 -72.7182,-3.1143 -35.008,-0.3109 -70.032,0.9637 -105.0473,1.7698 -1.2398,0.055 -2.4796,0.1102 -3.7194,0.1654 z"
       id="path4546-6-5-7-9"
       inkscape:connector-curvature="0"
       sodipodi:nodetypes="cssssc" />
    <path
       style="color:#000000;display:inline;overflow:visible;visibility:visible;fill:#ffffff;fill-opacity:1;fill-rule:nonzero;stroke:none;stroke-width:1.16782px;marker:none;enable-background:accumulate"
       d="m 1834.6759,1049.9074 c -58.4661,16.7056 -74.2086,55.188 -42.9987,96.676 31.21,41.487 10.2962,43.1429 10.2962,43.1429 l -38.5277,-15.376 c 0,0 -61.7873,-122.5503 71.2302,-124.4429 z"
       id="path3072-56"
       inkscape:connector-curvature="0"
       sodipodi:nodetypes="ccccc" />
    <path
       style="color:#000000;display:inline;overflow:visible;visibility:visible;fill:#ffffff;fill-opacity:1;fill-rule:nonzero;stroke:none;stroke-width:0.469757px;marker:none;enable-background:accumulate"
       d="m 177.41854,1627.5134 c 10.19708,-13.7787 135.98681,-23.5914 165.0456,7.571 20.25112,21.7169 12.43885,63.3637 -4.91894,74.2047 -17.3578,10.8417 -101.16003,13.8952 -124.97806,8.3737 -21.41843,-4.9645 -43.90027,-15.6511 -45.08555,-44.0939 -0.48374,-11.6083 -0.26012,-32.2773 9.93695,-46.0555 z"
       id="path4040-5"
       inkscape:connector-curvature="0"
       sodipodi:nodetypes="zssssz" />
    <path
       style="color:#000000;display:inline;overflow:visible;visibility:visible;fill:#ffffff;fill-opacity:1;fill-rule:nonzero;stroke:none;stroke-width:0.791779px;marker:none;enable-background:accumulate"
       d="m 233.22496,1712.5896 c 17.72695,-22.517 236.40418,-38.5528 286.921,12.3724 35.20525,35.4896 21.62412,103.5483 -8.55126,121.2646 -30.1754,17.7174 -175.86009,22.7074 -217.26619,13.6842 -37.23455,-8.1128 -76.31776,-25.5768 -78.37828,-72.0577 -0.84094,-18.9703 -0.45222,-52.7473 17.27473,-75.2635 z"
       id="path4040-5-3"
       inkscape:connector-curvature="0"
       sodipodi:nodetypes="zssssz" />
    <path
       style="color:#000000;display:inline;overflow:visible;visibility:visible;fill:#ffffff;fill-opacity:1;fill-rule:nonzero;stroke:none;stroke-width:0.855677px;marker:none;enable-background:accumulate"
       d="m 467.32955,1948.136 c 13.3495,-41.5666 52.33232,-60.4288 7.51958,-104.8642 -33.47159,-33.1897 12.91326,-29.7973 12.91326,-29.7973 0,0 5.02259,-41.3782 24.01835,27.0751 18.99576,68.4534 -9.8869,64.3755 -44.45119,107.5864 z"
       id="path3072-6"
       inkscape:connector-curvature="0"
       sodipodi:nodetypes="csczc" />
    <path
       style="fill:#ffffff;stroke:none;stroke-width:0.969904"
       d="m 677.0157,1738.5794 c -10.11517,-70.6969 63.83095,-106.4532 118.2201,-104.1712 80.03009,-8.0407 160.99236,-4.9365 240.7592,4.1304 59.9433,9.9604 98.344,87.092 64.7963,144.4608 -38.0275,59.4554 -112.64339,52.3263 -171.41786,58.1947 -68.3884,1.6156 -139.86895,-0.032 -204.01581,-28.1355 -25.33754,-15.4185 -41.95496,-44.1509 -48.34193,-74.4792 z"
       id="path3286-6"
       inkscape:connector-curvature="0"
       sodipodi:nodetypes="csssssssc" />
    <path
       style="fill:#ffffff;stroke:none;stroke-width:0.983781"
       d="m 660.3512,1881.1107 c -11.4945,-64.0059 72.53508,-96.378 134.34083,-94.312 90.94317,-7.2797 182.94566,-4.4694 273.58947,3.7395 68.1174,9.0177 111.7546,78.8493 73.6322,130.7884 -43.213,53.8283 -128.0036,47.3739 -194.79272,52.6869 -77.71396,1.4627 -158.94183,-0.029 -231.83584,-25.4726 -28.79262,-13.9592 -47.67604,-39.9722 -54.93394,-67.4302 z"
       id="path3286-6-7"
       inkscape:connector-curvature="0"
       sodipodi:nodetypes="csssssssc" />
    <path
       style="fill:#ffffff;stroke:none;stroke-width:0.872855"
       d="m 693.74513,1988.2364 c -3.83961,-53.9327 78.15283,-81.2101 135.67109,-79.4692 85.74675,-6.134 171.39548,-3.7659 255.19318,3.151 62.6654,7.5985 95.9059,66.44 54.6925,110.205 -46.173,45.3569 -124.6914,39.9181 -187.6606,44.3951 -72.76062,1.2324 -148.48552,-0.025 -213.8431,-21.4638 -25.3944,-11.7623 -40.23208,-33.6814 -44.05307,-56.8181 z"
       id="path3286-6-7-4"
       inkscape:connector-curvature="0"
       sodipodi:nodetypes="csssssssc" />
    <path
       style="fill:#ffffff;stroke:none;stroke-width:0.868828"
       d="m 1519.5981,2263.7186 c -53.6651,0.9856 -107.8801,1.4285 -160.4945,8.2171 -31.0577,5.0646 -61.5188,14.6572 -79.7779,30.3859 -15.9204,15.0743 -13.8,34.6485 0.042,49.9505 11.424,14.5227 35.3201,25.5007 62.4916,28.7663 61.2827,10.8118 126.0272,11.8471 189.6428,11.8441 58.2811,-0.2085 116.5669,-2.118 174.4646,-5.9578 32.1318,-2.6624 65.2527,-8.0568 89.7883,-20.8645 29.6932,-15.4056 42.6374,-41.4194 27.8874,-63.0951 -10.1939,-14.8343 -33.483,-25.8059 -59.6177,-30.5955 -27.5781,-5.1627 -56.9361,-4.7949 -85.5417,-6.0981 -52.4387,-1.8463 -104.9934,-3.227 -157.5385,-2.5776 -0.4489,0.011 -0.8978,0.016 -1.3466,0.025 z"
       id="path3286-6-7-4-2-5"
       inkscape:connector-curvature="0"
       sodipodi:nodetypes="csssssssc" />
    <path
       style="display:inline;fill:#ffffff;stroke:none;stroke-width:1.03502"
       d="m 1576.6393,2337.0062 c -40.969,1.8322 -82.358,2.6553 -122.5249,15.2751 -23.7103,9.4147 -46.9649,27.2469 -60.9043,56.4856 -12.154,28.0223 -10.5353,64.4095 0.032,92.8551 8.7213,26.9969 26.9642,47.4043 47.7075,53.4748 46.7846,20.0986 96.212,22.0232 144.7775,22.0177 44.4932,-0.3877 88.9898,-3.9374 133.1902,-11.0753 24.5301,-4.9492 49.8153,-14.9771 68.5464,-38.7859 22.6685,-28.6381 32.5503,-76.9963 21.2899,-117.2901 -7.7823,-27.5762 -25.5617,-47.9717 -45.5136,-56.8753 -21.0537,-9.5973 -43.4662,-8.9136 -65.3044,-11.336 -40.0328,-3.4322 -80.1543,-5.9989 -120.2684,-4.7916 -0.3426,0.021 -0.6853,0.03 -1.0279,0.047 z"
       id="path3286-6-7-4-2-5-3"
       inkscape:connector-curvature="0"
       sodipodi:nodetypes="csssssssc" />
    <path
       style="color:#000000;display:inline;overflow:visible;visibility:visible;fill:#ffffff;fill-opacity:1;fill-rule:nonzero;stroke:none;stroke-width:1.03365px;marker:none;enable-background:accumulate"
       d="m 1109.0561,1984.7544 c -8.1997,41.8065 59.3043,70.6591 115.2035,48.7714 -22.9931,10.09 -81.6027,63.8105 -171.9044,-28.8625 -40.8476,-41.9203 41.4313,-16.5735 41.4313,-16.5735 z"
       id="path4035-4-5"
       inkscape:connector-curvature="0"
       sodipodi:nodetypes="ccscc" />
    <path
       style="color:#000000;display:inline;overflow:visible;visibility:visible;fill:#ffffff;fill-opacity:1;fill-rule:nonzero;stroke:none;stroke-width:1.14715px;marker:none;enable-background:accumulate"
       d="m 1640.0206,2360.0065 c 85.321,-69.4317 155.0537,-160.9776 126.0876,-275.9291 50.0818,114.8531 -29.8722,233.4391 -50.2498,258.0963 -21.5049,26.0213 -75.8378,17.8328 -75.8378,17.8328 z"
       id="path4008-7"
       inkscape:connector-curvature="0"
       sodipodi:nodetypes="ccsc" />
    <path
       style="color:#000000;display:inline;overflow:visible;visibility:visible;fill:#ffffff;fill-opacity:1;fill-rule:nonzero;stroke:none;stroke-width:0.849892px;marker:none;enable-background:accumulate"
       d="m 1999.7453,2468.2783 c 2.3308,-45.9509 42.207,-79.7779 147.9697,-71.7134 56.6523,4.3205 120.9338,7.0052 118.1755,74.3168 -2.7583,67.3116 -95.096,66.0856 -114.1175,67.7634 -19.0213,1.6779 -118.4149,-4.8361 -136.2571,-27.6304 -11.1688,-14.2691 -15.7793,-28.5084 -15.7706,-42.7364 z"
       id="path4546-6-89"
       inkscape:connector-curvature="0"
       sodipodi:nodetypes="cssssc" />
    <path
       style="fill:#ffffff;fill-rule:evenodd;stroke:none;stroke-width:1px;stroke-linecap:butt;stroke-linejoin:miter;stroke-opacity:1"
       d="m 2127.4405,2420.4639 c 0,0 -20.8561,-32.9672 -21.8804,-43.1562 -1.0243,-10.189 2.4576,-31.6896 11.9397,-43.6552 -22.2118,19.0145 -28.0641,35.9803 -27.9104,44.0276 0.1532,8.0482 12.5159,40.8376 12.5159,40.8376 z"
       id="path1367"
       inkscape:connector-curvature="0"
       inkscape:transform-center-x="-1.8067567"
       inkscape:transform-center-y="-52.12792"
       sodipodi:nodetypes="cscscc" />
    <path
       style="color:#000000;display:inline;overflow:visible;visibility:visible;fill:#ffffff;fill-opacity:1;fill-rule:nonzero;stroke:none;stroke-width:0.942339px;marker:none;enable-background:accumulate"
       d="m 344.6648,2688.4878 c -50.60513,0.5708 -102.02477,2.3063 -150.91773,20.2949 -24.12609,9.316 -47.03358,27.3632 -60.49879,54.6 -12.11064,24.5018 -15.32361,56.6281 -5.42591,83.1112 8.75364,24.5329 27.61742,42.3971 48.51963,47.9668 28.10941,10.2056 57.1283,15.7397 86.0694,20.7786 78.01441,12.397 157.66238,11.9336 235.13485,-5.7705 21.85061,-5.1737 43.84218,-13.5905 61.78001,-30.5738 14.41973,-13.2844 26.04566,-32.3192 29.75511,-54.5101 6.32949,-33.8827 -2.58454,-72.679 -24.7921,-94.5648 -16.09266,-15.7188 -36.4584,-21.9881 -56.17009,-26.5667 -32.93369,-7.3205 -66.38948,-9.7106 -99.71042,-12.6139 -21.2265,-1.4372 -42.48493,-2.2507 -63.74396,-2.1517 z"
       id="path4546-7"
       inkscape:connector-curvature="0"
       sodipodi:nodetypes="cssssc" />
    <path
       style="color:#000000;display:inline;overflow:visible;visibility:visible;fill:#ffffff;fill-opacity:1;fill-rule:nonzero;stroke:none;stroke-width:1.19696px;marker:none;enable-background:accumulate"
       d="m 310.18788,2871.5088 c -36.75155,0.8193 -73.91606,6.1732 -106.55052,25.8203 -20.02581,12.3925 -37.95681,31.8953 -47.19666,58.9224 -8.82074,25.1197 -10.76088,55.9717 -2.2461,83.9115 5.41775,18.3906 13.94152,35.8256 25.35073,49.1787 11.62296,11.6309 25.5354,17.2693 38.98433,22.6325 29.23224,10.8736 59.07258,15.5849 88.71862,19.397 23.15677,2.7322 46.33778,4.7959 69.40382,4.9702 20.00797,-0.5469 39.93308,-2.1609 59.65282,-5.0665 26.98454,-4.3287 53.88697,-12.519 76.78063,-30.4277 15.9711,-12.766 29.47845,-32.0208 34.43353,-56.6791 4.88964,-23.8613 3.25628,-50.3678 -2.92402,-74.9871 -5.91006,-22.2633 -18.17538,-42.0509 -33.60231,-54.5157 -21.79282,-18.2667 -46.87375,-25.5795 -71.22057,-30.7727 -30.3403,-6.2846 -60.74027,-8.3618 -91.0898,-11.2698 -12.85801,-0.9106 -25.70117,-1.3254 -38.4945,-1.114 z"
       id="path4546-6-5-4"
       inkscape:connector-curvature="0"
       sodipodi:nodetypes="cssssc" />
    <path
       style="color:#000000;display:inline;overflow:visible;visibility:visible;fill:#ffffff;fill-opacity:1;fill-rule:nonzero;stroke:none;stroke-width:0.94912px;marker:none;enable-background:accumulate"
       d="m 570.40008,2788.5105 c 0.70291,-20.5931 2.79564,-98.204 79.29359,-67.917 -12.96153,-15.3177 -101.3034,-57.4847 -117.55274,67.9555 -4.05901,31.3344 6.93857,21.4416 13.2428,23.8225 6.30431,2.3809 25.01635,-23.861 25.01635,-23.861 z"
       id="path4064-5"
       inkscape:connector-curvature="0"
       sodipodi:nodetypes="ccszc" />
    <path
       style="fill:#ffffff;stroke:none;stroke-width:0.725484"
       d="m 1428.2655,2688.1624 c -58.0834,0.8236 -116.4207,2.6825 -173.7921,12.2981 -21.6537,3.7776 -43.7905,8.6284 -62.5697,20.3862 -10.8392,6.793 -19.9068,16.308 -25.6919,27.6083 -9.8145,18.27 -13.465,39.3766 -12.168,59.8803 1.5475,20.2009 9.6362,40.4706 24.9897,54.4063 16.187,15.1248 37.5172,23.479 58.7831,29.1418 28.4791,7.3533 58.0132,9.3962 87.3193,10.7963 42.5132,1.645 85.0683,0.5312 127.5836,-0.4251 47.6957,-1.513 95.7728,-4.5821 142.1115,-16.4863 21.9735,-5.9264 43.9821,-13.9986 61.8116,-28.3021 11.4895,-9.5364 20.4328,-22.8652 21.9003,-37.8196 1.8775,-14.3832 0.4311,-29.0102 -2.4126,-43.1728 -4.771,-20.094 -16.7899,-38.6279 -34.0438,-50.58 -21.0175,-15.4035 -46.6649,-22.9877 -72.0536,-28.0772 -37.8081,-7.3746 -76.4631,-9.1702 -114.9198,-9.7363 -8.9497,-0.1058 -17.8986,-0.065 -26.8476,0.082 z"
       id="path3280-8-0"
       inkscape:connector-curvature="0"
       sodipodi:nodetypes="csssc" />
    <path
       style="color:#000000;display:inline;overflow:visible;visibility:visible;fill:#ffffff;fill-opacity:1;fill-rule:nonzero;stroke:none;stroke-width:1px;marker:none;enable-background:accumulate"
       d="m 1190.5649,2938.1193 c 71.9512,20.8726 126.9981,-3.0998 138.6013,-80.4717 29.2254,-33.921 39.4944,-8.1295 39.4944,-8.1295 0,0 9.6333,15.8558 9.2,26.1866 -1.6876,40.2341 -97.4111,114.3526 -187.2957,62.4146 z"
       id="path3072-7"
       inkscape:connector-curvature="0"
       sodipodi:nodetypes="cccsc" />
    <path
       style="fill:#ffffff;fill-rule:evenodd;stroke:none;stroke-width:1px;stroke-linecap:butt;stroke-linejoin:miter;stroke-opacity:1"
       d="m 611.87816,457.91854 c -12.3953,-22.626 4.8341,-35.579 4.6846,-49.244 -0.1543,-14.107 -33.2797,-25.956 -34.0153,-39.032 -0.7356,-13.076 20.5032,-26.957 19.032,-47.388 -1.4712,-20.432 -25.011,-24.518 -22.8041,-0.818 2.2069,23.701 -15.6571,27.839 -11.7699,46.584 6.483,31.261 30.8848,30.638 38.523,39.431 5.057,5.822 -4.6847,18.594 -2.4778,32.487 2.2069,13.894 8.8275,17.98 8.8275,17.98 z"
       id="path4272-2"
       inkscape:connector-curvature="0"
       sodipodi:nodetypes="csssssssc" />
    <path
       style="display:inline;fill:#ffffff;stroke:none;stroke-width:0.877336"
       d="M 395.5572,452.67668 C 407.56611,407.77396 413.32098,333.81277 360.54542,296.86263 333.08948,277.6397 320.11233,262.96148 320.11233,262.96148 l 22.24546,-19.14958 c 105.35115,77.35453 72.21397,163.85407 53.19941,208.86478 z"
       id="path3063-1-0"
       inkscape:connector-curvature="0"
       sodipodi:nodetypes="csccc" />
  </g>
  <g
     inkscape:groupmode="layer"
     id="layer1"
     inkscape:label="txt">
    <text
       id="text4246-4-2-7"
       y="195.79843"
       x="276.44409"
       style="font-style:normal;font-variant:normal;font-weight:normal;font-stretch:normal;line-height:0%;font-family:Lavi;-inkscape-font-specification:Lavi;text-align:center;letter-spacing:0px;word-spacing:0px;text-anchor:middle;fill:#000000;fill-opacity:1;stroke:none"
       xml:space="preserve"><tspan
         y="195.79843"
         x="276.44409"
         style="font-size:45px;line-height:1.25;fill:#000000"
         sodipodi:role="line"
         id="tspan2967">ona la </tspan><tspan
         y="252.04843"
         x="276.44409"
         style="font-size:45px;line-height:1.25;fill:#000000"
         sodipodi:role="line"
         id="tspan4853">seme li lon?</tspan></text>
    <text
       id="text4246-4-2-7-3"
       y="176.08881"
       x="626.43268"
       style="font-style:normal;font-variant:normal;font-weight:normal;font-stretch:normal;line-height:0%;font-family:Lavi;-inkscape-font-specification:Lavi;text-align:center;letter-spacing:0px;word-spacing:0px;text-anchor:middle;fill:#000000;fill-opacity:1;stroke:none"
       xml:space="preserve"><tspan
         y="176.08881"
         x="626.43268"
         style="font-size:45px;line-height:1.25;fill:#000000"
         sodipodi:role="line"
         id="tspan3727">jan Pepa o?</tspan><tspan
         y="232.33881"
         x="626.43268"
         style="font-size:45px;line-height:1.25;fill:#000000"
         sodipodi:role="line"
         id="tspan10316">sina pilin ala </tspan><tspan
         y="288.58881"
         x="626.43268"
         style="font-size:45px;line-height:1.25;fill:#000000"
         sodipodi:role="line"
         id="tspan2533">pilin pona?</tspan></text>
    <text
       id="text4246-4-2-7-3-5"
       y="216.69748"
       x="952.75238"
       style="font-style:normal;font-variant:normal;font-weight:normal;font-stretch:normal;line-height:0%;font-family:Lavi;-inkscape-font-specification:Lavi;text-align:center;letter-spacing:0px;word-spacing:0px;text-anchor:middle;fill:#000000;fill-opacity:1;stroke:none"
       xml:space="preserve"><tspan
         y="216.69748"
         x="952.75238"
         style="font-size:45px;line-height:1.25;fill:#000000"
         sodipodi:role="line"
         id="tspan17268">pilin.</tspan><tspan
         y="272.94748"
         x="952.75238"
         style="font-size:45px;line-height:1.25;fill:#000000"
         sodipodi:role="line"
         id="tspan3377">mi pona.</tspan></text>
    <text
       id="text4246-4-2-7-3-5-2"
       y="1200.4652"
       x="1030.8293"
       style="font-style:normal;font-variant:normal;font-weight:normal;font-stretch:normal;line-height:0%;font-family:Lavi;-inkscape-font-specification:Lavi;text-align:center;letter-spacing:0px;word-spacing:0px;text-anchor:middle;fill:#000000;fill-opacity:1;stroke:none"
       xml:space="preserve"><tspan
         y="1200.4652"
         x="1030.8293"
         style="font-size:45px;line-height:1.25;fill:#000000"
         sodipodi:role="line"
         id="tspan25929">pini la, mi </tspan><tspan
         y="1256.7152"
         x="1030.8293"
         style="font-size:45px;line-height:1.25;fill:#000000"
         sodipodi:role="line"
         id="tspan1783">kama sona </tspan><tspan
         y="1312.9652"
         x="1030.8293"
         style="font-size:45px;line-height:1.25;fill:#000000"
         sodipodi:role="line"
         id="tspan1785">e ijo.</tspan></text>
    <text
       id="text4246-4-2-7-3-5-2-2"
       y="1235.312"
       x="1834.1265"
       style="font-style:normal;font-variant:normal;font-weight:normal;font-stretch:normal;line-height:0%;font-family:Lavi;-inkscape-font-specification:Lavi;text-align:center;letter-spacing:0px;word-spacing:0px;text-anchor:middle;fill:#000000;fill-opacity:1;stroke:none"
       xml:space="preserve"><tspan
         y="1235.312"
         x="1834.1265"
         style="font-size:45px;line-height:1.25;fill:#000000"
         sodipodi:role="line"
         id="tspan1014">kama ale ni li kama tan ijo mi </tspan><tspan
         y="1291.562"
         x="1834.1265"
         style="font-size:45px;line-height:1.25;fill:#000000"
         sodipodi:role="line"
         id="tspan1020">tan kama pi pali mi tan wile mi... </tspan><tspan
         y="1347.812"
         x="1834.1265"
         style="font-size:45px;line-height:1.25;fill:#000000"
         sodipodi:role="line"
         id="tspan1016">tan sona mi anu sona ala mi...</tspan></text>
    <text
       id="text4246-4-2-7-3-5-2-2-6"
       y="1446.9945"
       x="1862.4454"
       style="font-style:normal;font-variant:normal;font-weight:normal;font-stretch:normal;line-height:0%;font-family:Lavi;-inkscape-font-specification:Lavi;text-align:center;letter-spacing:0px;word-spacing:0px;text-anchor:middle;fill:#000000;fill-opacity:1;stroke:none"
       xml:space="preserve"><tspan
         y="1446.9945"
         x="1862.4454"
         style="font-style:normal;font-variant:normal;font-weight:bold;font-stretch:normal;font-size:45px;line-height:1.25;font-family:Lavi;-inkscape-font-specification:Lavi;fill:#000000"
         sodipodi:role="line"
         id="tspan16620"><tspan
           id="tspan2743"
           style="font-style:normal;font-variant:normal;font-weight:normal;font-stretch:normal;font-size:45px;line-height:1.25;font-family:Lavi;-inkscape-font-specification:Lavi;fill:#000000">...a lukin la, mi kama </tspan></tspan><tspan
         y="1503.2445"
         x="1862.4454"
         style="font-style:normal;font-variant:normal;font-weight:bold;font-stretch:normal;font-size:45px;line-height:1.25;font-family:Lavi;-inkscape-font-specification:Lavi;fill:#000000"
         sodipodi:role="line"
         id="tspan2749"><tspan
   style="font-style:normal;font-variant:normal;font-weight:normal;font-stretch:normal;font-size:45px;line-height:1.25;font-family:Lavi;-inkscape-font-specification:Lavi;fill:#000000"
   id="tspan2751">e </tspan>mute suli!</tspan></text>
    <text
       id="text4246-4-2-7-3-5-2-2-6-7-2"
       y="1679.4132"
       x="256.14807"
       style="font-style:normal;font-variant:normal;font-weight:normal;font-stretch:normal;line-height:0%;font-family:Lavi;-inkscape-font-specification:Lavi;text-align:center;letter-spacing:0px;word-spacing:0px;text-anchor:middle;fill:#000000;fill-opacity:1;stroke:none"
       xml:space="preserve"><tspan
         y="1679.4132"
         x="256.14807"
         style="font-style:normal;font-variant:normal;font-weight:normal;font-stretch:normal;font-size:45px;line-height:1.25;font-family:Lavi;-inkscape-font-specification:Lavi;fill:#000000"
         sodipodi:role="line"
         id="tspan104696-2-8">a?</tspan></text>
    <text
       id="text4246-4-2-7-3-5-2-2-6-7-2-9"
       y="1764.6151"
       x="378.92795"
       style="font-style:normal;font-variant:normal;font-weight:normal;font-stretch:normal;line-height:0%;font-family:Lavi;-inkscape-font-specification:Lavi;text-align:center;letter-spacing:0px;word-spacing:0px;text-anchor:middle;fill:#000000;fill-opacity:1;stroke:none"
       xml:space="preserve"><tspan
         y="1764.6151"
         x="378.92795"
         style="font-style:normal;font-variant:normal;font-weight:normal;font-stretch:normal;font-size:45px;line-height:1.25;font-family:Lavi;-inkscape-font-specification:Lavi;fill:#000000"
         sodipodi:role="line"
         id="tspan1004">sina o toki e </tspan><tspan
         y="1820.8651"
         x="378.92795"
         style="font-style:normal;font-variant:normal;font-weight:normal;font-stretch:normal;font-size:45px;line-height:1.25;font-family:Lavi;-inkscape-font-specification:Lavi;fill:#000000"
         sodipodi:role="line"
         id="tspan1008">sona tawa mi.</tspan></text>
    <text
       id="text4246-4-2-7-3-5-2-2-6-7-2-9-3"
       y="1708.4771"
       x="897.13013"
       style="font-style:normal;font-variant:normal;font-weight:normal;font-stretch:normal;line-height:0%;font-family:Lavi;-inkscape-font-specification:Lavi;text-align:center;letter-spacing:0px;word-spacing:0px;text-anchor:middle;fill:#000000;fill-opacity:1;stroke:none"
       xml:space="preserve"><tspan
         y="1708.4771"
         x="897.13013"
         style="font-style:normal;font-variant:normal;font-weight:normal;font-stretch:normal;font-size:45px;line-height:1.25;font-family:Lavi;-inkscape-font-specification:Lavi;fill:#000000"
         sodipodi:role="line"
         id="tspan72039">toki o pini. </tspan><tspan
         y="1764.7271"
         x="897.13013"
         style="font-style:normal;font-variant:normal;font-weight:normal;font-stretch:normal;font-size:45px;line-height:1.25;font-family:Lavi;-inkscape-font-specification:Lavi;fill:#000000"
         sodipodi:role="line"
         id="tspan4930">mi lon ma utala.</tspan></text>
    <text
       id="text4246-4-2-7-3-5-2-2-6-7-2-9-3-2"
       y="1868.5121"
       x="910.66687"
       style="font-style:normal;font-variant:normal;font-weight:normal;font-stretch:normal;line-height:0%;font-family:Lavi;-inkscape-font-specification:Lavi;text-align:center;letter-spacing:0px;word-spacing:0px;text-anchor:middle;fill:#000000;fill-opacity:1;stroke:none"
       xml:space="preserve"><tspan
         y="1868.5121"
         x="910.66687"
         style="font-style:normal;font-variant:normal;font-weight:normal;font-stretch:normal;font-size:45px;line-height:1.25;font-family:Lavi;-inkscape-font-specification:Lavi;fill:#000000"
         sodipodi:role="line"
         id="tspan78621">mi tawa lon kon la, </tspan><tspan
         y="1924.7621"
         x="910.66687"
         style="font-style:normal;font-variant:normal;font-weight:normal;font-stretch:normal;font-size:45px;line-height:1.25;font-family:Lavi;-inkscape-font-specification:Lavi;fill:#000000"
         sodipodi:role="line"
         id="tspan5655">mi ken toki.</tspan></text>
    <text
       id="text4246-4-2-7-3-5-2-2-6-7-2-9-3-2-9"
       y="2008.9945"
       x="931.51813"
       style="font-style:normal;font-variant:normal;font-weight:normal;font-stretch:normal;line-height:0%;font-family:Lavi;-inkscape-font-specification:Lavi;text-align:center;letter-spacing:0px;word-spacing:0px;text-anchor:middle;fill:#000000;fill-opacity:1;stroke:none"
       xml:space="preserve"><tspan
         y="2008.9945"
         x="931.51813"
         style="font-style:normal;font-variant:normal;font-weight:normal;font-stretch:normal;font-size:45px;line-height:1.25;font-family:Lavi;-inkscape-font-specification:Lavi;fill:#000000"
         sodipodi:role="line"
         id="tspan184397-7">o kama, jan Pepa o!</tspan></text>
    <text
       id="text4246-4-2-7-3-5-2-2-6-7-2-9-3-2-9-8"
       y="2335.4099"
       x="1562.2986"
       style="font-style:normal;font-variant:normal;font-weight:normal;font-stretch:normal;line-height:0%;font-family:Lavi;-inkscape-font-specification:Lavi;text-align:center;letter-spacing:0px;word-spacing:0px;text-anchor:middle;fill:#000000;fill-opacity:1;stroke:none"
       xml:space="preserve"><tspan
         y="2335.4099"
         x="1562.2986"
         style="font-style:normal;font-variant:normal;font-weight:normal;font-stretch:normal;font-size:45px;line-height:1.25;font-family:Lavi;-inkscape-font-specification:Lavi;fill:#000000"
         sodipodi:role="line"
         id="tspan189870">jan Toleja li sona wawa.</tspan></text>
    <text
       id="text4246-4-2-7-3-5-2-2-6-7-2-9-3-2-9-8-3"
       y="2422.0747"
       x="1604.6317"
       style="font-style:normal;font-variant:normal;font-weight:normal;font-stretch:normal;line-height:0%;font-family:Lavi;-inkscape-font-specification:Lavi;text-align:center;letter-spacing:0px;word-spacing:0px;text-anchor:middle;fill:#000000;fill-opacity:1;stroke:none"
       xml:space="preserve"><tspan
         y="2422.0747"
         x="1604.6317"
         style="font-style:normal;font-variant:normal;font-weight:normal;font-stretch:normal;font-size:45px;line-height:1.25;font-family:Lavi;-inkscape-font-specification:Lavi;fill:#000000"
         sodipodi:role="line"
         id="tspan97393">mi o tawa </tspan><tspan
         y="2478.3247"
         x="1604.6317"
         style="font-style:normal;font-variant:normal;font-weight:normal;font-stretch:normal;font-size:45px;line-height:1.25;font-family:Lavi;-inkscape-font-specification:Lavi;fill:#000000"
         sodipodi:role="line"
         id="tspan7454">ma Tomopona. </tspan><tspan
         y="2534.5747"
         x="1604.6317"
         style="font-style:normal;font-variant:normal;font-weight:normal;font-stretch:normal;font-size:45px;line-height:1.25;font-family:Lavi;-inkscape-font-specification:Lavi;fill:#000000"
         sodipodi:role="line"
         id="tspan7452">ni taso li nasin.</tspan></text>
    <text
       id="text4246-4-2-7-3-5-2-2-6-7-2-9-3-2-9-8-5"
       y="2478.9375"
       x="2133.2007"
       style="font-style:normal;font-variant:normal;font-weight:normal;font-stretch:normal;line-height:0%;font-family:Lavi;-inkscape-font-specification:Lavi;text-align:center;letter-spacing:0px;word-spacing:0px;text-anchor:middle;fill:#000000;fill-opacity:1;stroke:none"
       xml:space="preserve"><tspan
         y="2478.9375"
         x="2133.2007"
         style="font-style:normal;font-variant:normal;font-weight:normal;font-stretch:normal;font-size:45px;line-height:1.25;font-family:Lavi;-inkscape-font-specification:Lavi;fill:#000000"
         sodipodi:role="line"
         id="tspan8558">o awen lili.</tspan></text>
    <text
       id="text4246-4-2-7-3-5-2-2-6-7-2-9-3-2-9-8-5-1"
       y="2749.7256"
       x="353.28015"
       style="font-style:normal;font-variant:normal;font-weight:normal;font-stretch:normal;line-height:0%;font-family:Lavi;-inkscape-font-specification:Lavi;text-align:center;letter-spacing:0px;word-spacing:0px;text-anchor:middle;fill:#000000;fill-opacity:1;stroke:none"
       xml:space="preserve"><tspan
         y="2749.7256"
         x="353.28015"
         style="font-style:normal;font-variant:normal;font-weight:normal;font-stretch:normal;font-size:45px;line-height:1.25;font-family:Lavi;-inkscape-font-specification:Lavi;fill:#000000"
         sodipodi:role="line"
         id="tspan14991">kulupu utala </tspan><tspan
         y="2805.9756"
         x="353.28015"
         style="font-style:normal;font-variant:normal;font-weight:normal;font-stretch:normal;font-size:45px;line-height:1.25;font-family:Lavi;-inkscape-font-specification:Lavi;fill:#000000"
         sodipodi:role="line"
         id="tspan14995">pi jan Wasapi li </tspan><tspan
         y="2862.2256"
         x="353.28015"
         style="font-style:normal;font-variant:normal;font-weight:normal;font-stretch:normal;font-size:45px;line-height:1.25;font-family:Lavi;-inkscape-font-specification:Lavi;fill:#000000"
         sodipodi:role="line"
         id="tspan14997">kama utala kin.</tspan></text>
    <text
       id="text4246-4-2-7-3-5-2-2-6-7-2-9-3-2-9-8-5-1-3"
       y="2968.9463"
       x="356.77548"
       style="font-style:normal;font-variant:normal;font-weight:normal;font-stretch:normal;line-height:0%;font-family:Lavi;-inkscape-font-specification:Lavi;text-align:center;letter-spacing:0px;word-spacing:0px;text-anchor:middle;fill:#000000;fill-opacity:1;stroke:none"
       xml:space="preserve"><tspan
         y="2968.9463"
         x="356.77548"
         style="font-style:normal;font-variant:normal;font-weight:normal;font-stretch:normal;font-size:45px;line-height:1.25;font-family:Lavi;-inkscape-font-specification:Lavi;fill:#000000"
         sodipodi:role="line"
         id="tspan166612">ona ale li moli la, </tspan><tspan
         y="3025.1963"
         x="356.77548"
         style="font-style:normal;font-variant:normal;font-weight:normal;font-stretch:normal;font-size:45px;line-height:1.25;font-family:Lavi;-inkscape-font-specification:Lavi;fill:#000000"
         sodipodi:role="line"
         id="tspan13986">ni li ike taso, </tspan><tspan
         y="3081.4463"
         x="356.77548"
         style="font-style:normal;font-variant:normal;font-weight:normal;font-stretch:normal;font-size:45px;line-height:1.25;font-family:Lavi;-inkscape-font-specification:Lavi;fill:#000000"
         sodipodi:role="line"
         id="tspan13988">li nasin mi ala.</tspan></text>
    <text
       id="text4246-4-2-7-3-5-2-2-6-7-2-9-3-2-9-8-5-1-3-6"
       y="2779.7092"
       x="1412.0334"
       style="font-style:normal;font-variant:normal;font-weight:normal;font-stretch:normal;line-height:0%;font-family:Lavi;-inkscape-font-specification:Lavi;text-align:center;letter-spacing:0px;word-spacing:0px;text-anchor:middle;fill:#000000;fill-opacity:1;stroke:none"
       xml:space="preserve"><tspan
         y="2779.7092"
         x="1412.0334"
         style="font-style:normal;font-variant:normal;font-weight:normal;font-stretch:normal;font-size:45px;line-height:1.25;font-family:Lavi;-inkscape-font-specification:Lavi;fill:#000000"
         sodipodi:role="line"
         id="tspan179595">pilin mi la, pini utala </tspan><tspan
         y="2835.9592"
         x="1412.0334"
         style="font-style:normal;font-variant:normal;font-weight:normal;font-stretch:normal;font-size:45px;line-height:1.25;font-family:Lavi;-inkscape-font-specification:Lavi;fill:#000000"
         sodipodi:role="line"
         id="tspan10255">o tan mi tan nasin mi.</tspan></text>
  </g>
</svg>
