<?xml version="1.0" encoding="UTF-8" standalone="no"?>
<!-- Created with Inkscape (http://www.inkscape.org/) -->

<svg
   xmlns:dc="http://purl.org/dc/elements/1.1/"
   xmlns:cc="http://creativecommons.org/ns#"
   xmlns:rdf="http://www.w3.org/1999/02/22-rdf-syntax-ns#"
   xmlns:svg="http://www.w3.org/2000/svg"
   xmlns="http://www.w3.org/2000/svg"
   xmlns:xlink="http://www.w3.org/1999/xlink"
   xmlns:sodipodi="http://sodipodi.sourceforge.net/DTD/sodipodi-0.dtd"
   xmlns:inkscape="http://www.inkscape.org/namespaces/inkscape"
   id="svg2"
   version="1.1"
   inkscape:version="0.92.2 (5c3e80d, 2017-08-06)"
   width="2481"
   height="3503"
   sodipodi:docname="E23P02.svg"
   inkscape:export-filename="E:\Users\jamesmichael\Downloads\Compressed\eps\ep23_Take-a-Chance_lang-pack\lang\ph\E23P02.png"
   inkscape:export-xdpi="90"
   inkscape:export-ydpi="90">
  <metadata
     id="metadata8">
    <rdf:RDF>
      <cc:Work
         rdf:about="">
        <dc:format>image/svg+xml</dc:format>
        <dc:type
           rdf:resource="http://purl.org/dc/dcmitype/StillImage" />
        <dc:title />
      </cc:Work>
    </rdf:RDF>
  </metadata>
  <defs
     id="defs6" />
  <sodipodi:namedview
     pagecolor="#ffffff"
     bordercolor="#666666"
     borderopacity="1"
     objecttolerance="10"
     gridtolerance="10"
     guidetolerance="10"
     inkscape:pageopacity="0"
     inkscape:pageshadow="2"
     inkscape:window-width="1600"
     inkscape:window-height="836"
     id="namedview4"
     showgrid="false"
     inkscape:zoom="0.20000001"
     inkscape:cx="905.66233"
     inkscape:cy="1126.5425"
     inkscape:window-x="0"
     inkscape:window-y="27"
     inkscape:window-maximized="1"
     inkscape:current-layer="layer3" />
  <g
     inkscape:groupmode="layer"
     id="layer2"
     inkscape:label="artwork"
     sodipodi:insensitive="true">
    <image
       sodipodi:absref="E:\Users\jamesmichael\Downloads\Compressed\eps\ep23_Take-a-Chance_lang-pack\lang\ph\../gfx_Pepper-and-Carrot_by-David-Revoy_E23P02.png"
       xlink:href="../gfx_Pepper-and-Carrot_by-David-Revoy_E23P02.png"
       y="0"
       x="0"
       id="image10"
       height="3503"
       width="2481" />
  </g>
  <g
     inkscape:groupmode="layer"
     id="layer3"
     inkscape:label="speechbubbles"
     style="opacity:1">
    <path
       style="color:#000000;display:inline;overflow:visible;visibility:visible;fill:#ffffff;fill-opacity:1;fill-rule:nonzero;stroke:none;stroke-width:1px;marker:none;enable-background:accumulate"
       d="m 1056.6617,1544.6311 c 30.6327,42.852 50.3775,130.4159 -7.4307,203.3705 -45.7796,57.7743 -109.62816,38.4694 -128.86906,7.6017 -19.2409,-30.8676 -21.0952,-129.0974 -10.2268,-174.2806 8.3903,-34.8811 28.1676,-73.1204 78.64596,-75.2282 20.6022,-0.8602 37.2479,-4.3154 67.8806,38.5366 z"
       id="path4040"
       inkscape:connector-curvature="0"
       sodipodi:nodetypes="zssssz" />
    <path
       style="opacity:1;fill:#ffffff;stroke:none;stroke-width:1.14791429"
       d="m 2185.0677,1941.4755 c 92.2735,5.1541 112.4763,48.5361 125.0862,70.0322 12.6104,21.4961 29.898,112.8367 28.2438,172.9017 -1.6545,60.0651 -6.8209,207.1775 -16.3553,231.5594 -19.5143,49.9033 -62.8458,99.4847 -122.2866,100.6 -59.4406,1.1154 -105.179,-13.8094 -140.5104,-49.1883 -35.3318,-35.3791 -51.6827,-163.7925 -52.5259,-259.7148 -0.5503,-62.5949 11.579,-134.0514 23.0947,-171.5593 22.2257,3.677 28.0192,1.8274 34.5478,-1.9481 0.9956,5.2771 33.2441,6.9716 42.6002,-1.3742 6.6326,-8.1725 5.2346,-12.231 16.1304,-29.8978 13.544,-15.4674 27.0556,-34.5968 45.9944,-60.3121 5.2469,-0.6492 10.5789,-1.0294 15.9807,-1.0987 z"
       id="path3278"
       inkscape:connector-curvature="0"
       sodipodi:nodetypes="ccssssscccccc" />
    <path
       style="color:#000000;display:inline;overflow:visible;visibility:visible;fill:#ffffff;fill-opacity:1;fill-rule:nonzero;stroke:none;stroke-width:1px;marker:none;enable-background:accumulate"
       d="m 2309.3519,1491.2431 c -3.3015,17.6285 -6.5251,36.0465 -16.5742,51.0265 -2.9438,4.1952 -6.2726,8.3203 -10.3977,11.2503 -4.952,2.0462 -10.5106,-0.1777 -14.1301,-3.9795 -5.5933,-5.1132 -9.4498,-12.8831 -16.8764,-15.4078 -5.4477,-1.7019 -10.2634,2.1026 -14.5741,4.918 -10.8499,7.4017 -20.7857,16.3852 -32.7316,21.9366 -13.0507,7.1639 -27.2917,13.7117 -42.4274,13.0803 -5.9858,-0.3542 -12.2078,-1.5951 -17.0927,-5.4909 -12.9618,-9.4069 -20.9954,-26.6382 -18.2647,-42.9738 2.6942,-10.2389 14.039,-17.6238 24.0122,-13.9292 5.2919,1.8685 8.551,7.1399 10.0291,12.4759 4.4744,9.2979 13.8589,15.3752 23.6608,16.4167 8.0767,0.9972 16.3468,-0.6515 23.6235,-4.2797 11.1725,-2.2031 18.6721,-11.736 27.1027,-18.7576 3.898,-3.1478 8.252,-6.2192 13.1972,-7.0722 7.3458,0.5316 12.2935,7.0789 15.8693,13.1143 3.8411,6.1272 7.6353,13.6796 14.9853,15.6694 4.9282,2.0936 8.0913,-3.4795 11.3841,-6.2587 9.4666,-10.3996 15.6617,-23.7734 18.8064,-37.6716 0.2044,-1.3481 0.3033,-2.7058 0.3983,-4.067 z"
       id="path4496"
       inkscape:connector-curvature="0" />
    <path
       style="color:#000000;display:inline;overflow:visible;visibility:visible;fill:#ffffff;fill-opacity:1;fill-rule:nonzero;stroke:none;stroke-width:1px;marker:none;enable-background:accumulate"
       d="m 331.54429,2658.32 c 47.7495,-8.7018 146.229,3.1609 135.7836,181.5492 -10.4452,178.3882 -30.4344,213.0656 -80.4768,224.9779 -42.4807,11.9124 -130.716,19.3747 -157.5752,-119.8551 -26.8591,-139.2299 26.067,-277.1891 102.2684,-286.672 z"
       id="path3525"
       inkscape:connector-curvature="0"
       sodipodi:nodetypes="cscsc" />
    <path
       style="fill:#ffffff;fill-rule:evenodd;stroke:none;stroke-width:1px;stroke-linecap:butt;stroke-linejoin:miter;stroke-opacity:1"
       d="m 1194.4784,3032.7957 c 0.9399,10.0872 -1.0538,10.6194 7.4887,17.9861 5.3864,4.645 55.4971,24.5806 111.8647,-24.2725 -60.9167,31.4127 -81.1572,20.4407 -93.2206,13.35 -1.7108,-62.4676 -90.8939,-5.8931 -90.8939,-5.8931 6.8233,-0.1198 49.7538,-18.8453 64.7611,-1.1705 z"
       id="path4316"
       inkscape:connector-curvature="0"
       sodipodi:nodetypes="cscccc" />
    <path
       style="color:#000000;display:inline;overflow:visible;visibility:visible;opacity:1;fill:#ffffff;fill-opacity:1;fill-rule:nonzero;stroke:none;stroke-width:0.9613083px;marker:none;enable-background:accumulate"
       d="m 621.21387,2675.0925 c 52.7471,8.642 84.2104,40.8532 95.3151,58.9229 11.1047,18.0696 24.0602,227.0493 25.9109,272.6163 0.42608,10.4906 0.80311,25.5618 0.73587,43.2483 -13.45782,0.6526 -21.64316,0.21 -23.33239,1.3993 -3.97772,2.8006 -17.19437,10.1157 -17.16616,11.863 0.2644,16.376 1.40924,42.296 5.87228,49.3707 2.06466,2.0584 12.05895,8.4582 14.68981,11.5033 2.09239,6.9936 3.31146,10.8396 3.28974,13.9328 -0.20042,28.5491 -0.93431,48.1368 -0.86144,71.9386 -3.5524,11.9567 -7.79158,22.7099 -12.84021,31.6497 -32.38856,57.3515 -75.8819,78.5636 -100.8673,79.3494 -24.9855,0.7857 -91.6136,-20.4266 -111.9722,-128.8446 -20.3586,-108.418 -28.5399,-217.2356 -24.8382,-258.8743 3.7014,-41.6388 10.8607,-183.8127 54.3539,-223.0946 43.4933,-39.2819 60.2471,-34.1951 91.7103,-34.9808 z"
       id="path5909"
       inkscape:connector-curvature="0"
       sodipodi:nodetypes="csscssccscsssssc" />
    <path
       style="opacity:1;fill:#ffffff;stroke:none;stroke-width:1.10932183"
       d="m 1965.899,2951.7516 c 29.3017,-1.6553 102.6552,28.0236 97.1377,172.7955 -5.5174,144.772 -37.748,190.0833 -89.8316,194.3258 -82.3948,6.7112 -104.4135,-69.4531 -110.5165,-178.8183 -6.2914,-112.7436 50.2671,-190.0528 103.2104,-188.303 z"
       id="path3280-8"
       inkscape:connector-curvature="0"
       sodipodi:nodetypes="csssc" />
  </g>
  <g
     inkscape:groupmode="layer"
     id="layer1"
     inkscape:label="txt">
    <text
       xml:space="preserve"
       style="font-style:normal;font-variant:normal;font-weight:normal;font-stretch:normal;line-height:0%;font-family:Lavi;-inkscape-font-specification:Lavi;text-align:center;letter-spacing:0px;word-spacing:0px;text-anchor:middle;fill:#000000;fill-opacity:1;stroke:none"
       x="990.51678"
       y="1628.8531"
       id="text4246"><tspan
         sodipodi:role="line"
         style="font-size:45px;line-height:1.25"
         x="990.51678"
         y="1628.8531"
         id="tspan4778">Salamat,</tspan><tspan
         sodipodi:role="line"
         style="font-size:45px;line-height:1.25"
         x="990.51678"
         y="1685.1031"
         id="tspan4815">Carrot</tspan><tspan
         sodipodi:role="line"
         style="font-size:45px;line-height:1.25"
         x="990.51678"
         y="1741.3531"
         id="tspan4811">...</tspan></text>
    <text
       xml:space="preserve"
       style="font-style:normal;font-variant:normal;font-weight:normal;font-stretch:normal;line-height:0%;font-family:Lavi;-inkscape-font-specification:Lavi;text-align:center;letter-spacing:0px;word-spacing:0px;text-anchor:middle;fill:#000000;fill-opacity:1;stroke:none"
       x="2167.834"
       y="2121.2717"
       id="text4246-3"><tspan
         sodipodi:role="line"
         style="font-size:45px;line-height:1.25"
         x="2175.7441"
         y="2121.2717"
         id="tspan427">Matino naman </tspan><tspan
         sodipodi:role="line"
         style="font-size:45px;line-height:1.25"
         x="2167.834"
         y="2177.5217"
         id="tspan4817">akong witch</tspan><tspan
         sodipodi:role="line"
         style="font-size:45px;line-height:1.25"
         x="2167.834"
         y="2233.7717"
         id="tspan4785">nagpapaka</tspan><tspan
         sodipodi:role="line"
         style="font-size:45px;line-height:1.25"
         x="2175.7441"
         y="2290.0217"
         id="tspan4819">hirap </tspan><tspan
         sodipodi:role="line"
         style="font-size:45px;line-height:1.25"
         x="2167.834"
         y="2346.2717"
         id="tspan4821">araw-araw</tspan><tspan
         sodipodi:role="line"
         style="font-size:45px;line-height:1.25"
         x="2167.834"
         y="2402.5217"
         id="tspan4787">magtrabaho</tspan><tspan
         sodipodi:role="line"
         style="font-size:45px;line-height:1.25"
         x="2175.7441"
         y="2458.7717"
         id="tspan4823">... </tspan></text>
    <text
       xml:space="preserve"
       style="font-style:normal;font-variant:normal;font-weight:normal;font-stretch:normal;line-height:0%;font-family:Lavi;-inkscape-font-specification:Lavi;text-align:center;letter-spacing:0px;word-spacing:0px;text-anchor:middle;fill:#000000;fill-opacity:1;stroke:none"
       x="345.62851"
       y="2793.5361"
       id="text4246-3-5"><tspan
         sodipodi:role="line"
         style="font-size:45px;line-height:1.25"
         x="345.62851"
         y="2793.5361"
         id="tspan440">sumu-</tspan><tspan
         sodipodi:role="line"
         style="font-size:45px;line-height:1.25"
         x="353.53867"
         y="2849.7861"
         id="tspan4796">sunod sa </tspan><tspan
         sodipodi:role="line"
         style="font-size:45px;line-height:1.25"
         x="353.53867"
         y="2906.0361"
         id="tspan4839">tradition, </tspan><tspan
         sodipodi:role="line"
         style="font-size:45px;line-height:1.25"
         x="345.62851"
         y="2962.2861"
         id="tspan4794">sa rules</tspan><tspan
         sodipodi:role="line"
         style="font-size:45px;line-height:1.25"
         x="345.62851"
         y="3018.5361"
         id="tspan4843">...</tspan></text>
    <text
       xml:space="preserve"
       style="font-style:normal;font-variant:normal;font-weight:normal;font-stretch:normal;line-height:0%;font-family:Lavi;-inkscape-font-specification:Lavi;text-align:center;letter-spacing:0px;word-spacing:0px;text-anchor:middle;fill:#000000;fill-opacity:1;stroke:none"
       x="605.79742"
       y="2865.2544"
       id="text4246-3-5-2"><tspan
         sodipodi:role="line"
         style="font-size:45px;line-height:1.25"
         x="613.70758"
         y="2865.2544"
         id="tspan449">Andaya </tspan><tspan
         sodipodi:role="line"
         style="font-size:45px;line-height:1.25"
         x="613.70758"
         y="2921.5044"
         id="tspan4825">ni Saffron </tspan><tspan
         sodipodi:role="line"
         style="font-size:45px;line-height:1.25"
         x="613.70758"
         y="2977.7544"
         id="tspan4803">kasi sumikat </tspan><tspan
         sodipodi:role="line"
         style="font-size:45px;line-height:1.25"
         x="613.70758"
         y="3034.0044"
         id="tspan4831">siya ng </tspan><tspan
         sodipodi:role="line"
         style="font-size:45px;line-height:1.25"
         x="605.79742"
         y="3090.2544"
         id="tspan4833">ganun</tspan><tspan
         sodipodi:role="line"
         style="font-size:45px;line-height:1.25"
         x="613.70758"
         y="3146.5044"
         id="tspan4805">-ganun </tspan><tspan
         sodipodi:role="line"
         style="font-size:45px;line-height:1.25"
         x="605.79742"
         y="3202.7544"
         id="tspan4835">lang</tspan></text>
    <text
       xml:space="preserve"
       style="font-style:normal;font-variant:normal;font-weight:normal;font-stretch:normal;line-height:0%;font-family:Lavi;-inkscape-font-specification:Lavi;text-align:center;letter-spacing:0px;word-spacing:0px;text-anchor:middle;fill:#000000;fill-opacity:1;stroke:none"
       x="1968.8689"
       y="3111.6296"
       id="text4246-3-5-2-2"><tspan
         sodipodi:role="line"
         style="font-size:45px;line-height:1.25"
         x="1968.8689"
         y="3111.6296"
         id="tspan455">Andaya-</tspan><tspan
         sodipodi:role="line"
         style="font-size:45px;line-height:1.25"
         x="1976.7791"
         y="3167.8796"
         id="tspan4845">daya </tspan><tspan
         sodipodi:role="line"
         style="font-size:45px;line-height:1.25"
         x="1968.8689"
         y="3224.1296"
         id="tspan4809">talaga.</tspan></text>
  </g>
</svg>
