<?xml version="1.0" encoding="UTF-8" standalone="no"?>
<svg
   xmlns:dc="http://purl.org/dc/elements/1.1/"
   xmlns:cc="http://creativecommons.org/ns#"
   xmlns:rdf="http://www.w3.org/1999/02/22-rdf-syntax-ns#"
   xmlns:svg="http://www.w3.org/2000/svg"
   xmlns="http://www.w3.org/2000/svg"
   xmlns:xlink="http://www.w3.org/1999/xlink"
   xmlns:sodipodi="http://sodipodi.sourceforge.net/DTD/sodipodi-0.dtd"
   xmlns:inkscape="http://www.inkscape.org/namespaces/inkscape"
   id="svg2"
   version="1.1"
   inkscape:version="1.0.2 (e86c870879, 2021-01-15)"
   width="2481"
   height="3503"
   sodipodi:docname="E04P01.svg">
  <metadata
     id="metadata8">
    <rdf:RDF>
      <cc:Work
         rdf:about="">
        <dc:format>image/svg+xml</dc:format>
        <dc:type
           rdf:resource="http://purl.org/dc/dcmitype/StillImage" />
        <dc:title />
      </cc:Work>
    </rdf:RDF>
  </metadata>
  <defs
     id="defs6" />
  <sodipodi:namedview
     pagecolor="#ffffff"
     bordercolor="#666666"
     borderopacity="1"
     objecttolerance="10"
     gridtolerance="10"
     guidetolerance="10"
     inkscape:pageopacity="0"
     inkscape:pageshadow="2"
     inkscape:window-width="1920"
     inkscape:window-height="1022"
     id="namedview4"
     showgrid="false"
     inkscape:zoom="0.67415015"
     inkscape:cx="1307.6771"
     inkscape:cy="2775.7383"
     inkscape:window-x="0"
     inkscape:window-y="28"
     inkscape:window-maximized="1"
     inkscape:current-layer="layer1"
     inkscape:document-rotation="0" />
  <g
     inkscape:groupmode="layer"
     id="layer2"
     inkscape:label="artwork"
     sodipodi:insensitive="true">
    <image
       sodipodi:absref="/home/cherry/Workspace/peppercarrot/webcomics/ep04_Stroke-of-genius/lang/gfx_Pepper-and-Carrot_by-David-Revoy_E04P01.png"
       xlink:href="../gfx_Pepper-and-Carrot_by-David-Revoy_E04P01.png"
       y="0"
       x="0"
       id="image10"
       height="3503"
       width="2481" />
  </g>
  <g
     inkscape:groupmode="layer"
     id="layer3"
     inkscape:label="speechbubbles">
    <path
       style="fill:#ffffff;stroke:none;stroke-width:1.01409px;stroke-linecap:butt;stroke-linejoin:miter;stroke-opacity:1"
       d="m 456.54801,2390.9875 c -5.37171,-38.6261 -10.74341,-117.4388 0,-134.6059 6.83672,0 18.06848,-0.3902 18.06848,-0.3902 l -10.74342,-21.0687 19.53349,5.0721 9.76675,-7.0229 -6.34839,-11.7048 17.58015,5.4622 8.79007,-11.3148 14.65012,8.1936 7.32506,-11.7049 16.11513,9.3639 29.78856,-5.0722 c 73.09795,-2.0674 145.37853,-5.2232 222.19347,-2.3409 l 23.4402,-7.4131 6.83671,10.9244 12.20843,0.3902 11.72009,-4.6819 11.72011,5.0721 39.06697,-3.5114 12.69678,10.1442 15.13845,-8.5836 4.88337,11.3147 15.13847,-7.0228 2.44168,7.413 36.13695,-8.5836 -5.3717,17.5572 c 0,0 26.85851,7.8034 45.90361,1.9508 1.9534,3.9018 -0.9766,10.9246 -0.9766,10.9246 l 9.7667,3.9017 v 10.1442 c 0,0 19.5335,13.2655 21.4869,16.777 1.9533,3.5114 6.3482,99.4913 -0.4884,114.7075 5.3717,0 8.7902,2.341 8.3018,4.682 -0.4883,2.341 -4.3951,8.9737 -4.3951,8.9737 0,0 5.3718,6.2425 3.9068,8.1933 -1.4651,1.951 -4.3951,4.6821 -4.3951,4.6821 0,0 4.8834,5.072 3.4182,6.6327 -1.4649,1.5606 -9.7666,4.2918 -13.1849,5.8524 3.9067,3.1213 7.325,9.7541 4.395,11.3148 -2.93,1.5605 -9.7667,2.731 -9.7667,2.731 l -2.4417,3.9017 c 0,0 -0.9767,7.8032 -3.4182,8.1934 -2.4419,0.3902 -12.697,-3.9017 -14.162,-3.1214 -1.465,0.7803 -5.3717,7.023 -7.8133,7.023 -2.4417,0 -10.2551,-7.4131 -10.2551,-7.4131 -1.0437,1.6676 -130.0069,4.4661 -140.64118,2.7312 -10.69876,-1.7455 -52.74042,2.341 -58.60048,2.341 -5.86003,0 -30.27691,-1.1705 -33.69526,-1.9509 -3.41837,-0.7803 -17.0918,-3.5115 -21.97518,-3.1213 -4.88337,0.3901 -14.16178,4.2918 -19.53349,4.2918 -5.37171,0 -36.13695,-2.341 -41.99701,-1.9508 -5.86004,0.3902 -32.71859,1.9508 -37.11363,1.9508 -4.39503,0 -53.7171,-4.2918 -59.08881,-4.682 -5.37171,-0.3901 -28.8119,3.9017 -33.20693,3.5115 -4.39504,-0.3901 -29.30024,-3.9016 -37.11364,-3.5115 -7.81338,0.3902 -37.11362,-5.0721 -39.06698,-4.6819 -1.95335,0.3902 -4.90312,0.7795 -22.95185,0 9.27841,-5.8524 6.34839,-10.9245 6.34839,-10.9245 l -6.83672,-3.1214 0.97666,-3.5114 -14.16178,-5.8524 1.95335,-4.2917 0.97668,-7.0231 -14.16179,-5.4622 22.46352,-15.6065 z"
       id="path3894"
       inkscape:connector-curvature="0"
       sodipodi:nodetypes="cccccccccccccccccccccccccccccccscscccccsccssscssssssssssscccccccccc" />
    <path
       style="fill:#ffffff;stroke:none;stroke-width:1px;stroke-linecap:butt;stroke-linejoin:miter;stroke-opacity:1;color:#000000;fill-opacity:1;fill-rule:nonzero;marker:none;visibility:visible;display:inline;overflow:visible;enable-background:accumulate"
       d="m 818.04625,2447.3394 c 1.81385,78.9025 3.6277,268.4498 28.11468,311.9822 24.48697,43.5324 33.55622,70.7401 98.85481,79.8094 -68.92629,-32.6493 -89.78557,-105.2033 -96.13404,-230.3589 -6.34847,-125.1557 43.5324,-212.2205 43.5324,-212.2205 l -68.01937,-3.6277 z"
       id="path3896"
       inkscape:connector-curvature="0" />
    <path
       style="color:#000000;display:inline;overflow:visible;visibility:visible;fill:#ffffff;fill-opacity:1;fill-rule:nonzero;stroke:none;stroke-width:0.985574px;marker:none;enable-background:accumulate"
       d="m 680.74732,2529.857 c 12.23687,-3.3617 12.23687,-10.0848 7.13818,-18.6757 3.56909,-0.3735 15.80595,1.8676 13.76646,-4.1086 3.05923,-0.747 7.13818,-0.747 4.58883,-5.6028 3.56909,-0.3735 13.76647,1.494 11.21713,-3.3617 6.6283,-1.1205 68.83236,-2.6145 91.26661,-0.747 22.43424,1.8677 82.59883,0.3736 88.71726,0 6.11842,-0.3735 53.02641,0 57.10537,0 4.07895,0 20.39475,4.1087 25.49346,6.3498 7.64804,-2.9881 17.33555,-1.8675 17.33555,-1.8675 0,0 0,12.6995 1.52961,13.82 1.52962,1.1205 9.17762,-1.8675 10.70732,0 1.5296,1.8675 -10.70732,13.073 -9.1777,13.4465 1.5296,0.3735 13.7665,4.4821 13.7665,5.9762 0,1.494 -9.6875,8.5908 -9.1777,8.9642 0.5099,0.3735 8.1579,5.2293 7.1382,9.3379 9.1777,1.4941 13.7665,5.2292 16.3158,7.8437 -4.0789,4.8558 -13.7665,9.338 -15.8059,11.9525 2.5494,4.4822 9.1776,10.4585 7.6479,12.326 -1.5296,1.8676 -8.6677,1.4941 -13.7664,-0.7469 2.0395,5.6026 1.5296,50.4241 -7.64802,66.8588 2.54932,3.7351 7.13812,6.3497 8.15792,10.0849 1.0197,3.7351 -2.0395,9.7113 -1.5296,11.5788 0.5098,1.8677 4.5888,8.2174 4.079,11.2055 -0.51,2.988 -2.5494,5.9762 -5.6086,7.8437 -0.5099,2.9881 2.0394,5.2293 -0.5099,5.9764 -2.5493,0.747 -12.74674,-3.3618 -15.29608,-2.6147 -2.54935,0.747 -0.50986,10.8319 -3.05921,12.6994 -2.54935,1.8677 -57.61524,6.7233 -69.8521,2.6147 -12.74673,-0.747 -107.07255,15.3141 -146.3325,8.9643 -4.58881,-0.7469 -3.56907,-3.3617 -7.13815,-4.1087 -3.5691,-0.747 -5.60858,1.8677 -13.25661,1.1206 -6.6283,-3.7351 -15.29608,-4.1087 -29.06255,-22.0374 -4.58882,0 -12.23686,1.8676 -13.25661,-1.1205 -1.01974,-2.9881 0.50987,-5.2292 0.50987,-5.2292 0,0 -5.0987,1.1206 -5.60856,-1.1206 -0.50987,-2.2409 6.62831,-8.2171 6.11844,-9.3376 -0.50988,-1.1207 -14.78622,2.2409 -15.29608,-0.3737 -0.50987,-2.6145 5.60855,-8.9642 5.09869,-10.8319 -0.50988,-1.8675 -25.49347,-30.6281 -17.33556,-118.0301 4.07896,-1.1207 8.15791,-2.2412 7.64804,-3.7353 -0.50987,-1.494 -6.62831,-4.4821 -6.62831,-4.4821 z"
       id="path3915"
       inkscape:connector-curvature="0" />
    <path
       style="color:#000000;fill:#ffffff;fill-opacity:1;fill-rule:nonzero;stroke:none;stroke-width:1px;marker:none;visibility:visible;display:inline;overflow:visible;enable-background:accumulate"
       d="m 2161.9635,2759.6873 c 75.5442,-65.8317 129.3057,-115.4309 140.8923,-189.8298 11.5865,-74.3988 -1.8538,-91.5331 -5.5615,-100.5511 -12.977,1.8036 -33.8327,13.978 -38.0039,19.3888 1.8539,-19.8397 -11.5865,-82.5151 -31.9788,-107.3147 -20.3923,-24.7996 -39.3943,-7.6653 -39.3943,-7.6653 0,0 61.177,94.6894 55.1519,157.8157 12.0501,-12.6253 34.7597,-36.974 40.3212,-32.465 5.5615,4.5091 8.3423,64.9299 -3.7077,92.4349 -12.05,27.5051 -38.9308,101.9039 -117.7192,168.1865 z"
       id="path3923"
       inkscape:connector-curvature="0" />
    <path
       style="color:#000000;display:inline;overflow:visible;visibility:visible;fill:#ffffff;fill-opacity:1;fill-rule:nonzero;stroke:none;stroke-width:0.984909px;stroke-linecap:butt;stroke-linejoin:miter;stroke-opacity:1;marker:none;enable-background:accumulate"
       d="m 1846.2,2346.3151 c 0,0 37.5681,7.5199 43.5312,11.5691 5.9632,4.0492 29.8159,-2.8923 -3.5779,43.3842 33.9901,-15.0399 60.8244,-31.2367 73.3471,-29.5013 -5.3668,11.5691 -11.33,26.609 -11.33,26.609 0,0 31.0085,-12.1476 36.9717,-11.5691 -1.789,5.2061 2.3853,15.6182 2.3853,15.6182 l 16.1005,-2.3137 4.7706,13.8829 c 0,0 64.4023,-24.2952 72.1544,-21.4029 7.7522,2.8923 -3.5779,33.5505 -3.5779,33.5505 l 17.2933,-12.1476 8.3484,0.5784 20.2748,-19.6675 6.5595,10.9907 4.7705,-4.0492 9.5411,4.6277 22.6601,-16.7753 7.7521,1.7354 19.6785,26.609 10.7338,-12.1476 5.3668,-0.5785 35.1828,1.157 2.3852,-2.8923 5.9632,-1.157 8.3485,-5.7844 4.7705,-13.3046 h 10.1374 l 20.2748,12.1476 9.5411,8.0984 7.1558,-19.6675 4.1742,-2.3138 1.1927,-12.1476 23.2564,9.2553 7.1558,5.7846 1.7889,-10.4122 7.7522,-0.5786 14.3116,4.0493 15.5043,10.9906 23.2564,12.1476 -35.1828,-44.5411 -8.3484,-8.0983 30.4122,-8.0984 v -92.5529 l -11.9264,-127.2603 -519.3928,6.363 -13.119,83.8761 0.5963,74.6208 -2.9816,24.8736 26.238,8.6769 -25.6417,13.3044 16.1006,9.2552 z"
       id="path3931"
       inkscape:connector-curvature="0" />
  </g>
  <g
     inkscape:groupmode="layer"
     id="layer1"
     inkscape:label="txt">
    <flowRoot
       xml:space="preserve"
       id="flowRoot45"
       style="font-style:normal;font-variant:normal;font-weight:normal;font-stretch:normal;line-height:1.25;font-family:'Xiaolai SC';-inkscape-font-specification:'Xiaolai SC';letter-spacing:0px;word-spacing:0px;fill:#000000;fill-opacity:1;stroke:none"
       transform="matrix(1.2905944,0,0,1.2905944,3.8693941,-214.63133)"><flowRegion
         id="flowRegion39"
         style="font-style:normal;font-variant:normal;font-weight:normal;font-stretch:normal;font-family:'Xiaolai SC';-inkscape-font-specification:'Xiaolai SC'"><rect
           id="rect37"
           width="973.52362"
           height="213.03587"
           x="120.55251"
           y="265.53046"
           style="font-style:normal;font-variant:normal;font-weight:normal;font-stretch:normal;font-family:'Xiaolai SC';-inkscape-font-specification:'Xiaolai SC';" /></flowRegion><flowPara
         id="flowPara41"
         style="font-style:normal;font-variant:normal;font-weight:normal;font-stretch:normal;font-size:48px;font-family:'Xiaolai SC';-inkscape-font-specification:'Xiaolai SC'">물藥大會前날 밤</flowPara><flowPara
         id="flowPara43"
         style="font-style:normal;font-variant:normal;font-weight:normal;font-stretch:normal;font-size:48px;font-family:'Xiaolai SC';-inkscape-font-specification:'Xiaolai SC'">          午前2月</flowPara></flowRoot>
    <flowRoot
       xml:space="preserve"
       id="flowRoot57"
       style="font-style:normal;font-variant:normal;font-weight:normal;font-stretch:normal;line-height:1.25;font-family:'Xiaolai SC';-inkscape-font-specification:'Xiaolai SC';text-align:center;letter-spacing:0px;word-spacing:0px;text-anchor:middle;fill:#000000;fill-opacity:1;stroke:none"
       transform="matrix(0.94349931,0,0,0.95546902,323.53537,1995.6296)"><flowRegion
         id="flowRegion49"
         style="font-style:normal;font-variant:normal;font-weight:normal;font-stretch:normal;font-family:'Xiaolai SC';-inkscape-font-specification:'Xiaolai SC'"><rect
           id="rect47"
           width="668.70251"
           height="280.06534"
           x="120.55251"
           y="265.53046"
           style="font-style:normal;font-variant:normal;font-weight:normal;font-stretch:normal;font-family:'Xiaolai SC';-inkscape-font-specification:'Xiaolai SC';text-align:center;text-anchor:middle" /></flowRegion><flowPara
         style="font-style:normal;font-variant:normal;font-weight:normal;font-stretch:normal;font-size:48px;font-family:'Xiaolai SC';-inkscape-font-specification:'Xiaolai SC';text-align:center;text-anchor:middle"
         id="flowPara51">드디어...</flowPara><flowPara
         style="font-style:normal;font-variant:normal;font-weight:normal;font-stretch:normal;font-size:48px;font-family:'Xiaolai SC';-inkscape-font-specification:'Xiaolai SC';text-align:center;text-anchor:middle"
         id="flowPara53"> 이 물藥이면, 사프란도, 아니</flowPara><flowPara
         style="font-style:normal;font-variant:normal;font-weight:normal;font-stretch:normal;font-size:48px;font-family:'Xiaolai SC';-inkscape-font-specification:'Xiaolai SC';text-align:center;text-anchor:middle"
         id="flowPara55">아무도 나를 이길 수 없어!</flowPara></flowRoot>
    <flowRoot
       xml:space="preserve"
       id="flowRoot69"
       style="font-style:normal;font-variant:normal;font-weight:normal;font-stretch:normal;line-height:1.25;font-family:'Xiaolai SC';-inkscape-font-specification:'Xiaolai SC';text-align:center;letter-spacing:0px;word-spacing:0px;text-anchor:middle;fill:#000000;fill-opacity:1;stroke:none"
       transform="matrix(0.87761387,0,0,0.86276071,476.06325,2300.7494)"><flowRegion
         id="flowRegion61"
         style="font-style:normal;font-variant:normal;font-weight:normal;font-stretch:normal;font-family:'Xiaolai SC';-inkscape-font-specification:'Xiaolai SC'"><rect
           id="rect59"
           width="602.40173"
           height="310.73996"
           x="120.55251"
           y="265.53046"
           style="font-style:normal;font-variant:normal;font-weight:normal;font-stretch:normal;font-family:'Xiaolai SC';-inkscape-font-specification:'Xiaolai SC';text-align:center;text-anchor:middle;" /></flowRegion><flowPara
         style="font-style:normal;font-variant:normal;font-weight:normal;font-stretch:normal;font-size:48px;font-family:'Xiaolai SC';-inkscape-font-specification:'Xiaolai SC';text-align:center;text-anchor:middle"
         id="flowPara63">이제 누구한테</flowPara><flowPara
         style="font-style:normal;font-variant:normal;font-weight:normal;font-stretch:normal;font-size:48px;font-family:'Xiaolai SC';-inkscape-font-specification:'Xiaolai SC';text-align:center;text-anchor:middle"
         id="flowPara65">實驗을 해봐야</flowPara><flowPara
         style="font-style:normal;font-variant:normal;font-weight:normal;font-stretch:normal;font-size:48px;font-family:'Xiaolai SC';-inkscape-font-specification:'Xiaolai SC';text-align:center;text-anchor:middle"
         id="flowPara67">하는데...</flowPara></flowRoot>
    <flowRoot
       xml:space="preserve"
       id="flowRoot79"
       style="font-style:normal;font-variant:normal;font-weight:normal;font-stretch:normal;line-height:1.25;font-family:'Xiaolai SC';-inkscape-font-specification:'Xiaolai SC';text-align:center;letter-spacing:0px;word-spacing:0px;text-anchor:middle;fill:#000000;fill-opacity:1;stroke:none"
       transform="matrix(1.1077562,0,0,1.1056376,1658.231,1904.198)"><flowRegion
         id="flowRegion73"
         style="font-style:normal;font-variant:normal;font-weight:normal;font-stretch:normal;font-family:'Xiaolai SC';-inkscape-font-specification:'Xiaolai SC'"><rect
           id="rect71"
           width="602.40173"
           height="310.73996"
           x="120.55251"
           y="265.53046"
           style="font-style:normal;font-variant:normal;font-weight:normal;font-stretch:normal;font-family:'Xiaolai SC';-inkscape-font-specification:'Xiaolai SC';text-align:center;text-anchor:middle;" /></flowRegion><flowPara
         style="font-style:normal;font-variant:normal;font-weight:normal;font-stretch:normal;font-size:48px;font-family:'Xiaolai SC';-inkscape-font-specification:'Xiaolai SC';text-align:center;text-anchor:middle"
         id="flowPara75">다아아앙~</flowPara><flowPara
         style="font-style:normal;font-variant:normal;font-weight:normal;font-stretch:normal;font-size:48px;font-family:'Xiaolai SC';-inkscape-font-specification:'Xiaolai SC';text-align:center;text-anchor:middle"
         id="flowPara77">~그으으은아아아아!!!</flowPara></flowRoot>
  </g>
</svg>
