<?xml version="1.0" encoding="UTF-8" standalone="no"?>
<!-- Created with Inkscape (http://www.inkscape.org/) -->

<svg
   xmlns:dc="http://purl.org/dc/elements/1.1/"
   xmlns:cc="http://creativecommons.org/ns#"
   xmlns:rdf="http://www.w3.org/1999/02/22-rdf-syntax-ns#"
   xmlns:svg="http://www.w3.org/2000/svg"
   xmlns="http://www.w3.org/2000/svg"
   xmlns:xlink="http://www.w3.org/1999/xlink"
   xmlns:sodipodi="http://sodipodi.sourceforge.net/DTD/sodipodi-0.dtd"
   xmlns:inkscape="http://www.inkscape.org/namespaces/inkscape"
   id="svg2"
   version="1.1"
   inkscape:version="0.92.2 2405546, 2018-03-11"
   width="2481"
   height="3503"
   sodipodi:docname="E19P03.svg">
  <metadata
     id="metadata8">
    <rdf:RDF>
      <cc:Work
         rdf:about="">
        <dc:format>image/svg+xml</dc:format>
        <dc:type
           rdf:resource="http://purl.org/dc/dcmitype/StillImage" />
        <dc:title />
      </cc:Work>
    </rdf:RDF>
  </metadata>
  <defs
     id="defs6">
    <filter
       inkscape:collect="always"
       style="color-interpolation-filters:sRGB"
       id="filter4290"
       x="-0.0263734"
       width="1.0527468"
       y="-0.063105625"
       height="1.1262112">
      <feGaussianBlur
         inkscape:collect="always"
         stdDeviation="4.2854759"
         id="feGaussianBlur4292" />
    </filter>
  </defs>
  <sodipodi:namedview
     pagecolor="#ffffff"
     bordercolor="#666666"
     borderopacity="1"
     objecttolerance="10"
     gridtolerance="10"
     guidetolerance="10"
     inkscape:pageopacity="0"
     inkscape:pageshadow="2"
     inkscape:window-width="1920"
     inkscape:window-height="1024"
     id="namedview4"
     showgrid="false"
     inkscape:zoom="1.8233696"
     inkscape:cx="1852.9957"
     inkscape:cy="831.82473"
     inkscape:window-x="0"
     inkscape:window-y="24"
     inkscape:window-maximized="1"
     inkscape:current-layer="layer3" />
  <g
     inkscape:groupmode="layer"
     id="layer2"
     inkscape:label="artwork"
     sodipodi:insensitive="true">
    <image
       sodipodi:absref="/home/nightlock/peppercarrot/webcomics/ep19_Pollution/lang/kr/../gfx_Pepper-and-Carrot_by-David-Revoy_E19P03.png"
       xlink:href="../gfx_Pepper-and-Carrot_by-David-Revoy_E19P03.png"
       y="0"
       x="0"
       id="image10"
       height="3503"
       width="2481" />
  </g>
  <g
     inkscape:groupmode="layer"
     id="layer3"
     inkscape:label="speechbubbles">
    <path
       style="opacity:0.818;fill:#3797aa;stroke:none;fill-opacity:1;filter:url(#filter4290)"
       d="m 757.91682,547.95632 c 10.78775,5.37741 19.14955,14.84596 30.44219,19.31347 26.21575,11.72459 54.23131,20.44572 82.82199,21.46258 10.78006,0.6048 21.21295,-2.34223 30.72486,-7.53313 15.9811,-3.99025 32.62516,-0.14466 48.6511,2.006 21.85331,3.29662 46.23501,7.6202 65.96104,-5.90477 15.7206,-9.41707 25.9773,-25.65792 39.6794,-37.58852 11.2841,-7.55869 25.5178,-8.20778 36.8078,-16.0064 18.802,-10.84366 25.4032,-40.16031 13.3989,-58.77952 -12.5261,-16.64496 -33.8685,-20.78182 -52.6216,-23.96589 -18.5842,-2.02486 -37.1278,-4.43636 -55.69153,-6.57322 -25.0718,-1.39125 -50.20928,-0.10049 -75.17639,2.399 -27.62546,1.09595 -53.76233,-14.92426 -81.54597,-10.02392 -14.88451,0.43368 -29.85614,-0.34389 -44.5288,2.99063 -17.47363,2.31042 -34.44978,9.82459 -46.7547,23.45666 -10.72674,10.01983 -22.34354,20.30342 -26.79001,35.32555 -5.22782,17.81668 15.23603,50.37977 34.62172,59.42148 z"
       id="path3250-3-6"
       inkscape:connector-curvature="0"
       sodipodi:nodetypes="ccccccccccccccccc" />
    <path
       style="opacity:0.81800005;fill:#3797aa;stroke:none;filter:url(#filter4290);fill-opacity:1;color:#000000;clip-rule:nonzero;display:inline;overflow:visible;visibility:visible;isolation:auto;mix-blend-mode:normal;color-interpolation:sRGB;color-interpolation-filters:linearRGB;solid-color:#000000;solid-opacity:1;fill-rule:nonzero;stroke-width:1;stroke-linecap:butt;stroke-linejoin:miter;stroke-miterlimit:4;stroke-dasharray:none;stroke-dashoffset:0;stroke-opacity:1;filter-blend-mode:normal;filter-gaussianBlur-deviation:0;color-rendering:auto;image-rendering:auto;shape-rendering:auto;text-rendering:auto;enable-background:accumulate"
       d="m 1713.1988,426.91208 c 1.4311,23.08058 -31.5228,28.65986 -39.0016,35.27672 -7.4788,6.61681 -34.7137,19.36411 -47.313,23.47432 -12.5993,4.11007 -54.1865,5.71364 -69.508,-3.10449 -15.3214,-8.81856 -56.575,3.0863 -79.4461,-0.85361 -22.8711,-3.93974 -34.2593,-19.51277 -44.4205,-27.12235 -10.1612,-7.60996 -22.8977,-8.44486 -22.9034,-42.18095 -0.01,-33.7362 61.4125,-31.20206 73.9721,-34.01391 12.5596,-2.81194 43.878,-25.27207 62.5183,-22.99886 18.6403,2.27328 50.0961,13.32507 67.6964,15.61629 17.6004,2.29123 12.1966,-2.16778 44.4804,3.75648 14.8354,2.72237 24.7667,10.88933 29.8076,15.99249 5.0408,5.10314 22.6866,13.0773 24.1178,36.15787 z"
       id="path3250-3"
       inkscape:connector-curvature="0"
       sodipodi:nodetypes="zssszsssssssz" />
    <path
       style="color:#000000;clip-rule:nonzero;display:inline;overflow:visible;visibility:visible;opacity:0.81800011;isolation:auto;mix-blend-mode:normal;color-interpolation:sRGB;color-interpolation-filters:linearRGB;solid-color:#000000;solid-opacity:1;fill:#3797aa;fill-opacity:1;fill-rule:nonzero;stroke:none;stroke-width:0.96210748;stroke-linecap:butt;stroke-linejoin:miter;stroke-miterlimit:4;stroke-dasharray:none;stroke-dashoffset:0;stroke-opacity:1;filter:url(#filter4290);color-rendering:auto;image-rendering:auto;shape-rendering:auto;text-rendering:auto;enable-background:accumulate"
       d="m 1833.2394,820.46626 c -2.5264,-31.97778 36.2035,-38.91224 44.7995,-47.89133 8.596,-8.979 38.1934,-42.72495 52.9295,-48.11249 14.7361,-5.38734 65.9259,10.14118 84.3461,22.71154 18.42,12.57096 72.2946,-14.60357 99.4573,-8.60433 27.1627,5.99903 35.6123,39.50796 47.8923,50.28243 12.28,10.77498 27.3572,12.23477 28.5853,58.92575 1.228,46.69117 -71.4235,41.71658 -86.1597,45.30814 -14.7361,3.59166 -59.5243,25.89015 -81.6284,22.29869 -22.1041,-3.59156 -51.0646,-11.60067 -71.9408,-15.19213 -20.8761,-3.59156 -56.5509,17.58353 -70.059,3.21729 -13.5081,-14.36684 -12.2801,-25.14152 -18.4202,-32.32473 -6.14,-7.18322 -27.2755,-18.64104 -29.8019,-50.61883 z"
       id="path3250"
       inkscape:connector-curvature="0"
       sodipodi:nodetypes="zssszsssssssz"
       transform="matrix(0.99418775,0,0,0.96286814,146.26486,159.76597)" />
    <path
       style="color:#000000;display:inline;overflow:visible;visibility:visible;fill:#ffffff;fill-opacity:1;fill-rule:nonzero;stroke:none;stroke-width:0.90826803px;marker:none;enable-background:accumulate"
       d="m 1277.3558,1636.0613 c -22.7223,-21.7501 -35.0374,-29.9459 -5.1928,-55.5427 -39.1894,7.4396 -15.1236,-9.441 -5.4457,-20.7897 -43.0366,15.9892 -30.9753,-4.8025 -19.9665,-18.7163 -12.4893,10.5819 -35.9018,20.2395 -15.1417,-6.2922 -8.9118,8.6269 -36.9824,30.3647 -25.547,-1.4768 -9.4401,12.0752 -13.9742,17.9629 -11.8401,3.2811 -6.2629,8.5614 -8.9162,7.5732 -8.816,-1.8835 -18.4934,20.9989 -7.4082,2.0999 -6.9767,-3.2035 -11.6022,17.1054 -17.5436,11.4455 -14.2989,2.3118 -5.7627,9.1055 -22.5471,9.3255 -22.8213,0.068 -6.6708,8.571 -12.9699,9.6308 -21.4386,-0.7476 -2.5373,3.8132 -4.8636,10.3085 -8.1721,4.3116 -3.4066,2.0045 -6.8364,7.2224 -10.1907,2.0621 -35.9434,19.6894 -51.9805,10.3684 -68.6323,-4.8628 3.7807,10.3216 8.4396,26.0939 -31.5779,1.8447 12.8595,26.772 -0.8626,24.1352 -25.0139,11.4479 15.17285,11.3705 15.91155,17.7224 -19.41797,11.5339 24.58711,9.4982 47.24017,18.9667 8.95834,27.4992 8.92419,3.7581 38.24143,-4.3095 5.82527,38.5439 24.46914,-8.5054 56.42596,-5.6873 49.66246,27.3849 13.6951,-14.7365 34.0053,-43.7505 36.5697,8.6963 9.2123,-30.3637 22.6408,-34.032 30.5458,-2.489 2.0102,-11.9484 16.6675,-30.0954 36.0986,3.5125 -5.7882,-13.7638 -3.404,-40.2822 21.8702,1.0754 -1.2091,-6.9755 -12.5066,-52.1065 54.938,1.5833 -30.9538,-44.0242 -32.0077,-17.9468 56.9759,47.4709 -108.8274,-93.8738 -19.2399,-78.052 4.6885,-61.3139 -27.4497,-27.1459 -15.2236,-33.2975 14.3574,-15.3093 z"
       id="path3549"
       inkscape:connector-curvature="0"
       sodipodi:nodetypes="cccccccccccccccccccccccccccccc" />
    <path
       style="color:#000000;display:inline;overflow:visible;visibility:visible;fill:#ffffff;fill-opacity:1;fill-rule:nonzero;stroke:#ffffff;stroke-width:6.88463116;stroke-miterlimit:4;stroke-dasharray:none;stroke-dashoffset:0;stroke-opacity:1;marker:none;enable-background:accumulate"
       d="m 1694.0627,2668.0205 c 3.9884,-44.1619 37.4414,-74.9573 121.6468,-62.4356 45.105,6.7071 96.3868,12.1825 91.0689,76.9024 -5.3179,64.72 -79.1036,59.3901 -94.3926,60.1516 -15.2889,0.7614 -94.4726,-9.9802 -107.6872,-32.7408 -8.2721,-14.2475 -11.3006,-28.1721 -10.6359,-41.8776 z"
       id="path4546-6"
       inkscape:connector-curvature="0"
       sodipodi:nodetypes="cssssc" />
    <path
       style="color:#000000;display:inline;overflow:visible;visibility:visible;fill:#ffffff;fill-opacity:1;fill-rule:nonzero;stroke:none;stroke-width:1px;marker:none;enable-background:accumulate"
       d="m 1827.4084,2846.6353 c -38.9829,-24.3744 -35.2819,-89.0806 -37.3787,-128.9314 -2.9638,-56.3326 1.3429,-30.7581 1.3429,-30.7581 l -8.5494,-20.5266 c -7.1172,-2.1741 -33.277,154.0001 44.5852,180.2161 z"
       id="path3072-1"
       inkscape:connector-curvature="0"
       sodipodi:nodetypes="csccc" />
  </g>
  <g
     inkscape:groupmode="layer"
     id="layer1"
     inkscape:label="txt">
    <text
       id="text881"
       y="495.32761"
       x="912.91571"
       style="font-style:normal;font-variant:normal;font-weight:normal;font-stretch:normal;font-size:15.72609901px;line-height:100%;font-family:'Nanum Pen Script OTF';-inkscape-font-specification:'Nanum Pen Script OTF';text-align:center;letter-spacing:0px;word-spacing:0px;text-anchor:middle;fill:#ffffff;fill-opacity:1;stroke:none;stroke-width:1.31050825"
       xml:space="preserve"><tspan
         id="tspan879"
         y="495.32761"
         x="912.91571"
         style="font-style:normal;font-variant:normal;font-weight:normal;font-stretch:normal;font-size:58.97286987px;line-height:100%;font-family:'Nanum Pen Script OTF';-inkscape-font-specification:'Nanum Pen Script OTF';fill:#ffffff;stroke-width:1.31050825"
         sodipodi:role="line">실패작은 파묻는</tspan><tspan
         y="554.30048"
         x="912.91571"
         style="font-style:normal;font-variant:normal;font-weight:normal;font-stretch:normal;font-size:58.97286987px;line-height:100%;font-family:'Nanum Pen Script OTF';-inkscape-font-specification:'Nanum Pen Script OTF';fill:#ffffff;stroke-width:1.31050825"
         sodipodi:role="line"
         id="tspan927">것이다</tspan></text>
    <text
       id="text887"
       y="442.79932"
       x="1561.7833"
       style="font-style:normal;font-variant:normal;font-weight:normal;font-stretch:normal;font-size:15.01914978px;line-height:100%;font-family:'Nanum Pen Script OTF';-inkscape-font-specification:'Nanum Pen Script OTF';text-align:center;letter-spacing:0px;word-spacing:0px;text-anchor:middle;fill:#ffffff;fill-opacity:1;stroke:none;stroke-width:1.25159585"
       xml:space="preserve"><tspan
         id="tspan885"
         y="442.79932"
         x="1561.7833"
         style="font-style:normal;font-variant:normal;font-weight:normal;font-stretch:normal;font-size:56.32181168px;line-height:100%;font-family:'Nanum Pen Script OTF';-inkscape-font-specification:'Nanum Pen Script OTF';fill:#ffffff;stroke-width:1.25159585"
         sodipodi:role="line">태초부터</tspan></text>
    <text
       id="text897"
       y="936.5434"
       x="2143.0754"
       style="font-style:normal;font-variant:normal;font-weight:normal;font-stretch:normal;font-size:15.5539465px;line-height:100%;font-family:'Nanum Pen Script OTF';-inkscape-font-specification:'Nanum Pen Script OTF';text-align:center;letter-spacing:0px;word-spacing:0px;text-anchor:middle;fill:#ffffff;fill-opacity:1;stroke:none;stroke-width:1.29616213"
       xml:space="preserve"><tspan
         id="tspan895"
         y="936.5434"
         x="2143.0754"
         style="font-style:normal;font-variant:normal;font-weight:normal;font-stretch:normal;font-size:58.32729721px;line-height:100%;font-family:'Nanum Pen Script OTF';-inkscape-font-specification:'Nanum Pen Script OTF';fill:#ffffff;stroke-width:1.29616213"
         sodipodi:role="line">우리의</tspan><tspan
         y="994.87067"
         x="2143.0754"
         style="font-style:normal;font-variant:normal;font-weight:normal;font-stretch:normal;font-size:58.32729721px;line-height:100%;font-family:'Nanum Pen Script OTF';-inkscape-font-specification:'Nanum Pen Script OTF';fill:#ffffff;stroke-width:1.29616213"
         sodipodi:role="line"
         id="tspan937">전통이었고</tspan></text>
    <text
       id="text903"
       y="1617.4948"
       x="1124.1283"
       style="font-style:normal;font-variant:normal;font-weight:normal;font-stretch:normal;font-size:19.57930374px;line-height:100%;font-family:'Nanum Pen Script OTF';-inkscape-font-specification:'Nanum Pen Script OTF';text-align:center;letter-spacing:0px;word-spacing:0px;text-anchor:middle;fill:#000000;fill-opacity:1;stroke:none;stroke-width:1.63160872"
       xml:space="preserve"><tspan
         id="tspan901"
         y="1617.4948"
         x="1124.1283"
         style="font-style:normal;font-variant:normal;font-weight:normal;font-stretch:normal;font-size:73.4223938px;line-height:100%;font-family:'Nanum Pen Script OTF';-inkscape-font-specification:'Nanum Pen Script OTF';stroke:#000000;stroke-width:1.63160872;stroke-opacity:1"
         sodipodi:role="line">그거였어!</tspan></text>
    <text
       transform="matrix(0.95684986,-0.26535014,0.03415032,1.0356256,0,0)"
       id="text907"
       y="3309.0447"
       x="1306.4213"
       style="font-style:normal;font-variant:normal;font-weight:normal;font-stretch:normal;font-size:13.42298317px;line-height:100%;font-family:'Nanum Pen Script OTF';-inkscape-font-specification:'Nanum Pen Script OTF';text-align:center;letter-spacing:0px;word-spacing:0px;text-anchor:middle;fill:#000000;fill-opacity:1;stroke:none;stroke-width:1.11858189"
       xml:space="preserve"><tspan
         id="tspan905"
         y="3309.0447"
         x="1306.4213"
         style="font-style:normal;font-variant:normal;font-weight:normal;font-stretch:normal;font-size:35.36931992px;line-height:100%;font-family:'Nanum Pen Script OTF';-inkscape-font-specification:'Nanum Pen Script OTF';stroke-width:1.11858189"
         sodipodi:role="line">쿨쿨쿨</tspan></text>
    <text
       id="text917"
       y="2668.4504"
       x="1801.0024"
       style="font-style:normal;font-variant:normal;font-weight:normal;font-stretch:normal;font-size:15.31097984px;line-height:100%;font-family:'Nanum Pen Script OTF';-inkscape-font-specification:'Nanum Pen Script OTF';text-align:center;letter-spacing:0px;word-spacing:0px;text-anchor:middle;fill:#000000;fill-opacity:1;stroke:none;stroke-width:1.27591491"
       xml:space="preserve"><tspan
         y="2668.4504"
         x="1801.0024"
         style="font-style:normal;font-variant:normal;font-weight:normal;font-stretch:normal;font-size:47.59194183px;line-height:100%;font-family:'Nanum Pen Script OTF';-inkscape-font-specification:'Nanum Pen Script OTF';stroke-width:1.27591491"
         sodipodi:role="line"
         id="tspan953">얼른, 당근,</tspan><tspan
         id="tspan915"
         y="2716.0425"
         x="1807.6486"
         style="font-style:normal;font-variant:normal;font-weight:normal;font-stretch:normal;font-size:47.59194183px;line-height:100%;font-family:'Nanum Pen Script OTF';-inkscape-font-specification:'Nanum Pen Script OTF';stroke-width:1.27591491"
         sodipodi:role="line">더 빨리! </tspan></text>
  </g>
</svg>
