<?xml version="1.0" encoding="UTF-8" standalone="no"?>
<!-- Created with Inkscape (http://www.inkscape.org/) -->

<svg
   xmlns:dc="http://purl.org/dc/elements/1.1/"
   xmlns:cc="http://creativecommons.org/ns#"
   xmlns:rdf="http://www.w3.org/1999/02/22-rdf-syntax-ns#"
   xmlns:svg="http://www.w3.org/2000/svg"
   xmlns="http://www.w3.org/2000/svg"
   xmlns:xlink="http://www.w3.org/1999/xlink"
   xmlns:sodipodi="http://sodipodi.sourceforge.net/DTD/sodipodi-0.dtd"
   xmlns:inkscape="http://www.inkscape.org/namespaces/inkscape"
   id="svg2"
   version="1.1"
   inkscape:version="0.92.4 5da689c313, 2019-01-14"
   width="2481"
   height="3503"
   sodipodi:docname="E19P05.svg">
  <metadata
     id="metadata8">
    <rdf:RDF>
      <cc:Work
         rdf:about="">
        <dc:format>image/svg+xml</dc:format>
        <dc:type
           rdf:resource="http://purl.org/dc/dcmitype/StillImage" />
        <dc:title />
      </cc:Work>
    </rdf:RDF>
  </metadata>
  <defs
     id="defs6">
    <linearGradient
       inkscape:collect="always"
       id="linearGradient1094">
      <stop
         style="stop-color:#241c1c;stop-opacity:1;"
         offset="0"
         id="stop1090" />
      <stop
         style="stop-color:#241c1c;stop-opacity:0;"
         offset="1"
         id="stop1092" />
    </linearGradient>
    <filter
       inkscape:collect="always"
       style="color-interpolation-filters:sRGB"
       id="filter4436"
       x="-0.009420248"
       width="1.0188405"
       y="-0.0097332714"
       height="1.0194665">
      <feGaussianBlur
         inkscape:collect="always"
         stdDeviation="0.80032609"
         id="feGaussianBlur4438" />
    </filter>
    <filter
       style="color-interpolation-filters:sRGB"
       id="filter4375-4-1-1-1-9"
       inkscape:label="deevad outline effect">
      <feFlood
         id="feFlood4377-7-9-0-8-1"
         flood-opacity="1"
         flood-color="rgb(0,0,0)"
         result="flood" />
      <feComposite
         id="feComposite4379-3-8-8-2-77"
         in2="SourceGraphic"
         in="flood"
         operator="in"
         result="composite1" />
      <feMorphology
         id="feMorphology4393-1-0-49-8-9"
         operator="dilate"
         radius="4"
         result="result3" />
      <feComposite
         id="feComposite4385-9-5-7-0-8"
         in2="result3"
         in="SourceGraphic"
         operator="over"
         result="composite2" />
    </filter>
    <linearGradient
       inkscape:collect="always"
       xlink:href="#linearGradient1094"
       id="linearGradient1096"
       x1="1265.8401"
       y1="3167.614"
       x2="1374.185"
       y2="3167.614"
       gradientUnits="userSpaceOnUse" />
  </defs>
  <sodipodi:namedview
     pagecolor="#ffffff"
     bordercolor="#666666"
     borderopacity="1"
     objecttolerance="10"
     gridtolerance="10"
     guidetolerance="10"
     inkscape:pageopacity="0"
     inkscape:pageshadow="2"
     inkscape:window-width="1920"
     inkscape:window-height="1001"
     id="namedview4"
     showgrid="false"
     inkscape:zoom="0.68701325"
     inkscape:cx="1195.4762"
     inkscape:cy="2807.3818"
     inkscape:window-x="0"
     inkscape:window-y="45"
     inkscape:window-maximized="1"
     inkscape:current-layer="layer1" />
  <g
     inkscape:groupmode="layer"
     id="layer2"
     inkscape:label="artwork"
     sodipodi:insensitive="true">
    <image
       sodipodi:absref="/home/ambernite/peppercarrot/webcomics/ep19_Pollution/lang/kr/../gfx_Pepper-and-Carrot_by-David-Revoy_E19P05.png"
       xlink:href="../gfx_Pepper-and-Carrot_by-David-Revoy_E19P05.png"
       y="0"
       x="0"
       id="image10"
       height="3503"
       width="2481" />
  </g>
  <g
     inkscape:groupmode="layer"
     id="layer3"
     inkscape:label="speechbubbles">
    <path
       style="color:#000000;display:inline;overflow:visible;visibility:visible;fill:#ffffff;fill-opacity:1;fill-rule:nonzero;stroke:none;stroke-width:0.86196363px;marker:none;enable-background:accumulate"
       d="m 259.02207,224.99712 c 5.31714,-54.27296 58.6688,-94.01413 195.28274,-83.89742 73.17779,5.41901 156.32131,8.94936 149.38228,88.45484 -6.93911,79.50539 -126.50272,77.54326 -151.22911,79.41926 -24.72641,1.8761 -153.16649,-6.37328 -175.14179,-33.40164 -13.75604,-16.91902 -19.01674,-33.76705 -18.29412,-50.57504 z"
       id="path4546"
       inkscape:connector-curvature="0"
       sodipodi:nodetypes="cssssc" />
    <path
       style="color:#000000;display:inline;overflow:visible;visibility:visible;fill:#ffffff;fill-opacity:1;fill-rule:nonzero;stroke:none;stroke-width:0.85999006px;marker:none;enable-background:accumulate"
       d="m 363.52356,393.75525 c 3.0931,-71.19865 81.86564,-76.35068 110.3726,-77.6029 14.07143,0.36932 94.97283,-6.49317 163.45756,-2.64655 68.48472,3.84661 125.09191,13.86324 128.80276,65.77999 6.40551,89.61659 -43.38974,74.49677 -103.30188,81.3127 -59.91212,6.81593 -129.20325,1.14928 -161.05161,2.24528 -62.81338,2.16159 -142.91657,6.22324 -138.27943,-69.08852 z"
       id="path3145"
       inkscape:connector-curvature="0"
       sodipodi:nodetypes="ccssssc" />
    <path
       style="color:#000000;display:inline;overflow:visible;visibility:visible;fill:#ffffff;fill-opacity:1;fill-rule:nonzero;stroke:none;stroke-width:1px;marker:none;enable-background:accumulate"
       d="m 446.27152,300.25044 c 18.72085,42.63412 151.10363,129.12034 165.81283,143.73771 14.70919,14.61736 73.7025,51.80706 97.77206,55.46145 24.06968,3.65429 34.61383,-5.53274 55.60142,-7.98778 12.78199,-1.49519 17.18619,22.92918 50.77997,17.07051 -42.14888,-6.98958 -22.50416,-29.88571 -64.91129,-24.54594 -12.88206,1.62207 -29.12682,8.03372 -50.16944,-3.7592 -55.77193,-31.25628 -135.87479,-117.85288 -157.27,-121.50717 -21.39521,-3.6544 -71.63519,-52.34757 -71.63519,-68.18304 0,-15.83557 -25.98036,9.71346 -25.98036,9.71346 z"
       id="path4562"
       inkscape:connector-curvature="0"
       sodipodi:nodetypes="cssscssssc" />
    <path
       style="color:#000000;display:inline;overflow:visible;visibility:visible;fill:#ffffff;fill-opacity:1;fill-rule:nonzero;stroke:none;stroke-width:1.00066304px;marker:none;enable-background:accumulate"
       d="m 1814.5465,505.4144 c 7.7846,-70.66162 47.1687,-97.04891 172.3345,-93.16261 160.7851,4.99224 248.4038,-15.04107 250.0793,117.99505 1.3113,104.11655 -166.4502,95.87002 -196.2914,97.08832 -29.8412,1.21842 -186.0001,-5.01914 -208.578,-40.5951 -15.0023,-23.63915 -18.842,-59.3961 -17.5444,-81.32566 z"
       id="path4546-6"
       inkscape:connector-curvature="0"
       sodipodi:nodetypes="cssssc" />
    <path
       style="color:#000000;display:inline;overflow:visible;visibility:visible;fill:#ffffff;fill-opacity:1;fill-rule:nonzero;stroke:none;stroke-width:1px;marker:none;enable-background:accumulate"
       d="m 1701.8598,502.58041 c 34.2355,-19.71173 54.3987,3.34417 62.5308,8.32687 8.132,4.9827 37.4163,23.21994 64.0425,5.43127 26.6264,-17.78869 62.8269,-3.31025 62.8269,-3.31025 l -39.1174,27.48072 c 0,0 -38.4369,7.20044 -59.7592,-0.984 -21.3223,-8.18441 -44.9876,-30.85789 -56.2316,-33.04337 -11.2438,-2.1855 -22.2733,-7.94404 -34.292,-3.90124 z"
       id="path4018"
       inkscape:connector-curvature="0" />
    <path
       style="fill:#ffffff;fill-rule:evenodd;stroke:none;stroke-width:1px;stroke-linecap:butt;stroke-linejoin:miter;stroke-opacity:1"
       d="m 588.40376,914.65231 c 3.19663,-13.63689 11.80483,-23.98359 21.17352,-30.89066 4.45851,-3.33465 9.55466,-5.77835 14.76954,-5.13556 5.18067,0.38408 10.24092,2.67713 15.47891,1.88067 6.36924,-0.26307 12.85031,-1.41081 19.14642,0.2292 5.59702,1.78949 11.36355,2.71628 17.13927,2.77002 4.07461,-1.13586 7.80313,1.89157 11.44199,3.70231 3.26677,1.95593 6.60351,4.00801 9.3474,7.03352 2.52795,4.24716 5.55485,7.9421 8.11232,12.15145 1.67342,2.30123 1.51263,5.47984 1.43554,8.42157 -0.21734,6.02406 -0.58538,12.14319 -1.95147,17.94685 -0.81749,3.68454 -3.8391,4.90391 -6.16085,6.59704 -5.49361,3.57416 -11.32711,6.28455 -16.57007,10.49061 -5.19427,2.15366 -10.71435,1.1463 -16.04131,0.82083 -4.46364,-0.64109 -8.95383,-1.53507 -13.45583,-0.78954 -5.72997,0.54557 -11.44255,1.95821 -17.19303,1.77726 -7.20377,-1.24165 -14.10302,-4.29889 -21.08408,-6.75135 -6.26328,-2.16161 -11.97173,-6.2263 -17.44914,-10.57451 -2.92584,-2.46919 -6.02317,-5.33924 -7.05575,-9.88965 -0.84645,-3.13334 -1.04589,-6.48839 -1.08338,-9.79006 z"
       id="path4365"
       inkscape:connector-curvature="0" />
    <path
       style="fill:#ffffff;stroke:none"
       d="m 585.80257,1016.9897 c 25.0585,-22.43253 22.34002,-27.88279 18.28192,-33.62356 -4.05789,-5.74087 -9.0117,-10.26487 -5.47683,-15.76954 3.53471,-5.50448 11.83641,-12.20928 18.64507,-16.88605 6.80865,-4.67676 -0.15106,-6.98609 -1.33267,-11.71084 -1.18153,-4.72486 8.47495,-35.26533 8.47495,-35.26533 0,0 18.8861,11.27031 21.85273,16.73523 2.96681,5.46474 4.10423,7.43623 4.14842,10.18949 0.044,2.75343 -1.45956,10.07055 -7.37678,15.64632 -5.91727,5.57568 -12.97777,12.61891 -18.44474,16.52839 -5.46711,3.90944 -14.50851,8.27169 -13.27858,13.63411 1.23003,5.36237 10.23798,8.00805 0.82597,18.96164 -8.0678,9.38924 -26.31946,21.56014 -26.31946,21.56014 z"
       id="path3023-2"
       inkscape:connector-curvature="0"
       sodipodi:nodetypes="csssscssssssc" />
    <path
       style="fill:#ffffff;stroke:none"
       d="m 949.42522,906.90798 c -0.56464,-16.47336 17.65795,-62.04816 95.76038,-56.80467 78.1024,5.24349 102.2046,24.00836 103.9101,53.30904 2.6982,46.35286 -38.6713,57.58421 -97.7876,59.38885 -60.94248,1.86043 -98.54997,-14.22681 -101.88288,-55.89322 z"
       id="path3280"
       inkscape:connector-curvature="0"
       sodipodi:nodetypes="csssc" />
    <path
       style="color:#000000;display:inline;overflow:visible;visibility:visible;fill:#ffffff;fill-opacity:1;fill-rule:nonzero;stroke:none;stroke-width:0.90984666px;marker:none;enable-background:accumulate"
       d="m 1218.3058,940.40717 c 75.0509,1.42865 153.0998,10.12228 173.0015,28.02326 40.3234,36.26957 21.7902,100.54727 -21.3784,120.70057 -43.1684,20.1534 -182.7927,26.7409 -242.6275,19.3173 -54.644,-6.7797 -105.0342,-26.3211 -109.6485,-84.4534 12.3439,-101.91047 144.222,-84.50068 200.6529,-83.58773 z"
       id="path4040-6"
       inkscape:connector-curvature="0"
       sodipodi:nodetypes="cssscc" />
    <path
       style="color:#000000;display:inline;overflow:visible;visibility:visible;fill:#ffffff;fill-opacity:1;fill-rule:nonzero;stroke:none;stroke-width:1px;marker:none;enable-background:accumulate"
       d="m 1290.3321,1173.7871 c 19.4758,-56.0536 -15.5086,-73.6442 -35.8993,-79.8259 -46.2488,-14.0212 -31.454,-39.2745 -31.454,-39.2745 l 33.7545,-1.1746 c 0,0 85.1517,57.8008 33.5988,120.275 z"
       id="path3072"
       inkscape:connector-curvature="0"
       sodipodi:nodetypes="csccc" />
    <path
       inkscape:connector-curvature="0"
       style="color:#000000;display:inline;overflow:visible;visibility:visible;fill:#ffffff;fill-opacity:1;fill-rule:nonzero;stroke:none;stroke-width:0.9357931px;marker:none;enable-background:accumulate"
       d="m 2366.6919,1966.2135 -65.1948,40.9457 -1.0281,-13.9326 -21.3281,10.0139 c -86.6777,-16.473 -198.0523,-17.3754 -285.5991,-10.5631 l -23.7486,-10.5265 -4.1822,13.0398 c -3.9965,0.4115 -7.9497,0.8342 -11.801,1.2777 l -25.7076,-12.9358 2.491,15.9285 c -0.4804,0.069 -0.9531,0.1388 -1.4302,0.2084 l -35.8247,-14.5206 5.7601,19.6878 c -1.725,0.3504 -3.4142,0.7037 -5.0614,1.0614 l -45.2911,-30.5823 16.9913,38.5265 c -2.8142,1.0814 -5.2517,2.1785 -7.3334,3.2888 l -27.2455,-12.69 14.6125,21.5559 c -2.7637,2.1035 -5.3785,4.1618 -7.8878,6.1888 l -21.4302,-3.6697 10.2394,11.5697 c -20.7902,19.6943 -31.787,40.9612 -31.3655,61.0029 0.084,4.0228 0.4278,7.9289 0.9984,11.7314 l -12.715,4.2583 15.9594,9.5328 c 1.4671,4.512 4.7192,18.8179 6.8973,23.0066 l -16.2357,7.6423 19.3911,8.5696 -21.7171,13.1849 45.398,-5.72 c 0.6311,0.5188 1.2798,1.0289 1.9247,1.5413 l -55.6587,27.8443 73.7326,-8.9772 -36.1686,29.371 71.8934,-15.6625 -20.5296,19.1229 54.5948,-6.8618 4.1167,0.087 c 12.1945,3.9874 27.3695,4.1488 40.5319,7.6821 89.5207,6.9093 198.7975,15.832 293.4125,1.8453 l 45.5797,17.1382 -18.7576,-21.5257 c 1.0007,-0.1839 6.6847,-1.1769 7.6717,-1.3623 l 47.3726,25.4923 -9.4038,-19.7745 45.9012,18.2165 -27.7449,-34.2898 25.4753,10.5841 -17.4537,-17.379 c 2.1919,-0.9108 4.376,-1.8682 6.5511,-2.8704 l 23.795,5.3914 -14.4027,-10.0428 c 3.6301,-1.9232 7.2053,-3.9641 10.6955,-6.1249 l 37.0221,8.9415 -19.4185,-21.4667 c 2.1387,-1.7497 4.2204,-3.5437 6.2238,-5.3856 l 28.3791,0.9506 -12.0378,-19.373 c 19.9365,-28.4652 21.2828,-63.6138 -18.7086,-98.6036 l -20.0962,-29.0037 -18.6974,2.5731 16.5956,-21.3845 -30.9118,9.9495 11.3271,-24.5583 -33.3009,16.005 z"
       id="path4040-0"
       sodipodi:nodetypes="ccccccccccccccccccccccccccccccccccccccccccccccccccccccccccccccccccc" />
    <path
       style="fill:#ffffff;fill-rule:evenodd;stroke:none;stroke-width:1px;stroke-linecap:butt;stroke-linejoin:miter;stroke-opacity:1"
       d="m 1731.8549,2318.594 120.8192,-66.2832 -29.5759,-16.5028 85.742,-43.3793 -33.6402,-26.9702 -85.496,68.298 33.0867,19.9442 z"
       id="path4667"
       inkscape:connector-curvature="0"
       sodipodi:nodetypes="cccccccc" />
    <path
       style="color:#000000;display:inline;overflow:visible;visibility:visible;fill:#ffffff;fill-opacity:1;fill-rule:nonzero;stroke:none;stroke-width:1px;marker:none;enable-background:accumulate"
       d="m 351.86277,3013.5705 c -3.83833,-24.6348 6.39721,-90.0708 85.0833,-84.6819 78.68602,5.3888 91.48056,36.1822 93.39969,45.4202 1.9192,9.2381 18.55201,61.5869 -42.86148,75.444 -61.41355,13.857 -116.42977,-0.7699 -135.62151,-36.1823 z"
       id="path3525-3"
       inkscape:connector-curvature="0" />
    <path
       style="color:#000000;display:inline;overflow:visible;visibility:visible;fill:#ffffff;fill-opacity:1;fill-rule:nonzero;stroke:none;stroke-width:0.9214828px;marker:none;enable-background:accumulate"
       d="m 429.91581,3080.207 c -4.82069,-23.6599 8.03445,-86.5065 106.85883,-81.3308 98.82431,5.1755 114.89337,34.7504 117.30367,43.6228 2.41039,8.8725 23.30007,59.1498 -53.83111,72.4585 -77.13124,13.3087 -146.22787,-0.7394 -170.33139,-34.7505 z"
       id="path3525"
       inkscape:connector-curvature="0" />
    <path
       style="fill:#ffffff;stroke:none"
       d="m 776.83633,3175.8359 c -44.62498,5.3378 -48.87324,-16.857 -54.0967,-32.1561 -5.22349,-15.2991 -11.0824,-20.5456 -20.74361,-24.9442 -9.6612,-4.3986 -33.88162,-7.782 -44.47409,-6.2556 -10.5926,1.5264 -4.87351,-12.4886 -10.52472,-22.0949 -5.65131,-9.6062 -47.54922,-52.2623 -47.54922,-52.2623 0,0 3.4134,45.1382 8.94731,58.4623 5.5339,13.3241 7.48813,18.2238 11.18512,22.9303 3.69708,4.7066 14.53763,14.9729 25.78771,16.1963 11.25004,1.2234 22.42429,-3.0138 31.13833,-3.9792 8.71399,-0.9656 20.03664,6.8038 26.52017,17.5528 6.48353,10.749 24.88779,32.9147 43.24472,32.9979 18.35692,0.083 30.56498,-6.4473 30.56498,-6.4473 z"
       id="path3023"
       inkscape:connector-curvature="0"
       sodipodi:nodetypes="csssscssssssc" />
    <path
       style="color:#000000;display:inline;overflow:visible;visibility:visible;fill:#ffffff;fill-opacity:1;fill-rule:nonzero;stroke:none;stroke-width:0.95293492px;marker:none;enable-background:accumulate"
       d="m 1805.7132,3167.1182 c 28.8835,-28.3921 271.2015,-56.8522 355.8718,3.2698 84.6705,60.122 32.5575,130.5505 -16.4237,152.5973 -48.9808,22.0471 -192.8301,45.1856 -258.2531,25.0877 -65.4232,-20.0979 -116.2859,-49.6156 -119.2007,-108.9246 -1.1896,-24.2062 9.1219,-43.6377 38.0057,-72.0302 z"
       id="path4040"
       inkscape:connector-curvature="0"
       sodipodi:nodetypes="zssssz" />
    <path
       style="fill:#ffffff;stroke:none"
       d="m 1793.2098,3259.0845 c -28.7477,21.3713 -48.9321,0.5936 -66.1006,0.6993 -17.1685,0.1058 -34.6307,29.0733 -44.0708,33.857 -9.363,3.7909 -22.9631,-0.7489 -45.2644,-13.4008 36.8449,37.5971 46.7017,28.1197 55.3791,24.5656 11.9288,-4.8858 18.0056,-23.3478 33.4687,-20.4624 14.978,2.7947 62.9102,19.4669 85.0019,10.1395 22.0918,-9.3272 25.641,-6.4328 25.641,-6.4328 z"
       id="path3282"
       inkscape:connector-curvature="0"
       sodipodi:nodetypes="csccssscc" />
  </g>
  <g
     inkscape:groupmode="layer"
     id="layer1"
     inkscape:label="txt">
    <text
       id="text901"
       y="927.62799"
       x="1051.0458"
       style="font-style:normal;font-variant:normal;font-weight:normal;font-stretch:normal;font-size:15.41619015px;line-height:100%;font-family:'Nanum Pen Script OTF';-inkscape-font-specification:'Nanum Pen Script OTF';text-align:center;letter-spacing:0px;word-spacing:0px;text-anchor:middle;fill:#000000;fill-opacity:1;stroke:none;stroke-width:1.28468251"
       xml:space="preserve"><tspan
         id="tspan899"
         y="927.62799"
         x="1051.0458"
         style="font-style:normal;font-variant:normal;font-weight:normal;font-stretch:normal;font-size:57.81071091px;line-height:100%;font-family:'Nanum Pen Script OTF';-inkscape-font-specification:'Nanum Pen Script OTF';stroke-width:1.28468251"
         sodipodi:role="line">그래요!</tspan></text>
    <text
       id="text937"
       y="3083.1226"
       x="551.25189"
       style="font-style:normal;font-variant:normal;font-weight:normal;font-stretch:normal;font-size:14.8973217px;line-height:100%;font-family:'Nanum Pen Script OTF';-inkscape-font-specification:'Nanum Pen Script OTF';text-align:center;letter-spacing:0px;word-spacing:0px;text-anchor:middle;fill:#000000;fill-opacity:1;stroke:none;stroke-width:1.24144351"
       xml:space="preserve"><tspan
         id="tspan935"
         y="3083.1226"
         x="551.25189"
         style="font-style:normal;font-variant:normal;font-weight:normal;font-stretch:normal;font-size:55.86495972px;line-height:100%;font-family:'Nanum Pen Script OTF';-inkscape-font-specification:'Nanum Pen Script OTF';stroke-width:1.24144351"
         sodipodi:role="line">알겠어요...</tspan></text>
    <text
       id="text879"
       y="213.16548"
       x="431.76566"
       style="font-style:normal;font-variant:normal;font-weight:normal;font-stretch:normal;font-size:15.07520199px;line-height:100%;font-family:'Nanum Pen Script OTF';-inkscape-font-specification:'Nanum Pen Script OTF';text-align:center;letter-spacing:0px;word-spacing:0px;text-anchor:middle;fill:#000000;fill-opacity:1;stroke:none;stroke-width:1.25626683"
       xml:space="preserve"><tspan
         y="213.16548"
         x="431.76566"
         style="font-style:normal;font-variant:normal;font-weight:normal;font-stretch:normal;font-size:56.53200531px;line-height:100%;font-family:'Nanum Pen Script OTF';-inkscape-font-specification:'Nanum Pen Script OTF';stroke-width:1.25626683"
         sodipodi:role="line"
         id="tspan949">모두들 실패작이</tspan><tspan
         y="269.69748"
         x="431.76566"
         style="font-style:normal;font-variant:normal;font-weight:normal;font-stretch:normal;font-size:56.53200531px;line-height:100%;font-family:'Nanum Pen Script OTF';-inkscape-font-specification:'Nanum Pen Script OTF';stroke-width:1.25626683"
         sodipodi:role="line"
         id="tspan953">있는 법이다.</tspan></text>
    <text
       id="text885"
       y="378.95425"
       x="562.45947"
       style="font-style:normal;font-variant:normal;font-weight:normal;font-stretch:normal;font-size:15.38958645px;line-height:100%;font-family:'Nanum Pen Script OTF';-inkscape-font-specification:'Nanum Pen Script OTF';text-align:center;letter-spacing:0px;word-spacing:0px;text-anchor:middle;fill:#000000;fill-opacity:1;stroke:none;stroke-width:1.28246558"
       xml:space="preserve"><tspan
         id="tspan883"
         y="378.95425"
         x="562.45947"
         style="font-style:normal;font-variant:normal;font-weight:normal;font-stretch:normal;font-size:57.71094894px;line-height:100%;font-family:'Nanum Pen Script OTF';-inkscape-font-specification:'Nanum Pen Script OTF';stroke-width:1.28246558"
         sodipodi:role="line">난 이미 그걸 썼던</tspan><tspan
         y="436.66519"
         x="562.45947"
         style="font-style:normal;font-variant:normal;font-weight:normal;font-stretch:normal;font-size:57.71094894px;line-height:100%;font-family:'Nanum Pen Script OTF';-inkscape-font-specification:'Nanum Pen Script OTF';stroke-width:1.28246558"
         sodipodi:role="line"
         id="tspan957">카옌이 아니야.</tspan></text>
    <text
       id="text893"
       y="479.03882"
       x="2026.4852"
       style="font-style:normal;font-variant:normal;font-weight:normal;font-stretch:normal;font-size:15.65997505px;line-height:100%;font-family:'Nanum Pen Script OTF';-inkscape-font-specification:'Nanum Pen Script OTF';text-align:center;letter-spacing:0px;word-spacing:0px;text-anchor:middle;fill:#000000;fill-opacity:1;stroke:none;stroke-width:1.30499792"
       xml:space="preserve"><tspan
         id="tspan891"
         y="479.03882"
         x="2026.4852"
         style="font-style:normal;font-variant:normal;font-weight:normal;font-stretch:normal;font-size:58.72490692px;line-height:100%;font-family:'Nanum Pen Script OTF';-inkscape-font-specification:'Nanum Pen Script OTF';stroke-width:1.30499792"
         sodipodi:role="line">그 일지가 버려진</tspan><tspan
         y="537.76373"
         x="2026.4852"
         style="font-style:normal;font-variant:normal;font-weight:normal;font-stretch:normal;font-size:58.72490692px;line-height:100%;font-family:'Nanum Pen Script OTF';-inkscape-font-specification:'Nanum Pen Script OTF';stroke-width:1.30499792"
         sodipodi:role="line"
         id="tspan966">데는 아주 구체적인</tspan><tspan
         y="596.48865"
         x="2026.4852"
         style="font-style:normal;font-variant:normal;font-weight:normal;font-stretch:normal;font-size:58.72490692px;line-height:100%;font-family:'Nanum Pen Script OTF';-inkscape-font-specification:'Nanum Pen Script OTF';stroke-width:1.30499792"
         sodipodi:role="line"
         id="tspan970">이유가 있다.</tspan></text>
    <text
       id="text897"
       y="916.11938"
       x="648.63983"
       style="font-style:normal;font-variant:normal;font-weight:normal;font-stretch:normal;font-size:19.98422432px;line-height:100%;font-family:'Nanum Pen Script OTF';-inkscape-font-specification:'Nanum Pen Script OTF';text-align:center;letter-spacing:0px;word-spacing:0px;text-anchor:middle;fill:#000000;fill-opacity:1;stroke:none;stroke-width:1.66535199"
       xml:space="preserve"><tspan
         id="tspan895"
         y="916.11938"
         x="648.63983"
         style="font-style:normal;font-variant:normal;font-weight:normal;font-stretch:normal;font-size:74.94084167px;line-height:100%;font-family:'Nanum Pen Script OTF';-inkscape-font-specification:'Nanum Pen Script OTF';stroke-width:1.66535199"
         sodipodi:role="line">...</tspan></text>
    <text
       id="text907"
       y="1013.6345"
       x="1213.2126"
       style="font-style:normal;font-variant:normal;font-weight:normal;font-stretch:normal;font-size:14.10449219px;line-height:100%;font-family:'Nanum Pen Script OTF';-inkscape-font-specification:'Nanum Pen Script OTF';text-align:center;letter-spacing:0px;word-spacing:0px;text-anchor:middle;fill:#000000;fill-opacity:1;stroke:none;stroke-width:1.17537439"
       xml:space="preserve"><tspan
         id="tspan905"
         y="1013.6345"
         x="1213.2126"
         style="font-style:normal;font-variant:normal;font-weight:normal;font-stretch:normal;font-size:52.8918457px;line-height:100%;font-family:'Nanum Pen Script OTF';-inkscape-font-specification:'Nanum Pen Script OTF';stroke-width:1.17537439"
         sodipodi:role="line">그럼 이건 어떻게</tspan><tspan
         y="1066.5264"
         x="1213.2126"
         style="font-style:normal;font-variant:normal;font-weight:normal;font-stretch:normal;font-size:52.8918457px;line-height:100%;font-family:'Nanum Pen Script OTF';-inkscape-font-specification:'Nanum Pen Script OTF';stroke-width:1.17537439"
         sodipodi:role="line"
         id="tspan976">설명하실래요?</tspan></text>
    <text
       transform="matrix(1.0595093,-0.24518637,0.42719159,0.8275638,-1237.1265,-785.91202)"
       x="1318.7137"
       y="3129.8394"
       xml:space="preserve"
       style="font-style:normal;font-variant:normal;font-weight:normal;font-stretch:normal;line-height:100%;font-family:'Nanum Pen Script OTF';-inkscape-font-specification:'Nanum Pen Script OTF';text-align:center;letter-spacing:0px;word-spacing:0px;text-anchor:middle;opacity:0.64099995;fill:#241c1c;fill-opacity:1;stroke:none;filter:url(#filter4436)"
       id="text917"><tspan
         id="tspan915"
         sodipodi:role="line"
         style="font-style:normal;font-variant:normal;font-weight:normal;font-stretch:normal;font-size:37.68251419px;line-height:100%;font-family:'Nanum Pen Script OTF';-inkscape-font-specification:'Nanum Pen Script OTF';fill:#241c1c;fill-opacity:1;stroke:#241c1c;stroke-opacity:1"
         x="1318.7137"
         y="3129.8394">카오사</tspan><tspan
         sodipodi:role="line"
         style="font-style:normal;font-variant:normal;font-weight:normal;font-stretch:normal;font-size:37.68251419px;line-height:100%;font-family:'Nanum Pen Script OTF';-inkscape-font-specification:'Nanum Pen Script OTF';fill:#241c1c;fill-opacity:1;stroke:#241c1c;stroke-opacity:1"
         x="1318.7137"
         y="3167.522"
         id="tspan1030">수트라</tspan><tspan
         sodipodi:role="line"
         style="font-style:normal;font-variant:normal;font-weight:normal;font-stretch:normal;font-size:32.06008911px;line-height:100%;font-family:'Nanum Pen Script OTF';-inkscape-font-specification:'Nanum Pen Script OTF';fill:#241c1c;fill-opacity:1"
         x="1318.7137"
         y="3186.5261"
         id="tspan1034" /><tspan
         sodipodi:role="line"
         style="font-style:normal;font-variant:normal;font-weight:normal;font-stretch:normal;font-size:32.06008911px;line-height:100%;font-family:'Nanum Pen Script OTF';-inkscape-font-specification:'Nanum Pen Script OTF';fill:#241c1c;fill-opacity:1"
         x="1318.7137"
         y="3213.1152"
         id="tspan1038">백리향 지음</tspan></text>
    <text
       id="text927"
       y="2081.3955"
       x="2101.5378"
       style="font-style:normal;font-variant:normal;font-weight:normal;font-stretch:normal;font-size:15.39967632px;line-height:100%;font-family:'Nanum Pen Script OTF';-inkscape-font-specification:'Nanum Pen Script OTF';text-align:center;letter-spacing:0px;word-spacing:0px;text-anchor:middle;fill:#000000;fill-opacity:1;stroke:none;stroke-width:1.28330636"
       xml:space="preserve"><tspan
         id="tspan925"
         y="2081.3955"
         x="2101.5378"
         style="font-style:normal;font-variant:normal;font-weight:normal;font-stretch:normal;font-size:57.74878693px;line-height:100%;font-family:'Nanum Pen Script OTF';-inkscape-font-specification:'Nanum Pen Script OTF';stroke-width:1.28330636"
         sodipodi:role="line">그저 내 청춘의 잘못일 뿐이고,</tspan><tspan
         y="2139.1443"
         x="2101.5378"
         style="font-style:normal;font-variant:normal;font-weight:normal;font-stretch:normal;font-size:57.74878693px;line-height:100%;font-family:'Nanum Pen Script OTF';-inkscape-font-specification:'Nanum Pen Script OTF';stroke-width:1.28330636"
         sodipodi:role="line"
         id="tspan1069">어찌 됐든 네 나이에</tspan><tspan
         y="2196.8931"
         x="2101.5378"
         style="font-style:normal;font-variant:normal;font-weight:normal;font-stretch:normal;font-size:57.74878693px;line-height:100%;font-family:'Nanum Pen Script OTF';-inkscape-font-specification:'Nanum Pen Script OTF';stroke-width:1.28330636"
         sodipodi:role="line"
         id="tspan1071">볼 만한 내용이 아니야!</tspan></text>
    <text
       transform="matrix(1.664596,0.2159019,-0.08526698,1.7992899,140.42364,-3360.9339)"
       x="1318.7137"
       y="3129.8394"
       xml:space="preserve"
       style="font-style:normal;font-variant:normal;font-weight:normal;font-stretch:normal;line-height:100%;font-family:'Nanum Pen Script OTF';-inkscape-font-specification:'Nanum Pen Script OTF';text-align:center;letter-spacing:0px;word-spacing:0px;text-anchor:middle;opacity:0.64099995;fill:url(#linearGradient1096);fill-opacity:1;stroke:none;filter:url(#filter4436)"
       id="use929"><tspan
         id="tspan1046"
         sodipodi:role="line"
         style="font-style:normal;font-variant:normal;font-weight:normal;font-stretch:normal;font-size:43.01215087px;line-height:100%;font-family:'Nanum Pen Script OTF';-inkscape-font-specification:'Nanum Pen Script OTF';fill:#241c1c;fill-opacity:1;stroke:#241c1c;stroke-opacity:1"
         x="1318.7137"
         y="3129.8394">카오사</tspan><tspan
         sodipodi:role="line"
         style="font-style:normal;font-variant:normal;font-weight:normal;font-stretch:normal;font-size:43.01215087px;line-height:100%;font-family:'Nanum Pen Script OTF';-inkscape-font-specification:'Nanum Pen Script OTF';fill:#241c1c;fill-opacity:1;stroke:#241c1c;stroke-opacity:1"
         x="1318.7137"
         y="3161.8994"
         id="tspan1082">수트라</tspan><tspan
         sodipodi:role="line"
         style="font-style:normal;font-variant:normal;font-weight:normal;font-stretch:normal;font-size:32.06008911px;line-height:100%;font-family:'Nanum Pen Script OTF';-inkscape-font-specification:'Nanum Pen Script OTF';fill:#241c1c;fill-opacity:1"
         x="1318.7137"
         y="3179.3704"
         id="tspan1084" /><tspan
         sodipodi:role="line"
         style="font-style:normal;font-variant:normal;font-weight:normal;font-stretch:normal;font-size:32.06008911px;line-height:100%;font-family:'Nanum Pen Script OTF';-inkscape-font-specification:'Nanum Pen Script OTF';fill:#241c1c;fill-opacity:1"
         x="1318.7137"
         y="3191.3704"
         id="tspan1086" /><tspan
         sodipodi:role="line"
         style="font-style:normal;font-variant:normal;font-weight:normal;font-stretch:normal;font-size:32.06008911px;line-height:100%;font-family:'Nanum Pen Script OTF';-inkscape-font-specification:'Nanum Pen Script OTF';fill:#241c1c;fill-opacity:1"
         x="1318.7137"
         y="3217.9595"
         id="tspan1088">백리향 지음</tspan></text>
    <text
       id="text933"
       y="3007.4478"
       x="448.95987"
       style="font-style:normal;font-variant:normal;font-weight:normal;font-stretch:normal;font-size:15.85564995px;line-height:100%;font-family:'Nanum Pen Script OTF';-inkscape-font-specification:'Nanum Pen Script OTF';text-align:center;letter-spacing:0px;word-spacing:0px;text-anchor:middle;fill:#000000;fill-opacity:1;stroke:none;stroke-width:1.32130408"
       xml:space="preserve"><tspan
         id="tspan931"
         y="3007.4478"
         x="448.95987"
         style="font-style:normal;font-variant:normal;font-weight:normal;font-stretch:normal;font-size:59.4586792px;line-height:100%;font-family:'Nanum Pen Script OTF';-inkscape-font-specification:'Nanum Pen Script OTF';stroke-width:1.32130408"
         sodipodi:role="line">흠...</tspan></text>
    <text
       id="text945"
       y="3203.4358"
       x="1989.3129"
       style="font-style:normal;font-variant:normal;font-weight:normal;font-stretch:normal;font-size:15.67723083px;line-height:100%;font-family:'Nanum Pen Script OTF';-inkscape-font-specification:'Nanum Pen Script OTF';text-align:center;letter-spacing:0px;word-spacing:0px;text-anchor:middle;fill:#000000;fill-opacity:1;stroke:none;stroke-width:1.30643594"
       xml:space="preserve"><tspan
         y="3203.4358"
         x="1989.3129"
         style="font-style:normal;font-variant:normal;font-weight:normal;font-stretch:normal;font-size:58.78961563px;line-height:100%;font-family:'Nanum Pen Script OTF';-inkscape-font-specification:'Nanum Pen Script OTF';stroke-width:1.30643594"
         sodipodi:role="line"
         id="tspan1103">정말 이것들을</tspan><tspan
         y="3262.2253"
         x="1989.3129"
         style="font-style:normal;font-variant:normal;font-weight:normal;font-stretch:normal;font-size:58.78961563px;line-height:100%;font-family:'Nanum Pen Script OTF';-inkscape-font-specification:'Nanum Pen Script OTF';stroke-width:1.30643594"
         sodipodi:role="line"
         id="tspan1107">보고서도 부끄럽지</tspan><tspan
         y="3321.0151"
         x="1989.3129"
         style="font-style:normal;font-variant:normal;font-weight:normal;font-stretch:normal;font-size:58.78961563px;line-height:100%;font-family:'Nanum Pen Script OTF';-inkscape-font-specification:'Nanum Pen Script OTF';stroke-width:1.30643594"
         sodipodi:role="line"
         id="tspan1109">않으신가 봐요...</tspan></text>
  </g>
</svg>
