<?xml version="1.0" encoding="UTF-8" standalone="no"?>
<!-- Created with Inkscape (http://www.inkscape.org/) -->

<svg
   id="svg2"
   version="1.1"
   inkscape:version="1.1.2 (1:1.1+202202050950+0a00cf5339)"
   width="2481"
   height="3503"
   sodipodi:docname="E20P06.svg"
   xmlns:inkscape="http://www.inkscape.org/namespaces/inkscape"
   xmlns:sodipodi="http://sodipodi.sourceforge.net/DTD/sodipodi-0.dtd"
   xmlns:xlink="http://www.w3.org/1999/xlink"
   xmlns="http://www.w3.org/2000/svg"
   xmlns:svg="http://www.w3.org/2000/svg"
   xmlns:rdf="http://www.w3.org/1999/02/22-rdf-syntax-ns#"
   xmlns:cc="http://creativecommons.org/ns#"
   xmlns:dc="http://purl.org/dc/elements/1.1/">
  <sodipodi:namedview
     pagecolor="#ffffff"
     bordercolor="#666666"
     inkscape:pageopacity="0"
     inkscape:pageshadow="2"
     inkscape:window-width="1280"
     inkscape:window-height="800"
     id="namedview70"
     showgrid="false"
     inkscape:zoom="0.51110983"
     inkscape:cx="1260.0032"
     inkscape:cy="3347.6171"
     inkscape:current-layer="layer1"
     inkscape:window-x="0"
     inkscape:window-y="0"
     inkscape:window-maximized="0"
     borderopacity="1.0"
     inkscape:pagecheckerboard="0" />
  <metadata
     id="metadata8">
    <rdf:RDF>
      <cc:Work
         rdf:about="">
        <dc:format>image/svg+xml</dc:format>
        <dc:type
           rdf:resource="http://purl.org/dc/dcmitype/StillImage" />
        <dc:title />
      </cc:Work>
    </rdf:RDF>
  </metadata>
  <defs
     id="defs6">
    <filter
       style="color-interpolation-filters:sRGB"
       inkscape:label="Drop Shadow"
       id="filter5558-7"
       x="-0.0023518045"
       y="-0.10411303"
       width="1.006731"
       height="1.2979787">
      <feFlood
         flood-opacity="1"
         flood-color="rgb(0,0,0)"
         result="flood"
         id="feFlood5560-45" />
      <feComposite
         in="flood"
         in2="SourceGraphic"
         operator="in"
         result="composite1"
         id="feComposite5562-2" />
      <feGaussianBlur
         in="composite1"
         stdDeviation="1"
         result="blur"
         id="feGaussianBlur5564-5" />
      <feOffset
         dx="2.5"
         dy="2.5"
         result="offset"
         id="feOffset5566-47" />
      <feComposite
         in="SourceGraphic"
         in2="offset"
         operator="over"
         result="composite2"
         id="feComposite5568-4" />
    </filter>
    <filter
       style="color-interpolation-filters:sRGB"
       inkscape:label="Drop Shadow"
       id="filter5546"
       x="-0.00152383"
       y="-0.095731786"
       width="1.0043613"
       height="1.273991">
      <feFlood
         flood-opacity="1"
         flood-color="rgb(0,0,0)"
         result="flood"
         id="feFlood5548" />
      <feComposite
         in="flood"
         in2="SourceGraphic"
         operator="in"
         result="composite1"
         id="feComposite5550" />
      <feGaussianBlur
         in="composite1"
         stdDeviation="1"
         result="blur"
         id="feGaussianBlur5552" />
      <feOffset
         dx="2.5"
         dy="2.5"
         result="offset"
         id="feOffset5554" />
      <feComposite
         in="SourceGraphic"
         in2="offset"
         operator="over"
         result="composite2"
         id="feComposite5556" />
    </filter>
    <filter
       style="color-interpolation-filters:sRGB"
       inkscape:label="Drop Shadow"
       id="filter5546-3-4">
      <feFlood
         flood-opacity="1"
         flood-color="rgb(0,0,0)"
         result="flood"
         id="feFlood5548-6-3" />
      <feComposite
         in="flood"
         in2="SourceGraphic"
         operator="in"
         result="composite1"
         id="feComposite5550-7-0" />
      <feGaussianBlur
         in="composite1"
         stdDeviation="1"
         result="blur"
         id="feGaussianBlur5552-5-78" />
      <feOffset
         dx="2.5"
         dy="2.5"
         result="offset"
         id="feOffset5554-3-68" />
      <feComposite
         in="SourceGraphic"
         in2="offset"
         operator="over"
         result="composite2"
         id="feComposite5556-5-8" />
    </filter>
    <filter
       style="color-interpolation-filters:sRGB"
       inkscape:label="Drop Shadow"
       id="filter5522-4"
       x="-0.0013818531"
       y="-0.071665868"
       width="1.003955"
       height="1.2051127">
      <feFlood
         flood-opacity="1"
         flood-color="rgb(0,0,0)"
         result="flood"
         id="feFlood5524-3" />
      <feComposite
         in="flood"
         in2="SourceGraphic"
         operator="in"
         result="composite1"
         id="feComposite5526-14" />
      <feGaussianBlur
         in="composite1"
         stdDeviation="1"
         result="blur"
         id="feGaussianBlur5528-92" />
      <feOffset
         dx="2.5"
         dy="2.5"
         result="offset"
         id="feOffset5530-0" />
      <feComposite
         in="SourceGraphic"
         in2="offset"
         operator="over"
         result="composite2"
         id="feComposite5532-6" />
    </filter>
    <filter
       style="color-interpolation-filters:sRGB"
       inkscape:label="Drop Shadow"
       id="filter5534-8"
       x="-0.018231615"
       y="-0.089455833"
       width="1.047036"
       height="1.2307882">
      <feFlood
         flood-opacity="1"
         flood-color="rgb(0,0,0)"
         result="flood"
         id="feFlood5536-9" />
      <feComposite
         in="flood"
         in2="SourceGraphic"
         operator="in"
         result="composite1"
         id="feComposite5538-26" />
      <feGaussianBlur
         in="composite1"
         stdDeviation="1"
         result="blur"
         id="feGaussianBlur5540-64" />
      <feOffset
         dx="2.5"
         dy="2.5"
         result="offset"
         id="feOffset5542-95" />
      <feComposite
         in="SourceGraphic"
         in2="offset"
         operator="over"
         result="composite2"
         id="feComposite5544-0" />
    </filter>
  </defs>
  <sodipodi:namedview
     pagecolor="#ffffff"
     bordercolor="#666666"
     borderopacity="1"
     objecttolerance="10"
     gridtolerance="10"
     guidetolerance="10"
     inkscape:pageopacity="0"
     inkscape:pageshadow="2"
     inkscape:window-width="1920"
     inkscape:window-height="1025"
     id="namedview4"
     showgrid="false"
     inkscape:zoom="0.80454291"
     inkscape:cx="874.30747"
     inkscape:cy="568.93827"
     inkscape:window-x="0"
     inkscape:window-y="26"
     inkscape:window-maximized="1"
     inkscape:current-layer="layer1" />
  <g
     inkscape:groupmode="layer"
     id="layer2"
     inkscape:label="artwork"
     sodipodi:insensitive="true">
    <image
       xlink:href="../gfx_Pepper-and-Carrot_by-David-Revoy_E20P06.png"
       width="2481"
       height="3503"
       id="image10"
       x="0"
       y="0" />
  </g>
  <g
     inkscape:groupmode="layer"
     id="layer3"
     inkscape:label="speechbubbles" />
  <g
     inkscape:groupmode="layer"
     id="layer1"
     inkscape:label="txt">
    <text
       xml:space="preserve"
       style="font-style:normal;font-variant:normal;font-weight:normal;font-stretch:normal;line-height:0%;font-family:Lavi;-inkscape-font-specification:Lavi;text-align:center;letter-spacing:0px;word-spacing:0px;text-anchor:middle;opacity:1;fill:#ffffff;fill-opacity:1;stroke:#ffffff;stroke-width:3.822;stroke-miterlimit:4;stroke-dasharray:none;stroke-opacity:1;filter:url(#filter5534-8)"
       x="2028.7821"
       y="2443.6147"
       id="text4213"
       transform="matrix(0.75304346,0,-0.11971288,1.3279446,3e-5,-38.518701)"><tspan
         sodipodi:role="line"
         id="tspan4215"
         x="2028.7821"
         y="2443.6147"
         style="font-size:63.5518px;line-height:1.25;fill:#ffffff;stroke:#ffffff;stroke-width:3.822;stroke-miterlimit:4;stroke-dasharray:none">- FINO -</tspan></text>
    <text
       xml:space="preserve"
       style="font-style:normal;font-variant:normal;font-weight:normal;font-stretch:normal;line-height:0%;font-family:Lavi;-inkscape-font-specification:Lavi;text-align:center;letter-spacing:0px;word-spacing:0px;text-anchor:middle;fill:#ffffff;fill-opacity:1;stroke:#ffffff;filter:url(#filter5522-4)"
       x="1240.0964"
       y="3249.0098"
       id="text4246-42"><tspan
         sodipodi:role="line"
         style="font-size:36.7347px;line-height:1.25;fill:#ffffff;stroke:#ffffff"
         x="1240.0964"
         y="3249.0098"
         id="tspan4252-9">12/2016 – www.peppercarrot.com – Desegno kaj Scenaro : David Revoy.</tspan><tspan
         sodipodi:role="line"
         style="font-size:36.7347px;line-height:1.25;fill:#ffffff;stroke:#ffffff"
         x="1240.0964"
         y="3294.9282"
         id="tspan1558">Traduko : Jorge Maldonado Ventura – Korekto : Tirifto – Fasono : Navi, Tirifto.</tspan></text>
    <text
       xml:space="preserve"
       style="color:#000000;font-style:normal;font-variant:normal;font-weight:normal;font-stretch:normal;line-height:0%;font-family:Lavi;-inkscape-font-specification:Lavi;text-indent:0;text-align:center;text-decoration:none;text-decoration-line:none;letter-spacing:0px;word-spacing:0px;text-transform:none;writing-mode:lr-tb;direction:ltr;baseline-shift:baseline;text-anchor:middle;display:inline;overflow:visible;visibility:visible;opacity:0.855;fill:#ffffff;fill-opacity:1;fill-rule:nonzero;stroke:#ffffff;filter:url(#filter5546);enable-background:accumulate"
       x="1242.353"
       y="3335.1028"
       id="text4246-42-4"><tspan
         sodipodi:role="line"
         style="color:#000000;font-style:normal;font-variant:normal;font-weight:normal;font-stretch:normal;font-size:27.5px;line-height:125%;font-family:Lavi;-inkscape-font-specification:Lavi;text-indent:0;text-align:center;text-decoration:none;text-decoration-line:none;letter-spacing:0px;word-spacing:0px;text-transform:none;writing-mode:lr-tb;direction:ltr;baseline-shift:baseline;text-anchor:middle;display:inline;overflow:visible;visibility:visible;fill:#ffffff;fill-opacity:1;fill-rule:nonzero;stroke:#ffffff;enable-background:accumulate"
         x="1242.353"
         y="3335.1028"
         id="tspan4252-9-9">Bazita sur la universo de Hereva kreita de David Revoj kun kontribuaĵoj de Craig Maloney. Korektado de Willem Sonke, Moini, Hali, CGand kaj Alex Gryson.</tspan></text>
    <text
       xml:space="preserve"
       style="font-style:normal;font-variant:normal;font-weight:normal;font-stretch:normal;line-height:0%;font-family:Arial;-inkscape-font-specification:Arial;text-align:center;letter-spacing:0px;word-spacing:0px;text-anchor:middle;display:inline;opacity:0.855;fill:#ffffff;fill-opacity:1;stroke:#ffffff;filter:url(#filter5558-7)"
       x="1240.6473"
       y="3372.8738"
       id="text4229"><tspan
         sodipodi:role="line"
         x="1240.6473"
         y="3372.8738"
         style="font-style:normal;font-variant:normal;font-weight:normal;font-stretch:normal;font-size:27.5px;line-height:1.25;font-family:Lavi;-inkscape-font-specification:Lavi;fill:#ffffff;stroke:#ffffff"
         id="tspan4169">Permesilo : Krea Komunaĵo Atribuite 4.0, Programaro: Krita 3.1, Inkscape 0.91 sur Manjaro XFCE</tspan></text>
  </g>
</svg>
