<?xml version="1.0" encoding="UTF-8" standalone="no"?>
<svg
   xmlns:dc="http://purl.org/dc/elements/1.1/"
   xmlns:cc="http://creativecommons.org/ns#"
   xmlns:rdf="http://www.w3.org/1999/02/22-rdf-syntax-ns#"
   xmlns:svg="http://www.w3.org/2000/svg"
   xmlns="http://www.w3.org/2000/svg"
   xmlns:xlink="http://www.w3.org/1999/xlink"
   xmlns:sodipodi="http://sodipodi.sourceforge.net/DTD/sodipodi-0.dtd"
   xmlns:inkscape="http://www.inkscape.org/namespaces/inkscape"
   sodipodi:docname="E22P11.svg"
   height="5000"
   width="2481"
   inkscape:version="1.0 (4035a4fb49, 2020-05-01)"
   version="1.1"
   id="svg2">
  <metadata
     id="metadata8">
    <rdf:RDF>
      <cc:Work
         rdf:about="">
        <dc:format>image/svg+xml</dc:format>
        <dc:type
           rdf:resource="http://purl.org/dc/dcmitype/StillImage" />
        <dc:title />
      </cc:Work>
    </rdf:RDF>
  </metadata>
  <defs
     id="defs6">
    <filter
       id="filter5546"
       inkscape:label="Drop Shadow"
       color-interpolation-filters="sRGB">
      <feFlood
         id="feFlood5548"
         result="flood"
         flood-color="rgb(0,0,0)"
         flood-opacity="1" />
      <feComposite
         id="feComposite5550"
         result="composite1"
         operator="in"
         in2="SourceGraphic"
         in="flood" />
      <feGaussianBlur
         id="feGaussianBlur5552"
         result="blur"
         stdDeviation="1"
         in="composite1" />
      <feOffset
         id="feOffset5554"
         result="offset"
         dy="2.5"
         dx="2.5" />
      <feComposite
         id="feComposite5556"
         result="composite2"
         operator="over"
         in2="offset"
         in="SourceGraphic" />
    </filter>
  </defs>
  <sodipodi:namedview
     inkscape:document-rotation="0"
     inkscape:guide-bbox="true"
     showguides="true"
     inkscape:object-nodes="true"
     inkscape:current-layer="layer2"
     inkscape:window-maximized="1"
     inkscape:window-y="44"
     inkscape:window-x="0"
     inkscape:cy="998.8818"
     inkscape:cx="1221.5156"
     inkscape:zoom="0.5"
     showgrid="false"
     id="namedview4"
     inkscape:window-height="1004"
     inkscape:window-width="1920"
     inkscape:pageshadow="2"
     inkscape:pageopacity="0"
     guidetolerance="10"
     gridtolerance="10"
     objecttolerance="10"
     borderopacity="1"
     bordercolor="#666666"
     pagecolor="#ffffff">
    <sodipodi:guide
       inkscape:locked="false"
       id="guide4214"
       orientation="0,1"
       position="1425.8203,4914.3274" />
  </sodipodi:namedview>
  <g
     sodipodi:insensitive="true"
     transform="translate(0,1024)"
     style="display:inline"
     inkscape:label="artwork"
     id="layer1"
     inkscape:groupmode="layer">
    <image
       sodipodi:absref="/home/cherry/peppercarrot/webcomics/ep22_The-Voting-System/lang/gfx_Pepper-and-Carrot_by-David-Revoy_E22P11.png"
       xlink:href="../gfx_Pepper-and-Carrot_by-David-Revoy_E22P11.png"
       y="-1023.3771"
       x="0.54707891"
       id="image4223"
       style="image-rendering:optimizeQuality"
       preserveAspectRatio="none"
       height="5000"
       width="2481" />
  </g>
  <g
     transform="translate(0,1024)"
     style="display:inline"
     inkscape:label="speechbubbles"
     id="layer3"
     inkscape:groupmode="layer" />
  <g
     transform="translate(0,1024)"
     style="display:inline;opacity:0.85500004"
     inkscape:label="text"
     id="layer2"
     inkscape:groupmode="layer">
    <text
       xml:space="preserve"
       style="color:#000000;font-style:normal;font-variant:normal;font-weight:normal;font-stretch:normal;line-height:0%;font-family:'Nanum Pen Script OTF';-inkscape-font-specification:'Nanum Pen Script OTF';text-indent:0;text-align:center;text-decoration:none;text-decoration-line:none;letter-spacing:0px;word-spacing:0px;text-transform:none;writing-mode:lr-tb;direction:ltr;baseline-shift:baseline;text-anchor:middle;display:inline;overflow:visible;visibility:visible;opacity:0.855;fill:#241c1c;fill-opacity:1;fill-rule:nonzero;stroke:none;enable-background:accumulate"
       x="1241.6194"
       y="-810.55609"
       id="text4151"><tspan
         sodipodi:role="line"
         style="color:#000000;font-style:normal;font-variant:normal;font-weight:normal;font-stretch:normal;font-size:51.2973px;line-height:125%;font-family:'Nanum Pen Script OTF';-inkscape-font-specification:'Nanum Pen Script OTF';text-indent:0;text-align:center;text-decoration:none;text-decoration-line:none;letter-spacing:0px;word-spacing:0px;text-transform:none;writing-mode:lr-tb;direction:ltr;baseline-shift:baseline;text-anchor:middle;display:inline;overflow:visible;visibility:visible;fill:#241c1c;fill-opacity:1;fill-rule:nonzero;stroke:none;enable-background:accumulate"
         x="1241.6194"
         y="-810.55609"
         id="tspan4153">대사 수정: Nicolas Artance, Valvin, Craig Maloney.</tspan></text>
    <text
       id="text4229"
       y="-630.23309"
       x="1241.0287"
       style="font-style:normal;font-variant:normal;font-weight:normal;font-stretch:normal;line-height:0%;font-family:'Nanum Pen Script OTF';-inkscape-font-specification:'Nanum Pen Script OTF';text-align:center;letter-spacing:0px;word-spacing:0px;text-anchor:middle;display:inline;opacity:0.855;fill:#241c1c;fill-opacity:1;stroke:none"
       xml:space="preserve"><tspan
         id="tspan4169"
         style="font-style:normal;font-variant:normal;font-weight:normal;font-stretch:normal;font-size:44.3357px;line-height:1.25;font-family:'Nanum Pen Script OTF';-inkscape-font-specification:'Nanum Pen Script OTF';fill:#241c1c;stroke:none"
         y="-630.23309"
         x="1241.0287"
         sodipodi:role="line">소프트웨어 : 리눅스 민트 18.1에서 크리타 3.1.3, 잉크스케이프 0.92.1 사용</tspan></text>
    <text
       id="text4246-42"
       y="-861.13708"
       x="1243.3025"
       style="font-style:normal;font-variant:normal;font-weight:normal;font-stretch:normal;line-height:0%;font-family:'Nanum Pen Script OTF';-inkscape-font-specification:'Nanum Pen Script OTF';text-align:center;letter-spacing:0px;word-spacing:0px;text-anchor:middle;display:inline;opacity:0.855;fill:#241c1c;fill-opacity:1;stroke:none"
       xml:space="preserve"><tspan
         id="tspan4252-9"
         y="-861.13708"
         x="1243.3025"
         style="font-style:normal;font-variant:normal;font-weight:normal;font-stretch:normal;font-size:57.6302px;line-height:1.25;font-family:'Nanum Pen Script OTF';-inkscape-font-specification:'Nanum Pen Script OTF';fill:#241c1c;stroke:none"
         sodipodi:role="line">2017/05 - www.peppercarrot.com - 그림 및 이야기: David Revoy - 한글 번역: Jihoon Kim</tspan></text>
    <text
       id="text4162-7"
       y="-437.3053"
       x="1238.975"
       style="font-style:normal;font-variant:normal;font-weight:normal;font-stretch:normal;line-height:0%;font-family:'Nanum Pen Script OTF';-inkscape-font-specification:'Nanum Pen Script OTF';text-align:center;letter-spacing:0px;word-spacing:0px;text-anchor:middle;display:inline;opacity:0.855;fill:#483e37;fill-opacity:1;stroke:none;filter:url(#filter4155)"
       xml:space="preserve"><tspan
         id="tspan3372"
         style="font-style:normal;font-variant:normal;font-weight:normal;font-stretch:normal;font-size:55.4512px;line-height:100%;font-family:'Nanum Pen Script OTF';-inkscape-font-specification:'Nanum Pen Script OTF';fill:#483e37"
         y="-437.3053"
         x="1238.975"
         sodipodi:role="line"></tspan><tspan
         id="tspan43"
         style="font-style:normal;font-variant:normal;font-weight:normal;font-stretch:normal;font-size:55.4512px;line-height:100%;font-family:'Nanum Pen Script OTF';-inkscape-font-specification:'Nanum Pen Script OTF';fill:#483e37"
         y="-381.8541"
         x="1238.975"
         sodipodi:role="line">후추와 당근은 완전히 자유 오픈소스이고</tspan><tspan
         id="tspan45"
         style="font-style:normal;font-variant:normal;font-weight:normal;font-stretch:normal;font-size:55.4512px;line-height:100%;font-family:'Nanum Pen Script OTF';-inkscape-font-specification:'Nanum Pen Script OTF';fill:#483e37"
         y="-326.40289"
         x="1238.975"
         sodipodi:role="line">독자들의 후원을 받아 운영하고 있습니다.</tspan><tspan
         id="tspan47"
         style="font-style:normal;font-variant:normal;font-weight:normal;font-stretch:normal;font-size:55.4512px;line-height:100%;font-family:'Nanum Pen Script OTF';-inkscape-font-specification:'Nanum Pen Script OTF';fill:#483e37"
         y="-270.95169"
         x="1238.975"
         sodipodi:role="line">이번 화에 도움을 주신 864명의 후원자분께 감사드립니다:</tspan></text>
    <text
       id="text4246-42-4"
       y="-671.57635"
       x="1242.2913"
       style="color:#000000;font-style:normal;font-variant:normal;font-weight:normal;font-stretch:normal;line-height:0%;font-family:'Nanum Pen Script OTF';-inkscape-font-specification:'Nanum Pen Script OTF';text-indent:0;text-align:center;text-decoration:none;text-decoration-line:none;letter-spacing:0px;word-spacing:0px;text-transform:none;writing-mode:lr-tb;direction:ltr;baseline-shift:baseline;text-anchor:middle;display:inline;overflow:visible;visibility:visible;opacity:0.855;fill:#241c1c;fill-opacity:1;fill-rule:nonzero;stroke:none;enable-background:accumulate"
       xml:space="preserve"><tspan
         id="tspan4252-9-9"
         y="-671.57635"
         x="1242.2913"
         style="color:#000000;font-style:normal;font-variant:normal;font-weight:normal;font-stretch:normal;font-size:44.6764px;line-height:125%;font-family:'Nanum Pen Script OTF';-inkscape-font-specification:'Nanum Pen Script OTF';text-indent:0;text-align:center;text-decoration:none;text-decoration-line:none;letter-spacing:0px;word-spacing:0px;text-transform:none;writing-mode:lr-tb;direction:ltr;baseline-shift:baseline;text-anchor:middle;display:inline;overflow:visible;visibility:visible;fill:#241c1c;fill-opacity:1;fill-rule:nonzero;stroke:none;enable-background:accumulate"
         sodipodi:role="line">David Revoy님이 Craig Maloney님의 도움으로 제작한 헤레바 세계관을 기반으로 함. 수정: Willem Sonke, Moini, Hali, CGand, Alex Gryson.</tspan></text>
    <text
       xml:space="preserve"
       style="font-style:normal;font-variant:normal;font-weight:normal;font-stretch:normal;line-height:0%;font-family:'Nanum Pen Script OTF';-inkscape-font-specification:'Nanum Pen Script OTF';text-align:center;letter-spacing:0px;word-spacing:0px;text-anchor:middle;display:inline;opacity:0.855;fill:#241c1c;fill-opacity:1;stroke:none"
       x="1240.2599"
       y="-588.09833"
       id="text4179"><tspan
         sodipodi:role="line"
         x="1240.2599"
         y="-588.09833"
         style="font-style:normal;font-variant:normal;font-weight:normal;font-stretch:normal;font-size:44.4366px;line-height:1.25;font-family:'Nanum Pen Script OTF';-inkscape-font-specification:'Nanum Pen Script OTF';fill:#241c1c;stroke:none"
         id="tspan4181">라이선스: 크리에이티브 커먼즈 저작자표시 4.0</tspan></text>
    <text
       id="text4221-3"
       y="3845.6101"
       x="1236.8247"
       style="font-style:normal;font-variant:normal;font-weight:normal;font-stretch:normal;line-height:0%;font-family:'Nanum Pen Script OTF';-inkscape-font-specification:'Nanum Pen Script OTF';text-align:center;letter-spacing:0px;word-spacing:0px;text-anchor:middle;display:inline;opacity:0.855;fill:#483e37;fill-opacity:1;stroke:none;filter:url(#filter4155)"
       xml:space="preserve"><tspan
         style="font-style:normal;font-variant:normal;font-weight:normal;font-stretch:normal;font-size:55.312px;line-height:1.25;font-family:'Nanum Pen Script OTF';-inkscape-font-specification:'Nanum Pen Script OTF';fill:#483e37"
         y="3845.6101"
         x="1236.8247"
         id="tspan4223-6"
         sodipodi:role="line">여러분도 www.patreon.com/davidrevoy에서 후추와 당근의 다음 화의 후원자가 될 수 있습니다</tspan></text>
  </g>
</svg>
