<?xml version="1.0" encoding="UTF-8" standalone="no"?>
<svg
   id="svg2"
   version="1.1"
   inkscape:version="1.1.1 (3bf5ae0d25, 2021-09-20, custom)"
   width="2481"
   height="3503"
   sodipodi:docname="E35P03.svg"
   xmlns:inkscape="http://www.inkscape.org/namespaces/inkscape"
   xmlns:sodipodi="http://sodipodi.sourceforge.net/DTD/sodipodi-0.dtd"
   xmlns:xlink="http://www.w3.org/1999/xlink"
   xmlns="http://www.w3.org/2000/svg"
   xmlns:svg="http://www.w3.org/2000/svg"
   xmlns:rdf="http://www.w3.org/1999/02/22-rdf-syntax-ns#"
   xmlns:cc="http://creativecommons.org/ns#"
   xmlns:dc="http://purl.org/dc/elements/1.1/">
  <metadata
     id="metadata8">
    <rdf:RDF>
      <cc:Work
         rdf:about="">
        <dc:format>image/svg+xml</dc:format>
        <dc:type
           rdf:resource="http://purl.org/dc/dcmitype/StillImage" />
        <dc:title />
      </cc:Work>
    </rdf:RDF>
  </metadata>
  <defs
     id="defs6">
    <filter
       style="color-interpolation-filters:sRGB"
       id="filter3018-7-5"
       inkscape:label="Lapping"
       inkscape:menu="Distort"
       inkscape:menu-tooltip="Something like a water noise"
       height="1.0484816"
       y="-0.024240738"
       width="1.030456"
       x="-0.015227396">
      <feTurbulence
         id="feTurbulence3020-0-6"
         numOctaves="5"
         seed="0"
         type="fractalNoise"
         baseFrequency="0.1"
         result="result1" />
      <feGaussianBlur
         id="feGaussianBlur3022-9-9"
         stdDeviation="2"
         result="result2" />
      <feDisplacementMap
         id="feDisplacementMap3024-3-3"
         in2="result2"
         scale="50"
         yChannelSelector="B"
         xChannelSelector="R"
         in="SourceGraphic" />
    </filter>
    <filter
       style="color-interpolation-filters:sRGB"
       id="filter3018-7-5-3"
       inkscape:label="Lapping"
       inkscape:menu="Distort"
       inkscape:menu-tooltip="Something like a water noise"
       height="1.0376527"
       y="-0.018825715"
       width="1.0312601"
       x="-0.015633958">
      <feTurbulence
         id="feTurbulence3020-0-6-6"
         numOctaves="5"
         seed="0"
         type="fractalNoise"
         baseFrequency="0.1"
         result="result1" />
      <feGaussianBlur
         id="feGaussianBlur3022-9-9-4"
         stdDeviation="2"
         result="result2" />
      <feDisplacementMap
         id="feDisplacementMap3024-3-3-0"
         in2="result2"
         scale="50"
         yChannelSelector="B"
         xChannelSelector="R"
         in="SourceGraphic" />
    </filter>
  </defs>
  <sodipodi:namedview
     pagecolor="#ffffff"
     bordercolor="#666666"
     borderopacity="1"
     objecttolerance="10"
     gridtolerance="10"
     guidetolerance="10"
     inkscape:pageopacity="0"
     inkscape:pageshadow="2"
     inkscape:window-width="1888"
     inkscape:window-height="1146"
     id="namedview4"
     showgrid="false"
     inkscape:zoom="0.49190039"
     inkscape:cx="1167.9194"
     inkscape:cy="1857.0833"
     inkscape:window-x="32"
     inkscape:window-y="0"
     inkscape:window-maximized="1"
     inkscape:current-layer="layer3"
     inkscape:document-rotation="0"
     inkscape:snap-global="false"
     inkscape:pagecheckerboard="0" />
  <g
     inkscape:groupmode="layer"
     id="layer2"
     inkscape:label="artwork"
     sodipodi:insensitive="true">
    <image
       xlink:href="../gfx_Pepper-and-Carrot_by-David-Revoy_E35P03.png"
       width="2481"
       height="3503"
       id="image10"
       x="0"
       y="0" />
  </g>
  <g
     inkscape:groupmode="layer"
     id="layer3"
     inkscape:label="speechbubbles">
    <path
       style="color:#000000;font-variation-settings:normal;display:inline;overflow:visible;visibility:visible;vector-effect:none;fill:#000000;fill-opacity:1;fill-rule:nonzero;stroke:#000000;stroke-width:1.02241px;stroke-linecap:butt;stroke-linejoin:miter;stroke-miterlimit:4;stroke-dasharray:none;stroke-dashoffset:0;stroke-opacity:1;marker:none;filter:url(#filter3018-7-5-3);enable-background:accumulate;stop-color:#000000"
       d="m 793.30894,1614.644 c 23.82273,-47.9754 246.90696,-46.4583 287.99606,-34.1015 44.8414,13.4849 26.4915,52.9837 28.4965,94.8616 0.6193,12.9351 3.6139,107.5016 -35.0018,150.5677 -16.6614,18.5816 -130.35585,31.3976 -177.32736,29.0986 -54.16639,-2.6513 -110.21957,-48.382 -122.33758,-94.36 -6.00689,-22.7912 -5.64861,-98.0918 18.17418,-146.0664 z"
       id="path3330-0-3"
       inkscape:connector-curvature="0"
       sodipodi:nodetypes="zsssssz"
       transform="matrix(1.2585281,0,0,0.82993027,546.30063,254.60862)" />
    <path
       style="color:#000000;display:inline;overflow:visible;visibility:visible;fill:#ffffff;fill-opacity:1;fill-rule:nonzero;stroke:none;stroke-width:0.638286px;marker:none;enable-background:accumulate"
       d="m 394.1885,1643.3768 c 4.03607,-33.1768 49.22051,-57.3607 165.95992,-50.8712 62.53194,3.4762 138.2785,5.8193 133.09189,54.4223 -5.18669,48.6033 -84.55342,46.96 -133.1102,48.2305 -21.13266,0.553 -130.83775,-4.2368 -149.85194,-20.8138 -11.90244,-10.3767 -16.55062,-20.6911 -16.08967,-30.9678 z"
       id="path4546-6"
       inkscape:connector-curvature="0"
       sodipodi:nodetypes="cssssc" />
    <path
       style="color:#000000;display:inline;overflow:visible;visibility:visible;fill:#ffffff;fill-opacity:1;fill-rule:nonzero;stroke:none;stroke-width:1px;marker:none;enable-background:accumulate"
       d="m 625.98244,1838.7553 c 14.59712,-5.8706 26.29817,-25.6919 33.0509,-42.7644 1.81732,-4.8941 3.35817,-10.0845 3.44931,-15.3063 -1.11457,-5.4519 -6.12943,-9.0626 -11.35413,-10.1074 -7.44055,-2.0376 -16.10468,-1.0872 -22.43244,-6.159 6.62373,-30.7926 18.74668,-68.4402 -17.81815,-100.3755 -3.70155,-5.0208 -8.27562,-9.7554 -14.29935,-11.8512 -15.20805,-6.077 -34.1273,-3.517 -46.17318,7.9291 -6.99168,8.0303 -6.68349,22.0171 2.0681,28.6598 4.56751,3.5756 10.81069,3.4906 16.09434,1.8177 10.2879,-1.26 21.19532,-1.962 32.10285,4.7937 26.90502,21.3542 0.1543,60.804 6.34164,79.1456 4.62252,6.1074 12.88912,6.7863 19.94966,6.5539 7.28747,-0.052 15.73398,-0.9368 21.57373,4.3653 4.54779,3.1337 1.70824,8.9838 1.26798,13.3961 -3.27148,14.0224 -10.88009,26.8444 -20.66145,37.2985 -1.00695,0.926 -2.08089,1.7656 -3.15981,2.6041 z"
       id="path4496-2"
       inkscape:connector-curvature="0"
       sodipodi:nodetypes="ccccccccccccccccc" />
    <path
       style="color:#000000;font-variation-settings:normal;display:inline;overflow:visible;visibility:visible;opacity:1;vector-effect:none;fill:#000000;fill-opacity:1;fill-rule:nonzero;stroke:#000000;stroke-width:1.02241px;stroke-linecap:butt;stroke-linejoin:miter;stroke-miterlimit:4;stroke-dasharray:none;stroke-dashoffset:0;stroke-opacity:1;marker:none;filter:url(#filter3018-7-5);enable-background:accumulate;stop-color:#000000;stop-opacity:1"
       d="m 777.77605,1578.7499 c 31.97542,-17.3022 195.30977,-20.2429 269.47485,7.666 43.8378,16.4965 52.9774,46.4663 54.9826,88.3442 0.6193,12.9351 -9.7092,80.202 -31.7663,91.7496 -22.057,11.5468 -145.30106,18.1636 -167.35816,18.1636 -22.05703,0 -119.11217,1.0198 -136.93014,-15.8797 -17.04406,-16.1655 -20.37826,-172.7416 11.59715,-190.0437 z"
       id="path3330-0"
       inkscape:connector-curvature="0"
       sodipodi:nodetypes="zsssssz"
       transform="matrix(1.2789512,0,0,1.3408022,-228.70776,-547.8799)" />
    <path
       style="color:#000000;display:inline;overflow:visible;visibility:visible;fill:#ffffff;fill-opacity:1;fill-rule:nonzero;stroke:none;stroke-width:0.746749px;marker:none;enable-background:accumulate"
       d="m 2012.1826,1585.067 c 9.8197,-40.3314 56.2873,-28.2405 152.1127,-20.7706 61.4466,4.7901 106.8098,-15.5243 134.5627,6.7874 13.1088,10.5389 25.3491,102.791 11.3816,144.8282 -13.9675,42.0371 -56.9072,63.0609 -151.1771,62.9006 -83.7895,-0.1427 -107.1125,-15.856 -120.2268,-26.6182 -42.2472,-34.67 -36.4728,-126.7959 -26.6531,-167.1274 z"
       id="path4530-1"
       inkscape:connector-curvature="0"
       sodipodi:nodetypes="zsssssz" />
    <path
       style="fill:#ffffff;fill-rule:evenodd;stroke:none;stroke-width:1.66048px;stroke-linecap:butt;stroke-linejoin:miter;stroke-opacity:1"
       d="m 2285.1699,1715.0003 c 0,0 1.1455,15.2829 18.5599,18.5871 25.0022,4.7439 49.3554,67.4676 36.9796,95.7568 20.9615,-42.7867 12.7402,-70.9857 7.3083,-83.7931 -5.4319,-12.8092 -39.1198,-60.7121 -39.1198,-60.7121 z"
       id="path1367"
       inkscape:connector-curvature="0"
       sodipodi:nodetypes="cscccc" />
    <rect
       style="color:#000000;overflow:visible;opacity:1;vector-effect:none;fill:#ffffff;fill-opacity:1;stroke:none;stroke-width:1.02241px;stroke-linecap:butt;stroke-linejoin:miter;stroke-miterlimit:4;stroke-dasharray:none;stroke-dashoffset:0;stroke-opacity:1;marker:none;paint-order:stroke fill markers;stop-color:#000000;stop-opacity:1"
       id="rect955"
       width="421.44244"
       height="45.576038"
       x="1552.6824"
       y="1533.1331" />
    <rect
       style="color:#000000;overflow:visible;vector-effect:none;fill:#ffffff;fill-opacity:1;stroke:none;stroke-width:1.02241px;stroke-linecap:butt;stroke-linejoin:miter;stroke-miterlimit:4;stroke-dasharray:none;stroke-dashoffset:0;stroke-opacity:1;marker:none;paint-order:stroke fill markers;stop-color:#000000"
       id="rect955-1"
       width="324.11044"
       height="32.770958"
       x="1550.2794"
       y="-1959.2345"
       transform="rotate(90)" />
    <rect
       style="color:#000000;overflow:visible;vector-effect:none;fill:#000000;fill-opacity:1;stroke:none;stroke-width:1.02241px;stroke-linecap:butt;stroke-linejoin:miter;stroke-miterlimit:4;stroke-dasharray:none;stroke-dashoffset:0;stroke-opacity:1;marker:none;paint-order:stroke fill markers;stop-color:#000000"
       id="rect955-1-9-5"
       width="215.94513"
       height="32.770958"
       x="1556.7144"
       y="-782.47455"
       transform="rotate(90)" />
    <rect
       style="color:#000000;overflow:visible;vector-effect:none;fill:#ffffff;fill-opacity:1;stroke:none;stroke-width:1.02241px;stroke-linecap:butt;stroke-linejoin:miter;stroke-miterlimit:4;stroke-dasharray:none;stroke-dashoffset:0;stroke-opacity:1;marker:none;paint-order:stroke fill markers;stop-color:#000000"
       id="rect955-7"
       width="421.44244"
       height="45.576038"
       x="724.89355"
       y="1533.1924" />
    <rect
       style="color:#000000;overflow:visible;vector-effect:none;fill:#ffffff;fill-opacity:1;stroke:none;stroke-width:1.02241px;stroke-linecap:butt;stroke-linejoin:miter;stroke-miterlimit:4;stroke-dasharray:none;stroke-dashoffset:0;stroke-opacity:1;marker:none;paint-order:stroke fill markers;stop-color:#000000"
       id="rect955-1-9"
       width="324.11044"
       height="32.770958"
       x="1571.7268"
       y="-757.57123"
       transform="rotate(90)" />
    <path
       style="color:#000000;display:inline;overflow:visible;visibility:visible;fill:#000000;fill-opacity:1;fill-rule:nonzero;stroke:none;stroke-width:1px;marker:none;enable-background:accumulate"
       d="m 965.06447,1810.9746 c -10.48781,65.7332 8.09398,115.8018 48.41863,135.2849 -66.86197,-16.5608 -88.22071,-107.654 -82.18417,-135.3353 5.91061,-27.1034 33.76554,0.05 33.76554,0.05 z"
       id="path5010-4"
       inkscape:connector-curvature="0"
       sodipodi:nodetypes="ccsc" />
    <path
       style="color:#000000;display:inline;overflow:visible;visibility:visible;fill:#000000;fill-opacity:1;fill-rule:nonzero;stroke:none;stroke-width:1.01928px;marker:none;enable-background:accumulate"
       d="m 1743.1225,1763.7436 c 15.7747,54.9707 0.2571,98.4608 -40.0744,117.4009 68.0485,-18.0851 83.3814,-96.451 75.0597,-119.5013 -8.1479,-22.5691 -34.9853,2.1004 -34.9853,2.1004 z"
       id="path5010-4-3"
       inkscape:connector-curvature="0"
       sodipodi:nodetypes="ccsc" />
  </g>
  <g
     inkscape:groupmode="layer"
     id="layer1"
     inkscape:label="txt">
    <text
       xml:space="preserve"
       style="font-style:normal;font-variant:normal;font-weight:normal;font-stretch:normal;font-size:45px;line-height:1.25;font-family:Lavi;-inkscape-font-specification:Lavi;text-align:center;letter-spacing:0px;word-spacing:0px;text-anchor:middle;fill:#000000;fill-opacity:1;stroke:none"
       x="536.7403"
       y="1657.7185"
       id="text4246-3-2-2"><tspan
         style="font-size:45px"
         sodipodi:role="line"
         x="536.7403"
         y="1657.7185"
         id="tspan2555">Si to videl?</tspan></text>
    <text
       xml:space="preserve"
       style="font-style:normal;font-variant:normal;font-weight:normal;font-stretch:normal;font-size:56px;line-height:1.25;font-family:Lavi;-inkscape-font-specification:Lavi;text-align:center;letter-spacing:0px;word-spacing:0px;text-anchor:middle;fill:#000000;fill-opacity:1;stroke:none"
       x="956.40588"
       y="1642.3719"
       id="text4246-3-2-2-3"><tspan
         style="font-style:normal;font-variant:normal;font-weight:normal;font-stretch:normal;font-size:56px;font-family:Drukah;-inkscape-font-specification:Drukah;fill:#ffffff"
         sodipodi:role="line"
         x="956.40588"
         y="1642.3719"
         id="tspan9282">Ja. Tega</tspan><tspan
         style="font-style:normal;font-variant:normal;font-weight:normal;font-stretch:normal;font-size:56px;font-family:Drukah;-inkscape-font-specification:Drukah;fill:#ffffff"
         sodipodi:role="line"
         x="956.40588"
         y="1713.2863"
         id="tspan16826">zasledovanja bo</tspan><tspan
         style="font-style:normal;font-variant:normal;font-weight:normal;font-stretch:normal;font-size:56px;font-family:Drukah;-inkscape-font-specification:Drukah;fill:#ffffff"
         sodipodi:role="line"
         x="956.40588"
         y="1784.2006"
         id="tspan20928">kmalu konec.</tspan></text>
    <text
       xml:space="preserve"
       style="font-style:normal;font-variant:normal;font-weight:normal;font-stretch:normal;font-size:56px;line-height:1.25;font-family:Lavi;-inkscape-font-specification:Lavi;text-align:center;letter-spacing:0px;word-spacing:0px;text-anchor:middle;fill:#000000;fill-opacity:1;stroke:none"
       x="1745.6316"
       y="1648.7506"
       id="text4246-3-2-2-3-3"><tspan
         style="font-style:normal;font-variant:normal;font-weight:normal;font-stretch:normal;font-size:56px;font-family:Drukah;-inkscape-font-specification:Drukah;fill:#ffffff"
         sodipodi:role="line"
         x="1745.6316"
         y="1648.7506"
         id="tspan19281">Kmalu ji bodo</tspan><tspan
         style="font-style:normal;font-variant:normal;font-weight:normal;font-stretch:normal;font-size:56px;font-family:Drukah;-inkscape-font-specification:Drukah;fill:#ffffff"
         sodipodi:role="line"
         x="1745.6316"
         y="1719.6649"
         id="tspan6243">pošle moči.</tspan></text>
    <text
       xml:space="preserve"
       style="font-style:normal;font-variant:normal;font-weight:normal;font-stretch:normal;font-size:45px;line-height:1.25;font-family:Lavi;-inkscape-font-specification:Lavi;text-align:center;letter-spacing:0px;word-spacing:0px;text-anchor:middle;fill:#000000;fill-opacity:1;stroke:none"
       x="2165.3845"
       y="1620.3629"
       id="text4246-3-2-2-3-5"><tspan
         style="font-size:45px"
         sodipodi:role="line"
         x="2165.3845"
         y="1620.3629"
         id="tspan1044">Napadeva,</tspan><tspan
         style="font-size:45px"
         sodipodi:role="line"
         x="2165.3845"
         y="1676.6129"
         id="tspan10519">takoj ko bo</tspan><tspan
         style="font-size:45px"
         sodipodi:role="line"
         x="2165.3845"
         y="1732.8629"
         id="tspan10523">pri koncu.</tspan></text>
  </g>
</svg>
