<?xml version="1.0" encoding="UTF-8" standalone="no"?>
<svg
   id="svg2"
   version="1.1"
   inkscape:version="1.1.1 (3bf5ae0d25, 2021-09-20, custom)"
   width="2481"
   height="3503"
   sodipodi:docname="E35P04.svg"
   xmlns:inkscape="http://www.inkscape.org/namespaces/inkscape"
   xmlns:sodipodi="http://sodipodi.sourceforge.net/DTD/sodipodi-0.dtd"
   xmlns:xlink="http://www.w3.org/1999/xlink"
   xmlns="http://www.w3.org/2000/svg"
   xmlns:svg="http://www.w3.org/2000/svg"
   xmlns:rdf="http://www.w3.org/1999/02/22-rdf-syntax-ns#"
   xmlns:cc="http://creativecommons.org/ns#"
   xmlns:dc="http://purl.org/dc/elements/1.1/">
  <metadata
     id="metadata8">
    <rdf:RDF>
      <cc:Work
         rdf:about="">
        <dc:format>image/svg+xml</dc:format>
        <dc:type
           rdf:resource="http://purl.org/dc/dcmitype/StillImage" />
        <dc:title />
      </cc:Work>
    </rdf:RDF>
  </metadata>
  <defs
     id="defs6">
    <filter
       style="color-interpolation-filters:sRGB"
       id="filter4375-4-1-1-1-9-5-8-8-5-5-3-3"
       inkscape:label="soundFX1"
       x="-0.10000000000000001"
       y="-0.10000000000000001"
       width="1.5"
       height="1.5"
       inkscape:auto-region="false">
      <feFlood
         id="feFlood4377-7-9-0-8-1-7-3-1-2-7-6-6"
         flood-opacity="1"
         flood-color="rgb(52,52,52)"
         result="flood" />
      <feComposite
         id="feComposite4379-3-8-8-2-77-4-1-0-6-4-7-7"
         in2="SourceGraphic"
         in="flood"
         operator="in"
         result="composite1"
         baseFrequency="0.053999999999999999 0.053999999999999999" />
      <feMorphology
         id="feMorphology4393-1-0-49-8-9-3-0-1-9-9-5-5"
         operator="dilate"
         radius="9.350875432312252"
         result="result3" />
      <feComposite
         id="feComposite4385-9-5-7-0-8-8-7-5-4-9-3-3"
         in2="result3"
         in="SourceGraphic"
         operator="over"
         result="fbSourceGraphic" />
      <feColorMatrix
         result="fbSourceGraphicAlpha"
         in="fbSourceGraphic"
         values="0 0 0 -1 0 0 0 0 -1 0 0 0 0 -1 0 0 0 0 1 0"
         id="feColorMatrix4544-9-4-4-5-5" />
      <feTurbulence
         id="feTurbulence4546-3-6-5-6-6"
         type="fractalNoise"
         numOctaves="4"
         seed="147"
         baseFrequency="0.053999999999999999 0.054054054054054057"
         result="turbulence" />
      <feDisplacementMap
         id="feDisplacementMap4548-8-0-9-2-2"
         in2="turbulence"
         in="fbSourceGraphic"
         scale="10.561763"
         yChannelSelector="G"
         xChannelSelector="R"
         result="fbSourceGraphic" />
      <feColorMatrix
         result="fbSourceGraphicAlpha"
         in="fbSourceGraphic"
         values="0 0 0 -1 0 0 0 0 -1 0 0 0 0 -1 0 0 0 0 1 0"
         id="feColorMatrix4670-7-7-3-9-9" />
      <feFlood
         id="feFlood4672-4-4-5-1-1"
         flood-opacity="1"
         flood-color="rgb(28,28,28)"
         result="flood"
         in="fbSourceGraphic" />
      <feComposite
         id="feComposite4674-8-3-7-2-2"
         in2="fbSourceGraphic"
         in="flood"
         operator="in"
         result="composite1" />
      <feGaussianBlur
         id="feGaussianBlur4676-3-7-08-7-7"
         in="composite1"
         stdDeviation="0"
         result="blur" />
      <feOffset
         id="feOffset4678-6-9-1-0-0"
         dx="-10.48377497279229"
         dy="0.39217365321829334"
         result="offset" />
      <feComposite
         id="feComposite4680-4-0-9-9-9"
         in2="offset"
         in="fbSourceGraphic"
         operator="over"
         result="composite2" />
    </filter>
    <filter
       style="color-interpolation-filters:sRGB"
       id="filter4375-4-1-1-1-9-5-8-8-5-5-3-3-3"
       inkscape:label="soundFX1"
       x="-0.026941638"
       y="-0.0044691586"
       width="1.0277744"
       height="1.0141798">
      <feFlood
         id="feFlood4377-7-9-0-8-1-7-3-1-2-7-6-6-5"
         flood-opacity="1"
         flood-color="rgb(52,52,52)"
         result="flood" />
      <feComposite
         id="feComposite4379-3-8-8-2-77-4-1-0-6-4-7-7-6"
         in2="SourceGraphic"
         in="flood"
         operator="in"
         result="composite1"
         baseFrequency="0.053999999999999999 0.053999999999999999" />
      <feMorphology
         id="feMorphology4393-1-0-49-8-9-3-0-1-9-9-5-5-2"
         operator="dilate"
         radius="4.0330969769021738"
         result="result3" />
      <feComposite
         id="feComposite4385-9-5-7-0-8-8-7-5-4-9-3-3-9"
         in2="result3"
         in="SourceGraphic"
         operator="over"
         result="fbSourceGraphic" />
      <feColorMatrix
         result="fbSourceGraphicAlpha"
         in="fbSourceGraphic"
         values="0 0 0 -1 0 0 0 0 -1 0 0 0 0 -1 0 0 0 0 1 0"
         id="feColorMatrix4544-9-4-4-5-5-1" />
      <feTurbulence
         id="feTurbulence4546-3-6-5-6-6-2"
         type="fractalNoise"
         numOctaves="4"
         seed="147"
         baseFrequency="0.046080819231719368"
         result="turbulence" />
      <feDisplacementMap
         id="feDisplacementMap4548-8-0-9-2-2-7"
         in2="turbulence"
         in="fbSourceGraphic"
         scale="13.20326"
         yChannelSelector="G"
         xChannelSelector="R"
         result="fbSourceGraphic" />
      <feColorMatrix
         result="fbSourceGraphicAlpha"
         in="fbSourceGraphic"
         values="0 0 0 -1 0 0 0 0 -1 0 0 0 0 -1 0 0 0 0 1 0"
         id="feColorMatrix4670-7-7-3-9-9-0" />
      <feFlood
         id="feFlood4672-4-4-5-1-1-9"
         flood-opacity="1"
         flood-color="rgb(28,28,28)"
         result="flood"
         in="fbSourceGraphic" />
      <feComposite
         id="feComposite4674-8-3-7-2-2-3"
         in2="fbSourceGraphic"
         in="flood"
         operator="in"
         result="composite1" />
      <feGaussianBlur
         id="feGaussianBlur4676-3-7-08-7-7-6"
         in="composite1"
         stdDeviation="0"
         result="blur" />
      <feOffset
         id="feOffset4678-6-9-1-0-0-0"
         dx="-10.48377497279229"
         dy="0.39217365321829334"
         result="offset" />
      <feComposite
         id="feComposite4680-4-0-9-9-9-6"
         in2="offset"
         in="fbSourceGraphic"
         operator="over"
         result="composite2" />
    </filter>
  </defs>
  <sodipodi:namedview
     pagecolor="#ffffff"
     bordercolor="#666666"
     borderopacity="1"
     objecttolerance="10"
     gridtolerance="10"
     guidetolerance="10"
     inkscape:pageopacity="0"
     inkscape:pageshadow="2"
     inkscape:window-width="1888"
     inkscape:window-height="1146"
     id="namedview4"
     showgrid="false"
     inkscape:window-x="32"
     inkscape:window-y="0"
     inkscape:window-maximized="1"
     inkscape:document-rotation="0"
     inkscape:snap-global="false"
     inkscape:pagecheckerboard="0"
     inkscape:zoom="0.44304882"
     inkscape:cx="1515.6343"
     inkscape:cy="2540.3521"
     inkscape:current-layer="layer1" />
  <g
     inkscape:groupmode="layer"
     id="layer2"
     inkscape:label="artwork"
     sodipodi:insensitive="true">
    <image
       xlink:href="../gfx_Pepper-and-Carrot_by-David-Revoy_E35P04.png"
       y="0"
       x="0"
       id="image10"
       height="3503"
       width="2481" />
  </g>
  <g
     inkscape:groupmode="layer"
     id="layer3"
     inkscape:label="speechbubbles">
    <path
       style="fill:#ffffff;fill-rule:evenodd;stroke:none;stroke-width:1.3803px;stroke-linecap:butt;stroke-linejoin:miter;stroke-opacity:1"
       d="m 1990.6841,68.129186 40.8894,-58.1643763 10.7703,72.2694093 16.0195,-10.797383 -1.1205,12.424853 77.5078,-87.8692186 -17.3836,103.4133266 28.6218,-11.512543 -26.2092,30.449126 71.5505,-11.92249 -52.0274,36.07877 109.7994,-20.18457 -86.5737,48.35085 68.7817,15.87944 -76.9714,21.31793 82.325,34.53867 -128.9502,0.0335 23.8906,14.29195 -47.765,-3.52361 4.7183,31.7206 -28.459,-22.54414 -2.5496,19.73937 -12.2434,-13.74773 -45.6264,71.52464 -14.9509,-66.61322 -34.159,25.24735 9.0138,-34.41797 -80.516,13.14666 59.4356,-35.61674 -52.3321,-12.33614 13.2762,-25.24301 -19.2203,-3.63745 19.8777,-40.2119 -5.8639,-29.82786 6.0608,-43.514206 14.6237,-6.146039 16.6659,2.371306 -14.9767,-17.873766 43.9064,21.730774 12.0993,-4.199085 z"
       id="path1311"
       inkscape:connector-curvature="0"
       sodipodi:nodetypes="ccccccccccccccccccccccccccccccccccccccccc" />
    <path
       style="display:inline;fill:#ffffff;fill-rule:evenodd;stroke:none;stroke-width:1.0503px;stroke-linecap:butt;stroke-linejoin:miter;stroke-opacity:1"
       d="m 1961.6849,974.43043 c 21.1052,29.29247 20.5286,46.73047 -0.4248,33.02857 18.8587,20.0484 13.3917,22.7598 -4.7611,26.8681 35.4703,46.6885 17.4884,74.1226 -1.7507,101.1039 49.9445,-10.1671 46.9593,14.5224 55.5652,31.5791 17.1636,-32.1072 18.0998,-10.849 14.5083,25.2997 19.3638,-41.6335 27.4974,-44.5674 25.3929,-12.212 15.6545,-26.147 30.9386,-35.6617 45.7967,-26.0587 36.5372,-23.1251 41.3428,11.6707 56.4045,27.7461 5.5782,-32.7493 20.5898,-40.6499 45.0483,-6.8233 3.6615,-19.7832 25.71,-18.2303 43.1751,11.1132 -20.8074,-57.0304 17.9238,-4.7818 24.6438,-1.1596 -9.7533,-29.3028 20.8327,-29.2784 62.1875,-6.3042 -13.844,-13.4913 -24.86,-41.6972 5.0254,-51.7575 -27.559,-13.8103 -23.9942,-28.0122 -4.0783,-42.4204 -29.3986,-24.8273 -1.0894,-45.4955 21.4192,-66.7911 -37.6056,8.6419 -54.1755,7.3589 -52.7463,-26.67595 -59.4723,23.31475 -48.1871,9.36145 -40.1278,-2.89296 -40.4505,29.79491 -39.7889,0.57638 -38.2457,-8.43737 -53.9266,31.95788 -87.3583,-5.62868 -101.1123,-28.03279 -18.1454,45.20673 -33.156,26.64789 -48.154,7.82621 6.5887,34.13575 -10.0663,30.71099 -26.2316,16.04536 2.9881,22.88075 -13.8172,41.7751 -39.6295,8.56794 8.3138,16.25056 -10.1751,23.10346 -41.9048,-9.61231 z"
       id="path4289-9-3"
       inkscape:connector-curvature="0"
       sodipodi:nodetypes="cccccccccccccccccccccccc" />
    <path
       style="color:#000000;display:inline;overflow:visible;visibility:visible;fill:#ffffff;fill-opacity:1;fill-rule:nonzero;stroke:none;stroke-width:0.770816px;marker:none;enable-background:accumulate"
       d="m 1939.1741,1934.971 c 9.8826,-14.9726 20.1591,-35.7858 23.8355,-5.3013 27.0685,-40.8191 60.473,-26.4356 67.8775,-20.4876 -3.4169,-12.0842 3.4721,-33.8053 23.1477,-28.4646 -3.7385,-11.6741 1.906,-20.4399 15.9223,-26.6098 -19.8636,-5.4615 -24.0618,-12.5657 10.8853,-23.7804 -27.2137,1.6813 -52.6866,2.3839 -23.3108,-27.7406 -10.0505,0.2441 -31.693,25.1224 -26.6716,-42.41 -15.2491,22.8526 -32.5067,36.2631 -59.537,-6.2759 -5.4681,18.2557 -14.9492,31.1057 -37.4502,8.9055 3.3969,46.8177 -26.7148,23.6021 -36.4997,18.8055 24.5248,24.178 36.1626,51.7113 -4.087,34.244 44.6161,31.5109 12.6873,38.46 6.8212,48.0033 33.6239,9.2096 39.3039,22.9789 20.1474,41.0257 37.4287,-2.8622 20.7777,21.5037 18.9194,30.0862 z"
       id="path3549-3-8"
       inkscape:connector-curvature="0"
       sodipodi:nodetypes="ccccccccccccccc" />
    <path
       style="color:#000000;display:inline;overflow:visible;visibility:visible;fill:#ffffff;fill-opacity:1;fill-rule:nonzero;stroke:none;stroke-width:0.953405px;marker:none;enable-background:accumulate"
       d="m 1926.248,1843.0789 c -20.822,12.3713 -43.9112,29.9401 -49.0115,34.7313 7.6441,4.8958 13.7298,10.7762 18.5416,15.2652 -10.1989,7.8557 -59.6343,40.9724 -74.2202,42.5016 36.2511,-2.0413 75.4853,-23.85 91.2102,-38.3345 -5.5183,-7.1796 -9.6233,-10.7039 -12.4531,-14.5629 7.5084,-7.7245 36.8287,-25.7792 36.8287,-25.7792 z"
       id="path5066-8"
       inkscape:connector-curvature="0"
       inkscape:transform-center-x="-57.216036"
       inkscape:transform-center-y="-43.686552" />
    <path
       style="display:inline;fill:#ffffff;fill-rule:evenodd;stroke:none;stroke-width:0.698114px;stroke-linecap:butt;stroke-linejoin:miter;stroke-opacity:1"
       d="m 1665.6496,2720.217 c -19.6361,-13.8585 -31.0472,-36.912 -29.6699,-59.863 0.018,-3.5135 -0.3774,-8.0219 1.5022,-2.246 1.752,4.0298 7.1294,13.6182 9.3265,12.5222 -1.2577,-8.8501 -0.2747,-17.6718 1.0262,-26.4179 0.8513,-9.1477 7.5036,10.9922 11.4613,3.0445 -2.1399,-3.3793 -1.2275,-11.9763 2.6691,-4.5199 5.2814,6.2476 6.6536,0.1269 7.85,-3.1599 5.324,4.3437 6.6145,0.9638 8.7355,-2.1934 4.4195,2.8325 7.965,2.6051 9.8386,-1.8567 6.805,0.054 15.7397,4.6724 17.0511,-5.2373 3.2855,-4.6515 6.419,5.8393 12.0254,2.8279 11.3019,-1.1697 22.5172,1.5185 33.7929,1.9774 9.4736,1.1427 16.8227,7.5219 24.2404,12.1511 -0.7236,-3.4387 -1.3227,-6.9813 3.6078,-3.573 4.3625,-0.083 -5.945,-13.324 1.6662,-5.6321 9.6784,9.143 15.9147,20.825 23.9307,31.1801 7.1892,10.8464 16.5903,20.4605 21.8335,32.4118 4.5071,9.259 8.1574,19.2126 9.924,29.1222 -1.6803,-3.6809 -8.462,-11.6388 -7.7428,-2.7516 0.4661,3.9719 -1.8919,16.6007 -5.7742,8.7104 -3.8776,-2.1273 -5.7925,3.3442 -6.9663,-2.5626 -1.8895,-3.8578 -9.3243,-16.3625 -8.3199,-5.2596 -0.174,4.4625 -0.2836,15.7557 -6.158,15.2981 -0.5142,-4.3369 -3.1418,-4.5846 -5.3982,-1.9329 -2.5119,-2.7725 -4.8185,-4.3471 -7.6111,-2.5997 -6.1311,-4.1244 -14.3738,-4.5374 -20.5854,-0.3415 -6.9066,2.9169 -9.0375,12.2104 -17.8768,10.295 -6.5978,1.0738 -11.7588,5.2852 -18.6393,1.7588 -6.1975,2.5269 -13.8801,1.4423 -20.2963,-0.7309 -2.3826,-0.9719 -8.393,-5.9972 -8.2166,-0.5102 -4.6488,1.613 -14.2369,-5.5606 -14.4917,-3.6972 1.3173,7.42 -7.7729,-4.0575 -9.5979,-6.1815 -4.7811,-6.3934 -10.721,-12.4102 -13.137,-20.0326 z"
       id="path4197"
       inkscape:connector-curvature="0" />
    <path
       style="display:inline;fill:#ffffff;fill-rule:evenodd;stroke:none;stroke-width:0.567171px;stroke-linecap:butt;stroke-linejoin:miter;stroke-opacity:1"
       d="m 1800.3381,2665.8758 c -9.8295,12.0584 -4.3202,29.2333 -2.2056,43.214 -0.4324,9.5398 9.6251,23.2873 8.5277,27.7617 -3.9504,-3.6308 -9.85,-7.4072 -5.5313,1.4199 5.4929,25.0404 21.9848,45.0994 39.2058,62.02 5.2788,3.7476 21.4889,15.4095 20.3512,7.2098 9.8831,6.5911 21.6815,9.3623 32.9207,11.905 12.7106,-0.4207 25.0903,2.6291 36.7006,8.1528 11.5978,3.5837 24.3171,8.7977 36.274,4.0031 -4.696,-17.0973 15.4861,-1.0951 23.0288,-7.1827 6.7465,2.4651 23.6969,-1.9658 35.0713,-4.6829 11.3811,-2.8295 22.6903,-6.8221 33.1469,-12.4557 7.3063,0.4718 19.555,-3.5214 27.3892,-13.0735 6.8335,2.3036 15.1702,-30.7262 12.8462,-37.8391 -1.8421,-11.8704 -1.0215,-25.015 -3.2335,-34.3533 -1.0933,-11.1091 -10.272,-17.0434 -13.4904,-27.5766 -7.5988,-18.6614 -21.3941,-33.5751 -37.899,-43.3921 -13.7506,-8.1804 -28.2801,-16.3408 -43.8841,-19.1618 -10.1774,-0.3067 8.7225,11.945 -3.8978,5.3985 -9.5425,-6.9478 1.2894,8.9211 -6.0627,2.3264 -4.1309,-5.187 -12.575,-9.5039 -9.4187,1.8219 -0.507,4.5202 -4.0208,0.806 -6.2011,4.7945 -10.9135,-7.1592 -23.1722,-1.8024 -35.1918,-1.7096 -6.625,-0.8454 -16.8915,4.2876 -19.9334,-4.9449 0.06,11.1871 -10.4289,0.3865 -11.5372,11.2764 -5.0067,-2.8135 -13.2768,-9.2314 -14.1535,1.011 -8.3708,8.7256 -19.9705,-7.5828 -25.25,-4.0596 2.9594,17.2919 -11.5254,2.5498 -16.8503,-1.4893 -1.1459,19.1789 -18.5556,-3.6906 -26.1228,-0.8195 8.0609,10.9733 -2.7016,21.1581 -13.0955,13.842 4.9258,17.5446 -5.1532,4.0414 -11.5037,6.5836 z"
       id="path4236"
       inkscape:connector-curvature="0"
       sodipodi:nodetypes="ccccccccccccccccccccccccccccccc" />
    <path
       style="display:inline;fill:#ffffff;fill-rule:evenodd;stroke:none;stroke-width:1px;stroke-linecap:butt;stroke-linejoin:miter;stroke-opacity:1"
       d="m 2040.4712,2973.7641 c 16.3129,-104.9146 -18.3515,-177.7317 -52.9957,-199.8323 -34.6434,-22.0999 -57.1191,-12.3122 -34.9033,9.9761 22.215,22.2877 85.0927,37.2478 87.899,189.8562 z"
       id="path4293"
       inkscape:connector-curvature="0" />
  </g>
  <g
     inkscape:groupmode="layer"
     id="layer1"
     inkscape:label="txt">
    <text
       xml:space="preserve"
       style="font-style:normal;font-variant:normal;font-weight:normal;font-stretch:normal;font-size:179.149px;line-height:1.25;font-family:Lavi;-inkscape-font-specification:Lavi;letter-spacing:0px;word-spacing:0px;display:inline;fill:#ffffff;fill-opacity:1;stroke:#ffffff;stroke-width:0.741719;stroke-miterlimit:4;stroke-dasharray:none;stroke-opacity:1;filter:url(#filter4375-4-1-1-1-9-5-8-8-5-5-3-3)"
       id="text4580-6-0-0-0-9-3-3"
       transform="matrix(0.84462079,-0.22320955,-0.11568168,1.0724298,1274.1704,456.12778)"
       x="181.50571"
       y="435.11505"><textPath
         xlink:href="#path974"
         id="textPath2837"
         style="font-style:normal;font-variant:normal;font-weight:bold;font-stretch:normal;font-size:179.149px;font-family:Lavi;-inkscape-font-specification:'Lavi Bold';stroke-width:0.741719"><tspan
           style="font-style:normal;font-variant:normal;font-weight:bold;font-stretch:normal;font-size:228.21px;font-family:Lavi;-inkscape-font-specification:'Lavi Bold'"
           id="tspan936">Bum</tspan><tspan
           style="font-style:normal;font-variant:normal;font-weight:bold;font-stretch:normal;font-size:200.696px;font-family:Lavi;-inkscape-font-specification:'Lavi Bold'"
           id="tspan876">M</tspan><tspan
           id="tspan884"
           style="font-style:normal;font-variant:normal;font-weight:bold;font-stretch:normal;font-size:222.316px;font-family:Lavi;-inkscape-font-specification:'Lavi Bold'">!</tspan></textPath></text>
    <text
       xml:space="preserve"
       style="font-style:normal;font-variant:normal;font-weight:normal;font-stretch:normal;font-size:50.1752px;line-height:1.25;font-family:Lavi;-inkscape-font-specification:Lavi;text-align:center;letter-spacing:0px;word-spacing:0px;text-anchor:middle;fill:#000000;fill-opacity:1;stroke:none;stroke-width:1.115"
       x="2032.2942"
       y="200.49689"
       id="text4246-3-2-2"
       transform="scale(1.0052596,0.99476792)"><tspan
         style="font-style:normal;font-variant:normal;font-weight:bold;font-stretch:normal;font-size:50.1752px;font-family:Lavi;-inkscape-font-specification:'Lavi Bold';stroke-width:1.115"
         sodipodi:role="line"
         x="2032.2942"
         y="200.49689"
         id="tspan905">KAJ?!</tspan></text>
    <path
       style="color:#000000;display:inline;overflow:visible;visibility:visible;fill:#ffffff;fill-opacity:1;fill-rule:nonzero;stroke:none;stroke-width:0.721774px;marker:none;enable-background:accumulate"
       d="m 2040.474,1024.8225 c 9.861,-32.35378 17.4578,-71.35099 18.3464,-80.70238 -11.8043,4.23219 -24.3456,2.67351 -32.9969,4.198 3.2732,-17.30307 13.3579,-99.34384 26.4548,-116.22599 -34.0773,40.53356 -42.4573,105.79489 -45.4461,134.39433 11.6836,-0.10269 18.7989,-1.64982 24.9438,-1.55895 -0.7263,14.31116 -14.0636,60.38469 -14.0636,60.38469 z"
       id="path5066-7"
       inkscape:connector-curvature="0"
       sodipodi:nodetypes="cccccccc" />
    <text
       xml:space="preserve"
       style="font-style:normal;font-variant:normal;font-weight:normal;font-stretch:normal;font-size:45px;line-height:1.25;font-family:Lavi;-inkscape-font-specification:Lavi;text-align:center;letter-spacing:0px;word-spacing:0px;text-anchor:middle;fill:#000000;fill-opacity:1;stroke:none"
       x="2148.0608"
       y="1062.1477"
       id="text4246-3-2-2-3"><tspan
         style="font-size:45px"
         sodipodi:role="line"
         x="2148.0608"
         y="1062.1477"
         id="tspan8357">Prebila sta</tspan><tspan
         style="font-size:45px"
         sodipodi:role="line"
         x="2148.0608"
         y="1118.3977"
         id="tspan22246">zvočni zid?!</tspan></text>
    <text
       xml:space="preserve"
       style="font-style:normal;font-variant:normal;font-weight:normal;font-stretch:normal;font-size:69.6081px;line-height:1.25;font-family:Lavi;-inkscape-font-specification:Lavi;text-align:center;letter-spacing:0px;word-spacing:0px;text-anchor:middle;fill:#000000;fill-opacity:1;stroke:none;stroke-width:1.54685"
       x="1899.1366"
       y="1946.7604"
       id="text4246-3-2-2-3-5"
       transform="scale(1.0399735,0.96156296)"><tspan
         style="font-style:normal;font-variant:normal;font-weight:bold;font-stretch:normal;font-size:69.6081px;font-family:Lavi;-inkscape-font-specification:'Lavi Bold';stroke-width:1.54685"
         sodipodi:role="line"
         x="1899.1366"
         y="1946.7604"
         id="tspan905-3-1">!<tspan
   style="font-size:79.6081px"
   id="tspan1014">!</tspan><tspan
   id="tspan1018"
   style="font-size:89.6081px">!</tspan></tspan></text>
    <text
       xml:space="preserve"
       style="font-style:normal;font-variant:normal;font-weight:normal;font-stretch:normal;font-size:80px;line-height:1.25;font-family:Lavi;-inkscape-font-specification:Lavi;letter-spacing:0px;word-spacing:0px;display:inline;fill:#ffffff;fill-opacity:1;stroke:#ffffff;stroke-width:0.668774;stroke-miterlimit:4;stroke-dasharray:none;stroke-opacity:1;filter:url(#filter4375-4-1-1-1-9-5-8-8-5-5-3-3-3)"
       id="text4580-6-0-0-0-9-3-3-2"
       transform="matrix(0.80003598,-0.79061533,0.21633545,1.1521123,363.87713,1065.1365)"
       x="-607.91235"
       y="1245.0809"><tspan
         id="tspan1510"
         style="font-size:99.052px">VUuš</tspan><tspan
         id="tspan1530"
         style="font-size:44.312px">!</tspan><tspan
         id="tspan1534"
         style="font-size:61.3371px">!!</tspan></text>
    <text
       xml:space="preserve"
       style="font-style:normal;font-variant:normal;font-weight:normal;font-stretch:normal;font-size:45px;line-height:1.25;font-family:Lavi;-inkscape-font-specification:Lavi;text-align:center;letter-spacing:0px;word-spacing:0px;text-anchor:middle;fill:#000000;fill-opacity:1;stroke:none"
       x="1731.2717"
       y="2703.6306"
       id="text4246-3-2-2-3-2"><tspan
         style="font-style:normal;font-variant:normal;font-weight:bold;font-stretch:normal;font-size:45px;font-family:Lavi;-inkscape-font-specification:'Lavi Bold'"
         sodipodi:role="line"
         x="1731.2717"
         y="2703.6306"
         id="tspan905-3-3">Grrr!</tspan></text>
    <text
       xml:space="preserve"
       style="font-style:normal;font-variant:normal;font-weight:normal;font-stretch:normal;font-size:45px;line-height:1.25;font-family:Lavi;-inkscape-font-specification:Lavi;text-align:center;letter-spacing:0px;word-spacing:0px;text-anchor:middle;fill:#000000;fill-opacity:1;stroke:none"
       x="1940.2235"
       y="2722.1807"
       id="text4246-3-2-2-3-2-6"><tspan
         style="font-style:normal;font-variant:normal;font-weight:normal;font-stretch:normal;font-size:45px;font-family:Lavi;-inkscape-font-specification:Lavi"
         sodipodi:role="line"
         x="1940.2235"
         y="2722.1807"
         id="tspan905-3-3-0">Trdno se drži,</tspan><tspan
         style="font-style:normal;font-variant:normal;font-weight:normal;font-stretch:normal;font-size:45px;font-family:Lavi;-inkscape-font-specification:Lavi"
         sodipodi:role="line"
         x="1940.2235"
         y="2778.4307"
         id="tspan1154">Korenček!</tspan></text>
  </g>
</svg>
