<?xml version="1.0" encoding="UTF-8" standalone="no"?>
<svg
   xmlns:dc="http://purl.org/dc/elements/1.1/"
   xmlns:cc="http://creativecommons.org/ns#"
   xmlns:rdf="http://www.w3.org/1999/02/22-rdf-syntax-ns#"
   xmlns:svg="http://www.w3.org/2000/svg"
   xmlns="http://www.w3.org/2000/svg"
   xmlns:xlink="http://www.w3.org/1999/xlink"
   xmlns:sodipodi="http://sodipodi.sourceforge.net/DTD/sodipodi-0.dtd"
   xmlns:inkscape="http://www.inkscape.org/namespaces/inkscape"
   id="svg2"
   version="1.1"
   inkscape:version="1.0.2-2 (e86c870879, 2021-01-15)"
   width="2481"
   height="3503"
   sodipodi:docname="E34P04.svg">
  <metadata
     id="metadata8">
    <rdf:RDF>
      <cc:Work
         rdf:about="">
        <dc:format>image/svg+xml</dc:format>
        <dc:type
           rdf:resource="http://purl.org/dc/dcmitype/StillImage" />
        <dc:title />
      </cc:Work>
    </rdf:RDF>
  </metadata>
  <defs
     id="defs6">
    <filter
       style="color-interpolation-filters:sRGB"
       id="filter4375-4-1-1-1-9-5-8-8-5-5-3-8"
       inkscape:label="soundFX1">
      <feFlood
         id="feFlood4377-7-9-0-8-1-7-3-1-2-7-6-7"
         flood-opacity="1"
         flood-color="rgb(255,255,255)"
         result="flood" />
      <feComposite
         id="feComposite4379-3-8-8-2-77-4-1-0-6-4-7-9"
         in2="SourceGraphic"
         in="flood"
         operator="in"
         result="composite1"
         baseFrequency="0.053999999999999999 0.053999999999999999" />
      <feMorphology
         id="feMorphology4393-1-0-49-8-9-3-0-1-9-9-5-2"
         operator="dilate"
         radius="2.9756367599225957"
         result="result3" />
      <feComposite
         id="feComposite4385-9-5-7-0-8-8-7-5-4-9-3-0"
         in2="result3"
         in="SourceGraphic"
         operator="over"
         result="fbSourceGraphic" />
      <feColorMatrix
         result="fbSourceGraphicAlpha"
         in="fbSourceGraphic"
         values="0 0 0 -1 0 0 0 0 -1 0 0 0 0 -1 0 0 0 0 1 0"
         id="feColorMatrix4544-9-4-4-5-2" />
      <feTurbulence
         id="feTurbulence4546-3-6-5-6-3"
         type="fractalNoise"
         numOctaves="5"
         seed="174"
         baseFrequency="0.053999999999999999 0.054054054054054057"
         result="turbulence" />
      <feDisplacementMap
         id="feDisplacementMap4548-8-0-9-2-7"
         in2="turbulence"
         in="fbSourceGraphic"
         scale="6.6"
         yChannelSelector="G"
         xChannelSelector="R"
         result="fbSourceGraphic" />
      <feColorMatrix
         result="fbSourceGraphicAlpha"
         in="fbSourceGraphic"
         values="0 0 0 -1 0 0 0 0 -1 0 0 0 0 -1 0 0 0 0 1 0"
         id="feColorMatrix4670-7-7-3-9-5" />
      <feFlood
         id="feFlood4672-4-4-5-1-9"
         flood-opacity="1"
         flood-color="rgb(255,255,255)"
         result="flood"
         in="fbSourceGraphic" />
      <feComposite
         id="feComposite4674-8-3-7-2-22"
         in2="fbSourceGraphic"
         in="flood"
         operator="in"
         result="composite1" />
      <feGaussianBlur
         id="feGaussianBlur4676-3-7-08-7-8"
         in="composite1"
         stdDeviation="0"
         result="blur" />
      <feOffset
         id="feOffset4678-6-9-1-0-9"
         dx="-6.3258232761971414"
         dy="6"
         result="offset" />
      <feComposite
         id="feComposite4680-4-0-9-9-7"
         in2="offset"
         in="fbSourceGraphic"
         operator="over"
         result="composite2" />
    </filter>
  </defs>
  <sodipodi:namedview
     pagecolor="#ffffff"
     bordercolor="#666666"
     borderopacity="1"
     objecttolerance="10"
     gridtolerance="10"
     guidetolerance="10"
     inkscape:pageopacity="0"
     inkscape:pageshadow="2"
     inkscape:window-width="1920"
     inkscape:window-height="1001"
     id="namedview4"
     showgrid="false"
     inkscape:zoom="0.52900002"
     inkscape:cx="1319.9069"
     inkscape:cy="2833.6293"
     inkscape:window-x="-9"
     inkscape:window-y="-9"
     inkscape:window-maximized="1"
     inkscape:current-layer="layer1"
     inkscape:document-rotation="0"
     borderlayer="true"
     inkscape:snap-global="false" />
  <g
     inkscape:groupmode="layer"
     id="layer2"
     inkscape:label="artwork"
     sodipodi:insensitive="true">
    <image
       sodipodi:absref="/home/peppercarrot/webcomics/"
       xlink:href="../gfx_Pepper-and-Carrot_by-David-Revoy_E34P04.png"
       width="2481"
       height="3503"
       id="image10"
       x="0"
       y="0" />
  </g>
  <g
     inkscape:groupmode="layer"
     id="layer3"
     inkscape:label="speechbubbles"
     style="display:inline">
    <path
       style="color:#000000;display:inline;overflow:visible;visibility:visible;fill:#ffffff;fill-opacity:1;fill-rule:nonzero;stroke:none;stroke-width:0.865993px;marker:none;enable-background:accumulate"
       d="m 942.60024,140.18951 c -31.91919,0.211 -64.48071,4.95609 -93.3829,19.12925 -21.5604,10.86216 -37.65135,31.38351 -44.08438,54.55007 -6.35327,20.15773 -6.97011,42.87106 1.87995,62.39202 9.00782,18.72527 27.00418,31.94083 46.55449,38.04613 40.78419,14.89576 84.4479,20.28572 127.68419,20.64969 34.39011,-0.54015 69.30881,-9.23071 98.03251,-28.62612 14.0693,-9.8231 25.0342,-24.39462 29.279,-41.1365 7.5949,-26.96895 1.7202,-57.18896 -14.7554,-79.74789 -10.7189,-14.33495 -26.2154,-24.94169 -43.4158,-29.86718 -18.618,-6.06677 -38.0268,-9.15884 -57.32486,-12.16095 -16.72361,-2.21837 -33.59579,-3.32292 -50.4668,-3.22852 z"
       id="path4040-4-5-3-5"
       inkscape:connector-curvature="0"
       sodipodi:nodetypes="zssssz" />
    <path
       style="color:#000000;display:inline;overflow:visible;visibility:visible;fill:#ffffff;fill-opacity:1;fill-rule:nonzero;stroke:none;stroke-width:1.13892px;marker:none;enable-background:accumulate"
       d="m 978.75341,315.49939 c -40.28031,1.43914 -79.97451,9.32315 -119.0363,18.64206 -22.39959,6.28675 -43.12307,18.27065 -59.4172,34.65105 -18.96675,18.15254 -33.69299,41.6749 -37.31279,67.77287 -4.17499,29.49302 5.78088,61.21118 28.14659,81.70841 18.75766,17.50148 44.31908,26.80125 69.89654,28.50503 49.11093,4.83513 98.40646,8.15073 147.77465,8.6029 29.4265,0.28135 58.8892,-0.10175 88.2494,-2.15712 26.9417,-2.87026 53.7911,-9.55973 77.7533,-22.23804 20.0352,-12.19684 32.054,-35.20033 32.0489,-58.17836 0.5837,-26.40019 -6.441,-53.06105 -20.9499,-75.37265 -11.9582,-18.47972 -26.4989,-35.89301 -45.2908,-48.0093 -15.4854,-10.11083 -33.6076,-15.25531 -51.4993,-19.52253 -19.1076,-4.28787 -38.2734,-8.46603 -57.7271,-10.94805 -17.4384,-2.31891 -35.03383,-3.5843 -52.63599,-3.45627 z"
       id="path4040-4-5-3"
       inkscape:connector-curvature="0"
       sodipodi:nodetypes="zssssz" />
    <path
       style="color:#000000;display:inline;overflow:visible;visibility:visible;fill:#ffffff;fill-opacity:1;fill-rule:nonzero;stroke:none;stroke-width:1px;marker:none;enable-background:accumulate"
       d="m 907.21667,619.60054 c 72.99905,-2.53565 65.7638,-63.19299 71.48587,-78.47444 l 37.78086,7.15422 c 0,0 -26.16471,95.6219 -109.26673,71.32022 z"
       id="path3072-5-5"
       inkscape:connector-curvature="0"
       sodipodi:nodetypes="cccc" />
    <path
       style="display:inline;fill:#ffffff;fill-rule:evenodd;stroke:none;stroke-width:1.408px;stroke-linecap:butt;stroke-linejoin:miter;stroke-opacity:1"
       d="m 1729.4941,1533.8343 c -263.4619,-188.6648 -719.6026,-198.4778 -988.12534,-169.638 l -8.73311,23.8296 c 289.95695,-44.5653 772.14605,6.8513 996.85845,145.8084 z"
       id="path1094"
       inkscape:connector-curvature="0"
       sodipodi:nodetypes="cccc" />
    <path
       style="color:#000000;display:inline;overflow:visible;visibility:visible;fill:#ffffff;fill-opacity:1;fill-rule:nonzero;stroke:none;stroke-width:1.48321px;marker:none;enable-background:accumulate"
       d="m 1211.9228,1266.2938 c -41.3244,-0.413 -83.1474,5.2155 -121.2708,21.147 -24.2076,10.1932 -46.4152,26.1924 -61.4468,47.9041 -17.8986,25.6578 -22.8237,60.5634 -10.8976,90.1247 11.6488,28.8684 34.4137,52.5226 61.2294,67.9418 22.2956,12.594 47.7871,17.9267 72.9559,19.9819 32.9941,2.9905 66.1669,2.1231 99.0414,-0.8479 17.3002,-1.5675 34.5819,-3.4286 51.7513,-5.9783 26.5523,-4.6104 52.5534,-15.1117 72.5829,-33.2953 18.6282,-16.4958 33.7967,-37.7197 40.1581,-62.0981 5.3717,-22.1678 -0.4566,-46.8517 -15.2726,-64.5203 -22.802,-30.2111 -55.0876,-52.9811 -90.7613,-65.1389 -31.5281,-10.91 -64.9814,-14.9138 -98.0699,-15.2207 z"
       id="path3365-3"
       inkscape:connector-curvature="0"
       sodipodi:nodetypes="cssccc" />
    <path
       style="fill:#ffffff;fill-rule:evenodd;stroke:none;stroke-width:1.13248px;stroke-linecap:butt;stroke-linejoin:miter;stroke-opacity:1"
       d="m 516.76045,1252.2611 c -54.95211,0.5551 -109.98304,-0.1628 -164.84554,2.7491 -30.47583,2.4533 -61.20809,4.948 -90.66622,11.7523 -30.3189,8.7503 -59.52612,21.3086 -81.67833,39.8054 -17.64061,15.4506 -30.1359,34.925 -32.44244,55.5954 -0.92994,14.9787 6.23557,29.4093 15.20008,42.4282 13.50382,19.9458 33.7575,37.5975 59.67445,48.283 22.29676,9.345 47.47196,13.4038 72.31199,16.4434 28.69388,3.3194 57.70687,4.5047 86.65651,5.6283 85.92443,2.6041 171.93778,-1.4342 257.44272,-7.8648 33.894,-2.9303 67.98121,-6.4568 100.54195,-14.5746 24.40474,-6.8373 47.23494,-18.6135 61.66681,-35.5338 11.75655,-14.159 18.25072,-30.4012 24.14304,-46.4517 3.08676,-12.3029 -1.97769,-24.7425 -8.41944,-35.9003 -8.35581,-14.5868 -19.59074,-28.2536 -33.55592,-40.0289 -9.7262,-7.8038 -21.8801,-13.5936 -34.84235,-17.6325 -19.67989,-6.5784 -40.30132,-11.2913 -60.96279,-15.6354 -31.83484,-6.2444 -64.7393,-9.0525 -97.56851,-8.7751 -24.21576,-0.3535 -48.43719,-0.2868 -72.65601,-0.288 z"
       id="path1079"
       inkscape:connector-curvature="0" />
    <path
       id="path5050-5"
       style="color:#000000;display:inline;overflow:visible;visibility:visible;fill:#ffffff;fill-opacity:1;fill-rule:nonzero;stroke:none;stroke-width:1.10542px;marker:none;enable-background:accumulate"
       d="m 1055.3066,2327.9473 c -6.7695,3.1849 -13.5391,6.3698 -20.3086,9.5547 -5.4515,8.7234 -8.4665,18.631 -12.08,28.1855 0.2877,8.9888 4.778,17.1081 7.4112,25.5492 4.8043,13.3509 10.142,27.6669 6.8338,42.0256 -3.4158,16.5674 -11.898,31.5008 -16.4345,47.7397 -0.956,12.8214 5.6959,25.4955 16.2957,32.604 7.6345,5.5383 17.8577,10.6572 22.2668,17.4448 4.4091,6.7876 3.9198,12.9565 3.0275,20.0069 -0.8923,7.0504 -6.8233,13.4216 -10.106,20.1773 -2.5543,5.2297 -6.5724,10.2065 -4.8898,16.3644 0.5485,8.6419 3.5528,16.9498 8.2569,24.18 1.9155,5.167 7.5375,11.5732 1.5157,15.9953 -3.2977,3.3341 -6.6403,6.6236 -10.0035,9.8933 6.6199,-4.2691 13.2848,-8.7213 18.4668,-14.7364 2.2175,-7.1316 -0.2102,-14.5787 -3.3587,-21.0008 -3.3881,-9.4513 -0.8017,-19.8562 4.2602,-28.1901 5.6073,-9.9289 13.8919,-19.3951 13.8982,-31.4245 0.5595,-12.2965 -5.2038,-24.6049 -15.0512,-32.0084 -6.3523,-5.6552 -13.9693,-10.3956 -18.4457,-17.7889 -5.2096,-11.3685 -1.3783,-24.1347 3.0069,-35.0894 5.3982,-14.2627 13.5704,-28.4586 12.1858,-44.2358 -1.3898,-17.7099 -13.4465,-33.5966 -10.8255,-51.7808 1.5634,-10.2967 5.5548,-20.0386 7.2382,-30.3113 -0.044,-1.6098 -1.4268,-3.3809 -3.1602,-3.1543 z"
       sodipodi:nodetypes="ccccccczzcccccccccccccccc" />
    <path
       id="path1086-2"
       style="display:inline;fill:#ffffff;fill-rule:evenodd;stroke:none;stroke-width:1.72192px;stroke-linecap:butt;stroke-linejoin:miter;stroke-opacity:1"
       d="m 969.49288,2362.244 c -22.05887,2.072 -43.10903,11.2864 -65.53602,10.1905 -16.18698,-0.046 -33.37431,-3.2616 -48.52731,4.1788 -11.78466,5.7666 -24.17795,12.7516 -30.91546,24.4734 -7.39475,14.5227 -9.92206,33.1117 -0.76509,47.4824 12.40948,19.6335 35.12294,32.5447 58.45033,32.4581 19.80037,0.1222 39.61778,2.0994 58.81628,7.0853 15.31402,3.5903 31.44686,5.4007 46.8387,1.128 14.92249,-3.5641 30.30029,-7.7909 45.72809,-4.9333 19.4406,2.8709 38.8582,8.7921 58.6981,5.9357 24.4445,-2.8639 48.3035,-12.2598 73.2355,-9.4962 14.712,1.1364 30.902,2.2363 43.5759,-6.8501 20.7512,-13.656 28.7839,-43.783 17.4388,-65.8698 -8.7079,-13.4201 -24.4854,-19.8261 -39.1024,-24.6114 -22.1315,-6.8718 -46.0305,-1.9296 -68.0695,-9.3646 -13.7036,-4.261 -27.8503,-8.1533 -42.3539,-6.9259 -25.8828,1.1429 -52.2063,6.2281 -77.78622,-0.3296 -9.7978,-2.1008 -19.64553,-4.5119 -29.72582,-4.5513 z" />
    <path
       id="path1086"
       style="display:inline;fill:#ffffff;fill-rule:evenodd;stroke:none;stroke-width:1.00719px;stroke-linecap:butt;stroke-linejoin:miter;stroke-opacity:1"
       d="m 947.43359,2287.7817 c 8.82004,-13.0131 23.57274,-20.4085 38.14551,-25.1206 15.0538,-4.8304 30.8852,-6.7484 46.6522,-6.9132 14.578,-0.3452 29.6546,-1.505 43.7023,3.2629 6.7924,2.5751 13.0533,6.3476 19.4048,9.8373 8.4831,5.0191 17.3386,11.2049 20.7323,20.9226 2.2132,6.2472 0.5455,12.8861 0.5676,19.3176 -0.4021,9.8612 -0.9237,20.7155 -7.6676,28.5913 -6.5316,8.1476 -16.9354,11.2975 -26.5148,14.2544 -15.8254,4.4306 -32.0655,7.4298 -48.4168,9.0531 -10.5283,1.0974 -21.2935,2.1776 -31.7308,-0.2271 -12.51679,-2.6873 -23.76377,-9.3127 -34.18732,-16.513 -8.39648,-6.1764 -16.72503,-13.394 -20.85941,-23.2141 -2.47795,-7.1043 -1.99245,-14.833 -1.463,-22.2214 0.3553,-3.7008 0.87341,-7.3899 1.63502,-11.0298 z" />
    <path
       style="color:#000000;display:inline;overflow:visible;visibility:visible;fill:#ffffff;fill-opacity:1;fill-rule:nonzero;stroke:none;stroke-width:1.00142px;marker:none;enable-background:accumulate"
       d="m 1551.4802,2844.6354 c -29.2718,23.6335 -49.9774,61.4772 -38.0228,102.9845 11.9549,41.5072 -6.8025,41.4052 -6.8025,41.4052 l -37.425,-15.5296 c 0,0 -6.4717,-90.5725 82.2503,-128.8601 z"
       id="path3072-6"
       inkscape:connector-curvature="0"
       sodipodi:nodetypes="csccc" />
    <path
       style="display:inline;fill:#ffffff;stroke:none;stroke-width:0.761618"
       d="m 1476.1015,3073.9932 c -42.8544,0.8465 -86.0116,10.7042 -122.3704,31.2547 -28.5388,16.7488 -50.306,43.2844 -56.9892,73.3156 -3.9631,19.6687 0.1787,39.6523 4.6976,58.9434 5.8664,24.5628 21.2003,47.3104 43.1979,63.1191 15.0654,10.8716 32.743,18.6069 51.0454,24.143 23.0562,6.8736 47.4219,9.5931 71.6602,10.0138 40.0231,1.4504 80.0955,0.6618 120.1182,-0.3562 34.094,-1.4397 68.6545,-5.3895 100.3447,-17.2386 32.8096,-12.4491 61.2873,-35.0047 76.5369,-63.9052 13.9878,-26.6043 16.1582,-58.417 3.734,-85.8203 -10.9189,-22.9661 -31.7174,-41.1685 -55.0719,-54.4182 -22.7143,-12.8756 -48.6761,-20.5678 -75.0428,-24.9178 -29.0934,-5.1345 -58.593,-8.1093 -88.025,-11.2172 -24.5267,-2.178 -49.1885,-3.1422 -73.8356,-2.9161 z"
       id="path3280-5"
       inkscape:connector-curvature="0"
       sodipodi:nodetypes="csssc" />
    <path
       style="fill:#ffffff;stroke:none;stroke-width:0.474903"
       d="m 1461.4846,2953.7552 c -25.9687,0.633 -52.3735,3.7032 -76.7027,13.9642 -13.6803,5.798 -27.1481,13.0877 -37.815,23.9528 -6.6476,6.773 -11.6982,15.2426 -14.2784,24.549 -3.6597,12.6449 -3.8962,26.2476 -1.277,39.0708 2.1286,9.4931 7.3905,18.4033 15.3984,23.6259 10.7389,7.6321 23.364,11.6508 35.8122,15.1757 25.1016,6.2355 51.1315,5.9742 76.8211,6.4885 29.4733,0.4309 59.0293,0.7796 88.4281,-2.3138 17.0422,-1.8784 34.4614,-3.6385 50.4618,-10.6108 10.0949,-4.4913 19.1189,-12.0982 24.4397,-22.2255 10.1028,-18.5058 9.09,-43.3427 -3.7441,-59.9401 -10.4112,-13.69 -25.4102,-22.4891 -40.6278,-29.2278 -27.1512,-12.2593 -56.3454,-19.5362 -85.9231,-21.7936 -10.3051,-0.8261 -20.6537,-0.9812 -30.9932,-0.7153 z"
       id="path3280-8-0"
       inkscape:connector-curvature="0"
       sodipodi:nodetypes="csssc" />
  </g>
  <g
     inkscape:groupmode="layer"
     id="layer1"
     inkscape:label="txt">
    <text
       xml:space="preserve"
       style="font-style:normal;font-variant:normal;font-weight:normal;font-stretch:normal;font-size:45px;line-height:1.25;font-family:Lavi;-inkscape-font-specification:'Lavi, Normal';text-align:center;letter-spacing:0px;word-spacing:0px;text-anchor:middle;fill:#000000;fill-opacity:1;stroke:none;font-variant-ligatures:normal;font-variant-caps:normal;font-variant-numeric:normal;font-variant-east-asian:normal;"
       x="961.93353"
       y="214.39328"
       id="text4246-3-2-2-6-3-7-9-3"><tspan
         sodipodi:role="line"
         id="tspan192">Да, ваше</tspan><tspan
         sodipodi:role="line"
         id="tspan194">высочество.</tspan></text>
    <text
       xml:space="preserve"
       style="font-style:normal;font-variant:normal;font-weight:normal;font-stretch:normal;font-size:45px;line-height:1.25;font-family:Lavi;-inkscape-font-specification:'Lavi, Normal';font-variant-ligatures:normal;font-variant-caps:normal;font-variant-numeric:normal;font-variant-east-asian:normal;text-align:center;letter-spacing:0px;word-spacing:0px;text-anchor:middle;fill:#000000;fill-opacity:1;stroke:none"
       x="983.13269"
       y="392.88171"
       id="text4246-3-2-2-6-3-7-9-3-3"><tspan
         sodipodi:role="line"
         id="tspan196"
         x="983.13269"
         y="392.88171">Её зовут</tspan><tspan
         sodipodi:role="line"
         id="tspan198"
         x="983.13269"
         y="449.13171">Перчинка, она из</tspan><tspan
         sodipodi:role="line"
         id="tspan200"
         x="983.13269"
         y="505.38171">Школы Хаоса.</tspan></text>
    <text
       xml:space="preserve"
       style="font-style:normal;font-variant:normal;font-weight:normal;font-stretch:normal;font-size:45px;line-height:1.25;font-family:Lavi;-inkscape-font-specification:'Lavi, Normal';font-variant-ligatures:normal;font-variant-caps:normal;font-variant-numeric:normal;font-variant-east-asian:normal;text-align:center;letter-spacing:0px;word-spacing:0px;text-anchor:middle;fill:#000000;fill-opacity:1;stroke:none"
       x="481.4118"
       y="1326.5137"
       id="text4246-3-2-2-6-3-7-9-3-3-3"><tspan
         sodipodi:role="line"
         id="tspan202"
         x="481.4118"
         y="1326.5137">Её присутствие здесь</tspan><tspan
         sodipodi:role="line"
         id="tspan204"
         x="481.4118"
         y="1382.7637">оскверняет священную природу</tspan><tspan
         sodipodi:role="line"
         id="tspan206"
         x="481.4118"
         y="1439.0137">нашей школы.</tspan></text>
    <text
       xml:space="preserve"
       style="font-style:normal;font-variant:normal;font-weight:normal;font-stretch:normal;font-size:45px;line-height:1.25;font-family:Lavi;-inkscape-font-specification:'Lavi, Normal';text-align:center;letter-spacing:0px;word-spacing:0px;text-anchor:middle;fill:#000000;fill-opacity:1;stroke:none;font-variant-ligatures:normal;font-variant-caps:normal;font-variant-numeric:normal;font-variant-east-asian:normal;"
       x="1207.9652"
       y="1348.095"
       id="text4246-3-2-2-6-3-7-9-3-3-3-9"><tspan
         sodipodi:role="line"
         id="tspan208">Уберите её</tspan><tspan
         sodipodi:role="line"
         id="tspan210">с моих глаз,</tspan><tspan
         sodipodi:role="line"
         id="tspan212">немедленно.</tspan></text>
    <text
       xml:space="preserve"
       style="font-style:normal;font-variant:normal;font-weight:normal;font-stretch:normal;font-size:45px;line-height:1.25;font-family:Lavi;-inkscape-font-specification:'Lavi, Normal';text-align:center;letter-spacing:0px;word-spacing:0px;text-anchor:middle;fill:#000000;fill-opacity:1;stroke:none;font-variant-ligatures:normal;font-variant-caps:normal;font-variant-numeric:normal;font-variant-east-asian:normal;"
       x="1041.905"
       y="2320.762"
       id="text4246-3-2-2-6-3-7-9-3-3-3-9-0-0"><tspan
         sodipodi:role="line"
         id="tspan214">Но...</tspan></text>
    <text
       xml:space="preserve"
       style="font-style:normal;font-variant:normal;font-weight:normal;font-stretch:normal;font-size:45px;line-height:1.25;font-family:Lavi;-inkscape-font-specification:'Lavi, Normal';text-align:center;letter-spacing:0px;word-spacing:0px;text-anchor:middle;fill:#000000;fill-opacity:1;stroke:none;font-variant-ligatures:normal;font-variant-caps:normal;font-variant-numeric:normal;font-variant-east-asian:normal;"
       x="1028.5508"
       y="2444.2068"
       id="text4246-3-2-2-6-3-7-9-3-3-3-9-0"><tspan
         sodipodi:role="line"
         id="tspan216">Мастер Васаби...</tspan></text>
    <text
       xml:space="preserve"
       style="font-style:normal;font-variant:normal;font-weight:normal;font-stretch:normal;font-size:45px;line-height:1.25;font-family:Lavi;-inkscape-font-specification:Lavi;text-align:center;letter-spacing:0px;word-spacing:0px;text-anchor:middle;fill:#000000;fill-opacity:1;stroke:none"
       x="1478.4738"
       y="3045.5544"
       id="text4246-3-2-2-6-3-7-9-3-3-3-9-0-6"><tspan
         style="font-size:45px"
         sodipodi:role="line"
         x="1478.4738"
         y="3045.5544"
         id="tspan1199">Но <tspan
   style="font-style:italic;font-variant:normal;font-weight:normal;font-stretch:normal;font-family:Lavi;-inkscape-font-specification:'Lavi Italic'"
   id="tspan227">что</tspan>?</tspan></text>
    <text
       xml:space="preserve"
       style="font-style:normal;font-variant:normal;font-weight:normal;font-stretch:normal;font-size:45px;line-height:1.25;font-family:Lavi;-inkscape-font-specification:Lavi;text-align:center;letter-spacing:0px;word-spacing:0px;text-anchor:middle;fill:#000000;fill-opacity:1;stroke:none;"
       x="1539.076"
       y="3173.2551"
       id="text4246-3-2-2-6-3-7-9-3-3-3-9-0-6-8"><tspan
         sodipodi:role="line"
         id="tspan231">Ты бы предпочла</tspan><tspan
         sodipodi:role="line"
         id="tspan233">быть изгнанной из</tspan><tspan
         sodipodi:role="line"
         id="tspan235">нашей школы?</tspan></text>
    <text
       xml:space="preserve"
       style="font-style:normal;font-variant:normal;font-weight:normal;font-stretch:normal;font-size:105.817px;line-height:1.25;font-family:Lavi;-inkscape-font-specification:Lavi;letter-spacing:0px;word-spacing:0px;fill:#000000;fill-opacity:1;stroke:#030303;stroke-width:0.716208;stroke-miterlimit:4;stroke-dasharray:none;stroke-opacity:1;filter:url(#filter4375-4-1-1-1-9-5-8-8-5-5-3-8)"
       x="787.65729"
       y="1584.5073"
       id="text4580-6-0-0-0-9-3-36"
       transform="matrix(0.78722097,-0.19942868,-0.30990333,0.91892591,1994.5561,1995.3356)"><tspan
         style="font-size:195.17px;fill:#000000;fill-opacity:1;stroke:#030303;stroke-width:0.716208;stroke-miterlimit:4;stroke-dasharray:none;stroke-opacity:1"
         sodipodi:role="line"
         id="tspan876-6-1"
         x="787.65729"
         y="1584.5073">!<tspan
   style="font-size:173.821px;fill:#000000;stroke:#030303;stroke-opacity:1"
   id="tspan1317">!</tspan><tspan
   id="tspan1322"
   style="font-size:152.472px;fill:#000000;stroke:#030303;stroke-opacity:1">!</tspan></tspan></text>
  </g>
</svg>
