<?xml version="1.0" encoding="UTF-8" standalone="no"?>
<svg
   xmlns:dc="http://purl.org/dc/elements/1.1/"
   xmlns:cc="http://creativecommons.org/ns#"
   xmlns:rdf="http://www.w3.org/1999/02/22-rdf-syntax-ns#"
   xmlns:svg="http://www.w3.org/2000/svg"
   xmlns="http://www.w3.org/2000/svg"
   xmlns:xlink="http://www.w3.org/1999/xlink"
   xmlns:sodipodi="http://sodipodi.sourceforge.net/DTD/sodipodi-0.dtd"
   xmlns:inkscape="http://www.inkscape.org/namespaces/inkscape"
   id="svg2"
   version="1.1"
   inkscape:version="1.0.2 (e86c870879, 2021-01-15)"
   width="2481"
   height="3503"
   sodipodi:docname="E34P10.svg">
  <metadata
     id="metadata8">
    <rdf:RDF>
      <cc:Work
         rdf:about="">
        <dc:format>image/svg+xml</dc:format>
        <dc:type
           rdf:resource="http://purl.org/dc/dcmitype/StillImage" />
        <dc:title />
      </cc:Work>
    </rdf:RDF>
  </metadata>
  <defs
     id="defs6">
    <filter
       style="color-interpolation-filters:sRGB"
       id="filter4375-4-1-1-1-9-5-8-8-5-5-3-3-3-0"
       inkscape:label="soundFX1">
      <feFlood
         id="feFlood4377-7-9-0-8-1-7-3-1-2-7-6-6-5-96"
         flood-opacity="1"
         flood-color="rgb(52,52,52)"
         result="flood" />
      <feComposite
         id="feComposite4379-3-8-8-2-77-4-1-0-6-4-7-7-6-3"
         in2="SourceGraphic"
         in="flood"
         operator="in"
         result="composite1"
         baseFrequency="0.053999999999999999 0.053999999999999999" />
      <feMorphology
         id="feMorphology4393-1-0-49-8-9-3-0-1-9-9-5-5-2-8"
         operator="dilate"
         radius="2.5856550817276021"
         result="result3" />
      <feComposite
         id="feComposite4385-9-5-7-0-8-8-7-5-4-9-3-3-9-5"
         in2="result3"
         in="SourceGraphic"
         operator="over"
         result="fbSourceGraphic" />
      <feColorMatrix
         result="fbSourceGraphicAlpha"
         in="fbSourceGraphic"
         values="0 0 0 -1 0 0 0 0 -1 0 0 0 0 -1 0 0 0 0 1 0"
         id="feColorMatrix4544-9-4-4-5-5-1-6" />
      <feTurbulence
         id="feTurbulence4546-3-6-5-6-6-2-1"
         type="fractalNoise"
         numOctaves="4"
         seed="147"
         baseFrequency="0.046080819231719368"
         result="turbulence" />
      <feDisplacementMap
         id="feDisplacementMap4548-8-0-9-2-2-7-1"
         in2="turbulence"
         in="fbSourceGraphic"
         scale="13.20326"
         yChannelSelector="G"
         xChannelSelector="R"
         result="fbSourceGraphic" />
      <feColorMatrix
         result="fbSourceGraphicAlpha"
         in="fbSourceGraphic"
         values="0 0 0 -1 0 0 0 0 -1 0 0 0 0 -1 0 0 0 0 1 0"
         id="feColorMatrix4670-7-7-3-9-9-0-5" />
      <feFlood
         id="feFlood4672-4-4-5-1-1-9-9"
         flood-opacity="1"
         flood-color="rgb(28,28,28)"
         result="flood"
         in="fbSourceGraphic" />
      <feComposite
         id="feComposite4674-8-3-7-2-2-3-8"
         in2="fbSourceGraphic"
         in="flood"
         operator="in"
         result="composite1" />
      <feGaussianBlur
         id="feGaussianBlur4676-3-7-08-7-7-6-4"
         in="composite1"
         stdDeviation="0"
         result="blur" />
      <feOffset
         id="feOffset4678-6-9-1-0-0-0-8"
         dx="-8.3919392296330813"
         dy="1.5526614972014983"
         result="offset" />
      <feComposite
         id="feComposite4680-4-0-9-9-9-6-1"
         in2="offset"
         in="fbSourceGraphic"
         operator="over"
         result="composite2" />
    </filter>
    <filter
       style="color-interpolation-filters:sRGB"
       id="filter4375-4-1-1-1-9-5-8-8-5-5-3-8"
       inkscape:label="soundFX1">
      <feFlood
         id="feFlood4377-7-9-0-8-1-7-3-1-2-7-6-7"
         flood-opacity="1"
         flood-color="rgb(255,255,255)"
         result="flood" />
      <feComposite
         id="feComposite4379-3-8-8-2-77-4-1-0-6-4-7-9"
         in2="SourceGraphic"
         in="flood"
         operator="in"
         result="composite1"
         baseFrequency="0.053999999999999999 0.053999999999999999" />
      <feMorphology
         id="feMorphology4393-1-0-49-8-9-3-0-1-9-9-5-2"
         operator="dilate"
         radius="2.9756367599225957"
         result="result3" />
      <feComposite
         id="feComposite4385-9-5-7-0-8-8-7-5-4-9-3-0"
         in2="result3"
         in="SourceGraphic"
         operator="over"
         result="fbSourceGraphic" />
      <feColorMatrix
         result="fbSourceGraphicAlpha"
         in="fbSourceGraphic"
         values="0 0 0 -1 0 0 0 0 -1 0 0 0 0 -1 0 0 0 0 1 0"
         id="feColorMatrix4544-9-4-4-5-2" />
      <feTurbulence
         id="feTurbulence4546-3-6-5-6-3"
         type="fractalNoise"
         numOctaves="5"
         seed="174"
         baseFrequency="0.053999999999999999 0.054054054054054057"
         result="turbulence" />
      <feDisplacementMap
         id="feDisplacementMap4548-8-0-9-2-7"
         in2="turbulence"
         in="fbSourceGraphic"
         scale="6.6"
         yChannelSelector="G"
         xChannelSelector="R"
         result="fbSourceGraphic" />
      <feColorMatrix
         result="fbSourceGraphicAlpha"
         in="fbSourceGraphic"
         values="0 0 0 -1 0 0 0 0 -1 0 0 0 0 -1 0 0 0 0 1 0"
         id="feColorMatrix4670-7-7-3-9-5" />
      <feFlood
         id="feFlood4672-4-4-5-1-9"
         flood-opacity="1"
         flood-color="rgb(255,255,255)"
         result="flood"
         in="fbSourceGraphic" />
      <feComposite
         id="feComposite4674-8-3-7-2-22"
         in2="fbSourceGraphic"
         in="flood"
         operator="in"
         result="composite1" />
      <feGaussianBlur
         id="feGaussianBlur4676-3-7-08-7-8"
         in="composite1"
         stdDeviation="0"
         result="blur" />
      <feOffset
         id="feOffset4678-6-9-1-0-9"
         dx="-6.3258232761971414"
         dy="6"
         result="offset" />
      <feComposite
         id="feComposite4680-4-0-9-9-7"
         in2="offset"
         in="fbSourceGraphic"
         operator="over"
         result="composite2" />
    </filter>
    <filter
       style="color-interpolation-filters:sRGB"
       id="filter5561"
       inkscape:label="deevad outline effect">
      <feFlood
         id="feFlood5563"
         flood-opacity="1"
         flood-color="rgb(0,0,0)"
         result="flood" />
      <feComposite
         id="feComposite5565"
         in2="SourceGraphic"
         in="flood"
         operator="in"
         result="composite1" />
      <feMorphology
         id="feMorphology5567"
         operator="dilate"
         radius="1.8999999999999999 6.0999999999999996"
         result="result3" />
      <feComposite
         id="feComposite5569"
         in2="result3"
         in="SourceGraphic"
         operator="over"
         result="composite2" />
    </filter>
    <filter
       style="color-interpolation-filters:sRGB"
       id="filter4375-4-1-1-1-9-5-8-8-5-5-3-8-5"
       inkscape:label="soundFX1">
      <feFlood
         id="feFlood4377-7-9-0-8-1-7-3-1-2-7-6-7-6"
         flood-opacity="1"
         flood-color="rgb(52,52,52)"
         result="flood" />
      <feComposite
         id="feComposite4379-3-8-8-2-77-4-1-0-6-4-7-9-2"
         in2="SourceGraphic"
         in="flood"
         operator="in"
         result="composite1"
         baseFrequency="0.053999999999999999 0.053999999999999999" />
      <feMorphology
         id="feMorphology4393-1-0-49-8-9-3-0-1-9-9-5-2-9"
         operator="dilate"
         radius="2.9756367599225957"
         result="result3" />
      <feComposite
         id="feComposite4385-9-5-7-0-8-8-7-5-4-9-3-0-1"
         in2="result3"
         in="SourceGraphic"
         operator="over"
         result="fbSourceGraphic" />
      <feColorMatrix
         result="fbSourceGraphicAlpha"
         in="fbSourceGraphic"
         values="0 0 0 -1 0 0 0 0 -1 0 0 0 0 -1 0 0 0 0 1 0"
         id="feColorMatrix4544-9-4-4-5-2-2" />
      <feTurbulence
         id="feTurbulence4546-3-6-5-6-3-7"
         type="fractalNoise"
         numOctaves="5"
         seed="174"
         baseFrequency="0.053999999999999999 0.054054054054054057"
         result="turbulence" />
      <feDisplacementMap
         id="feDisplacementMap4548-8-0-9-2-7-0"
         in2="turbulence"
         in="fbSourceGraphic"
         scale="6.6"
         yChannelSelector="G"
         xChannelSelector="R"
         result="fbSourceGraphic" />
      <feColorMatrix
         result="fbSourceGraphicAlpha"
         in="fbSourceGraphic"
         values="0 0 0 -1 0 0 0 0 -1 0 0 0 0 -1 0 0 0 0 1 0"
         id="feColorMatrix4670-7-7-3-9-5-9" />
      <feFlood
         id="feFlood4672-4-4-5-1-9-3"
         flood-opacity="1"
         flood-color="rgb(28,28,28)"
         result="flood"
         in="fbSourceGraphic" />
      <feComposite
         id="feComposite4674-8-3-7-2-22-6"
         in2="fbSourceGraphic"
         in="flood"
         operator="in"
         result="composite1" />
      <feGaussianBlur
         id="feGaussianBlur4676-3-7-08-7-8-0"
         in="composite1"
         stdDeviation="0"
         result="blur" />
      <feOffset
         id="feOffset4678-6-9-1-0-9-6"
         dx="-6.3258232761971414"
         dy="6"
         result="offset" />
      <feComposite
         id="feComposite4680-4-0-9-9-7-2"
         in2="offset"
         in="fbSourceGraphic"
         operator="over"
         result="composite2" />
    </filter>
  </defs>
  <sodipodi:namedview
     pagecolor="#ffffff"
     bordercolor="#666666"
     borderopacity="1"
     objecttolerance="10"
     gridtolerance="10"
     guidetolerance="10"
     inkscape:pageopacity="0"
     inkscape:pageshadow="2"
     inkscape:window-width="2560"
     inkscape:window-height="1390"
     id="namedview4"
     showgrid="false"
     inkscape:zoom="0.23000001"
     inkscape:cx="1512.0698"
     inkscape:cy="2861.9183"
     inkscape:window-x="0"
     inkscape:window-y="24"
     inkscape:window-maximized="1"
     inkscape:current-layer="layer3"
     inkscape:document-rotation="0"
     inkscape:snap-global="false"
     borderlayer="true" />
  <g
     inkscape:groupmode="layer"
     id="layer2"
     inkscape:label="artwork"
     sodipodi:insensitive="true">
    <image
       sodipodi:absref="/home/tirifto/Développement/Pepper &amp; Carrot/webcomics/new-ep34_The-Knighting-of-Shichimi/lang/gfx_Pepper-and-Carrot_by-David-Revoy_E34P10.png"
       xlink:href="../gfx_Pepper-and-Carrot_by-David-Revoy_E34P10.png"
       y="0"
       x="0"
       id="image10"
       height="3503"
       width="2481" />
  </g>
  <g
     inkscape:groupmode="layer"
     id="layer3"
     inkscape:label="speechbubbles">
    <path
       style="display:inline;fill:#ffffff;stroke:none;stroke-width:0.79213"
       d="m 2081.823,1303.1285 c -22.8018,0.4683 -46.2348,-0.011 -68.066,6.7818 -15.7493,4.9368 -29.6324,14.4301 -38.9272,26.8134 -14.7601,19.01 -20.7522,42.6871 -19.5707,65.5951 1.0801,18.1855 7.1051,36.6025 19.7706,51.1093 12.7236,14.049 31.3908,22.6808 50.4956,27.8026 42.0459,11.759 87.4237,13.9209 130.6453,6.2988 21.9304,-3.9113 43.2667,-13.1428 58.1568,-28.3043 11.4109,-11.6755 16.4524,-27.0197 19.6041,-41.953 2.9553,-15.4754 6.2497,-31.4571 2.5676,-47.0715 -3.737,-15.6848 -15.3818,-28.8501 -28.6749,-39.1856 -20.3412,-15.9242 -46.7498,-25.305 -73.7086,-26.8534 -17.3895,-1.3064 -34.8599,-1.0737 -52.2926,-1.0332 z"
       id="path3280-5-9"
       inkscape:connector-curvature="0"
       sodipodi:nodetypes="csssc" />
    <path
       style="color:#000000;display:inline;overflow:visible;visibility:visible;fill:#ffffff;fill-opacity:1;fill-rule:nonzero;stroke:none;stroke-width:1.10069px;marker:none;enable-background:accumulate"
       d="m 553.26515,1329.7174 c 0,0 41.44654,7.2764 48.02529,11.1947 6.57876,3.9179 20.35642,2.774 -25.69981,47.8158 79.71358,-31.5742 74.82206,-23.9308 88.63755,-22.2519 -5.92084,11.1947 -27.2724,31.4557 -27.2724,31.4557 0,0 63.01659,-29.5932 69.5954,-29.034 -1.9736,5.0375 -14.20359,15.9764 -14.20359,15.9764 l 46.80145,-7.4463 -32.63237,28.9462 c 0,0 100.59663,-33.4364 105.2952,-31.8789 5.34103,1.5575 -3.94716,32.4638 -3.94716,32.4638 l 29.99756,-22.9229 -1.70873,11.7288 22.36793,-19.0309 7.23661,10.6349 15.60403,-11.7679 0.18507,12.3277 24.99945,-16.2322 8.55238,1.6796 21.71007,25.7467 8.14867,-13.1813 9.61404,-19.3082 38.81501,21.2954 c -0.6816,-7.6033 0.1612,-17.8933 -1.0665,-25.3954 l 19.4871,15.8803 -1.8023,-16.7789 18.2494,3.9052 c 11.0283,6.3795 25.6516,9.4968 36.5926,16.0832 l -8.0078,-19.8669 27.2484,11.1185 -13.1885,-19.0989 c 11.8271,3.5822 27.1911,5.4922 37.6166,12.8831 l -14.4579,-13.8184 c 30.2569,3.8351 53.0156,9.1136 81.5803,15.0036 l -36.8601,-28.6114 -9.2102,-7.8356 33.5519,-7.8361 -18.7593,-7.4097 21.592,-18.4109 5.0265,-45.8169 -12.6356,-23.2018 -563.68541,-1.3435 19.85051,22.3211 -53.44039,-19.0191 36.86686,29.4105 -75.10658,-4.0075 64.87975,32.414 -27.86418,5.9578 28.94676,8.3961 -28.28884,12.8737 17.76273,8.9552 z"
       id="path3931-4"
       inkscape:connector-curvature="0"
       sodipodi:nodetypes="cccccccccccccccccccccccccccccccccccccccccccccccccccc" />
    <path
       style="color:#000000;display:inline;overflow:visible;visibility:visible;fill:#ffffff;fill-opacity:1;fill-rule:nonzero;stroke:none;stroke-width:0.789892px;marker:none;enable-background:accumulate"
       d="m 1920.6248,186.59958 c -20.9401,0.24331 -42.2204,3.85627 -61.4074,14.25033 -8.8335,5.07309 -17.3671,12.17818 -22.2394,22.55922 -4.2579,10.22426 -4.0858,22.20377 -2.0973,33.12238 2.1116,10.09428 7.9386,18.90556 15.5982,23.90276 11.1957,8.0441 24.2394,11.15325 36.9745,13.71686 21.7346,4.14914 43.801,5.11283 65.7823,5.07697 20.9592,-0.28289 41.9915,-1.99829 62.5645,-6.94299 9.9343,-2.88618 19.7625,-8.70707 25.8931,-18.74325 6.639,-10.47392 9.1909,-25.05645 4.9879,-37.4317 -3.783,-11.78762 -12.0786,-20.65642 -21.1541,-26.71888 -12.4763,-8.67593 -26.2553,-14.44119 -40.2698,-18.44699 -19.6507,-4.91141 -39.8421,-4.11374 -59.8022,-4.34607 -1.6101,4.5e-4 -3.2203,8.4e-4 -4.8303,0.002 z"
       id="path4040-2"
       inkscape:connector-curvature="0"
       sodipodi:nodetypes="zssssz" />
    <path
       style="display:inline;fill:#ffffff;fill-rule:evenodd;stroke:none;stroke-width:0.985831px;stroke-linecap:butt;stroke-linejoin:miter;stroke-opacity:1"
       d="m 1654.2089,248.7036 c -65.5168,-23.66588 -112.1105,-27.05183 -66.2407,24.0576 -66.755,-51.72772 -100.346,-41.2779 -87.062,-13.90333 -41.6983,-26.04461 -67.0401,-17.58879 -86.7738,2.69356 -8.2818,-25.03995 -24.2119,-14.3375 -38.2137,-12.64582 -4.7859,-5.57557 10.6898,-20.2747 -52.9255,0.6448 -4.3704,-7.43925 -10.1536,-13.78375 -47.2545,4.1633 -10.6082,-30.4188 -40.9218,2.97482 -71.9355,38.63383 18.7252,-43.23745 10.2873,-49.00093 -14.7237,-31.89958 11.148,-17.91223 17.728,-31.71506 -25.6757,-0.55079 14.2284,-32.86524 -24.8832,-9.39591 -87.7127,39.12358 31.1124,-35.38988 114.5594,-95.99765 58.6483,-89.45234 7.5279,-10.38173 35.1568,-20.08104 -48.3263,-33.55209 15.3044,-7.36202 62.9115,1.2237 22.6092,-26.68244 -5.3856,-3.24106 12.2607,-5.87041 -21.7856,-13.78914 19.965,-0.008 32.1362,-2.56821 13.3841,-15.24466 36.4319,-0.41471 22.4123,-13.92166 -4.8248,-30.858192 53.3767,21.153352 54.0606,-16.069651 55.3625,-25.238038 66.9679,29.019936 70.5692,19.116846 79.3062,12.36833 32.2046,-1.241915 64.5272,1.670389 95.7542,-33.98028 9.0483,21.28992 26.4324,37.354536 97.2851,19.898739 -30.5207,28.390327 13.5111,9.53926 47.2928,-2.815818 -17.7019,34.831785 29.0548,10.881131 88.1337,-24.306557 -32.5393,38.867074 5.2501,24.018828 61.0595,-4.591818 -20.3189,37.821774 16.9854,83.560864 100.2248,82.424344 -39.4404,14.63874 -62.1828,32.22728 -19.9711,61.28717 -46.8664,-7.48731 -60.5343,1.24304 -26.6913,33.18515 -51.6104,-25.47793 -61.4343,10.60915 -18.9435,41.03049 z"
       id="path4508-2"
       inkscape:connector-curvature="0"
       sodipodi:nodetypes="cccccccccccccccccccccccccccc" />
    <path
       style="fill:#ffffff;fill-rule:evenodd;stroke:none;stroke-width:0.948103px;stroke-linecap:butt;stroke-linejoin:miter;stroke-opacity:1"
       d="m 1769.5044,423.01474 c 63.9612,-15.98879 63.9232,-32.79495 71.6929,-40.62661 54.4882,-5.72993 87.7448,-47.55926 77.6703,-102.20871 -3.5879,-16.85606 18.9915,-15.2184 19.391,4.83139 -1.0987,60.691 -16.1574,91.15186 -91.941,107.14119 -13.3423,25.71642 -40.0046,26.09144 -76.8132,30.86274 z"
       id="path4272-2"
       inkscape:connector-curvature="0"
       sodipodi:nodetypes="cccccc" />
    <path
       style="color:#000000;display:inline;overflow:visible;visibility:visible;fill:#ffffff;fill-opacity:1;fill-rule:nonzero;stroke:none;stroke-width:1.15076px;marker:none;enable-background:accumulate"
       d="m 451.5565,1524.1672 c 77.73068,-52.6757 108.17029,-66.4987 176.8647,-111.3306 l -5.71608,28.8704 c 60.48451,-34.1783 93.06945,-54.7177 138.95581,-81.4871 l 64.72178,-3.0505 c -49.31969,23.1577 -186.82827,93.8637 -233.75953,124.887 l 2.854,-25.9346 c -80.19296,32.7945 -87.07813,44.4174 -143.92068,68.0454 z"
       id="path4032-1"
       inkscape:connector-curvature="0"
       sodipodi:nodetypes="cccccccc" />
    <path
       style="color:#000000;display:inline;overflow:visible;visibility:visible;fill:#ffffff;fill-opacity:1;fill-rule:nonzero;stroke:none;stroke-width:0.946773px;marker:none;enable-background:accumulate"
       d="m 1953.8541,1506.2575 c 74.843,1.2486 77.07,-86.4065 88.8547,-128.5666 l 26.4517,50.7412 c 0,0 -44.075,103.6484 -115.3064,77.8254 z"
       id="path3072-56"
       inkscape:connector-curvature="0"
       sodipodi:nodetypes="cccc" />
    <path
       style="color:#000000;display:inline;overflow:visible;visibility:visible;fill:#ffffff;fill-opacity:1;fill-rule:nonzero;stroke:none;stroke-width:0.667685px;marker:none;enable-background:accumulate"
       d="m 2129.0063,1363.3613 c 5.8992,-12.3381 36.4226,-12.1191 47.5434,-9.0971 -22.0659,-14.9996 -16.1643,-25.642 14.6,-25.7162 -39.6516,-19.339 -12.9017,-18.1248 -0.6014,-18.0491 -35.4044,-9.8371 -24.498,-22.4588 -5.7932,-29.1598 -35.5357,0.8481 -37.8962,-1.2993 -27.2796,-17.1189 -13.3967,6.1177 -46.0371,20.7234 -42.2288,-10.0418 -25.712,16.0988 -50.1216,25.7346 -66.3392,-2.0817 -13.1136,17.9298 -38.6233,22.102 -59.8713,-5.6943 4.9567,29.1751 -22.7412,19.2557 -50.1674,10.0092 14.1214,15.6483 -5.92,28.809 -32.7146,18.6728 17.9445,13.4109 -5.2232,14.2513 -23.3369,16.9951 23.6839,6.1686 27.8762,11.6865 -16.7034,15.5752 33.7287,1.9644 56.78,2.4468 24.7889,22.3394 19.3743,-4.9112 64.006,-9.7222 27.8092,29.4744 34.2161,-16.5278 52.1688,-20.101 38.9736,5.3582 14.1569,-15.4509 67.3152,-23.7983 76.7344,-3.3673 4.0042,-8.375 19.3418,-10.9476 32.2707,-10.7975 4.8603,3.5964 9.8296,8.4125 14.9668,14.6651 9.2828,-12.2907 22.7599,-20.2913 47.3488,-1.9657 z"
       id="path3549-3-7-1"
       inkscape:connector-curvature="0"
       sodipodi:nodetypes="cccccccccccccccccccc" />
  </g>
  <g
     inkscape:groupmode="layer"
     id="layer1"
     inkscape:label="txt">
    <text
       xml:space="preserve"
       style="font-style:normal;font-variant:normal;font-weight:normal;font-stretch:normal;font-size:105.817px;line-height:1.25;font-family:Lavi;-inkscape-font-specification:Lavi;letter-spacing:0px;word-spacing:0px;fill:#000000;fill-opacity:1;stroke:#030303;stroke-width:0.716208;stroke-miterlimit:4;stroke-dasharray:none;stroke-opacity:1;filter:url(#filter4375-4-1-1-1-9-5-8-8-5-5-3-8)"
       x="787.65729"
       y="1584.5073"
       id="text4580-6-0-0-0-9-3-36"
       transform="matrix(1.0231031,-0.37102511,-0.35076992,1.3038401,-25.652514,-621.71416)"><tspan
         style="font-size:152.472px;fill:#000000;fill-opacity:1;stroke:#030303;stroke-width:0.716208;stroke-miterlimit:4;stroke-dasharray:none;stroke-opacity:1"
         sodipodi:role="line"
         id="tspan876-6-1"
         x="787.65729"
         y="1584.5073">?<tspan
   style="font-size:127.883px"
   id="tspan925">!</tspan></tspan></text>
    <text
       xml:space="preserve"
       style="font-style:normal;font-variant:normal;font-weight:normal;font-stretch:normal;font-size:69.0366px;line-height:1.25;font-family:Lavi;-inkscape-font-specification:Lavi;text-align:center;letter-spacing:0px;word-spacing:0px;text-anchor:middle;fill:#000000;fill-opacity:1;stroke:none;stroke-width:1.53413"
       x="1419.605"
       y="191.08641"
       id="text4246-3-2-2-6-3-7-9-3-3-56-9-3-20-3-3-2-7-2"
       transform="matrix(0.99725425,0,-0.12471947,1.0027533,0,0)"><tspan
         style="font-style:normal;font-variant:normal;font-weight:bold;font-stretch:normal;font-size:69.0366px;font-family:Lavi;-inkscape-font-specification:'Lavi Bold';stroke-width:1.53413"
         sodipodi:role="line"
         x="1419.605"
         y="191.08641"
         id="tspan1414-3">KAPTU ŜIN !!!</tspan></text>
    <text
       xml:space="preserve"
       style="font-style:normal;font-variant:normal;font-weight:normal;font-stretch:normal;font-size:45px;line-height:1.25;font-family:Lavi;-inkscape-font-specification:Lavi;text-align:center;letter-spacing:0px;word-spacing:0px;text-anchor:middle;fill:#000000;fill-opacity:1;stroke:none"
       x="1943.2986"
       y="257.62378"
       id="text4246-3-2-2-6"><tspan
         style="font-size:45px"
         sodipodi:role="line"
         id="tspan1097-2"
         x="1943.2986"
         y="257.62378">Ha oj.</tspan></text>
    <text
       xml:space="preserve"
       style="font-style:normal;font-variant:normal;font-weight:normal;font-stretch:normal;font-size:51.4356px;line-height:1.25;font-family:Lavi;-inkscape-font-specification:Lavi;text-align:center;letter-spacing:0px;word-spacing:0px;text-anchor:middle;fill:#000000;fill-opacity:1;stroke:none;stroke-width:1.14301"
       x="864.15143"
       y="1324.6313"
       id="text4246-3-2-2-6-3"><tspan
         style="font-size:51.4356px;stroke-width:1.14301"
         sodipodi:role="line"
         id="tspan1097-2-6"
         x="864.15143"
         y="1324.6313">Pipro, prenu mian !</tspan></text>
    <text
       xml:space="preserve"
       style="font-style:normal;font-variant:normal;font-weight:normal;font-stretch:normal;font-size:8.55136px;line-height:0%;font-family:Lavi;-inkscape-font-specification:Lavi;letter-spacing:0px;word-spacing:0px;fill:#000000;fill-opacity:1;stroke:#000000;stroke-width:8.1307;stroke-miterlimit:4;stroke-dasharray:none;stroke-opacity:1;paint-order:stroke fill markers"
       x="1769.7273"
       y="1956.4039"
       id="text4580-25"
       transform="matrix(1.0352599,-0.3538216,-0.45318147,1.1208252,0,0)"><tspan
         sodipodi:role="line"
         id="tspan4582-4"
         x="1769.7273"
         y="1956.4039"
         style="font-size:49.8829px;line-height:100%;letter-spacing:3.48001px;fill:#ffffff;stroke:#000000;stroke-width:8.1307;stroke-miterlimit:4;stroke-dasharray:none;stroke-opacity:1;paint-order:stroke fill markers"><tspan
           style="font-size:57.2942px;line-height:100%;letter-spacing:3.48001px;stroke:#000000;stroke-width:8.1307;stroke-miterlimit:4;stroke-dasharray:none;stroke-opacity:1;paint-order:stroke fill markers"
           id="tspan4617-9">Ĵet !</tspan></tspan></text>
    <text
       xml:space="preserve"
       style="font-style:normal;font-variant:normal;font-weight:normal;font-stretch:normal;font-size:53.122px;line-height:1.25;font-family:Lavi;-inkscape-font-specification:Lavi;text-align:center;letter-spacing:0px;word-spacing:0px;text-anchor:middle;fill:#000000;fill-opacity:1;stroke:none;stroke-width:1.18049"
       x="2036.292"
       y="1325.7084"
       id="text4246-3-2-2-6-0"><tspan
         style="font-size:53.122px;stroke-width:1.18049"
         sodipodi:role="line"
         x="2036.292"
         y="1325.7084"
         id="tspan1235">Ho !</tspan></text>
    <text
       xml:space="preserve"
       style="font-style:normal;font-variant:normal;font-weight:normal;font-stretch:normal;font-size:45px;line-height:1.25;font-family:Lavi;-inkscape-font-specification:Lavi;text-align:center;letter-spacing:0px;word-spacing:0px;text-anchor:middle;fill:#000000;fill-opacity:1;stroke:none"
       x="2103.4827"
       y="1394.8405"
       id="text4246-3-2-2-6-0-7"><tspan
         style="font-size:45px"
         sodipodi:role="line"
         x="2103.4827"
         y="1394.8405"
         id="tspan1235-3">Dankegon,</tspan><tspan
         style="font-size:45px"
         sodipodi:role="line"
         x="2103.4827"
         y="1451.0905"
         id="tspan921">Safrano !</tspan></text>
    <text
       xml:space="preserve"
       style="font-style:normal;font-variant:normal;font-weight:normal;font-stretch:normal;font-size:7.13716px;line-height:0%;font-family:Lavi;-inkscape-font-specification:Lavi;letter-spacing:0px;word-spacing:0px;fill:#000000;fill-opacity:1;stroke:#000000;stroke-width:6.78607;stroke-miterlimit:4;stroke-dasharray:none;stroke-opacity:1;paint-order:stroke fill markers"
       x="2509.1191"
       y="2128.6602"
       id="text4580-25-7"
       transform="matrix(0.94891997,-0.36282871,-0.2498382,1.1493577,0,0)"><tspan
         sodipodi:role="line"
         id="tspan4582-4-5"
         x="2509.1191"
         y="2128.6602"
         style="font-size:41.6334px;line-height:100%;letter-spacing:2.9045px;fill:#ffffff;stroke:#000000;stroke-width:6.78607;stroke-miterlimit:4;stroke-dasharray:none;stroke-opacity:1;paint-order:stroke fill markers"><tspan
           style="font-size:47.819px;line-height:100%;letter-spacing:2.9045px;stroke:#000000;stroke-width:6.78607;stroke-miterlimit:4;stroke-dasharray:none;stroke-opacity:1;paint-order:stroke fill markers"
           id="tspan4617-9-3">Ten !</tspan></tspan></text>
    <text
       xml:space="preserve"
       style="font-style:normal;font-variant:normal;font-weight:normal;font-stretch:normal;font-size:99.1307px;line-height:1.25;font-family:Lavi;-inkscape-font-specification:Lavi;letter-spacing:4.56682px;word-spacing:0px;fill:#ffffff;fill-opacity:1;stroke:#ffffff;stroke-width:0.716208;stroke-miterlimit:4;stroke-dasharray:none;stroke-opacity:1;filter:url(#filter4375-4-1-1-1-9-5-8-8-5-5-3-8-5)"
       id="text4580-6-0-0-0-9-3-36-6"
       transform="matrix(0.83569631,-0.05703359,0,0.91800268,450.98089,-394.64664)"><textPath
         xlink:href="#path974"
         id="textPath1153"><tspan
           style="font-size:99.1307px;fill:#ffffff;fill-opacity:1;stroke:#ffffff;stroke-width:0.716208;stroke-miterlimit:4;stroke-dasharray:none;stroke-opacity:1"
           id="tspan876-6-1-1"><tspan
             style="font-size:73.6547px;fill:#ffffff;fill-opacity:1;stroke-width:0.716208"
             id="tspan884-0-2"
             rotate="0 0 0 0 20 0"><tspan
   style="font-size:87.3025px;fill:#ffffff;stroke-width:0.716208"
   id="tspan976-9"
   rotate="0 0 20 20 0">zjuu</tspan>U<tspan
   style="font-size:100.95px;letter-spacing:9.13364px;fill:#ffffff;stroke-width:0.716208"
   id="tspan972-3"
   rotate="20 0">U</tspan></tspan><tspan
             id="tspan974-1"
             style="font-size:155.542px;letter-spacing:13.7005px;fill:#ffffff;stroke-width:0.716208"
             rotate="20 0">U</tspan><tspan
             style="font-size:182.838px;fill:#ffffff;stroke-width:0.716208"
             id="tspan958-9"
             rotate="20 0 20 0">U !</tspan></tspan></textPath></text>
    <path
       style="fill:none;fill-rule:evenodd;stroke:none;stroke-width:0.989149px;stroke-linecap:butt;stroke-linejoin:miter;stroke-opacity:1"
       d="M 587.57621,4024.2799 C 1026.33,4092.146 1310.4295,3793.5377 1509.4977,3369.7215"
       id="path974"
       sodipodi:nodetypes="cc" />
    <text
       xml:space="preserve"
       style="font-style:normal;font-variant:normal;font-weight:normal;font-stretch:normal;font-size:46.9748px;line-height:1.25;font-family:Lavi;-inkscape-font-specification:Lavi;text-align:center;letter-spacing:0px;word-spacing:0px;text-anchor:middle;fill:#000000;fill-opacity:1;stroke:none;stroke-width:1.04388"
       x="2720.0852"
       y="3161.5713"
       id="text4246-3-2-2-6-3-8"
       transform="matrix(0.91327378,0,-0.07872707,1.0949619,0,0)"><tspan
         style="font-style:normal;font-variant:normal;font-weight:bold;font-stretch:normal;font-size:46.9748px;font-family:Lavi;-inkscape-font-specification:'Lavi Bold';stroke-width:1.04388"
         sodipodi:role="line"
         id="tspan1097-2-6-7"
         x="2720.0852"
         y="3161.5713">DAŬRIGOTE...</tspan></text>
  </g>
</svg>
