<?xml version="1.0" encoding="UTF-8" standalone="no"?>
<svg
   xmlns:dc="http://purl.org/dc/elements/1.1/"
   xmlns:cc="http://creativecommons.org/ns#"
   xmlns:rdf="http://www.w3.org/1999/02/22-rdf-syntax-ns#"
   xmlns:svg="http://www.w3.org/2000/svg"
   xmlns="http://www.w3.org/2000/svg"
   xmlns:xlink="http://www.w3.org/1999/xlink"
   xmlns:sodipodi="http://sodipodi.sourceforge.net/DTD/sodipodi-0.dtd"
   xmlns:inkscape="http://www.inkscape.org/namespaces/inkscape"
   sodipodi:docname="E34P10.svg"
   height="3503"
   width="2481"
   inkscape:version="0.92.5 (2060ec1f9f, 2020-04-08)"
   version="1.1"
   id="svg2">
  <metadata
     id="metadata8">
    <rdf:RDF>
      <cc:Work
         rdf:about="">
        <dc:format>image/svg+xml</dc:format>
        <dc:type
           rdf:resource="http://purl.org/dc/dcmitype/StillImage" />
        <dc:title />
      </cc:Work>
    </rdf:RDF>
  </metadata>
  <defs
     id="defs6">
    <filter
       inkscape:label="soundFX1"
       id="filter4375-4-1-1-1-9-5-8-8-5-5-3-3-3-0"
       style="color-interpolation-filters:sRGB">
      <feFlood
         result="flood"
         flood-color="rgb(52,52,52)"
         flood-opacity="1"
         id="feFlood4377-7-9-0-8-1-7-3-1-2-7-6-6-5-96" />
      <feComposite
         baseFrequency="0.053999999999999999 0.053999999999999999"
         result="composite1"
         operator="in"
         in="flood"
         in2="SourceGraphic"
         id="feComposite4379-3-8-8-2-77-4-1-0-6-4-7-7-6-3" />
      <feMorphology
         result="result3"
         radius="2.5856550817276021"
         operator="dilate"
         id="feMorphology4393-1-0-49-8-9-3-0-1-9-9-5-5-2-8" />
      <feComposite
         result="fbSourceGraphic"
         operator="over"
         in="SourceGraphic"
         in2="result3"
         id="feComposite4385-9-5-7-0-8-8-7-5-4-9-3-3-9-5" />
      <feColorMatrix
         id="feColorMatrix4544-9-4-4-5-5-1-6"
         values="0 0 0 -1 0 0 0 0 -1 0 0 0 0 -1 0 0 0 0 1 0"
         in="fbSourceGraphic"
         result="fbSourceGraphicAlpha" />
      <feTurbulence
         result="turbulence"
         baseFrequency="0.046080819231719368"
         seed="147"
         numOctaves="4"
         type="fractalNoise"
         id="feTurbulence4546-3-6-5-6-6-2-1" />
      <feDisplacementMap
         result="fbSourceGraphic"
         xChannelSelector="R"
         yChannelSelector="G"
         scale="13.20326"
         in="fbSourceGraphic"
         in2="turbulence"
         id="feDisplacementMap4548-8-0-9-2-2-7-1" />
      <feColorMatrix
         id="feColorMatrix4670-7-7-3-9-9-0-5"
         values="0 0 0 -1 0 0 0 0 -1 0 0 0 0 -1 0 0 0 0 1 0"
         in="fbSourceGraphic"
         result="fbSourceGraphicAlpha" />
      <feFlood
         in="fbSourceGraphic"
         result="flood"
         flood-color="rgb(28,28,28)"
         flood-opacity="1"
         id="feFlood4672-4-4-5-1-1-9-9" />
      <feComposite
         result="composite1"
         operator="in"
         in="flood"
         in2="fbSourceGraphic"
         id="feComposite4674-8-3-7-2-2-3-8" />
      <feGaussianBlur
         result="blur"
         stdDeviation="0"
         in="composite1"
         id="feGaussianBlur4676-3-7-08-7-7-6-4" />
      <feOffset
         result="offset"
         dy="1.5526614972014983"
         dx="-8.3919392296330813"
         id="feOffset4678-6-9-1-0-0-0-8" />
      <feComposite
         result="composite2"
         operator="over"
         in="fbSourceGraphic"
         in2="offset"
         id="feComposite4680-4-0-9-9-9-6-1" />
    </filter>
    <filter
       inkscape:label="soundFX1"
       id="filter4375-4-1-1-1-9-5-8-8-5-5-3-8"
       style="color-interpolation-filters:sRGB">
      <feFlood
         result="flood"
         flood-color="rgb(255,255,255)"
         flood-opacity="1"
         id="feFlood4377-7-9-0-8-1-7-3-1-2-7-6-7" />
      <feComposite
         baseFrequency="0.053999999999999999 0.053999999999999999"
         result="composite1"
         operator="in"
         in="flood"
         in2="SourceGraphic"
         id="feComposite4379-3-8-8-2-77-4-1-0-6-4-7-9" />
      <feMorphology
         result="result3"
         radius="2.9756367599225957"
         operator="dilate"
         id="feMorphology4393-1-0-49-8-9-3-0-1-9-9-5-2" />
      <feComposite
         result="fbSourceGraphic"
         operator="over"
         in="SourceGraphic"
         in2="result3"
         id="feComposite4385-9-5-7-0-8-8-7-5-4-9-3-0" />
      <feColorMatrix
         id="feColorMatrix4544-9-4-4-5-2"
         values="0 0 0 -1 0 0 0 0 -1 0 0 0 0 -1 0 0 0 0 1 0"
         in="fbSourceGraphic"
         result="fbSourceGraphicAlpha" />
      <feTurbulence
         result="turbulence"
         baseFrequency="0.053999999999999999 0.054054054054054057"
         seed="174"
         numOctaves="5"
         type="fractalNoise"
         id="feTurbulence4546-3-6-5-6-3" />
      <feDisplacementMap
         result="fbSourceGraphic"
         xChannelSelector="R"
         yChannelSelector="G"
         scale="6.6"
         in="fbSourceGraphic"
         in2="turbulence"
         id="feDisplacementMap4548-8-0-9-2-7" />
      <feColorMatrix
         id="feColorMatrix4670-7-7-3-9-5"
         values="0 0 0 -1 0 0 0 0 -1 0 0 0 0 -1 0 0 0 0 1 0"
         in="fbSourceGraphic"
         result="fbSourceGraphicAlpha" />
      <feFlood
         in="fbSourceGraphic"
         result="flood"
         flood-color="rgb(255,255,255)"
         flood-opacity="1"
         id="feFlood4672-4-4-5-1-9" />
      <feComposite
         result="composite1"
         operator="in"
         in="flood"
         in2="fbSourceGraphic"
         id="feComposite4674-8-3-7-2-22" />
      <feGaussianBlur
         result="blur"
         stdDeviation="0"
         in="composite1"
         id="feGaussianBlur4676-3-7-08-7-8" />
      <feOffset
         result="offset"
         dy="6"
         dx="-6.3258232761971414"
         id="feOffset4678-6-9-1-0-9" />
      <feComposite
         result="composite2"
         operator="over"
         in="fbSourceGraphic"
         in2="offset"
         id="feComposite4680-4-0-9-9-7" />
    </filter>
    <filter
       inkscape:label="deevad outline effect"
       id="filter5561"
       style="color-interpolation-filters:sRGB">
      <feFlood
         result="flood"
         flood-color="rgb(0,0,0)"
         flood-opacity="1"
         id="feFlood5563" />
      <feComposite
         result="composite1"
         operator="in"
         in="flood"
         in2="SourceGraphic"
         id="feComposite5565" />
      <feMorphology
         result="result3"
         radius="1.8999999999999999 6.0999999999999996"
         operator="dilate"
         id="feMorphology5567" />
      <feComposite
         result="composite2"
         operator="over"
         in="SourceGraphic"
         in2="result3"
         id="feComposite5569" />
    </filter>
    <filter
       inkscape:label="soundFX1"
       id="filter4375-4-1-1-1-9-5-8-8-5-5-3-8-5"
       style="color-interpolation-filters:sRGB">
      <feFlood
         result="flood"
         flood-color="rgb(52,52,52)"
         flood-opacity="1"
         id="feFlood4377-7-9-0-8-1-7-3-1-2-7-6-7-6" />
      <feComposite
         baseFrequency="0.053999999999999999 0.053999999999999999"
         result="composite1"
         operator="in"
         in="flood"
         in2="SourceGraphic"
         id="feComposite4379-3-8-8-2-77-4-1-0-6-4-7-9-2" />
      <feMorphology
         result="result3"
         radius="2.9756367599225957"
         operator="dilate"
         id="feMorphology4393-1-0-49-8-9-3-0-1-9-9-5-2-9" />
      <feComposite
         result="fbSourceGraphic"
         operator="over"
         in="SourceGraphic"
         in2="result3"
         id="feComposite4385-9-5-7-0-8-8-7-5-4-9-3-0-1" />
      <feColorMatrix
         id="feColorMatrix4544-9-4-4-5-2-2"
         values="0 0 0 -1 0 0 0 0 -1 0 0 0 0 -1 0 0 0 0 1 0"
         in="fbSourceGraphic"
         result="fbSourceGraphicAlpha" />
      <feTurbulence
         result="turbulence"
         baseFrequency="0.053999999999999999 0.054054054054054057"
         seed="174"
         numOctaves="5"
         type="fractalNoise"
         id="feTurbulence4546-3-6-5-6-3-7" />
      <feDisplacementMap
         result="fbSourceGraphic"
         xChannelSelector="R"
         yChannelSelector="G"
         scale="6.6"
         in="fbSourceGraphic"
         in2="turbulence"
         id="feDisplacementMap4548-8-0-9-2-7-0" />
      <feColorMatrix
         id="feColorMatrix4670-7-7-3-9-5-9"
         values="0 0 0 -1 0 0 0 0 -1 0 0 0 0 -1 0 0 0 0 1 0"
         in="fbSourceGraphic"
         result="fbSourceGraphicAlpha" />
      <feFlood
         in="fbSourceGraphic"
         result="flood"
         flood-color="rgb(28,28,28)"
         flood-opacity="1"
         id="feFlood4672-4-4-5-1-9-3" />
      <feComposite
         result="composite1"
         operator="in"
         in="flood"
         in2="fbSourceGraphic"
         id="feComposite4674-8-3-7-2-22-6" />
      <feGaussianBlur
         result="blur"
         stdDeviation="0"
         in="composite1"
         id="feGaussianBlur4676-3-7-08-7-8-0" />
      <feOffset
         result="offset"
         dy="6"
         dx="-6.3258232761971414"
         id="feOffset4678-6-9-1-0-9-6" />
      <feComposite
         result="composite2"
         operator="over"
         in="fbSourceGraphic"
         in2="offset"
         id="feComposite4680-4-0-9-9-7-2" />
    </filter>
  </defs>
  <sodipodi:namedview
     borderlayer="true"
     inkscape:snap-global="false"
     inkscape:document-rotation="0"
     inkscape:current-layer="layer1"
     inkscape:window-maximized="1"
     inkscape:window-y="27"
     inkscape:window-x="0"
     inkscape:cy="2395.9437"
     inkscape:cx="1341.5632"
     inkscape:zoom="0.23000001"
     showgrid="false"
     id="namedview4"
     inkscape:window-height="704"
     inkscape:window-width="1366"
     inkscape:pageshadow="2"
     inkscape:pageopacity="0"
     guidetolerance="10"
     gridtolerance="10"
     objecttolerance="10"
     borderopacity="1"
     bordercolor="#666666"
     pagecolor="#ffffff" />
  <g
     sodipodi:insensitive="true"
     inkscape:label="artwork"
     id="layer2"
     inkscape:groupmode="layer">
    <image
       sodipodi:absref="/home/juanjo/Comics/lang-ep-34-final/es/../gfx_Pepper-and-Carrot_by-David-Revoy_E34P10.png"
       xlink:href="../gfx_Pepper-and-Carrot_by-David-Revoy_E34P10.png"
       width="2481"
       height="3503"
       id="image10"
       x="0"
       y="0" />
  </g>
  <g
     inkscape:label="speechbubbles"
     id="layer3"
     inkscape:groupmode="layer">
    <path
       sodipodi:nodetypes="csssc"
       inkscape:connector-curvature="0"
       id="path3280-5-9"
       d="m 2082.5127,1307.5287 c -21.7391,0.4465 -44.08,-0.01 -64.8937,6.4657 -15.0152,4.7067 -28.2513,13.7576 -37.1129,25.5637 -14.0722,18.124 -19.785,40.6976 -18.6586,62.5379 1.0298,17.338 6.774,34.8966 18.8492,48.7273 12.1306,13.3942 29.9278,21.6237 48.1421,26.5068 40.0863,11.2109 83.3492,13.2721 124.5564,6.0052 20.9082,-3.729 41.2501,-12.5302 55.4462,-26.9851 10.8791,-11.1313 15.6856,-25.7604 18.6905,-39.9977 2.8175,-14.7541 5.9584,-29.991 2.4479,-44.8776 -3.5628,-14.9538 -14.6649,-27.5055 -27.3385,-37.3593 -19.3931,-15.182 -44.5709,-24.1256 -70.2732,-25.6018 -16.5791,-1.2456 -33.2352,-1.0237 -49.8554,-0.9851 z"
       style="display:inline;fill:#ffffff;stroke:none;stroke-width:0.79213" />
    <path
       sodipodi:nodetypes="cccccccccccccccccccccccccccccccccccccccccccccccccccc"
       inkscape:connector-curvature="0"
       id="path3931-4"
       d="m 412.67358,1329.7174 c 0,0 51.41769,7.2764 59.57916,11.1947 8.16146,3.9179 25.25373,2.774 -31.88264,47.8158 98.89097,-31.5742 92.82264,-23.9308 109.96185,-22.2519 -7.34527,11.1947 -33.83356,31.4557 -33.83356,31.4557 0,0 78.17703,-29.5932 86.33857,-29.034 -2.44841,5.0375 -17.62067,15.9764 -17.62067,15.9764 l 58.06088,-7.4463 -40.48301,28.9462 c 0,0 124.79803,-33.4364 130.62696,-31.8789 6.62598,1.5575 -4.89676,32.4638 -4.89676,32.4638 l 37.21434,-22.9229 -2.11982,11.7288 27.74918,-19.0309 8.97758,10.6349 19.35803,-11.7679 0.22958,12.3277 31.01381,-16.2322 10.60988,1.6796 26.93305,25.7467 10.10908,-13.1813 11.92697,-19.3082 48.15306,21.2954 c -0.8456,-7.6033 0.20002,-17.8933 -1.32304,-25.3954 l 24.17525,15.8803 -2.23584,-16.7789 22.63973,3.9052 c 13.6814,6.3795 31.8229,9.4968 45.3961,16.0832 l -9.9344,-19.8669 33.8037,11.1185 -16.3613,-19.0989 c 14.6725,3.5822 33.7326,5.4922 46.6664,12.8831 l -17.9362,-13.8184 c 37.5361,3.8351 65.7701,9.1136 101.2069,15.0036 l -45.728,-28.6114 -11.4259,-7.8356 41.6237,-7.8361 -23.2723,-7.4097 26.7865,-18.4109 6.2358,-45.8169 -15.6754,-23.2018 -699.29615,-1.3435 24.62612,22.3211 -66.297,-19.0191 45.73624,29.4105 -93.17562,-4.0075 80.48843,32.414 -34.5677,5.9578 35.91073,8.3961 -35.09453,12.8737 22.03605,8.9552 z"
       style="color:#000000;display:inline;overflow:visible;visibility:visible;fill:#ffffff;fill-opacity:1;fill-rule:nonzero;stroke:none;stroke-width:1.12511px;marker:none;enable-background:accumulate" />
    <path
       sodipodi:nodetypes="zssssz"
       inkscape:connector-curvature="0"
       id="path4040-2"
       d="m 1917.8333,178.93355 c -23.7906,0.27643 -47.9678,4.38122 -69.7668,16.19023 -10.036,5.76369 -19.7312,13.83599 -25.2668,25.6302 -4.8375,11.61609 -4.642,25.22637 -2.3828,37.63133 2.3991,11.46841 9.0193,21.47917 17.7216,27.15664 12.7197,9.13914 27.5391,12.67154 42.0078,15.58414 24.6933,4.71396 49.7636,5.80884 74.7373,5.76809 23.8123,-0.3214 47.7077,-2.27031 71.0814,-7.88813 11.2866,-3.27908 22.4527,-9.89237 29.4179,-21.29477 7.5428,-11.89973 10.442,-28.46738 5.6669,-42.52728 -4.298,-13.39226 -13.7229,-23.46838 -24.0338,-30.35612 -14.1747,-9.85698 -29.8294,-16.40707 -45.7517,-20.95817 -22.3258,-5.58 -45.2659,-4.67375 -67.9431,-4.9377 -1.8293,5.1e-4 -3.6587,9.5e-4 -5.4879,0.002 z"
       style="color:#000000;display:inline;overflow:visible;visibility:visible;fill:#ffffff;fill-opacity:1;fill-rule:nonzero;stroke:none;stroke-width:0.789892px;marker:none;enable-background:accumulate" />
    <path
       sodipodi:nodetypes="cccccccccccccccccccccccccccc"
       inkscape:connector-curvature="0"
       id="path4508-2"
       d="m 1617.5626,256.59878 c -60.8754,-25.39202 -104.1684,-29.02494 -61.5481,25.81232 -62.0258,-55.50064 -93.2372,-44.28863 -80.8943,-14.91742 -38.7443,-27.94425 -62.2908,-18.87168 -80.6265,2.89003 -7.6951,-26.86632 -22.4966,-15.38325 -35.5065,-13.56818 -4.4469,-5.98224 9.9325,-21.7535 -49.1761,0.69183 -4.0608,-7.98186 -9.4344,-14.78911 -43.9069,4.46696 -9.8567,-32.63749 -38.0228,3.1918 -66.8394,41.45171 17.3986,-46.39111 9.5585,-52.57497 -13.6806,-34.22628 10.3582,-19.21871 16.4721,-34.02829 -23.8568,-0.59096 13.2204,-35.26237 -23.1204,-10.08123 -81.4988,41.97718 28.9082,-37.97115 106.4436,-102.99953 54.4934,-95.97682 6.9946,-11.13896 32.6662,-21.54571 -44.9027,-35.99932 14.2202,-7.89899 58.4546,1.31296 21.0075,-28.6286 -5.0041,-3.47746 11.3922,-6.29859 -20.2422,-14.79489 18.5505,-0.009 29.8596,-2.75553 12.4359,-16.35658 33.8509,-0.44496 20.8246,-14.93708 -4.4831,-33.108929 49.5954,22.696239 50.2309,-17.24174 51.4406,-27.078851 62.2236,31.136593 65.5699,20.511191 73.6878,13.270452 29.9232,-1.332498 59.956,1.792224 88.9708,-36.458736 8.4073,22.842765 24.5599,40.079103 90.3932,21.350114 -28.3586,30.461063 12.5538,10.235035 43.9424,-3.021198 -16.4479,37.372348 26.9965,11.67478 81.89,-26.07943 -30.2341,41.701963 4.8783,25.770715 56.7339,-4.926736 -18.8794,40.580421 15.7822,89.655634 93.1246,88.436214 -36.6463,15.70646 -57.7775,34.57788 -18.5562,65.75734 -43.5463,-8.03342 -56.246,1.3337 -24.8004,35.60561 -47.9543,-27.33624 -57.0822,11.38296 -17.6015,44.02317 z"
       style="display:inline;fill:#ffffff;fill-rule:evenodd;stroke:none;stroke-width:1.05422px;stroke-linecap:butt;stroke-linejoin:miter;stroke-opacity:1" />
    <path
       sodipodi:nodetypes="cccccc"
       inkscape:connector-curvature="0"
       id="path4272-2"
       d="m 1769.5044,423.01474 c 63.9612,-15.98879 63.9232,-32.79495 71.6929,-40.62661 54.4882,-5.72993 87.7448,-47.55926 77.6703,-102.20871 -3.5879,-16.85606 18.9915,-15.2184 19.391,4.83139 -1.0987,60.691 -16.1574,91.15186 -91.941,107.14119 -13.3423,25.71642 -40.0046,26.09144 -76.8132,30.86274 z"
       style="fill:#ffffff;fill-rule:evenodd;stroke:none;stroke-width:0.948103px;stroke-linecap:butt;stroke-linejoin:miter;stroke-opacity:1" />
    <path
       sodipodi:nodetypes="cccccccc"
       inkscape:connector-curvature="0"
       id="path4032-1"
       d="m 451.5565,1524.1672 c 77.73068,-52.6757 108.17029,-66.4987 176.8647,-111.3306 l -5.71608,28.8704 c 60.48451,-34.1783 93.06945,-54.7177 138.95581,-81.4871 l 64.72178,-3.0505 c -49.31969,23.1577 -186.82827,93.8637 -233.75953,124.887 l 2.854,-25.9346 c -80.19296,32.7945 -87.07813,44.4174 -143.92068,68.0454 z"
       style="color:#000000;display:inline;overflow:visible;visibility:visible;fill:#ffffff;fill-opacity:1;fill-rule:nonzero;stroke:none;stroke-width:1.15076px;marker:none;enable-background:accumulate" />
    <path
       sodipodi:nodetypes="cccc"
       inkscape:connector-curvature="0"
       id="path3072-56"
       d="m 1953.8541,1506.2575 c 74.843,1.2486 77.07,-86.4065 88.8547,-128.5666 l 26.4517,50.7412 c 0,0 -44.075,103.6484 -115.3064,77.8254 z"
       style="color:#000000;display:inline;overflow:visible;visibility:visible;fill:#ffffff;fill-opacity:1;fill-rule:nonzero;stroke:none;stroke-width:0.946773px;marker:none;enable-background:accumulate" />
    <path
       sodipodi:nodetypes="cccccccccccccccccccc"
       inkscape:connector-curvature="0"
       id="path3549-3-7-1"
       d="m 2146.0452,1371.9132 c 6.9645,-13.2402 42.9998,-13.0052 56.1288,-9.7622 -26.0505,-16.0964 -19.0832,-27.517 17.2366,-27.5966 -46.812,-20.753 -15.2316,-19.4501 -0.71,-19.3688 -41.7978,-10.5564 -28.9219,-24.101 -6.8394,-31.292 -41.9528,0.9102 -44.7396,-1.3943 -32.2058,-18.3706 -15.8159,6.565 -54.3506,22.2387 -49.8546,-10.776 -30.355,17.2759 -59.1726,27.6163 -78.3189,-2.2339 -15.4816,19.2408 -45.5979,23.718 -70.6829,-6.1107 5.8518,31.3084 -26.8479,20.6637 -59.2268,10.7411 16.6715,16.7925 -6.989,30.9154 -38.6222,20.0381 21.1849,14.3915 -6.1665,15.2933 -27.5512,18.2378 27.9609,6.6196 32.9102,12.541 -19.7197,16.714 39.8195,2.108 67.0334,2.6257 29.2653,23.9728 22.873,-5.2703 75.5643,-10.433 32.8311,31.6296 40.3949,-17.7363 61.5896,-21.5708 46.0115,5.75 16.7134,-16.5807 79.4711,-25.5384 90.5913,-3.6135 4.7273,-8.9874 22.8346,-11.7481 38.0982,-11.587 5.738,3.8593 11.6047,9.0276 17.6696,15.7374 10.9591,-13.1894 26.8699,-21.775 55.8991,-2.1095 z"
       style="color:#000000;display:inline;overflow:visible;visibility:visible;fill:#ffffff;fill-opacity:1;fill-rule:nonzero;stroke:none;stroke-width:0.751525px;marker:none;enable-background:accumulate" />
  </g>
  <g
     inkscape:label="txt"
     id="layer1"
     inkscape:groupmode="layer">
    <text
       transform="matrix(1.0231031,-0.37102511,-0.35076992,1.3038401,-93.652514,-621.71416)"
       id="text4580-6-0-0-0-9-3-36"
       y="1584.5073"
       x="787.65729"
       style="font-style:normal;font-variant:normal;font-weight:normal;font-stretch:normal;font-size:105.81700134px;line-height:1.25;font-family:Lavi;-inkscape-font-specification:Lavi;letter-spacing:0px;word-spacing:0px;fill:#000000;fill-opacity:1;stroke:#030303;stroke-width:0.71620798;stroke-miterlimit:4;stroke-dasharray:none;stroke-opacity:1;filter:url(#filter4375-4-1-1-1-9-5-8-8-5-5-3-8)"
       xml:space="preserve"><tspan
         y="1584.5073"
         x="787.65729"
         id="tspan876-6-1"
         sodipodi:role="line"
         style="font-size:152.47200012px;fill:#000000;fill-opacity:1;stroke:#030303;stroke-width:0.71620798;stroke-miterlimit:4;stroke-dasharray:none;stroke-opacity:1">¡¿?<tspan
   id="tspan925"
   style="font-size:127.88300323px">!</tspan></tspan></text>
    <text
       transform="matrix(0.99725425,0,-0.12471947,1.0027533,0,0)"
       id="text4246-3-2-2-6-3-7-9-3-3-56-9-3-20-3-3-2-7-2"
       y="191.08641"
       x="1407.572"
       style="font-style:normal;font-variant:normal;font-weight:normal;font-stretch:normal;font-size:56px;line-height:1.25;font-family:Lavi;-inkscape-font-specification:Lavi;text-align:center;letter-spacing:0px;word-spacing:0px;text-anchor:middle;fill:#000000;fill-opacity:1;stroke:none;stroke-width:1.53412998"
       xml:space="preserve"><tspan
         id="tspan1414-3"
         y="191.08641"
         x="1407.572"
         sodipodi:role="line"
         style="font-style:normal;font-variant:normal;font-weight:bold;font-stretch:normal;font-size:56px;font-family:Lavi;-inkscape-font-specification:'Lavi Bold';stroke-width:1.53412998">¡¡¡A POR ELLA!!!</tspan></text>
    <text
       id="text4246-3-2-2-6"
       y="257.62378"
       x="1943.2986"
       style="font-style:normal;font-variant:normal;font-weight:normal;font-stretch:normal;font-size:45px;line-height:1.25;font-family:Lavi;-inkscape-font-specification:Lavi;text-align:center;letter-spacing:0px;word-spacing:0px;text-anchor:middle;fill:#000000;fill-opacity:1;stroke:none"
       xml:space="preserve"><tspan
         y="257.62378"
         x="1943.2986"
         id="tspan1097-2"
         sodipodi:role="line"
         style="font-size:45px">Mecachis.</tspan></text>
    <text
       id="text4246-3-2-2-6-3"
       y="1326.6313"
       x="816.15143"
       style="font-style:normal;font-variant:normal;font-weight:normal;font-stretch:normal;font-size:51.43560028px;line-height:1.25;font-family:Lavi;-inkscape-font-specification:Lavi;text-align:center;letter-spacing:0px;word-spacing:0px;text-anchor:middle;fill:#000000;fill-opacity:1;stroke:none;stroke-width:1.14301002"
       xml:space="preserve"><tspan
         y="1326.6313"
         x="816.15143"
         id="tspan1097-2-6"
         sodipodi:role="line"
         style="font-size:51.43560028px;stroke-width:1.14301002">Pepper, ¡toma mi escoba!</tspan></text>
    <text
       transform="matrix(1.0352599,-0.3538216,-0.45318147,1.1208252,0,0)"
       id="text4580-25"
       y="1956.4039"
       x="1769.7273"
       style="font-style:normal;font-variant:normal;font-weight:normal;font-stretch:normal;font-size:8.55136013px;line-height:0%;font-family:Lavi;-inkscape-font-specification:Lavi;letter-spacing:0px;word-spacing:0px;fill:#000000;fill-opacity:1;stroke:#000000;stroke-width:8.13070011;stroke-miterlimit:4;stroke-dasharray:none;stroke-opacity:1;paint-order:stroke fill markers"
       xml:space="preserve"><tspan
         style="font-size:49.88290024px;line-height:100%;letter-spacing:3.48001003px;fill:#ffffff;stroke:#000000;stroke-width:8.13070011;stroke-miterlimit:4;stroke-dasharray:none;stroke-opacity:1;paint-order:stroke fill markers"
         y="1956.4039"
         x="1769.7273"
         id="tspan4582-4"
         sodipodi:role="line"><tspan
           id="tspan4617-9"
           style="font-size:57.2942009px;line-height:100%;letter-spacing:3.48001003px;stroke:#000000;stroke-width:8.13070011;stroke-miterlimit:4;stroke-dasharray:none;stroke-opacity:1;paint-order:stroke fill markers">¡Fizzz!</tspan></tspan></text>
    <text
       id="text4246-3-2-2-6-0"
       y="1329.7084"
       x="2040.292"
       style="font-style:normal;font-variant:normal;font-weight:normal;font-stretch:normal;font-size:53.12200165px;line-height:1.25;font-family:Lavi;-inkscape-font-specification:Lavi;text-align:center;letter-spacing:0px;word-spacing:0px;text-anchor:middle;fill:#000000;fill-opacity:1;stroke:none;stroke-width:1.18049002"
       xml:space="preserve"><tspan
         id="tspan1235"
         y="1329.7084"
         x="2040.292"
         sodipodi:role="line"
         style="font-size:53.12200165px;stroke-width:1.18049002">¡Oh, guay!</tspan></text>
    <text
       id="text4246-3-2-2-6-0-7"
       y="1394.8405"
       x="2103.4827"
       style="font-style:normal;font-variant:normal;font-weight:normal;font-stretch:normal;font-size:45px;line-height:1.25;font-family:Lavi;-inkscape-font-specification:Lavi;text-align:center;letter-spacing:0px;word-spacing:0px;text-anchor:middle;fill:#000000;fill-opacity:1;stroke:none"
       xml:space="preserve"><tspan
         id="tspan1235-3"
         y="1394.8405"
         x="2110.5139"
         sodipodi:role="line"
         style="font-size:45px">¡Gracias, </tspan><tspan
         id="tspan104"
         y="1451.0905"
         x="2110.5139"
         sodipodi:role="line"
         style="font-size:45px">Azafrán! </tspan></text>
    <text
       transform="matrix(0.94891997,-0.36282871,-0.2498382,1.1493577,0,0)"
       id="text4580-25-7"
       y="2128.6602"
       x="2509.1191"
       style="font-style:normal;font-variant:normal;font-weight:normal;font-stretch:normal;font-size:7.13715982px;line-height:0%;font-family:Lavi;-inkscape-font-specification:Lavi;letter-spacing:0px;word-spacing:0px;fill:#000000;fill-opacity:1;stroke:#000000;stroke-width:6.78606987;stroke-miterlimit:4;stroke-dasharray:none;stroke-opacity:1;paint-order:stroke fill markers"
       xml:space="preserve"><tspan
         style="font-size:41.63339996px;line-height:100%;letter-spacing:2.90450001px;fill:#ffffff;stroke:#000000;stroke-width:6.78606987;stroke-miterlimit:4;stroke-dasharray:none;stroke-opacity:1;paint-order:stroke fill markers"
         y="2128.6602"
         x="2509.1191"
         id="tspan4582-4-5"
         sodipodi:role="line"><tspan
           id="tspan4617-9-3"
           style="font-size:47.81900024px;line-height:100%;letter-spacing:2.90450001px;stroke:#000000;stroke-width:6.78606987;stroke-miterlimit:4;stroke-dasharray:none;stroke-opacity:1;paint-order:stroke fill markers">¡Toc!</tspan></tspan></text>
    <text
       transform="matrix(0.83569631,-0.05703359,0,0.91800268,450.98089,-394.64664)"
       id="text4580-6-0-0-0-9-3-36-6"
       style="font-style:normal;font-variant:normal;font-weight:normal;font-stretch:normal;font-size:99.13069916px;line-height:1.25;font-family:Lavi;-inkscape-font-specification:Lavi;letter-spacing:0px;word-spacing:0px;fill:#ffffff;fill-opacity:1;stroke:#ffffff;stroke-width:0.71620798;stroke-miterlimit:4;stroke-dasharray:none;stroke-opacity:1;filter:url(#filter4375-4-1-1-1-9-5-8-8-5-5-3-8-5)"
       xml:space="preserve"><textPath
         id="textPath1153"
         xlink:href="#path974"><tspan
   id="tspan876-6-1-1"
   style="font-size:99.13069916px;fill:#ffffff;fill-opacity:1;stroke:#ffffff;stroke-width:0.71620798;stroke-miterlimit:4;stroke-dasharray:none;stroke-opacity:1"><tspan
     rotate="0 0 0 0 0 20 0"
     id="tspan884-0-2"
     style="font-size:73.65470123px;fill:#ffffff;fill-opacity:1;stroke-width:0.71620798"><tspan
   rotate="0 0 20 20 20 0"
   id="tspan976-9"
   style="font-size:87.30249786px;fill:#ffffff;stroke-width:0.71620798">¡zioo</tspan>O<tspan
   rotate="20 0"
   id="tspan972-3"
   style="font-size:100.94999695px;fill:#ffffff;stroke-width:0.71620798">O</tspan></tspan><tspan
     rotate="20 0"
     style="font-size:155.54200745px;fill:#ffffff;stroke-width:0.71620798"
     id="tspan974-1">O</tspan><tspan
     rotate="20 20 0"
     id="tspan958-9"
     style="font-size:182.83799744px;fill:#ffffff;stroke-width:0.71620798">O!</tspan></tspan></textPath></text>
    <path
       sodipodi:nodetypes="cc"
       id="path974"
       d="M 587.57621,4024.2799 C 1026.33,4092.146 1310.4295,3793.5377 1509.4977,3369.7215"
       style="fill:none;fill-rule:evenodd;stroke:none;stroke-width:0.989149px;stroke-linecap:butt;stroke-linejoin:miter;stroke-opacity:1" />
    <text
       transform="matrix(0.91327378,0,-0.07872707,1.0949619,0,0)"
       id="text4246-3-2-2-6-3-8"
       y="3161.5713"
       x="2748.5544"
       style="font-style:normal;font-variant:normal;font-weight:normal;font-stretch:normal;font-size:46.97480011px;line-height:1.25;font-family:Lavi;-inkscape-font-specification:Lavi;text-align:center;letter-spacing:0px;word-spacing:0px;text-anchor:middle;fill:#000000;fill-opacity:1;stroke:none;stroke-width:1.04387999"
       xml:space="preserve"><tspan
         y="3161.5713"
         x="2748.5544"
         id="tspan1097-2-6-7"
         sodipodi:role="line"
         style="font-style:normal;font-variant:normal;font-weight:bold;font-stretch:normal;font-size:46.97480011px;font-family:Lavi;-inkscape-font-specification:'Lavi Bold';stroke-width:1.04387999">CONTINUARÁ...</tspan></text>
    <text
       id="text100"
       y="1389.1304"
       x="2117.3914"
       style="font-size:29.3333px;line-height:1.25;font-family:Sword;-inkscape-font-specification:Sword;text-align:center;letter-spacing:0px;word-spacing:0px;writing-mode:lr-tb;text-anchor:middle"
       xml:space="preserve"><tspan
         y="1389.1304"
         x="2117.3914"
         id="tspan98"
         sodipodi:role="line" /><tspan
         id="tspan102"
         y="1425.797"
         x="2117.3914"
         sodipodi:role="line" /></text>
  </g>
</svg>
