<?xml version="1.0" encoding="UTF-8" standalone="no"?>
<!-- Created with Inkscape (http://www.inkscape.org/) -->

<svg
   xmlns:dc="http://purl.org/dc/elements/1.1/"
   xmlns:cc="http://creativecommons.org/ns#"
   xmlns:rdf="http://www.w3.org/1999/02/22-rdf-syntax-ns#"
   xmlns:svg="http://www.w3.org/2000/svg"
   xmlns="http://www.w3.org/2000/svg"
   xmlns:xlink="http://www.w3.org/1999/xlink"
   xmlns:sodipodi="http://sodipodi.sourceforge.net/DTD/sodipodi-0.dtd"
   xmlns:inkscape="http://www.inkscape.org/namespaces/inkscape"
   id="svg2"
   version="1.1"
   inkscape:version="0.92.4 (5da689c313, 2019-01-14)"
   width="2481"
   height="3503"
   sodipodi:docname="E32P02.svg">
  <metadata
     id="metadata8">
    <rdf:RDF>
      <cc:Work
         rdf:about="">
        <dc:format>image/svg+xml</dc:format>
        <dc:type
           rdf:resource="http://purl.org/dc/dcmitype/StillImage" />
        <dc:title />
      </cc:Work>
    </rdf:RDF>
  </metadata>
  <defs
     id="defs6" />
  <sodipodi:namedview
     pagecolor="#ffffff"
     bordercolor="#666666"
     borderopacity="1"
     objecttolerance="10"
     gridtolerance="10"
     guidetolerance="10"
     inkscape:pageopacity="0"
     inkscape:pageshadow="2"
     inkscape:window-width="1920"
     inkscape:window-height="1019"
     id="namedview4"
     showgrid="false"
     inkscape:zoom="0.46000001"
     inkscape:cx="1909.7386"
     inkscape:cy="823.12172"
     inkscape:window-x="2560"
     inkscape:window-y="34"
     inkscape:window-maximized="1"
     inkscape:current-layer="layer3"
     inkscape:snap-global="false" />
  <g
     inkscape:groupmode="layer"
     id="layer2"
     inkscape:label="artwork"
     sodipodi:insensitive="true">
    <image
       sodipodi:absref="/home/deevad/peppercarrot/webcomics/new-ep32_The-Battlefield/lang/fr/../gfx_Pepper-and-Carrot_by-David-Revoy_E32P02.png"
       xlink:href="../gfx_Pepper-and-Carrot_by-David-Revoy_E32P02.png"
       y="0"
       x="0"
       id="image10"
       height="3503"
       width="2481" />
  </g>
  <g
     inkscape:groupmode="layer"
     id="layer3"
     inkscape:label="speechbubbles"
     style="display:inline">
    <path
       style="color:#000000;display:inline;overflow:visible;visibility:visible;fill:#ffffff;fill-opacity:1;fill-rule:nonzero;stroke:none;stroke-width:1.02533054px;marker:none;enable-background:accumulate"
       d="m 314.2926,244.75319 c 6.47674,-13.52294 33.78984,-11.75789 43.45615,-7.81931 -18.30912,-17.89529 -16.45315,-27.58142 11.1039,-26.13173 -42.56912,-33.28904 -5.55538,-24.94083 2.69327,-31.31974 -34.8981,-13.66266 -17.33435,-24.06 -9.48819,-35.45462 -41.38762,-4.90327 -25.53843,-22.81386 -25.46205,-38.43781 -4.36816,6.86259 -23.66076,27.1044 -21.76537,2.44499 -30.17418,20.4547 -64.97323,32.00967 -62.75339,-9.264327 -13.47853,19.424807 -25.51778,26.948047 -21.76544,2.444977 -31.1393,29.02512 -54.36736,14.84821 -78.03324,3.12826 -7.63645,8.95162 -10.14519,23.70202 -30.75129,17.94983 1.81655,9.88906 -6.05649,15.69913 -22.543233,17.87001 20.612423,8.08676 23.832833,14.47431 -16.465371,16.60927 30.014584,3.87937 57.921514,8.18919 20.037384,26.24949 11.01185,1.72912 39.44384,-13.68528 20.88185,38.4265 21.06367,-15.04513 42.49623,-22.28695 63.74356,16.3079 14.17276,-16.59663 36.13395,-23.19111 42.5919,0.15633 4.39629,-9.17917 18.38041,-11.29549 29.94379,-10.48382 4.00446,4.26924 7.98842,9.90966 11.98392,17.16744 9.50226,-13.30138 22.34533,-21.58905 42.59185,0.15636 z"
       id="path3549-3-7-5"
       inkscape:connector-curvature="0"
       sodipodi:nodetypes="cccccccccccccccccccc" />
    <path
       style="color:#000000;display:inline;overflow:visible;visibility:visible;fill:#ffffff;fill-opacity:1;fill-rule:nonzero;stroke:none;stroke-width:0.97324771px;marker:none;enable-background:accumulate"
       d="M 386.17578 159.02734 C 322.66156 160.56181 258.73735 167.54596 197.92306 186.6514 C 172.48396 195.03384 148.94132 211.21197 134.66551 234.18611 C 124.10623 251.25511 122.05455 272.62103 126.40759 291.9631 C 130.46177 309.81206 140.54928 326.74842 155.98944 336.97113 C 172.36197 348.33302 191.3741 354.8918 209.87686 361.86295 C 251.60843 376.7716 295.65507 386.21969 340.09211 386.36258 C 385.88376 385.86798 431.73052 386.38831 477.45452 383.45075 C 519.68582 380.38104 562.43794 372.25229 600.09766 352.11523 C 620.69383 341.09848 640.10993 326.26511 652.25913 305.96654 C 661.81287 289.80871 665.83684 270.03105 661.31987 251.62763 C 656.26068 228.85922 640.59456 209.25833 620.66787 197.51169 C 594.86047 181.35356 564.65995 174.50692 535.0154 169.37262 C 485.88164 161.09875 435.93792 158.71426 386.17578 159.02734 z "
       id="path3970-3"
       inkscape:connector-curvature="0"
       sodipodi:nodetypes="cccscsc" />
    <path
       style="color:#000000;display:inline;overflow:visible;visibility:visible;fill:#ffffff;fill-opacity:1;fill-rule:nonzero;stroke:none;stroke-width:1px;marker:none;enable-background:accumulate"
       d="m 577.63531,481.55553 c 24.15675,-46.43871 15.15598,-67.79787 10.19676,-83.83511 -5.04081,0.18752 -14.08073,-1.23448 -14.08073,-1.23448 0,0 -7.00281,-32.37916 -13.50272,-43.8635 -6.49993,-11.48435 -19.9552,-4.33851 -19.9552,-4.33851 0,0 12.13026,63.2638 10.96525,77.57434 13.78917,-1.09946 20.70461,0.20644 25.45323,-2.31613 5.66701,8.19382 8.96155,41.29633 0.92341,58.01339 z"
       id="path4456-8"
       inkscape:connector-curvature="0" />
    <path
       style="color:#000000;display:inline;overflow:visible;visibility:visible;opacity:1;fill:#ffffff;fill-opacity:1;fill-rule:nonzero;stroke:none;stroke-width:0.93505698px;marker:none;enable-background:accumulate"
       d="M 933.66992 588.00586 C 900.31407 588.8981 866.36288 593.14034 835.60351 606.76326 C 819.98811 614.2592 809.29272 628.76514 800.97329 643.47607 C 778.30647 683.60262 772.6747 733.78304 788.88305 777.24139 C 797.7584 799.36157 817.36187 815.89645 839.29652 824.32927 C 862.32655 833.33449 887.0185 837.06274 911.52547 839.29285 C 928.56276 840.67171 945.66372 841.59472 962.76034 841.41303 C 998.7813 840.67201 1034.9855 834.62151 1068.4761 821.07088 C 1086.2443 812.61336 1098.115 794.73469 1102.2911 775.85357 C 1108.866 749.98246 1107.8206 722.74724 1102.7056 696.72186 C 1097.0721 668.40339 1082.7464 641.12968 1059.8274 623.07663 C 1032.5913 601.51074 997.92127 591.64454 963.74676 588.75172 C 953.74496 587.93739 943.69965 587.70887 933.66992 588.00586 z "
       id="path4040-5"
       inkscape:connector-curvature="0"
       sodipodi:nodetypes="zssssz" />
    <path
       style="color:#000000;display:inline;overflow:visible;visibility:visible;fill:#ffffff;fill-opacity:1;fill-rule:nonzero;stroke:none;stroke-width:1px;marker:none;enable-background:accumulate"
       d="m 1172.2087,638.16525 c -22.426,10.78245 -21.9205,17.27525 -23.5228,31.76828 -1.6032,14.49315 -6.5002,31.6111 -27.1248,48.30404 -30.1996,17.58679 -94.1328,69.98654 -71.7029,5.83439 5.3345,-23.46958 48.5109,-22.99772 64.4153,-32.38817 15.9045,-9.39055 14.6245,-34.55514 25.6984,-44.48017 11.0738,-9.92492 18.2375,-9.80409 32.2368,-9.03837 z"
       id="path4538-0"
       inkscape:connector-curvature="0"
       sodipodi:nodetypes="ccccccc" />
    <path
       style="fill:#ffffff;stroke:none;stroke-width:1"
       d="M 863.61133 442.7793 C 836.43744 443.80406 808.71915 451.68158 787.42488 469.12029 C 768.41327 485.24278 758.81976 510.97607 760.68968 535.62649 C 760.42923 549.86906 761.2754 565.15916 769.54968 577.3187 C 780.60802 593.90916 798.8577 604.22282 817.57458 609.91859 C 846.5517 619.63921 877.60335 618.57558 907.69264 616.76951 C 929.30551 615.28942 951.64202 613.03488 971.1405 602.84113 C 988.89899 592.95261 1001.6166 574.02125 1002.7754 553.57422 C 1004.6128 533.5667 999.92406 513.37321 991.7512 495.17755 C 982.46878 476.30736 965.75182 461.36494 946.0857 453.97891 C 920.03825 443.30965 891.35495 442.5302 863.61133 442.7793 z "
       id="path3280-10"
       inkscape:connector-curvature="0"
       sodipodi:nodetypes="csssc" />
    <path
       style="display:inline;fill:#ffffff;fill-rule:evenodd;stroke:none;stroke-width:1.02665567px;stroke-linecap:butt;stroke-linejoin:miter;stroke-opacity:1"
       d="M 1400.3047 2570.293 C 1397.9979 2592.5108 1394.4905 2615.3606 1383.1309 2634.9805 C 1369.7269 2651.2418 1344.7099 2655.1778 1326.2367 2645.7198 C 1314.6639 2640.2547 1303.639 2633.6448 1292.0449 2628.2637 C 1291.5531 2628.8962 1292.5951 2630.7061 1292.7028 2631.7975 C 1298.3786 2652.688 1305.9106 2673.5663 1305.7559 2695.4922 C 1303.6865 2703.7366 1291.3373 2705.7674 1286.1973 2699.3047 C 1283.2389 2697.2078 1280.2348 2695.1453 1276.9707 2693.5469 C 1282.292 2704.7818 1289.6289 2715.78 1290.0449 2728.6016 C 1287.5198 2738.1534 1276.2521 2742.9135 1267.1279 2740.7467 C 1261.1898 2739.7581 1255.3573 2737.716 1249.2695 2737.9492 C 1257.4517 2748.2261 1265.5671 2759.8833 1266.1094 2773.4805 C 1265.7223 2785.0524 1258.033 2795.0002 1249.2195 2801.8434 C 1241.7931 2807.3262 1232.8492 2810.0874 1224.9953 2814.8434 C 1222.8119 2816.0271 1220.6286 2817.2108 1218.4453 2818.3945 C 1241.2064 2818.8589 1264.2675 2819.8957 1286.2578 2826.3008 C 1267.1141 2830.2069 1247.9565 2834.0899 1228.6465 2837.0957 C 1243.3355 2842.7076 1258.1492 2848.9447 1270.3242 2859.1309 C 1270.142 2867.0419 1258.5813 2871.1257 1253.3789 2865.2324 C 1249.1602 2863.3678 1244.9414 2861.5033 1240.7227 2859.6387 C 1244.026 2864.8424 1247.3294 2870.0462 1250.6328 2875.25 C 1238.0415 2870.5764 1226.6519 2863.3177 1215.4492 2856.0273 C 1224.4627 2867.038 1233.3741 2878.3588 1239.4453 2891.3164 C 1237.9135 2898.6431 1229.695 2903.7476 1222.4512 2901.8262 C 1221.9419 2908.4396 1229.4762 2913.248 1227.5104 2919.9963 C 1225.421 2924.9919 1219.3256 2927.9292 1214.1289 2926.3301 C 1216.1562 2932.2912 1224.3357 2932.2132 1226.7493 2937.9149 C 1233.3037 2946.988 1237.0552 2957.8262 1244.2569 2966.4663 C 1247.0185 2970.9239 1248.8532 2977.5942 1244.6605 2981.7908 C 1239.4136 2987.0643 1231.4597 2986.7669 1224.5827 2987.0549 C 1219.7682 2987.6367 1214.9052 2988.343 1210.3691 2990.1348 C 1228.6542 2998.4547 1248.8282 3003.7333 1264.4785 3016.9082 C 1271.2851 3023.4328 1269.6722 3036.1626 1261.5859 3040.9258 C 1260.4823 3045.1465 1266.1796 3048.0273 1269.5586 3046.0879 C 1277.8738 3046.1681 1282.3888 3057.6239 1277.1256 3063.7591 C 1272.184 3071.7608 1265.5513 3078.5224 1260.0061 3086.0855 C 1247.6511 3101.2248 1234.6729 3115.968 1224.2598 3132.5645 C 1243.0244 3119.7846 1261.03 3105.6088 1281.5938 3095.7402 C 1289.0966 3096.3782 1292.3585 3106.5475 1288.1407 3112.2379 C 1287.2003 3113.7026 1285.6224 3116.1385 1287.1765 3117.6094 C 1290.0764 3117.9146 1291.328 3114.5237 1293.7353 3113.515 C 1302.179 3107.0193 1310.9228 3100.8312 1320.4141 3095.9473 C 1323.5536 3103.1266 1320.736 3111.573 1315.6758 3117.123 C 1316.8982 3119.832 1320.4904 3118.0241 1321.6762 3116.2134 C 1326.1204 3113.7261 1330.8685 3111.7928 1335.7715 3110.4199 C 1342.9451 3118.7506 1342.1452 3131.4193 1336.8974 3140.5178 C 1334.1813 3149.0399 1331.4026 3157.5419 1328.5684 3166.0254 C 1345.76 3144.4322 1362.1459 3121.4625 1384.7695 3105.1172 C 1392.9161 3100.7132 1404.436 3106.6083 1405.5957 3115.8047 C 1410.8411 3119.7771 1418.1688 3117.4012 1422.7657 3113.5714 C 1431.4017 3110.043 1441.2735 3108.1755 1450.3594 3111.1074 C 1455.3743 3118.0906 1465.6389 3119.2052 1472.9511 3115.4337 C 1484.0341 3112.5515 1495.6257 3108.7527 1507.1465 3111.418 C 1512.3515 3114.41 1513.4851 3122.0871 1519.7871 3123.5332 C 1526.7566 3123.5417 1534.3757 3120.3207 1540.8279 3124.3202 C 1546.7806 3128.1087 1550.5494 3134.5432 1552.4668 3141.2031 C 1557.2828 3142.913 1561.5578 3138.6349 1563.7553 3134.8134 C 1582.5399 3117.1132 1614.8086 3117.4697 1633.6466 3134.9064 C 1636.9374 3137.548 1640.2349 3140.1812 1643.5371 3142.8086 C 1650.5331 3138.8186 1650.8041 3129.7348 1655.6666 3123.9846 C 1660.8963 3117.3198 1671.9668 3115.9838 1678.094 3122.1716 C 1685.6227 3128.6082 1688.4088 3138.4973 1693.3124 3146.7689 C 1696.8 3153.5955 1700.1584 3160.4871 1703.6406 3167.3164 C 1705.3115 3149.146 1707.1931 3130.1364 1716.8691 3114.1934 C 1729.656 3096.1334 1755.1218 3089.399 1775.6072 3097.0022 C 1789.802 3101.0145 1803.2478 3107.1641 1816.9863 3112.4492 C 1814.6394 3098.5904 1809.2421 3085.5336 1805.334 3072.0918 C 1811.7157 3070.293 1817.382 3074.8921 1822.2608 3078.329 C 1828.9252 3082.8368 1835.5785 3087.3618 1842.3086 3091.7715 C 1834.9961 3079.8457 1827.7759 3067.4738 1824.7793 3053.6562 C 1830.7404 3041.3278 1847.507 3036.8635 1859.3745 3043.0264 C 1864.5283 3044.0651 1869.6821 3045.1038 1874.8359 3046.1426 C 1864.2476 3036.1723 1856.3237 3021.952 1857.5366 3007.0469 C 1861.7626 2991.5161 1874.7828 2979.8747 1889.1605 2973.607 C 1896.0483 2970.1272 1902.9707 2966.7119 1909.7598 2963.041 C 1891.0138 2960.5659 1872.2393 2957.9746 1853.8359 2953.5469 C 1860.9534 2946.2179 1871.0188 2942.632 1880.9297 2941.1309 C 1872.9602 2939.3872 1864.0105 2939.8665 1857.1934 2934.7168 C 1852.5472 2927.5964 1860.5654 2916.9338 1868.6934 2919.3633 C 1881.8139 2920.2527 1894.6872 2923.2112 1907.7891 2924.2754 C 1894.2881 2915.951 1880.6362 2907.8606 1867.4277 2899.0723 C 1868.0602 2892.6583 1875.335 2887.7423 1881.4863 2889.9375 C 1882.907 2885.8008 1878.7415 2882.7314 1875.6593 2880.88 C 1872.7835 2878.5979 1870.2052 2873.8118 1873.1611 2870.6199 C 1879.8808 2864.5781 1890.3918 2865.6111 1897.5901 2870.2304 C 1906.419 2874.2666 1915.2571 2878.2843 1924.0117 2882.4805 C 1912.5768 2871.9785 1901.1234 2861.2483 1892.2832 2848.3906 C 1892.803 2840.031 1902.5887 2833.6024 1910.3848 2837.0215 C 1912.4521 2831.9754 1906.9419 2827.9729 1907.0621 2823.108 C 1908.6921 2816.0166 1917.5485 2812.4901 1923.9785 2815.25 C 1925.9927 2814.6334 1923.8823 2812.2969 1922.5578 2812.3408 C 1917.3786 2809.0581 1910.7534 2805.7661 1909.5527 2799.1119 C 1908.2613 2788.6223 1898.9213 2780.651 1899.3457 2769.7656 C 1902.6293 2762.2136 1911.8707 2759.3394 1919.5098 2760.5938 C 1924.897 2760.2174 1930.3587 2759.9713 1935.5742 2758.4492 C 1919.3237 2748.8953 1899.9839 2744.6939 1885.6855 2731.8906 C 1880.7282 2726.0848 1882.8094 2716.2255 1889.2754 2712.4277 C 1889.7732 2708.4538 1884.6107 2706.6015 1881.4961 2707.9844 C 1872.939 2706.7961 1869.1802 2694.9155 1874.6778 2688.5722 C 1882.3346 2674.4619 1892.5549 2661.9918 1902.1172 2649.1672 C 1917.3072 2629.9067 1933.589 2611.5389 1948.8164 2592.3086 C 1921.0081 2616.5575 1893.9722 2642.2321 1862.0273 2661.084 C 1854.8673 2663.4126 1847.3886 2654.4688 1850.9492 2647.834 C 1846.5691 2645.5111 1841.8716 2649.0743 1839.2598 2652.459 C 1832.6921 2657.3828 1825.8183 2662.181 1817.9434 2664.7539 C 1812.74 2660.3409 1814.2985 2651.7313 1819.1328 2647.6665 C 1819.9293 2646.3302 1821.4791 2643.9284 1819.582 2642.8418 C 1813.5725 2646.4558 1807.3578 2650.0801 1800.3965 2651.4609 C 1793.3638 2644.2168 1793.6169 2632.4422 1798.2832 2624.0059 C 1801.1915 2614.4617 1804.112 2604.9214 1807.0449 2595.3848 C 1789.1544 2618.491 1771.9062 2642.673 1748.8613 2661.0312 C 1740.1863 2665.1774 1728.5326 2658.9441 1727.1836 2649.4199 C 1717.1065 2648.3814 1708.9458 2655.6112 1699.6419 2658.0379 C 1692.2245 2660.0714 1683.0644 2660.826 1677.011 2655.1497 C 1672.502 2650.7409 1665.3512 2651.9844 1660.2859 2654.6633 C 1647.6964 2658.2458 1634.7992 2662.8986 1621.5326 2661.593 C 1616.4092 2658.7253 1614.8059 2651.3952 1608.5625 2650.2383 C 1600.8922 2650.9885 1592.5557 2654.0753 1585.2641 2650.099 C 1579.2805 2646.768 1574.9258 2640.6852 1573.6797 2633.9531 C 1567.6958 2633.0046 1563.3552 2638.1465 1559.7157 2642.0669 C 1542.2435 2655.2087 1517.467 2655.5849 1498.2224 2646.1702 C 1490.3194 2642.1065 1483.667 2636.0258 1475.7598 2631.9688 C 1472.3378 2632.9546 1471.6226 2637.0077 1469.6462 2639.523 C 1466.6276 2645.1482 1462.6287 2651.6623 1455.6719 2652.5137 C 1445.4748 2654.137 1435.5662 2647.1501 1431.4775 2638.0749 C 1421.4831 2622.501 1413.8423 2605.5246 1408.004 2587.9894 C 1405.4656 2580.6826 1403.0615 2573.3301 1400.6387 2565.9844 C 1400.5273 2567.4206 1400.416 2568.8568 1400.3047 2570.293 z "
       id="path4508-2"
       inkscape:connector-curvature="0"
       sodipodi:nodetypes="ccccccccccccccccccccccccccccccccccccccccccccccccccc" />
    <path
       style="color:#000000;display:inline;overflow:visible;visibility:visible;fill:#ffffff;fill-opacity:1;fill-rule:nonzero;stroke:none;stroke-width:0.99999988px;marker:none;enable-background:accumulate"
       d="m 1159.215,2912.3636 c 24.9289,15.9696 53.0046,32.3355 73.7186,51.7212 l -4.4671,-22.5612 c 12.3017,3.6243 20.5576,9.2984 29.8695,16.4802 l 0.282,-14.4184 c 28.8782,8.8394 47.895,25.3613 71.6781,38.17 l -1.1627,-32.9839 c -26.1704,-10.6456 -58.8089,-18.5611 -82.5747,-33.2158 l 0.2558,18.7223 c -9.1838,-4.1156 -21.518,-9.7867 -29.518,-15.5652 l 2.2339,19.9359 z"
       id="path4032-7"
       inkscape:connector-curvature="0"
       sodipodi:nodetypes="cccccccccccc" />
    <path
       style="fill:#ffffff;fill-rule:evenodd;stroke:none;stroke-width:1px;stroke-linecap:butt;stroke-linejoin:miter;stroke-opacity:1"
       d="m 1753.7087,204.34351 c 1.185,-20.50278 15.4056,-58.09068 36.7365,-64.92493 21.3308,-6.83426 80.5831,-6.83426 92.4336,-3.41661 11.8505,3.41661 30.8112,28.4752 35.5515,38.72712 4.7402,10.25086 17.7757,46.69954 -3.5551,61.50728 -21.3309,14.80774 -42.6617,26.19782 -65.1777,25.0586 -22.5159,-1.13922 -67.5477,-9.1127 -78.2131,-22.78016 -10.6654,-13.66852 -17.7757,-34.1713 -17.7757,-34.1713 z"
       id="path1355"
       inkscape:connector-curvature="0" />
    <path
       style="fill:#ffffff;stroke:none"
       d="m 1847.3696,354.09054 c -13.8328,-28.3217 -7.9502,-36.13851 -0.501,-44.49778 7.4497,-8.36018 15.1632,-15.13458 14.5125,-22.36198 -0.6506,-7.22728 -5.6372,-15.60621 -10.1839,-21.34253 -4.5468,-5.73632 4.0413,-9.66514 7.9076,-16.31667 3.8657,-6.6508 10.7042,-47.80659 10.7042,-47.80659 0,0 -26.0852,17.5715 -32.236,25.43439 -6.1509,7.86277 -8.4405,10.70667 -10.0173,14.51431 -1.5759,3.80696 -4.0646,13.75357 -0.9533,20.82655 3.1118,7.07218 9.494,12.21912 13.0595,17.0376 3.5649,4.81933 -1.3116,12.15392 -5.5827,19.6909 -4.2712,7.53691 -6.1414,13.7099 -2.3508,27.83912 3.2494,12.11102 15.6412,26.98268 15.6412,26.98268 z"
       id="path3023-4"
       inkscape:connector-curvature="0"
       sodipodi:nodetypes="csssscssssssc" />
    <path
       style="color:#000000;display:inline;overflow:visible;visibility:visible;fill:#ffffff;fill-opacity:1;fill-rule:nonzero;stroke:none;stroke-width:1px;marker:none;enable-background:accumulate"
       d="m 1776.3464,1315.529 c 3.2527,-11.321 20.627,-46.387 25.7118,-9.291 37.4381,-49.672 83.6395,-32.169 93.8806,-24.931 -4.7258,-14.705 4.8022,-41.137 32.0153,-34.638 -5.1706,-14.206 2.6362,-24.873 22.022,-32.381 -27.4731,-6.646 -33.2796,-15.291 15.0553,-28.938 -37.6389,2.046 -72.8702,2.901 -32.2408,-33.757 -13.9008,0.297 -43.8343,30.571 -36.8893,-51.608 -21.0909,27.809 -44.9596,44.128 -82.345,-7.637 -7.5628,22.215 -20.6761,37.852 -51.7969,10.837 -3.8196,21.757 -37.5549,26.216 -50.4824,22.884 27.6128,21.802 28.2717,36.657 -5.6527,41.671 61.708,38.345 14.2263,35.6 6.113,47.213 46.5049,11.207 28.2717,31.183 22.1502,50.136 51.7672,-3.483 37.8708,27.229 42.4589,50.44 z"
       id="path3549-3-8"
       inkscape:connector-curvature="0"
       sodipodi:nodetypes="ccccccccccccccc" />
    <path
       style="color:#000000;display:inline;overflow:visible;visibility:visible;fill:#ffffff;fill-opacity:1;fill-rule:nonzero;stroke:none;stroke-width:1px;marker:none;enable-background:accumulate"
       d="m 1862.3291,1246.0499 c 14.3861,24.2296 28.6134,53.9163 31.3484,61.3263 -9.104,1.8541 -16.3446,4.7584 -22.9617,5.3139 6.2417,13.3724 31.8119,68.3466 45.0873,79.3414 -33.7825,-25.8525 -61.563,-70.2493 -70.1237,-92.8544 8.499,-2.3387 14.007,-2.5569 18.4447,-3.9047 -3.7254,-11.4708 -23.6989,-46.1206 -23.6989,-46.1206 z"
       id="path5066-8"
       inkscape:connector-curvature="0"
       sodipodi:nodetypes="cccccccc" />
    <path
       style="fill:#ffffff;stroke:none;stroke-width:0.99999988"
       d="m 585.04713,1483.669 c -1.37338,-27.1718 23.25103,-95.1953 143.36788,-90.0791 120.11691,5.1162 157.71158,35.0056 161.23156,83.3044 5.56834,76.4076 -57.625,96.826 -148.365,102.4861 -93.54306,5.8339 -157.68622,-46.6144 -156.23444,-95.7114 z"
       id="path3280-7"
       inkscape:connector-curvature="0"
       sodipodi:nodetypes="csssc" />
    <path
       style="color:#000000;display:inline;overflow:visible;visibility:visible;fill:#ffffff;fill-opacity:1;fill-rule:nonzero;stroke:none;stroke-width:1px;marker:none;enable-background:accumulate"
       d="m 869.08895,1636.9955 c -67.24677,1.2844 -93.00504,-48.0053 -100.0269,-87.4546 -9.92573,-55.7646 -2.09042,-31.0329 -2.09042,-31.0329 l -33.99104,26.0816 c -4.43616,0.2077 36.58553,127.7062 136.10836,92.4059 z"
       id="path3072-12"
       inkscape:connector-curvature="0"
       sodipodi:nodetypes="csccc" />
    <path
       style="fill:#ffffff;fill-rule:evenodd;stroke:none;stroke-width:1.06666005px;stroke-linecap:butt;stroke-linejoin:miter;stroke-opacity:1"
       d="m 529.79565,1378.9971 c 1.2297,-19.455 15.98627,-55.122 38.12123,-61.607 22.13485,-6.485 83.62064,-6.485 95.91782,-3.242 12.29718,3.242 31.97265,27.02 36.89153,36.748 4.9189,9.727 18.44578,44.313 -3.68908,58.364 -22.13497,14.051 -44.26982,24.859 -67.63448,23.778 -23.36467,-1.081 -70.09387,-8.647 -81.16125,-21.616 -11.06749,-12.97 -18.44577,-32.425 -18.44577,-32.425 z"
       id="path1355-3"
       inkscape:connector-curvature="0" />
  </g>
  <g
     inkscape:groupmode="layer"
     id="layer1"
     inkscape:label="txt">
    <text
       xml:space="preserve"
       style="font-style:normal;font-variant:normal;font-weight:normal;font-stretch:normal;line-height:0%;font-family:Lavi;-inkscape-font-specification:Lavi;text-align:center;letter-spacing:0px;word-spacing:0px;text-anchor:middle;fill:#000000;fill-opacity:1;stroke:none"
       x="219.87317"
       y="180.54718"
       id="text4246-3-3"><tspan
         sodipodi:role="line"
         style="font-style:normal;font-variant:normal;font-weight:bold;font-stretch:normal;font-size:45px;line-height:1.25;font-family:Lavi;-inkscape-font-specification:'Lavi Bold'"
         x="219.87317"
         y="180.54718"
         id="tspan67">	Officier !</tspan><tspan
         sodipodi:role="line"
         style="font-style:normal;font-variant:normal;font-weight:bold;font-stretch:normal;font-size:45px;line-height:1.25;font-family:Lavi;-inkscape-font-specification:'Lavi Bold'"
         x="219.87317"
         y="199.05417"
         id="tspan852" /></text>
    <text
       xml:space="preserve"
       style="font-style:normal;font-variant:normal;font-weight:normal;font-stretch:normal;line-height:0%;font-family:Lavi;-inkscape-font-specification:Lavi;text-align:center;letter-spacing:0px;word-spacing:0px;text-anchor:middle;fill:#000000;fill-opacity:1;stroke:none"
       x="385.97449"
       y="234.32552"
       id="text4246-3-5-9"><tspan
         sodipodi:role="line"
         style="font-size:45px;line-height:1.25"
         x="385.97449"
         y="234.32552"
         id="tspan903">Avez-vous engagé</tspan><tspan
         sodipodi:role="line"
         style="font-size:45px;line-height:1.25"
         x="393.00574"
         y="290.5755"
         id="tspan879">une sorcière, comme je </tspan><tspan
         sodipodi:role="line"
         style="font-size:45px;line-height:1.25"
         x="385.97449"
         y="346.82553"
         id="tspan916">l'ai demandé ?</tspan></text>
    <text
       xml:space="preserve"
       style="font-style:normal;font-variant:normal;font-weight:normal;font-stretch:normal;line-height:0%;font-family:Lavi;-inkscape-font-specification:Lavi;text-align:center;letter-spacing:0px;word-spacing:0px;text-anchor:middle;fill:#000000;fill-opacity:1;stroke:none"
       x="883.4093"
       y="509.67288"
       id="text4246-1-6"><tspan
         sodipodi:role="line"
         style="font-style:normal;font-variant:normal;font-weight:normal;font-stretch:normal;font-size:45px;line-height:1.25;font-family:Lavi;-inkscape-font-specification:Lavi"
         x="891.31946"
         y="509.67288"
         id="tspan915">Oui, </tspan><tspan
         sodipodi:role="line"
         style="font-style:normal;font-variant:normal;font-weight:normal;font-stretch:normal;font-size:45px;line-height:1.25;font-family:Lavi;-inkscape-font-specification:Lavi"
         x="883.4093"
         y="565.92285"
         id="tspan920">mon roi !</tspan></text>
    <text
       xml:space="preserve"
       style="font-style:normal;font-variant:normal;font-weight:normal;font-stretch:normal;line-height:0%;font-family:Lavi;-inkscape-font-specification:Lavi;text-align:center;letter-spacing:0px;word-spacing:0px;text-anchor:middle;display:inline;fill:#000000;fill-opacity:1;stroke:none"
       x="945.81696"
       y="670.9931"
       id="text4246-7-6-1-7-6-3-5"><tspan
         sodipodi:role="line"
         style="font-size:45px;line-height:1.25"
         x="953.72711"
         y="670.9931"
         id="tspan929">Elle est </tspan><tspan
         sodipodi:role="line"
         style="font-size:45px;line-height:1.25"
         x="953.72711"
         y="727.2431"
         id="tspan927">juste là, à </tspan><tspan
         sodipodi:role="line"
         style="font-size:45px;line-height:1.25"
         x="945.81696"
         y="783.4931"
         id="tspan938">côté de vous.</tspan></text>
    <text
       xml:space="preserve"
       style="font-style:normal;font-variant:normal;font-weight:normal;font-stretch:normal;font-size:15.90748692px;line-height:0%;font-family:Lavi;-inkscape-font-specification:Lavi;text-align:center;letter-spacing:0px;word-spacing:0px;text-anchor:middle;fill:#000000;fill-opacity:1;stroke:none;stroke-width:0.99999988"
       x="1859.6963"
       y="214.15907"
       id="text4246-86-3-3"
       transform="scale(0.98795945,1.0121873)"><tspan
         sodipodi:role="line"
         style="font-size:59.65306854px;line-height:1.20000005;stroke-width:0.99999988"
         x="1859.6963"
         y="214.15907"
         id="tspan1044-3"><tspan
           style="font-style:normal;font-variant:normal;font-weight:bold;font-stretch:normal;font-family:Lavi;-inkscape-font-specification:'Lavi Bold';stroke-width:0.99999988"
           id="tspan1046-9">...?</tspan></tspan></text>
    <text
       xml:space="preserve"
       style="font-style:normal;font-variant:normal;font-weight:normal;font-stretch:normal;line-height:0%;font-family:Lavi;-inkscape-font-specification:Lavi;text-align:center;letter-spacing:0px;word-spacing:0px;text-anchor:middle;fill:#000000;fill-opacity:1;stroke:none"
       x="622.40643"
       y="1389.9771"
       id="text4246-3-7-7-6-7-2-9-6-1-4"><tspan
         sodipodi:role="line"
         style="font-size:45px;line-height:1.20000005"
         x="622.40643"
         y="1389.9771"
         id="tspan1183-0">Salut !</tspan></text>
    <text
       xml:space="preserve"
       style="font-style:normal;font-variant:normal;font-weight:normal;font-stretch:normal;line-height:0%;font-family:Lavi;-inkscape-font-specification:Lavi;text-align:center;letter-spacing:0px;word-spacing:0px;text-anchor:middle;fill:#000000;fill-opacity:1;stroke:none"
       x="736.13556"
       y="1476.2469"
       id="text4246-7-5"><tspan
         sodipodi:role="line"
         style="font-size:45px;line-height:1.25"
         x="736.13556"
         y="1476.2469"
         id="tspan1089">Je m'appelle</tspan><tspan
         sodipodi:role="line"
         style="font-size:45px;line-height:1.25"
         x="736.13556"
         y="1532.4969"
         id="tspan950"> Pepp...</tspan></text>
    <text
       xml:space="preserve"
       style="font-style:normal;font-variant:normal;font-weight:normal;font-stretch:normal;line-height:0%;font-family:Lavi;-inkscape-font-specification:Lavi;text-align:center;letter-spacing:0px;word-spacing:0px;text-anchor:middle;display:inline;fill:#000000;fill-opacity:1;stroke:none"
       x="2271.7188"
       y="1112.7358"
       id="text4246-2-3-1-3-9-9-7"
       transform="matrix(0.89365154,0,-0.19329856,1.1190044,0,0)"><tspan
         sodipodi:role="line"
         style="font-size:104.29582214px;line-height:1.25;letter-spacing:-5px"
         x="2269.2188"
         y="1112.7358"
         id="tspan4161-6">?!!</tspan></text>
    <text
       xml:space="preserve"
       style="font-style:normal;font-variant:normal;font-weight:normal;font-stretch:normal;font-size:28.73172379px;line-height:0%;font-family:Lavi;-inkscape-font-specification:Lavi;text-align:center;letter-spacing:29.10897446px;word-spacing:0px;text-anchor:middle;fill:#000000;fill-opacity:1;stroke:none;stroke-width:1"
       x="2274.2424"
       y="2618.3271"
       id="text4246-6-6-3-6"
       transform="matrix(0.94427779,0,-0.21829887,1.0590104,0,0)"><tspan
         sodipodi:role="line"
         style="font-style:normal;font-variant:normal;font-weight:bold;font-stretch:normal;font-size:81.33332825px;line-height:1.20000005;font-family:Lavi;-inkscape-font-specification:'Lavi Bold';letter-spacing:4px;stroke-width:1"
         x="2276.2424"
         y="2618.3271"
         id="tspan4252-00-4-7-3">IMBÉCILE !!!</tspan></text>
    <text
       xml:space="preserve"
       style="font-style:normal;font-variant:normal;font-weight:normal;font-stretch:normal;font-size:14.11471462px;line-height:0%;font-family:Lavi;-inkscape-font-specification:Lavi;text-align:center;letter-spacing:14.30004215px;word-spacing:0px;text-anchor:middle;fill:#000000;fill-opacity:1;stroke:none;stroke-width:1"
       x="1640.6864"
       y="2712.9067"
       id="text4246-6-3"
       transform="scale(0.94973823,1.0529217)"><tspan
         sodipodi:role="line"
         style="font-style:normal;font-variant:normal;font-weight:bold;font-stretch:normal;font-size:52.9301796px;line-height:1.20000005;font-family:Lavi;-inkscape-font-specification:'Lavi Bold';letter-spacing:0.90000004px;stroke-width:1"
         x="1650.8905"
         y="2712.9067"
         id="tspan1117">Pourquoi avez-vous </tspan><tspan
         sodipodi:role="line"
         style="font-style:normal;font-variant:normal;font-weight:bold;font-stretch:normal;font-size:52.9301796px;line-height:1.20000005;font-family:Lavi;-inkscape-font-specification:'Lavi Bold';letter-spacing:0.90000004px;stroke-width:1"
         x="1641.1364"
         y="2776.4229"
         id="tspan954">engagé cette gamine ?!</tspan></text>
    <text
       xml:space="preserve"
       style="font-style:normal;font-variant:normal;font-weight:normal;font-stretch:normal;font-size:14.11471462px;line-height:0%;font-family:Lavi;-inkscape-font-specification:Lavi;text-align:center;letter-spacing:14.30004215px;word-spacing:0px;text-anchor:middle;fill:#000000;fill-opacity:1;stroke:none;stroke-width:1"
       x="1633.1113"
       y="2846.6846"
       id="text4246-6-3-4"
       transform="scale(0.94973823,1.0529217)"><tspan
         sodipodi:role="line"
         style="font-style:normal;font-variant:normal;font-weight:bold;font-stretch:normal;font-size:52.9301796px;line-height:1.20000005;font-family:Lavi;-inkscape-font-specification:'Lavi Bold';letter-spacing:0.90000004px;stroke-width:1"
         x="1643.3154"
         y="2846.6846"
         id="tspan1142">J'ai besoin d'une vraie </tspan><tspan
         sodipodi:role="line"
         style="font-style:normal;font-variant:normal;font-weight:bold;font-stretch:normal;font-size:52.9301796px;line-height:1.20000005;font-family:Lavi;-inkscape-font-specification:'Lavi Bold';letter-spacing:0.90000004px;stroke-width:1"
         x="1633.5613"
         y="2910.2007"
         id="tspan958">sorcière de combat !</tspan></text>
  </g>
</svg>
