<?xml version="1.0" encoding="UTF-8" standalone="no"?>
<svg
   xmlns:dc="http://purl.org/dc/elements/1.1/"
   xmlns:cc="http://creativecommons.org/ns#"
   xmlns:rdf="http://www.w3.org/1999/02/22-rdf-syntax-ns#"
   xmlns:svg="http://www.w3.org/2000/svg"
   xmlns="http://www.w3.org/2000/svg"
   xmlns:xlink="http://www.w3.org/1999/xlink"
   xmlns:sodipodi="http://sodipodi.sourceforge.net/DTD/sodipodi-0.dtd"
   xmlns:inkscape="http://www.inkscape.org/namespaces/inkscape"
   id="svg2"
   version="1.1"
   inkscape:version="1.0 (4035a4fb49, 2020-05-01)"
   width="2481"
   height="3503"
   sodipodi:docname="E35P12.svg">
  <metadata
     id="metadata8">
    <rdf:RDF>
      <cc:Work
         rdf:about="">
        <dc:format>image/svg+xml</dc:format>
        <dc:type
           rdf:resource="http://purl.org/dc/dcmitype/StillImage" />
        <dc:title />
      </cc:Work>
    </rdf:RDF>
  </metadata>
  <defs
     id="defs6" />
  <sodipodi:namedview
     pagecolor="#ffffff"
     bordercolor="#666666"
     borderopacity="1"
     objecttolerance="10"
     gridtolerance="10"
     guidetolerance="10"
     inkscape:pageopacity="0"
     inkscape:pageshadow="2"
     inkscape:window-width="1366"
     inkscape:window-height="715"
     id="namedview4"
     showgrid="false"
     inkscape:zoom="0.45"
     inkscape:cx="1221.6863"
     inkscape:cy="3317.9475"
     inkscape:window-x="-8"
     inkscape:window-y="-8"
     inkscape:window-maximized="1"
     inkscape:current-layer="layer1"
     inkscape:document-rotation="0"
     inkscape:pagecheckerboard="0" />
  <g
     inkscape:groupmode="layer"
     id="layer2"
     inkscape:label="artwork"
     sodipodi:insensitive="true">
    <image
       sodipodi:absref="D:\Pepper&amp;Carrot translation\ep35_The-Reflection_lang-pack\lang\gfx_Pepper-and-Carrot_by-David-Revoy_E35P12.png"
       xlink:href="../gfx_Pepper-and-Carrot_by-David-Revoy_E35P12.png"
       width="2481"
       height="3503"
       id="image10"
       x="0"
       y="0" />
  </g>
  <g
     inkscape:groupmode="layer"
     id="layer3"
     inkscape:label="speechbubbles">
    <rect
       style="color:#000000;font-variation-settings:normal;overflow:visible;opacity:1;vector-effect:none;fill:#ffffff;fill-opacity:1;stroke-width:0;stroke-linecap:round;stroke-linejoin:miter;stroke-miterlimit:4;stroke-dasharray:none;stroke-dashoffset:0;stroke-opacity:1;paint-order:stroke fill markers;stop-color:#000000;stop-opacity:1"
       id="rect1254"
       width="447.98575"
       height="160.15002"
       x="126.66092"
       y="865.21362" />
    <rect
       style="color:#000000;font-variation-settings:normal;overflow:visible;opacity:1;vector-effect:none;fill:#ffffff;fill-opacity:1;stroke-width:0;stroke-linecap:round;stroke-linejoin:miter;stroke-miterlimit:4;stroke-dasharray:none;stroke-dashoffset:0;stroke-opacity:1;paint-order:stroke fill markers;stop-color:#000000;stop-opacity:1"
       id="rect1256"
       width="396.67682"
       height="134.53494"
       x="1138.6371"
       y="1871.7996" />
    <rect
       style="color:#000000;font-variation-settings:normal;overflow:visible;opacity:1;vector-effect:none;fill:#ffffff;fill-opacity:1;stroke-width:0;stroke-linecap:round;stroke-linejoin:miter;stroke-miterlimit:4;stroke-dasharray:none;stroke-dashoffset:0;stroke-opacity:1;paint-order:stroke fill markers;stop-color:#000000"
       id="rect1256-3"
       width="251.48285"
       height="130.19362"
       x="1634.1818"
       y="888.93719" />
  </g>
  <g
     inkscape:groupmode="layer"
     id="layer1"
     inkscape:label="txt">
    <text
       xml:space="preserve"
       style="font-style:normal;font-variant:normal;font-weight:normal;font-stretch:normal;font-size:45px;line-height:1.25;font-family:'Xiaolai SC';-inkscape-font-specification:'Xiaolai SC';text-align:center;letter-spacing:0px;word-spacing:0px;text-anchor:middle;fill:#000000;fill-opacity:1;stroke:none"
       x="344.936"
       y="935.68262"
       id="text4246-3-2-2"><tspan
         style="font-style:normal;font-variant:normal;font-weight:normal;font-stretch:normal;font-size:45px;font-family:'Xiaolai SC';-inkscape-font-specification:'Xiaolai SC'"
         sodipodi:role="line"
         x="344.936"
         y="935.68262"
         id="tspan854">从今以后，</tspan><tspan
         id="tspan32"
         style="font-style:normal;font-variant:normal;font-weight:normal;font-stretch:normal;font-size:45px;font-family:'Xiaolai SC';-inkscape-font-specification:'Xiaolai SC'"
         sodipodi:role="line"
         x="344.936"
         y="991.93262">无论身陷怎样的险境</tspan></text>
    <text
       xml:space="preserve"
       style="font-style:normal;font-variant:normal;font-weight:normal;font-stretch:normal;font-size:45px;line-height:1.25;font-family:'Xiaolai SC';-inkscape-font-specification:'Xiaolai SC';text-align:center;letter-spacing:0px;word-spacing:0px;text-anchor:middle;fill:#000000;fill-opacity:1;stroke:none"
       x="1337.1101"
       y="1929.4109"
       id="text4246-3-2-2-1"><tspan
         style="font-style:normal;font-variant:normal;font-weight:normal;font-stretch:normal;font-size:45px;font-family:'Xiaolai SC';-inkscape-font-specification:'Xiaolai SC'"
         sodipodi:role="line"
         x="1337.1101"
         y="1929.4109"
         id="tspan867">我都会自始至终</tspan><tspan
         id="tspan36"
         style="font-style:normal;font-variant:normal;font-weight:normal;font-stretch:normal;font-size:45px;font-family:'Xiaolai SC';-inkscape-font-specification:'Xiaolai SC'"
         sodipodi:role="line"
         x="1337.1101"
         y="1985.6609">做自己。</tspan></text>
    <text
       xml:space="preserve"
       style="font-style:normal;font-variant:normal;font-weight:normal;font-stretch:normal;font-size:45px;line-height:1.25;font-family:'Xiaolai SC';-inkscape-font-specification:'Xiaolai SC';text-align:center;letter-spacing:0px;word-spacing:0px;text-anchor:middle;fill:#000000;fill-opacity:1;stroke:none"
       x="1774.8995"
       y="968.28711"
       id="text4246-3-2-2-1-6"><tspan
         style="font-style:normal;font-variant:normal;font-weight:normal;font-stretch:normal;font-size:45px;font-family:'Xiaolai SC';-inkscape-font-specification:'Xiaolai SC'"
         sodipodi:role="line"
         x="1774.8995"
         y="968.28711"
         id="tspan864-5">我发誓！</tspan></text>
    <text
       xml:space="preserve"
       style="font-style:normal;font-variant:normal;font-weight:normal;font-stretch:normal;font-size:46.9748px;line-height:1.25;font-family:'Xiaolai SC';-inkscape-font-specification:'Xiaolai SC';text-align:center;letter-spacing:0px;word-spacing:0px;text-anchor:middle;fill:#000000;fill-opacity:1;stroke:none;stroke-width:1.04388"
       x="2741.9949"
       y="3167.2151"
       id="text4246-3-2-2-6-3-8"
       transform="matrix(0.91327378,0,-0.07872707,1.0949619,0,0)"><tspan
         style="font-style:normal;font-variant:normal;font-weight:normal;font-stretch:normal;font-size:46.9748px;font-family:'Xiaolai SC';-inkscape-font-specification:'Xiaolai SC';stroke-width:1.04388"
         sodipodi:role="line"
         id="tspan1097-2-6-7"
         x="2741.9949"
         y="3167.2151">未完待续…</tspan></text>
    <text
       xml:space="preserve"
       style="font-size:29.3333px;line-height:1.25;font-family:Sword;-inkscape-font-specification:Sword;text-align:center;letter-spacing:0px;word-spacing:0px;writing-mode:lr-tb;text-anchor:middle"
       x="1372.5665"
       y="1890.0585"
       id="text860"><tspan
         sodipodi:role="line"
         id="tspan858"
         x="1372.5665"
         y="1890.0585" /><tspan
         sodipodi:role="line"
         x="1372.5665"
         y="1926.7251"
         id="tspan862" /><tspan
         sodipodi:role="line"
         x="1372.5665"
         y="1963.3917"
         id="tspan865" /></text>
  </g>
</svg>
