<?xml version="1.0" encoding="UTF-8" standalone="no"?>
<!-- Created with Inkscape (http://www.inkscape.org/) -->

<svg
   xmlns:dc="http://purl.org/dc/elements/1.1/"
   xmlns:cc="http://creativecommons.org/ns#"
   xmlns:rdf="http://www.w3.org/1999/02/22-rdf-syntax-ns#"
   xmlns:svg="http://www.w3.org/2000/svg"
   xmlns="http://www.w3.org/2000/svg"
   xmlns:xlink="http://www.w3.org/1999/xlink"
   xmlns:sodipodi="http://sodipodi.sourceforge.net/DTD/sodipodi-0.dtd"
   xmlns:inkscape="http://www.inkscape.org/namespaces/inkscape"
   id="svg2"
   version="1.1"
   inkscape:version="0.92.2 2405546, 2018-03-11"
   width="2481"
   height="3503"
   sodipodi:docname="E28P05.svg">
  <metadata
     id="metadata8">
    <rdf:RDF>
      <cc:Work
         rdf:about="">
        <dc:format>image/svg+xml</dc:format>
        <dc:type
           rdf:resource="http://purl.org/dc/dcmitype/StillImage" />
        <dc:title />
      </cc:Work>
    </rdf:RDF>
  </metadata>
  <defs
     id="defs6" />
  <sodipodi:namedview
     pagecolor="#ffffff"
     bordercolor="#666666"
     borderopacity="1"
     objecttolerance="10"
     gridtolerance="10"
     guidetolerance="10"
     inkscape:pageopacity="0"
     inkscape:pageshadow="2"
     inkscape:window-width="1871"
     inkscape:window-height="1056"
     id="namedview4"
     showgrid="false"
     inkscape:zoom="0.18207545"
     inkscape:cx="284.98106"
     inkscape:cy="1914.2916"
     inkscape:window-x="49"
     inkscape:window-y="24"
     inkscape:window-maximized="1"
     inkscape:current-layer="layer3" />
  <g
     inkscape:groupmode="layer"
     id="layer2"
     inkscape:label="artwork"
     sodipodi:insensitive="true">
    <image
       sodipodi:absref="/home/midgard/git/peppercarrot/comics/new-ep28_The-Festivities/lang/mx/../gfx_Pepper-and-Carrot_by-David-Revoy_E28P05.png"
       xlink:href="../gfx_Pepper-and-Carrot_by-David-Revoy_E28P05.png"
       y="0"
       x="0"
       id="image10"
       height="3503"
       width="2481" />
  </g>
  <g
     inkscape:groupmode="layer"
     id="layer3"
     inkscape:label="speechbubbles">
    <path
       style="fill:#ffffff;fill-rule:evenodd;stroke:none;stroke-width:0.92832732px;stroke-linecap:butt;stroke-linejoin:miter;stroke-opacity:1"
       d="m 161.36156,191.3968 c 26.54604,-20.70775 66.02688,-31.2729 104.54343,-37.99801 36.03906,-6.40706 73.59005,-6.56002 110.56055,-5.16914 46.8826,1.83472 94.369,4.09368 139.58222,13.16949 13.82346,2.65378 26.83951,7.49832 35.43482,15.40685 36.39825,26.77985 62.76203,61.64971 61.87243,98.56206 -3.66185,54.24587 -18.11539,108.56015 -23.32233,162.75507 -1.58061,17.84546 -7.75238,36.66471 -27.17996,49.78184 -22.31012,15.76437 -51.89088,26.40318 -83.4128,31.12627 -50.1529,7.98036 -89.38289,10.79683 -140.84557,10.18881 -20.11396,-1.46229 -40.21814,-3.41268 -60.27331,-5.35592 -42.97385,-4.96393 -71.64971,-12.59685 -102.46834,-34.8744 -24.46942,-17.76217 -38.01937,-41.73011 -40.5358,-65.67567 0.19038,-50.35652 -12.25083,-100.64078 -8.92712,-150.93356 1.18505,-13.57598 0.25609,-27.44913 7.46214,-40.42236 6.56174,-14.20455 15.08071,-28.1855 27.50964,-40.56133 z"
       id="path1006"
       inkscape:connector-curvature="0"
       sodipodi:nodetypes="cccccccccccccccc" />
    <path
       style="fill:#ffffff;fill-rule:evenodd;stroke:none;stroke-width:1px;stroke-linecap:butt;stroke-linejoin:miter;stroke-opacity:1"
       d="M 333.27358,346.17986 C 395.90659,299.25879 684.65819,123.37673 1012.4941,266.75583 759.55842,143.42811 491.69794,181.66189 330.00219,300.24071 Z"
       id="path1008"
       inkscape:connector-curvature="0"
       sodipodi:nodetypes="cccc" />
    <path
       style="fill:#ffffff;fill-rule:evenodd;stroke:none;stroke-width:1px;stroke-linecap:butt;stroke-linejoin:miter;stroke-opacity:1"
       d="m 1819.6761,521.16397 c 116.7092,-13.15033 182.4608,-4.93138 226.8431,52.60129 44.3824,57.53267 34.5196,90.40848 23.0131,80.54574 -11.5065,-9.86274 -23.0131,-151.22873 -249.8562,-133.14703 z"
       id="path1011"
       inkscape:connector-curvature="0" />
    <path
       style="fill:#ffffff;fill-rule:evenodd;stroke:none;stroke-width:1px;stroke-linecap:butt;stroke-linejoin:miter;stroke-opacity:1"
       d="m 2110.627,552.39599 c 87.1209,1.64379 133.1471,13.15032 151.2288,29.58823 18.0817,16.4379 42.7385,60.82025 34.5196,87.12089 -8.219,26.30065 -39.451,69.03921 -129.8595,65.75163 -90.4085,-3.28759 -156.1601,-19.72549 -177.5294,-52.6013 -21.3692,-32.87581 8.219,-101.91501 42.7386,-113.42155 34.5196,-11.50653 39.451,-14.79411 78.9019,-16.4379 z"
       id="path1013"
       inkscape:connector-curvature="0" />
    <path
       style="fill:#ffffff;fill-rule:evenodd;stroke:none;stroke-width:0.99999994px;stroke-linecap:butt;stroke-linejoin:miter;stroke-opacity:1"
       d="m 1959.2789,734.25711 c 65.4794,-49.31372 145.0005,-46.02614 166.2814,-42.73856 21.2806,3.28759 74.6422,8.29912 114.49,11.50654 18.4253,1.48309 85.9784,32.97559 90.8237,87.12089 2.9347,32.79479 0,65.75163 -45.8355,78.90195 -45.8355,13.15032 -113.2479,13.15032 -170.5424,11.50653 -57.2944,-1.64379 -122.4776,0 -156.8542,-29.58823 -34.3766,-29.58823 -44.1985,-70.68299 1.637,-116.70912 z"
       id="path1015"
       inkscape:connector-curvature="0"
       sodipodi:nodetypes="cssssssc" />
    <path
       style="fill:#ffffff;fill-rule:evenodd;stroke:none;stroke-width:1px;stroke-linecap:butt;stroke-linejoin:miter;stroke-opacity:1"
       d="m 308.10657,1061.9105 c 92.45842,1.4862 172.72404,1.4862 193.27036,16.3486 34.31817,14.8626 53.28542,49.0462 54.75301,81.7435 1.4676,32.6973 -1.46759,80.2572 -29.35188,102.5508 -27.88429,22.2937 -77.78247,40.1286 -127.68067,47.5598 -49.89819,7.4312 -149.69458,7.4312 -183.44923,0 -33.75467,-7.4312 -92.45842,-32.6973 -99.79639,-57.9634 -7.33797,-25.2663 -10.27316,-87.6884 -1.4676,-112.9547 8.80557,-25.2661 19.88726,-56.4772 62.44748,-65.3946 42.56022,-8.9175 131.27492,-11.89 131.27492,-11.89 z"
       id="path1017"
       inkscape:connector-curvature="0"
       sodipodi:nodetypes="ccscsscccc" />
    <path
       style="fill:#ffffff;fill-rule:evenodd;stroke:none;stroke-width:1px;stroke-linecap:butt;stroke-linejoin:miter;stroke-opacity:1"
       d="m 464.5495,1496.1462 c 57.17532,-75.7573 57.17532,-148.6559 4.28815,-244.4245 -52.88717,-95.7687 -80.04545,-97.1981 -80.04545,-97.1981 l -4.28815,52.8872 c 0,0 168.6672,128.6445 80.04545,288.7354 z"
       id="path1019"
       inkscape:connector-curvature="0" />
    <path
       style="fill:#ffffff;fill-rule:evenodd;stroke:none;stroke-width:1.00006592px;stroke-linecap:butt;stroke-linejoin:miter;stroke-opacity:1"
       d="m 1890.8974,1180.237 c -3.8352,-46.0204 95.9069,-84.6622 226.9223,-84.9925 131.0154,-0.33 244.9417,18.9167 244.2226,66.4475 -0.7191,47.5307 -23.1166,87.6459 -191.5809,87.877 -168.4644,0.231 -272.4928,-12.5616 -279.564,-69.332 z"
       id="path1021"
       inkscape:connector-curvature="0" />
    <path
       style="fill:#ffffff;fill-rule:evenodd;stroke:none;stroke-width:1px;stroke-linecap:butt;stroke-linejoin:miter;stroke-opacity:1"
       d="m 2223.4008,1243.0202 c 9.6724,22.1135 -3.7615,81.471 -16.6581,91.9459 -8.9785,11.3235 4.9225,16.0942 9.6724,15.1304 4.2989,-2.9097 37.6151,-18.04 42.9887,-9.3111 5.3736,8.7291 -48.8996,51.2105 -42.9887,57.0298 5.911,5.8194 27.9427,-8.1471 30.6294,-3.4916 2.6868,4.6554 -4.2988,17.4581 -16.6581,25.6052 20.957,-6.9833 30.0921,-18.6219 25.7932,-26.769 -4.2988,-8.1471 -12.3592,-6.9833 -17.7328,-5.8194 10.2098,-8.7291 49.9875,-38.2659 39.7777,-53.9782 -10.2098,-15.7122 -36.0426,-12.0787 -41.9536,-9.169 14.5087,-12.8026 28.0737,-53.8649 21.6254,-85.8713 -6.4483,-32.0065 -34.4955,4.6983 -34.4955,4.6983 z"
       id="path1023"
       inkscape:connector-curvature="0"
       sodipodi:nodetypes="ccccsccccccsc" />
    <path
       style="fill:#ffffff;fill-rule:evenodd;stroke:none;stroke-width:0.99999994px;stroke-linecap:butt;stroke-linejoin:miter;stroke-opacity:1"
       d="m 773.98939,2341.9397 c 16.62653,-37.3188 64.73753,-50.6054 143.9734,-48.9914 84.79251,2.2182 124.90311,20.9739 129.44061,52.1521 3.8901,26.7296 -48.21377,45.2101 -120.94262,47.8546 -90.87007,3.3041 -151.4861,-3.632 -152.47139,-51.0153 z"
       id="path1025"
       inkscape:connector-curvature="0"
       sodipodi:nodetypes="ccssc" />
    <path
       style="fill:#ffffff;fill-rule:evenodd;stroke:none;stroke-width:1px;stroke-linecap:butt;stroke-linejoin:miter;stroke-opacity:1"
       d="m 891.05439,2384.5928 c 8.97846,20.1058 2.08504,29.2013 -7.53169,42.2988 -9.61674,13.0974 -3.91478,26.6928 6.89341,31.8628 10.80819,5.1701 22.50997,25.1418 21.87169,42.5477 -2.42546,-50.8389 -20.08451,-46.2816 -21.10575,-59.2259 -1.02125,-12.9442 20.21215,-24.3759 22.42485,-32.7054 2.2127,-8.3295 0.51063,-29.1055 -5.14877,-40.9009 -5.65941,-11.7954 -17.40374,16.1229 -17.40374,16.1229 z"
       id="path1027"
       inkscape:connector-curvature="0"
       sodipodi:nodetypes="cccccssc" />
  </g>
  <g
     inkscape:groupmode="layer"
     id="layer1"
     inkscape:label="txt">
    <text
       xml:space="preserve"
       style="font-style:normal;font-variant:normal;font-weight:normal;font-stretch:normal;line-height:0%;font-family:Lavi;-inkscape-font-specification:Lavi;text-align:center;letter-spacing:0px;word-spacing:0px;text-anchor:middle;fill:#000000;fill-opacity:1;stroke:none"
       x="364.504"
       y="213.4026"
       id="text4246"><tspan
         sodipodi:role="line"
         style="font-size:45px;line-height:1.20000005"
         x="364.504"
         y="213.4026"
         id="tspan833">Todas mis</tspan><tspan
         sodipodi:role="line"
         style="font-size:45px;line-height:1.20000005"
         x="364.504"
         y="267.40262"
         id="tspan868">amigas son exitosas,</tspan><tspan
         sodipodi:role="line"
         style="font-size:45px;line-height:1.20000005"
         x="364.504"
         y="321.40262"
         id="tspan870">a veces simplemente</tspan><tspan
         sodipodi:role="line"
         style="font-size:45px;line-height:1.20000005"
         x="364.504"
         y="375.40262"
         id="tspan872">no puedo evitar</tspan><tspan
         sodipodi:role="line"
         style="font-size:45px;line-height:1.20000005"
         x="364.504"
         y="429.40262"
         id="tspan880">el sentirme</tspan><tspan
         sodipodi:role="line"
         style="font-size:45px;line-height:1.20000005"
         x="364.504"
         y="483.40262"
         id="tspan874">un poco celosa.</tspan></text>
    <text
       xml:space="preserve"
       style="font-style:normal;font-variant:normal;font-weight:normal;font-stretch:normal;line-height:0%;font-family:Lavi;-inkscape-font-specification:Lavi;text-align:center;letter-spacing:0px;word-spacing:0px;text-anchor:middle;fill:#000000;fill-opacity:1;stroke:none"
       x="2142.3604"
       y="623.43835"
       id="text4246-3"><tspan
         sodipodi:role="line"
         style="font-size:45px;line-height:1.20000005"
         x="2142.3604"
         y="623.43835"
         id="tspan833-2">Coriander</tspan><tspan
         sodipodi:role="line"
         style="font-size:45px;line-height:1.20000005"
         x="2142.3604"
         y="677.43835"
         id="tspan898">es una reina.</tspan></text>
    <text
       xml:space="preserve"
       style="font-style:normal;font-variant:normal;font-weight:normal;font-stretch:normal;line-height:0%;font-family:Lavi;-inkscape-font-specification:Lavi;text-align:center;letter-spacing:0px;word-spacing:0px;text-anchor:middle;fill:#000000;fill-opacity:1;stroke:none"
       x="2139.6895"
       y="776.11542"
       id="text4246-3-9"><tspan
         sodipodi:role="line"
         style="font-size:45px;line-height:1.20000005"
         x="2139.6895"
         y="776.11542"
         id="tspan923">Saffron es una</tspan><tspan
         sodipodi:role="line"
         style="font-size:45px;line-height:1.20000005"
         x="2139.6895"
         y="830.11542"
         id="tspan884">persona famosa.</tspan></text>
    <text
       xml:space="preserve"
       style="font-style:normal;font-variant:normal;font-weight:normal;font-stretch:normal;line-height:0%;font-family:Lavi;-inkscape-font-specification:Lavi;text-align:center;letter-spacing:0px;word-spacing:0px;text-anchor:middle;fill:#000000;fill-opacity:1;stroke:none"
       x="330.29068"
       y="1126.1609"
       id="text4246-3-9-7"><tspan
         sodipodi:role="line"
         style="font-size:45px;line-height:1.20000005"
         x="330.29068"
         y="1126.1609"
         id="tspan923-9">Inclusive Shichimi</tspan><tspan
         sodipodi:role="line"
         style="font-size:45px;line-height:1.20000005"
         x="330.29068"
         y="1180.1609"
         id="tspan890">se ve perfecta</tspan><tspan
         sodipodi:role="line"
         style="font-size:45px;line-height:1.20000005"
         x="330.29068"
         y="1234.1609"
         id="tspan899">representando a su</tspan><tspan
         sodipodi:role="line"
         style="font-size:45px;line-height:1.20000005"
         x="330.29068"
         y="1288.1609"
         id="tspan903">academia.</tspan></text>
    <text
       xml:space="preserve"
       style="font-style:normal;font-variant:normal;font-weight:normal;font-stretch:normal;line-height:0%;font-family:Lavi;-inkscape-font-specification:Lavi;text-align:center;letter-spacing:0px;word-spacing:0px;text-anchor:middle;fill:#000000;fill-opacity:1;stroke:none"
       x="2126.2202"
       y="1155.2271"
       id="text4246-3-9-7-3"><tspan
         sodipodi:role="line"
         style="font-size:45px;line-height:1.20000005"
         x="2126.2202"
         y="1155.2271"
         id="tspan950-6">¿Y yo?</tspan><tspan
         sodipodi:role="line"
         style="font-size:45px;line-height:1.20000005"
         x="2126.2202"
         y="1209.2271"
         id="tspan981">¿Con qué me quedo?</tspan></text>
    <text
       xml:space="preserve"
       style="font-style:normal;font-variant:normal;font-weight:normal;font-stretch:normal;line-height:0%;font-family:Lavi;-inkscape-font-specification:Lavi;text-align:center;letter-spacing:0px;word-spacing:0px;text-anchor:middle;fill:#000000;fill-opacity:1;stroke:none"
       x="920.39771"
       y="2359.3208"
       id="text4246-3-9-7-3-2"><tspan
         sodipodi:role="line"
         style="font-size:45px;line-height:1.20000005"
         x="920.39771"
         y="2359.3208"
         id="tspan981-1">Con esto...</tspan></text>
  </g>
</svg>