<?xml version="1.0" encoding="UTF-8" standalone="no"?>
<!-- Created with Inkscape (http://www.inkscape.org/) -->

<svg
   id="svg2"
   version="1.1"
   inkscape:version="1.1.1 (1:1.1+202109281949+c3084ef5ed)"
   width="2481"
   height="3503"
   sodipodi:docname="E36P02.svg"
   xmlns:inkscape="http://www.inkscape.org/namespaces/inkscape"
   xmlns:sodipodi="http://sodipodi.sourceforge.net/DTD/sodipodi-0.dtd"
   xmlns:xlink="http://www.w3.org/1999/xlink"
   xmlns="http://www.w3.org/2000/svg"
   xmlns:svg="http://www.w3.org/2000/svg"
   xmlns:rdf="http://www.w3.org/1999/02/22-rdf-syntax-ns#"
   xmlns:cc="http://creativecommons.org/ns#"
   xmlns:dc="http://purl.org/dc/elements/1.1/">
  <metadata
     id="metadata8">
    <rdf:RDF>
      <cc:Work
         rdf:about="">
        <dc:format>image/svg+xml</dc:format>
        <dc:type
           rdf:resource="http://purl.org/dc/dcmitype/StillImage" />
      </cc:Work>
    </rdf:RDF>
  </metadata>
  <defs
     id="defs6">
    <filter
       x="-0.030924391"
       width="1.0599126"
       height="1.3663621"
       inkscape:label="magic-Fx-red_background"
       id="filter4375-4-1-1-1-9-5-8-8-3-3-3-6-1-3"
       style="color-interpolation-filters:sRGB"
       y="-0.13001217">
      <feFlood
         radius="5.0999999999999996"
         result="flood"
         flood-color="rgb(136,138,133)"
         flood-opacity="1"
         id="feFlood4377-7-9-0-8-1-7-3-1-6-61-6-2-0-1" />
      <feComposite
         baseFrequency="0.053999999999999999 0.053999999999999999"
         result="composite1"
         operator="in"
         in="flood"
         in2="SourceGraphic"
         id="feComposite4379-3-8-8-2-77-4-1-0-7-2-7-6-6-4" />
      <feMorphology
         result="result3"
         radius="0.96959439099754563"
         operator="dilate"
         id="feMorphology4393-1-0-49-8-9-3-0-1-5-9-5-1-3-9" />
      <feComposite
         numOctaves="4"
         result="fbSourceGraphic"
         operator="over"
         in="SourceGraphic"
         in2="result3"
         id="feComposite4385-9-5-7-0-8-8-7-5-3-3-3-8-2-2" />
      <feColorMatrix
         id="feColorMatrix4544-9-5-1-5-7-0-0"
         values="0 0 0 -1 0 0 0 0 -1 0 0 0 0 -1 0 0 0 0 1 0"
         in="fbSourceGraphic"
         result="fbSourceGraphicAlpha" />
      <feTurbulence
         result="turbulence"
         baseFrequency="0.062 0.054054054054054057"
         seed="172"
         numOctaves="4.4123222748815163"
         type="fractalNoise"
         id="feTurbulence4546-3-6-9-6-9-6-6" />
      <feDisplacementMap
         result="fbSourceGraphic"
         xChannelSelector="R"
         yChannelSelector="G"
         scale="11.642079"
         in="fbSourceGraphic"
         in2="turbulence"
         id="feDisplacementMap4548-8-2-4-2-2-1-8" />
      <feColorMatrix
         scale="10.800000000000001"
         id="feColorMatrix4670-7-9-7-9-0-5-9"
         values="0 0 0 -1 0 0 0 0 -1 0 0 0 0 -1 0 0 0 0 1 0"
         in="fbSourceGraphic"
         result="fbSourceGraphicAlpha" />
      <feComposite
         result="composite1"
         operator="in"
         in="flood"
         in2="fbSourceGraphic"
         id="feComposite4674-8-2-4-1-2-5-2" />
      <feGaussianBlur
         result="blur"
         stdDeviation="1.5865199271065846"
         in="composite1"
         id="feGaussianBlur4676-3-7-50-2-3-4-6" />
      <feOffset
         result="offset"
         dy="5.2374444725016502"
         dx="-0.42771311737301687"
         id="feOffset4678-6-0-3-7-7-7-6" />
      <feComposite
         result="composite2"
         operator="over"
         in="fbSourceGraphic"
         in2="offset"
         id="feComposite4680-4-9-6-0-5-6-4" />
      <feGaussianBlur
         stdDeviation="0.76414472307477677"
         id="feGaussianBlur58-9-9-5-9" />
      <feOffset
         dx="0"
         dy="0"
         id="feOffset60-3-2-6-5" />
    </filter>
    <filter
       style="color-interpolation-filters:sRGB"
       id="filter4375-4-1-1-1-9-5-8-3-4"
       inkscape:label="Drop Shadow"
       x="-0.0007950749"
       y="-0.0039836934"
       width="1.0162791"
       height="1.0815659">
      <feFlood
         id="feFlood4377-7-9-0-8-1-7-3-6"
         flood-opacity="1"
         flood-color="rgb(39,39,39)"
         result="flood" />
      <feComposite
         id="feComposite4379-3-8-8-2-77-4-1-7"
         in2="SourceGraphic"
         in="flood"
         operator="in"
         result="composite1" />
      <feMorphology
         id="feMorphology4393-1-0-49-8-9-3-0-5"
         operator="dilate"
         radius="6.2000000000000002"
         result="result3" />
      <feComposite
         id="feComposite4385-9-5-7-0-8-8-7-3"
         in2="result3"
         in="SourceGraphic"
         operator="over"
         result="fbSourceGraphic" />
      <feColorMatrix
         result="fbSourceGraphicAlpha"
         in="fbSourceGraphic"
         values="0 0 0 -1 0 0 0 0 -1 0 0 0 0 -1 0 0 0 0 1 0"
         id="feColorMatrix4544-5" />
      <feTurbulence
         id="feTurbulence4546-6"
         type="fractalNoise"
         numOctaves="3"
         seed="37"
         baseFrequency="0.129 0.0050000000000000001"
         result="turbulence" />
      <feDisplacementMap
         id="feDisplacementMap4548-2"
         in2="turbulence"
         in="fbSourceGraphic"
         scale="6.6"
         yChannelSelector="G"
         xChannelSelector="R"
         result="fbSourceGraphic" />
      <feColorMatrix
         result="fbSourceGraphicAlpha"
         in="fbSourceGraphic"
         values="0 0 0 -1 0 0 0 0 -1 0 0 0 0 -1 0 0 0 0 1 0"
         id="feColorMatrix4670-9-3" />
      <feFlood
         id="feFlood4672-1-0"
         flood-opacity="0.40999999999999998"
         flood-color="rgb(34,52,102)"
         result="flood"
         in="fbSourceGraphic" />
      <feComposite
         id="feComposite4674-2-3"
         in2="fbSourceGraphic"
         in="flood"
         operator="in"
         result="composite1" />
      <feGaussianBlur
         id="feGaussianBlur4676-7"
         in="composite1"
         stdDeviation="0"
         result="blur" />
      <feOffset
         id="feOffset4678-0-0"
         dx="6"
         dy="6"
         result="offset" />
      <feComposite
         id="feComposite4680-9"
         in2="offset"
         in="fbSourceGraphic"
         operator="over"
         result="composite2" />
    </filter>
  </defs>
  <sodipodi:namedview
     pagecolor="#1e1e1e"
     bordercolor="#111111"
     borderopacity="1"
     objecttolerance="10"
     gridtolerance="10"
     guidetolerance="10"
     inkscape:pageopacity="0"
     inkscape:pageshadow="2"
     inkscape:window-width="1920"
     inkscape:window-height="1056"
     id="namedview4"
     showgrid="false"
     inkscape:zoom="0.46000002"
     inkscape:cx="1327.1739"
     inkscape:cy="2226.0869"
     inkscape:window-x="1920"
     inkscape:window-y="0"
     inkscape:window-maximized="1"
     inkscape:current-layer="layer3"
     inkscape:pagecheckerboard="0"
     inkscape:snap-global="false" />
  <g
     inkscape:groupmode="layer"
     id="layer2"
     inkscape:label="artwork"
     sodipodi:insensitive="true"
     style="display:inline">
    <image
       xlink:href="../gfx_Pepper-and-Carrot_by-David-Revoy_E36P02.png"
       y="0"
       x="0"
       id="image10"
       height="3503"
       width="2481" />
  </g>
  <g
     inkscape:groupmode="layer"
     id="layer3"
     inkscape:label="speechbubbles"
     style="display:inline">
    <path
       style="fill:#ffffff;fill-rule:evenodd;stroke:none;stroke-width:1.07755px;stroke-linecap:butt;stroke-linejoin:miter;stroke-opacity:1"
       d="m 1620.8513,3206.4764 c -20.5654,0.045 -60.4658,12.9419 -25.4121,49.2533 -45.151,-18.0303 -53.1534,-3.184 -57.7445,14.6812 -15.0243,-15.904 -30.9585,-30.0771 -62.496,-14.5716 -6.3206,-24.9118 -29.2134,-32.9308 -64.6115,-28.2031 30.0176,-21.4739 47.7098,-41.6992 -12.4553,-54.0373 48.8028,-3.1342 61.2653,-31.1057 12.2245,-50.5371 39.4781,6.0465 50.7201,-1.0415 40.8895,-17.9317 23.8042,11.6215 43.1287,10.9419 57.7248,-2.7208 23.0472,28.3175 39.6075,26.3594 51.0238,0.3947 1.1799,43.6817 34.7937,41.1468 59.1781,45.4166 -41.0823,17.0103 -8.4078,62.535 1.6787,58.2558 z"
       id="path1087"
       inkscape:connector-curvature="0"
       sodipodi:nodetypes="cccccccccccc" />
    <path
       style="color:#000000;display:inline;overflow:visible;visibility:visible;fill:#ffffff;fill-opacity:1;fill-rule:nonzero;stroke:none;stroke-width:1.13368px;marker:none;enable-background:accumulate"
       d="m 1665.8867,3184.2611 c -30.6172,0.2085 -61.8228,1.6765 -90.9349,12.0546 -18.5311,6.1381 -36.954,14.7617 -50.6957,28.9472 -12.0303,15.2938 -13.1571,36.0496 -11.3284,54.6579 1.6525,15.027 9.0574,29.0719 20.3139,39.1315 20.471,20.0898 48.2214,31.7061 76.5769,34.661 20.0697,2.4466 40.2424,4.0954 60.4161,5.3735 38.7409,1.6787 77.6287,-0.7963 115.9714,-6.4269 23.4509,-3.8279 46.3012,-15.9571 59.5027,-36.1648 14.3645,-21.1276 16.2381,-48.6006 10.5206,-72.9344 -3.2777,-13.4938 -11.789,-25.5482 -23.7663,-32.6976 -27.7638,-17.0702 -60.7268,-23.054 -92.8592,-24.7401 -24.5553,-1.0031 -49.1354,-2.0014 -73.7171,-1.8619 z"
       id="path3525-1"
       inkscape:connector-curvature="0"
       sodipodi:nodetypes="ccccc" />
    <path
       style="display:inline;fill:#ffffff;fill-rule:evenodd;stroke:none;stroke-width:1.15535px;stroke-linecap:butt;stroke-linejoin:miter;stroke-opacity:1"
       d="m 1661.8355,3113.3527 c 0,0 -32.5032,0.5122 -35.8686,17.9644 -3.3663,17.4516 24.539,59.2603 24.539,59.2603 0,0 -45.1119,0.7369 -45.1178,48.4326 -0.01,47.6953 47.113,85.7891 43.4135,52.8962 -3.6991,-32.8931 -34.8285,-95.2011 56.3216,-84.9196 -32.3662,-27.7763 -52.1364,-60.1065 -52.668,-63.6644 -1.9951,-13.3523 30.9323,-20.3265 45.1813,-19.8929 -64.6236,-55.3255 -17.6069,-82.8485 -7.229,-135.1096 -26.5229,47.7737 -71.2674,83.4938 -28.572,125.033 z"
       id="path4394-0"
       inkscape:connector-curvature="0"
       sodipodi:nodetypes="cscsscsccc" />
    <path
       style="display:inline;fill:#ffffff;fill-rule:evenodd;stroke:none;stroke-width:1.17165px;stroke-linecap:butt;stroke-linejoin:miter;stroke-opacity:1"
       d="m 2103.2836,2198.5782 c -5.4471,9.3652 -9.8334,20.2228 -19.3633,26.2598 -7.7611,4.6087 -17.9727,1.3641 -23.7752,-4.9372 -4.4417,-4.3684 -8.5819,-9.0289 -12.9299,-13.4886 1.6986,8.2123 2.6973,17.1629 -0.8105,25.0586 -6.2294,5.2699 -16.0601,3.1589 -21.295,-2.5176 -1.8932,-1.3789 -3.7864,-2.7578 -5.6797,-4.1367 2.2351,10.4861 -0.148,22.5651 -8.3105,29.9766 -8.0269,3.8263 -17.8853,-0.6367 -22.2794,-7.8872 -1.7975,-1.9146 -3.595,-3.8291 -5.3925,-5.7437 4.5418,4.7151 3.2235,14.3631 -3.4348,16.3761 -8.6669,1.3432 -16.4975,-3.7639 -23.3669,-8.3516 -7.6079,-5.1353 -14.6248,-11.0707 -21.7139,-16.8839 9.7833,11.2585 19.8715,23.1749 23.7559,37.9121 0.3772,6.1843 -8.8076,9.6193 -12.7266,4.9278 -2.3908,-1.1485 -4.7481,-2.3646 -7.1133,-3.5645 6.4811,6.3869 13.26,13.3899 15.3633,22.5508 -3.0996,6.3366 -11.59,7.7735 -17.6501,5.219 -2.4174,-0.4708 -4.8348,-0.9416 -7.2523,-1.4124 11.8991,13.2081 19.4081,31.4213 16.6596,49.3465 -3.2102,15.2174 -13.8198,27.1681 -22.9388,39.2189 -0.9406,0.8102 -1.4608,2.7141 0.442,1.8858 14.8978,-2.5934 30.6911,-4.716 45.3232,0.3406 9.1337,3.7684 13.1041,16.4082 7.6156,24.6672 4.3806,-3.889 10.7078,-7.3641 16.6074,-4.8867 7.4041,3.2897 10.2345,12.183 9.5952,19.7432 -0.2072,5.8807 -1.981,11.5424 -3.6186,17.1474 7.0951,-10.3551 14.5711,-21.41 26.1894,-27.0918 7.3702,-2.2408 14.8214,6.071 12.6778,13.2207 0.1213,2.0088 3.0037,0.9918 3.0996,-0.5194 8.0578,-9.672 19.4498,-17.6764 32.3748,-18.2785 4.346,0.5295 7.3772,5.3928 6.3186,9.5616 6.731,-5.4657 14.977,-10.4435 24.0013,-9.4575 12.4977,0.6157 23.1909,8.1002 32.7206,15.5392 2.5401,1.9825 5.0195,4.0411 7.5202,6.0726 2.6314,-8.9364 5.3413,-18.8743 13.1935,-24.7014 8.7007,-4.6708 19.7819,-1.0511 26.0755,5.9933 5.3672,4.6637 9.9433,10.131 14.6607,15.4269 2.047,-9.7726 14.3845,-14.5942 23.0469,-10.4305 9.153,3.7713 16.4134,10.8988 22.8848,18.1876 1.6664,2.02 3.2659,4.0937 4.8476,6.1804 -1.89,-7.4534 -4.744,-15.1807 -2.957,-22.9473 4.111,-3.6425 10.4754,-1.401 13.6683,2.3765 6.7365,4.9325 12.6462,10.9285 17.818,17.4672 -3.1029,-9.9466 2.9636,-22.239 13.4279,-24.5459 12.085,-3.7154 24.8747,-0.4554 36.4874,3.4086 7.6487,2.7277 14.8948,6.4531 21.9402,10.4635 -9.8667,-7.5463 -16.9648,-20.0775 -15.0099,-32.7604 1.7363,-8.9338 10.0446,-14.9362 18.3361,-17.3786 0.6409,-0.2129 2.444,-0.3432 1.0566,-1.1227 -5.2871,-3.8955 -12.5231,-6.4461 -14.9416,-13.1184 -2.7696,-7.8087 1.6499,-16.2274 7.6076,-21.2393 4.7528,-4.1718 9.8041,-7.983 14.8692,-11.7634 -9.3638,-3.4558 -20.0685,-5.4723 -27.02,-13.2452 -4.6848,-6.2561 -1.763,-15.57 4.2264,-19.8693 11.2703,-11.0196 24.8747,-19.1474 37.6197,-28.282 -21.061,5.3957 -42.2994,12.3507 -64.3203,11.2735 -9.2501,-1.5136 -13.8971,-13.7163 -8.9179,-21.3692 2.5804,-8.4403 6.9475,-16.1581 10.7812,-24.0625 -16.7314,5.2297 -33.252,12.3822 -51.002,13.1172 -4.0605,-2.5234 -2.9056,-8.9796 0.8008,-11.2773 0.672,-1.2561 2.3207,-2.2696 1.9297,-3.8848 -9.8783,6.3476 -20.6585,12.5914 -32.7109,12.957 -8.4885,-2.0389 -13.65,-12.2569 -10.5606,-20.3535 -2.0014,-2.3696 -4.9889,0.016 -6.915,1.2506 -20.7942,10.1855 -45.9811,12.9586 -67.7399,4.1279 -17.5568,-7.1928 -32.1288,-20.3543 -43.1302,-35.6226 -0.1945,-0.1246 -0.4391,-0.1831 -0.666,-0.1231 z"
       id="path4289-9-3"
       inkscape:connector-curvature="0"
       sodipodi:nodetypes="cccccccccccccccccccccccc" />
    <path
       style="color:#000000;display:inline;overflow:visible;visibility:visible;fill:#ffffff;fill-opacity:1;fill-rule:nonzero;stroke:none;stroke-width:0.634675px;marker:none;enable-background:accumulate"
       d="m 2065.5689,2358.3715 c -1.019,14.0823 -77.982,87.5377 3.591,185.0685 -57.766,-96.8638 17.7385,-154.6405 29.7695,-166.83 -23.5374,-29.6642 -17.4947,-9.4644 -33.3605,-18.2385 z"
       id="path4024-3"
       inkscape:connector-curvature="0"
       sodipodi:nodetypes="cccc" />
  </g>
  <g
     inkscape:groupmode="layer"
     id="layer1"
     inkscape:label="txt"
     style="display:inline">
    <text
       transform="matrix(1.0109872,-0.19833599,-0.21684929,1.1745089,102.88627,624.18095)"
       id="text4580-6-0-0-3-3-6-2-9-8-0"
       y="1584.5073"
       x="787.65729"
       style="font-style:normal;font-variant:normal;font-weight:normal;font-stretch:normal;line-height:0;font-family:Lavi;-inkscape-font-specification:Lavi;letter-spacing:3.03024px;word-spacing:0px;opacity:0.75027;fill:#ffffff;fill-opacity:1;stroke:#837567;stroke-width:1.52377;stroke-miterlimit:4;stroke-dasharray:none;stroke-opacity:1;paint-order:stroke fill markers;filter:url(#filter4375-4-1-1-1-9-5-8-8-3-3-3-6-1-3)"
       xml:space="preserve"
       inkscape:label="FXB-3"><tspan
         style="font-style:normal;font-variant:normal;font-weight:bold;font-stretch:normal;font-size:70px;line-height:1.25;font-family:Drukah;-inkscape-font-specification:'Drukah Bold';fill:#ffffff;fill-opacity:1;stroke:#837567;stroke-width:1.52377;stroke-miterlimit:4;stroke-dasharray:none;stroke-opacity:1;paint-order:stroke fill markers"
         y="1584.5073"
         x="787.65729"
         id="tspan4582-1-1-0-6-9-0-8-3-4-4"
         sodipodi:role="line">Psch<tspan
   style="font-size:59.826px"
   id="tspan39837">h...</tspan></tspan></text>
    <text
       id="text4246-5-8"
       y="3199.8108"
       x="1515.5361"
       style="font-style:normal;font-variant:normal;font-weight:normal;font-stretch:normal;font-size:53.7995px;line-height:0%;font-family:Lavi;-inkscape-font-specification:Lavi;text-align:center;letter-spacing:0px;word-spacing:0px;text-anchor:middle;fill:#000000;fill-opacity:1;stroke:none;stroke-width:1.05513"
       xml:space="preserve"
       inkscape:label="kingB"><tspan
         y="3199.8108"
         x="1515.5361"
         style="font-style:normal;font-variant:normal;font-weight:bold;font-stretch:normal;font-size:53.7995px;line-height:1.25;font-family:Lavi;-inkscape-font-specification:'Lavi Bold';stroke-width:1.05513"
         sodipodi:role="line"
         id="tspan858">Zut !</tspan></text>
    <text
       id="text4246-5-8-3"
       y="3256.0012"
       x="1695.3146"
       style="font-style:normal;font-variant:normal;font-weight:normal;font-stretch:normal;font-size:45px;line-height:0%;font-family:Lavi;-inkscape-font-specification:Lavi;text-align:center;letter-spacing:0px;word-spacing:0px;text-anchor:middle;fill:#000000;fill-opacity:1;stroke:none;stroke-width:0.88255"
       xml:space="preserve"
       inkscape:label="kingB"><tspan
         y="3256.0012"
         x="1695.3146"
         style="font-style:normal;font-variant:normal;font-weight:bold;font-stretch:normal;font-size:45px;line-height:1.25;font-family:Lavi;-inkscape-font-specification:'Lavi Bold';stroke-width:0.88255"
         sodipodi:role="line"
         id="tspan858-6">Je ne peux</tspan><tspan
         y="3312.2512"
         x="1695.3146"
         style="font-style:normal;font-variant:normal;font-weight:bold;font-stretch:normal;font-size:45px;line-height:1.25;font-family:Lavi;-inkscape-font-specification:'Lavi Bold';stroke-width:0.88255"
         sodipodi:role="line"
         id="tspan60054">rien faire ici !</tspan></text>
    <text
       xml:space="preserve"
       style="font-style:normal;font-variant:normal;font-weight:normal;font-stretch:normal;line-height:0%;font-family:Lavi;-inkscape-font-specification:Lavi;text-align:center;letter-spacing:0px;word-spacing:0px;text-anchor:middle;fill:#000000;fill-opacity:1;stroke:none"
       x="2139.4609"
       y="2314.4968"
       id="text4246-7-6-4-6-4-5-6"
       inkscape:label="kingB"><tspan
         sodipodi:role="line"
         style="font-style:normal;font-variant:normal;font-weight:bold;font-stretch:normal;font-size:45px;line-height:1.25;font-family:Lavi;-inkscape-font-specification:'Lavi Bold'"
         x="2139.4609"
         y="2314.4968"
         id="tspan88752">Fichue prison</tspan><tspan
         sodipodi:role="line"
         style="font-style:normal;font-variant:normal;font-weight:bold;font-stretch:normal;font-size:45px;line-height:1.25;font-family:Lavi;-inkscape-font-specification:'Lavi Bold'"
         x="2139.4609"
         y="2370.7468"
         id="tspan114377">magique ! Grrrr !</tspan></text>
    <text
       xml:space="preserve"
       style="font-style:normal;font-variant:normal;font-weight:normal;font-stretch:normal;line-height:0%;font-family:Lavi;-inkscape-font-specification:Lavi;letter-spacing:0px;word-spacing:0px;display:inline;fill:#ffffff;fill-opacity:1;stroke:#000000;stroke-width:0.649528;stroke-miterlimit:4;stroke-dasharray:none;stroke-opacity:1;filter:url(#filter4375-4-1-1-1-9-5-8-3-4)"
       x="787.65729"
       y="1584.5073"
       id="text4580-6-0-3"
       transform="matrix(0.56396936,0.29200899,-0.49083985,0.74440634,2281.3949,1535.2837)"
       inkscape:transform-center-x="-5.9254429"
       inkscape:transform-center-y="0.58615246"><tspan
         sodipodi:role="line"
         id="tspan4582-1-1-6"
         x="787.65729"
         y="1584.5073"
         style="font-style:normal;font-variant:normal;font-weight:normal;font-stretch:normal;font-size:70px;line-height:1.25;font-family:Combah;-inkscape-font-specification:Combah;fill:#ffffff;fill-opacity:1;stroke:#000000;stroke-width:0.649528;stroke-opacity:1"><tspan
           style="font-style:normal;font-variant:normal;font-weight:normal;font-stretch:normal;font-size:93.1495px;font-family:Combah;-inkscape-font-specification:Combah;fill:#ffffff;fill-opacity:1;stroke:#000000;stroke-width:0.649528;stroke-opacity:1"
           id="tspan4315-8-0">CLING </tspan><tspan
           style="font-style:normal;font-variant:normal;font-weight:normal;font-stretch:normal;font-size:114.732px;font-family:Combah;-inkscape-font-specification:Combah;fill:#ffffff;fill-opacity:1;stroke:#000000;stroke-width:0.649528;stroke-opacity:1"
           id="tspan4313-2-6">!</tspan></tspan></text>
  </g>
</svg>
