<?xml version="1.0" encoding="UTF-8" standalone="no"?>
<!-- Created with Inkscape (http://www.inkscape.org/) -->

<svg
   id="svg2"
   version="1.1"
   inkscape:version="1.1.1 (1:1.1+202109281949+c3084ef5ed)"
   width="2481"
   height="3503"
   sodipodi:docname="E36P07.svg"
   xmlns:inkscape="http://www.inkscape.org/namespaces/inkscape"
   xmlns:sodipodi="http://sodipodi.sourceforge.net/DTD/sodipodi-0.dtd"
   xmlns:xlink="http://www.w3.org/1999/xlink"
   xmlns="http://www.w3.org/2000/svg"
   xmlns:svg="http://www.w3.org/2000/svg"
   xmlns:rdf="http://www.w3.org/1999/02/22-rdf-syntax-ns#"
   xmlns:cc="http://creativecommons.org/ns#"
   xmlns:dc="http://purl.org/dc/elements/1.1/">
  <metadata
     id="metadata8">
    <rdf:RDF>
      <cc:Work
         rdf:about="">
        <dc:format>image/svg+xml</dc:format>
        <dc:type
           rdf:resource="http://purl.org/dc/dcmitype/StillImage" />
        <dc:title />
      </cc:Work>
    </rdf:RDF>
  </metadata>
  <defs
     id="defs6" />
  <sodipodi:namedview
     pagecolor="#1e1e1e"
     bordercolor="#111111"
     borderopacity="1"
     objecttolerance="10"
     gridtolerance="10"
     guidetolerance="10"
     inkscape:pageopacity="0"
     inkscape:pageshadow="2"
     inkscape:window-width="1920"
     inkscape:window-height="1056"
     id="namedview4"
     showgrid="false"
     inkscape:zoom="0.40000001"
     inkscape:cx="1435"
     inkscape:cy="2212.4999"
     inkscape:window-x="1920"
     inkscape:window-y="0"
     inkscape:window-maximized="1"
     inkscape:current-layer="layer1"
     inkscape:pagecheckerboard="0"
     inkscape:snap-global="false" />
  <g
     inkscape:groupmode="layer"
     id="layer2"
     inkscape:label="artwork"
     sodipodi:insensitive="true">
    <image
       xlink:href="../gfx_Pepper-and-Carrot_by-David-Revoy_E36P07.png"
       y="0"
       x="0"
       id="image10"
       height="3503"
       width="2481" />
  </g>
  <g
     inkscape:groupmode="layer"
     id="layer3"
     inkscape:label="speechbubbles"
     style="display:inline">
    <path
       style="color:#000000;display:inline;overflow:visible;visibility:visible;fill:#ffffff;fill-opacity:1;fill-rule:nonzero;stroke:none;stroke-width:0.853711px;marker:none;enable-background:accumulate"
       d="m 1250.8231,2447.023 c 4.5143,-81.3885 29.273,-111.7185 83.7002,-118.1413 27.0228,-3.1894 124.8959,-14.4152 164.5693,-1.3005 39.6733,13.1148 73.6335,56.7633 70.624,116.3886 -3.0095,59.6264 -6.5691,105.8614 -49.8965,124.4287 -43.3275,18.5674 -126.4225,9.4683 -135.0749,10.5117 -17.3045,2.089 -106.9274,-14.0989 -121.8841,-55.3583 -9.3626,-25.8265 -12.7904,-51.297 -12.038,-76.5289 z"
       id="path4546-6-3"
       inkscape:connector-curvature="0"
       sodipodi:nodetypes="cssssssc" />
    <path
       style="color:#000000;display:inline;overflow:visible;visibility:visible;fill:#ffffff;fill-opacity:1;fill-rule:nonzero;stroke:none;stroke-width:1.21927px;marker:none;enable-background:accumulate"
       d="m 1271.5175,3124.4348 c -56.5978,1.0186 -113.9318,10.0391 -165.7365,33.106 -21.8901,9.765 -41.4785,26.0782 -51.0527,47.682 -21.4478,43.8493 -16.4702,98.9508 14.612,137.0388 12.3473,15.3784 32.5104,22.733 52.1034,25.2141 42.11,7.6358 84.7041,13.3268 127.6239,14.8527 58.2871,2.8 116.7042,1.8409 175.0622,1.0218 30.6217,-0.6943 61.4187,-3.511 91.0449,-11.5348 17.4513,-4.0743 35.9799,-8.4777 49.537,-20.5669 15.4578,-14.6739 21.7952,-35.7452 23.6101,-55.9326 3.7211,-39.1934 -6.9039,-80.1694 -32.5354,-111.0545 -16.4705,-19.2838 -39.9163,-31.9113 -64.4161,-39.5707 -37.1633,-12.028 -76.574,-15.7181 -115.5566,-18.4925 -34.6961,-2.1228 -69.5224,-2.1822 -104.2962,-1.7634 z"
       id="path3330-0"
       inkscape:connector-curvature="0"
       sodipodi:nodetypes="zsssssz" />
    <path
       style="color:#000000;display:inline;overflow:visible;visibility:visible;fill:#ffffff;fill-opacity:1;fill-rule:nonzero;stroke:none;stroke-width:1px;marker:none;enable-background:accumulate"
       d="m 1415.0769,2516.9442 c 13.078,48.3092 -10.2417,132.5122 -94.8507,157.2445 61.4826,-42.714 67.542,-99.1938 51.107,-143.1634 -14.1878,-37.9586 -18.9368,-56.3084 -18.9368,-56.3084 z"
       id="path4440-3"
       inkscape:connector-curvature="0"
       sodipodi:nodetypes="ccscc" />
    <path
       style="color:#000000;display:inline;overflow:visible;visibility:visible;fill:#ffffff;fill-opacity:1;fill-rule:nonzero;stroke:none;stroke-width:1.05023px;marker:none;enable-background:accumulate"
       d="m 1886.7757,3200.5978 c 2.2085,-31.7629 12.1073,-31.4913 46.1902,-2.7607 -8.9937,-56.6463 36.7658,-59.3247 79.4131,-65.0705 -4.8912,-15.916 -11.6693,-38.2895 36.129,-53.5443 -45.7166,-2.1974 -47.656,-17.2553 -33.086,-32.6716 -34.0385,7.3462 -58.3861,14.6762 -18.1274,-19.5049 -37.997,19.4188 -60.9707,29.4286 -46.6405,-20.4338 -14.3883,6.7868 -58.5903,35.1678 -78.7695,-25.9462 -0.638,33.2488 -57.184,60.6052 -84.9534,17.683 14.0583,35.7635 3.0629,71.3915 -53.6329,48.0907 54.4907,39.0305 2.2272,39.6552 -13.9489,42.9402 45.9271,5.3047 36.7135,17.4578 4.9221,37.6185 94.5952,3.1469 42.5371,23.176 43.0006,36.7345 57.5862,-12.4701 53.8853,12.8638 62.1299,31.6447 54.8403,-57.2852 38.1795,-47.0534 57.3737,5.2204 z"
       id="path3549-3-1"
       inkscape:connector-curvature="0"
       sodipodi:nodetypes="ccccccccccccccc" />
    <path
       style="fill:#ffffff;fill-rule:evenodd;stroke:none;stroke-width:1.36724px;stroke-linecap:butt;stroke-linejoin:miter;stroke-opacity:1"
       d="M 1989.2383 3105.6582 C 1921.312 3106.6832 1853.7875 3115.2424 1785.9187 3117.5329 C 1766.3196 3118.3381 1746.4404 3120.5878 1728.1772 3128.1764 C 1706.7651 3136.5877 1686.2766 3148.8826 1671.3182 3166.6028 C 1660.2416 3187.0434 1652.6044 3209.5571 1650.2793 3232.7422 C 1648.171 3262.969 1658.0708 3292.7619 1672.6914 3318.8613 C 1683.26 3337.7134 1698.0952 3355.3683 1718.339 3364.1014 C 1736.7144 3372.3076 1756.6525 3375.9332 1776.2064 3380.151 C 1856.8812 3394.8328 1939.0765 3386.0921 2020.3614 3383.4339 C 2047.1043 3382.4274 2073.8882 3382.542 2100.6171 3381.2802 C 2142.3987 3376.4833 2180.7723 3354.2106 2209.4616 3324.0194 C 2222.6383 3310.3756 2233.0788 3293.2644 2235.5586 3274.1864 C 2238.955 3253.0188 2236.9348 3231.2993 2232.3166 3210.4795 C 2223.8673 3176.8456 2201.5326 3145.8813 2169.788 3130.8684 C 2154.0995 3123.5425 2136.8642 3120.6915 2120.0606 3117.0967 C 2076.9762 3108.9259 2033.0898 3105.0262 1989.2383 3105.6582 z "
       id="path1289"
       inkscape:connector-curvature="0"
       sodipodi:nodetypes="csssssssscc" />
    <path
       style="color:#000000;display:inline;overflow:visible;visibility:visible;fill:#ffffff;fill-opacity:1;fill-rule:nonzero;stroke:none;stroke-width:1.20459px;marker:none;enable-background:accumulate"
       d="m 383.31528,3178.3461 c 7.90371,-15.2948 41.23452,-13.2985 53.03054,-8.8438 -22.34304,-20.2401 -20.07815,-31.1953 13.55035,-29.5557 -51.94808,-37.6508 -6.77936,-28.2088 3.28665,-35.4235 -42.58695,-15.4528 -21.1535,-27.2125 -11.57865,-40.1001 -50.50627,-5.5458 -31.16513,-25.8031 -31.07193,-43.4742 -5.33057,7.7618 -28.87377,30.6558 -26.56078,2.7654 -36.82225,23.1348 -79.28833,36.2037 -76.5794,-10.4783 -16.44817,21.9701 -31.13994,30.479 -26.56087,2.7653 -38.00001,32.8282 -66.34575,16.7937 -95.22577,3.5382 -9.31894,10.1245 -12.38041,26.8076 -37.5265,20.3017 2.21677,11.1849 -7.39088,17.7561 -27.51003,20.2115 25.15381,9.1464 29.08375,16.3708 -20.09307,18.7855 36.62748,4.3877 70.68295,9.2622 24.45208,29.6889 13.43801,1.9557 48.13423,-15.4784 25.4826,43.4614 25.70449,-17.0164 51.85913,-25.2072 77.78773,18.4447 17.29535,-18.7712 44.0951,-26.2298 51.97588,0.1768 5.36489,-10.3819 22.43004,-12.7755 36.5411,-11.8575 4.88673,4.8286 9.74845,11.2082 14.62425,19.4168 11.59583,-15.0441 27.26853,-24.4177 51.97582,0.1769 z"
       id="path3549-3-7-5"
       inkscape:connector-curvature="0"
       sodipodi:nodetypes="cccccccccccccccccccc" />
    <path
       style="color:#000000;display:inline;overflow:visible;visibility:visible;fill:#ffffff;fill-opacity:1;fill-rule:nonzero;stroke:none;stroke-width:1.10896px;marker:none;enable-background:accumulate"
       d="m 366.05343,3119.1274 c -63.14752,0.9078 -127.03769,12.4879 -184.10157,40.2754 -36.40993,20.7598 -55.62619,64.5191 -52.36328,105.5176 1.04067,25.1464 7.71022,52.8361 28.66153,68.9055 22.90697,17.4464 50.81108,26.8283 78.50197,33.5298 57.60579,12.8932 117.01744,10.1708 175.62301,10.7254 52.20459,-0.1421 104.58792,1.4415 156.60998,-3.8248 24.28232,-2.5377 49.5094,-8.0348 68.71669,-24.0796 22.95709,-17.9516 38.01509,-45.9481 38.72847,-75.2498 3.90972,-50.6966 -26.60782,-103.2982 -74.68776,-121.6235 -50.85853,-22.1159 -106.90998,-26.051 -161.41867,-31.4635 -24.70244,-1.9614 -49.48657,-3.0643 -74.27037,-2.7125 z"
       id="path3970-3"
       inkscape:connector-curvature="0"
       sodipodi:nodetypes="cccscsc" />
    <path
       style="color:#000000;display:inline;overflow:visible;visibility:visible;fill:#ffffff;fill-opacity:1;fill-rule:nonzero;stroke:none;stroke-width:1.35295px;marker:none;enable-background:accumulate"
       d="m 655.60209,3020.9694 c 36.37209,56.4559 22.81983,82.4225 15.3529,101.9191 -8.64995,-2.3738 -25.16043,-4.9757 -25.16043,-4.9757 0,0 -35.04306,58.5581 -44.82978,72.5197 -9.78688,13.9616 -38.13341,-23.0686 -38.13341,-23.0686 0,0 68.63867,-58.196 66.88456,-75.5935 13.71733,3.6481 17.96983,3.6232 26.02992,4.8839 8.53279,-9.9614 11.95899,-55.362 -0.14376,-75.6849 z"
       id="path4456-8"
       inkscape:connector-curvature="0"
       sodipodi:nodetypes="cccscccc" />
    <path
       style="color:#000000;display:inline;overflow:visible;visibility:visible;fill:#ffffff;fill-opacity:1;fill-rule:nonzero;stroke:none;stroke-width:0.979134px;marker:none;enable-background:accumulate"
       d="m 1279.5978,3141.166 c 37.0189,-51.8094 10.4316,-107.7029 -22.8129,-123.0094 56.1643,10.3304 79.8618,67.0698 67.3523,120.7861 -6.1858,26.5623 -44.5394,2.2233 -44.5394,2.2233 z"
       id="path5010-4"
       inkscape:connector-curvature="0"
       sodipodi:nodetypes="ccsc"
       inkscape:transform-center-x="-17.477815"
       inkscape:transform-center-y="-10.798976" />
    <path
       style="color:#000000;display:inline;overflow:visible;visibility:visible;fill:#ffffff;fill-opacity:1;fill-rule:nonzero;stroke:none;stroke-width:1.49141px;marker:none;enable-background:accumulate"
       d="m 1919.0197,3059.7225 c -3.1414,-3.557 32.154,-46.7146 32.154,-46.7146 0,0 1.8091,-18.6763 2.2497,-22.5415 7.8248,-6.4155 25.8113,-4.3144 25.8113,-4.3144 l -34.365,-47.8529 16.512,38.7245 -25.6669,-0.2625 -0.1009,31.7053 c -10.1565,5.7069 -22.8946,9.8614 -42.2141,10.0585 z"
       id="path4448"
       inkscape:connector-curvature="0"
       sodipodi:nodetypes="cccccccccc" />
  </g>
  <g
     inkscape:groupmode="layer"
     id="layer1"
     inkscape:label="txt"
     style="display:inline">
    <text
       xml:space="preserve"
       style="font-style:normal;font-variant:normal;font-weight:normal;font-stretch:normal;font-size:14.5146px;line-height:0%;font-family:Lavi;-inkscape-font-specification:Lavi;text-align:center;letter-spacing:0px;word-spacing:0px;text-anchor:middle;fill:#000000;fill-opacity:1;stroke:none;stroke-width:1.20955"
       x="275.79999"
       y="3109.0466"
       id="text4246-3-3"><tspan
         sodipodi:role="line"
         style="font-style:normal;font-variant:normal;font-weight:bold;font-stretch:normal;font-size:54.4298px;line-height:1.25;font-family:Lavi;-inkscape-font-specification:'Lavi Bold';stroke-width:1.20955"
         x="275.79999"
         y="3109.0466"
         id="tspan67">	Officier !</tspan><tspan
         sodipodi:role="line"
         x="275.79999"
         y="3131.9309"
         id="tspan852"
         style="stroke-width:1.20955" /></text>
    <text
       xml:space="preserve"
       style="font-style:normal;font-variant:normal;font-weight:normal;font-stretch:normal;line-height:0%;font-family:Lavi;-inkscape-font-specification:Lavi;text-align:center;letter-spacing:0px;word-spacing:0px;text-anchor:middle;fill:#000000;fill-opacity:1;stroke:none"
       x="399.44946"
       y="3214.0693"
       id="text4246-3-5-9"><tspan
         sodipodi:role="line"
         style="font-size:45px;line-height:1.25"
         x="399.44946"
         y="3214.0693"
         id="tspan2645">Confirmez-vous que</tspan><tspan
         sodipodi:role="line"
         style="font-size:45px;line-height:1.25"
         x="399.44946"
         y="3270.3193"
         id="tspan2647">ceci est bien le temple </tspan><tspan
         sodipodi:role="line"
         style="font-size:45px;line-height:1.25"
         x="399.44946"
         y="3326.5693"
         id="tspan7146">de cette sorcière ?</tspan></text>
    <text
       xml:space="preserve"
       style="font-style:normal;font-variant:normal;font-weight:normal;font-stretch:normal;line-height:0%;font-family:Lavi;-inkscape-font-specification:Lavi;text-align:center;letter-spacing:0px;word-spacing:0px;text-anchor:middle;fill:#000000;fill-opacity:1;stroke:none"
       x="1416.9539"
       y="2410.3105"
       id="text4246-3-5-9-3"><tspan
         sodipodi:role="line"
         style="font-size:45px;line-height:1.25"
         x="1416.9539"
         y="2410.3105"
         id="tspan2647-5">Hautement </tspan><tspan
         sodipodi:role="line"
         style="font-size:45px;line-height:1.25"
         x="1416.9539"
         y="2466.5605"
         id="tspan10622">probable,</tspan><tspan
         sodipodi:role="line"
         style="font-size:45px;line-height:1.25"
         x="1416.9539"
         y="2522.8105"
         id="tspan10620"> mon roi !</tspan></text>
    <text
       xml:space="preserve"
       style="font-style:normal;font-variant:normal;font-weight:normal;font-stretch:normal;line-height:0%;font-family:Lavi;-inkscape-font-specification:Lavi;text-align:center;letter-spacing:0px;word-spacing:0px;text-anchor:middle;fill:#000000;fill-opacity:1;stroke:none"
       x="1315.355"
       y="3202.9702"
       id="text4246-3-5-9-3-3-6"><tspan
         sodipodi:role="line"
         style="font-size:45px;line-height:1.25"
         x="1315.355"
         y="3202.9702"
         id="tspan36815">Plusieurs de nos</tspan><tspan
         sodipodi:role="line"
         style="font-size:45px;line-height:1.25"
         x="1315.355"
         y="3259.2202"
         id="tspan4438"> informateurs l'ont</tspan><tspan
         sodipodi:role="line"
         style="font-size:45px;line-height:1.25"
         x="1315.355"
         y="3315.4702"
         id="tspan7736"> aperçue ici récemment.</tspan></text>
    <text
       xml:space="preserve"
       style="font-style:normal;font-variant:normal;font-weight:normal;font-stretch:normal;line-height:0%;font-family:Lavi;-inkscape-font-specification:Lavi;text-align:center;letter-spacing:0px;word-spacing:0px;text-anchor:middle;fill:#000000;fill-opacity:1;stroke:none"
       x="1889.3441"
       y="3090.3679"
       id="text4246-3-3-7"><tspan
         sodipodi:role="line"
         style="font-style:normal;font-variant:normal;font-weight:bold;font-stretch:normal;font-size:45px;line-height:1.25;font-family:Lavi;-inkscape-font-specification:'Lavi Bold'"
         x="1889.3441"
         y="3090.3679"
         id="tspan67-0">GRrrr...</tspan><tspan
         sodipodi:role="line"
         x="1889.3441"
         y="3109.2876"
         id="tspan852-9" /></text>
    <text
       xml:space="preserve"
       style="font-style:normal;font-variant:normal;font-weight:normal;font-stretch:normal;line-height:0%;font-family:Lavi;-inkscape-font-specification:Lavi;text-align:center;letter-spacing:0px;word-spacing:0px;text-anchor:middle;fill:#000000;fill-opacity:1;stroke:none"
       x="1925.8291"
       y="3177.989"
       id="text4246-3-5-9-3-3-6-3"><tspan
         sodipodi:role="line"
         style="font-size:45px;line-height:1.25;fill:#000000"
         x="1925.8291"
         y="3177.989"
         id="tspan16856">     C'est donc là que vit</tspan><tspan
         sodipodi:role="line"
         style="font-size:45px;line-height:1.25;fill:#000000"
         x="1925.8291"
         y="3234.239"
         id="tspan20040"> cette <tspan
   style="font-weight:bold"
   id="tspan30754">menace</tspan> qui nuit à</tspan><tspan
         sodipodi:role="line"
         style="font-size:45px;line-height:1.25;fill:#000000"
         x="1925.8291"
         y="3290.489"
         id="tspan22918"> notre <tspan
   style="font-weight:bold"
   id="tspan35372">art de la guerre</tspan></tspan><tspan
         sodipodi:role="line"
         style="font-size:45px;line-height:1.25;fill:#000000"
         x="1925.8291"
         y="3346.739"
         id="tspan25724"> et <tspan
   style="font-weight:bold"
   id="tspan37930">nos traditions !</tspan></tspan><tspan
         sodipodi:role="line"
         style="font-size:45px;line-height:1.25;fill:#000000"
         x="1925.8291"
         y="3402.989"
         id="tspan13478" /><tspan
         sodipodi:role="line"
         style="font-size:45px;line-height:1.25;fill:#000000"
         x="1925.8291"
         y="3459.239"
         id="tspan13480" /><tspan
         sodipodi:role="line"
         style="font-size:45px;line-height:1.25;fill:#000000"
         x="1925.8291"
         y="3478.1587"
         id="tspan13482" /></text>
  </g>
</svg>
