<?xml version="1.0" encoding="UTF-8" standalone="no"?>
<!-- Created with Inkscape (http://www.inkscape.org/) -->

<svg
   xmlns:dc="http://purl.org/dc/elements/1.1/"
   xmlns:cc="http://creativecommons.org/ns#"
   xmlns:rdf="http://www.w3.org/1999/02/22-rdf-syntax-ns#"
   xmlns:svg="http://www.w3.org/2000/svg"
   xmlns="http://www.w3.org/2000/svg"
   xmlns:xlink="http://www.w3.org/1999/xlink"
   xmlns:sodipodi="http://sodipodi.sourceforge.net/DTD/sodipodi-0.dtd"
   xmlns:inkscape="http://www.inkscape.org/namespaces/inkscape"
   id="svg2"
   version="1.1"
   inkscape:version="0.92.2 5c3e80d, 2017-08-06"
   width="2481"
   height="3503"
   sodipodi:docname="E21P04.svg">
  <metadata
     id="metadata8">
    <rdf:RDF>
      <cc:Work
         rdf:about="">
        <dc:format>image/svg+xml</dc:format>
        <dc:type
           rdf:resource="http://purl.org/dc/dcmitype/StillImage" />
        <dc:title />
      </cc:Work>
    </rdf:RDF>
  </metadata>
  <defs
     id="defs6">
    <filter
       style="color-interpolation-filters:sRGB"
       id="filter4375-4-1-1-1-9"
       inkscape:label="deevad outline effect">
      <feFlood
         id="feFlood4377-7-9-0-8-1"
         flood-opacity="1"
         flood-color="rgb(0,0,0)"
         result="flood" />
      <feComposite
         id="feComposite4379-3-8-8-2-77"
         in2="SourceGraphic"
         in="flood"
         operator="in"
         result="composite1" />
      <feMorphology
         id="feMorphology4393-1-0-49-8-9"
         operator="dilate"
         radius="4"
         result="result3" />
      <feComposite
         id="feComposite4385-9-5-7-0-8"
         in2="result3"
         in="SourceGraphic"
         operator="over"
         result="composite2" />
    </filter>
    <filter
       style="color-interpolation-filters:sRGB"
       id="filter4375-4-1-1-1-9-6"
       inkscape:label="deevad outline effect">
      <feFlood
         id="feFlood4377-7-9-0-8-1-0"
         flood-opacity="1"
         flood-color="rgb(0,0,0)"
         result="flood" />
      <feComposite
         id="feComposite4379-3-8-8-2-77-6"
         in2="SourceGraphic"
         in="flood"
         operator="in"
         result="composite1" />
      <feMorphology
         id="feMorphology4393-1-0-49-8-9-2"
         operator="dilate"
         radius="4"
         result="result3" />
      <feComposite
         id="feComposite4385-9-5-7-0-8-6"
         in2="result3"
         in="SourceGraphic"
         operator="over"
         result="composite2" />
    </filter>
    <filter
       style="color-interpolation-filters:sRGB"
       id="filter4375-4-1-1-1-9-6-7"
       inkscape:label="deevad outline effect">
      <feFlood
         id="feFlood4377-7-9-0-8-1-0-9"
         flood-opacity="1"
         flood-color="rgb(0,0,0)"
         result="flood" />
      <feComposite
         id="feComposite4379-3-8-8-2-77-6-2"
         in2="SourceGraphic"
         in="flood"
         operator="in"
         result="composite1" />
      <feMorphology
         id="feMorphology4393-1-0-49-8-9-2-0"
         operator="dilate"
         radius="4"
         result="result3" />
      <feComposite
         id="feComposite4385-9-5-7-0-8-6-2"
         in2="result3"
         in="SourceGraphic"
         operator="over"
         result="composite2" />
    </filter>
    <filter
       style="color-interpolation-filters:sRGB"
       id="filter4375-4-1-1-1-9-6-7-5"
       inkscape:label="deevad outline effect">
      <feFlood
         id="feFlood4377-7-9-0-8-1-0-9-9"
         flood-opacity="1"
         flood-color="rgb(0,0,0)"
         result="flood" />
      <feComposite
         id="feComposite4379-3-8-8-2-77-6-2-2"
         in2="SourceGraphic"
         in="flood"
         operator="in"
         result="composite1" />
      <feMorphology
         id="feMorphology4393-1-0-49-8-9-2-0-2"
         operator="dilate"
         radius="4"
         result="result3" />
      <feComposite
         id="feComposite4385-9-5-7-0-8-6-2-8"
         in2="result3"
         in="SourceGraphic"
         operator="over"
         result="composite2" />
    </filter>
    <filter
       style="color-interpolation-filters:sRGB"
       id="filter4375-4-1-1-1-9-6-9-2-3"
       inkscape:label="deevad outline effect">
      <feFlood
         id="feFlood4377-7-9-0-8-1-0-2-2-6"
         flood-opacity="1"
         flood-color="rgb(0,0,0)"
         result="flood" />
      <feComposite
         id="feComposite4379-3-8-8-2-77-6-0-8-7"
         in2="SourceGraphic"
         in="flood"
         operator="in"
         result="composite1" />
      <feMorphology
         id="feMorphology4393-1-0-49-8-9-2-2-9-5"
         operator="dilate"
         radius="4"
         result="result3" />
      <feComposite
         id="feComposite4385-9-5-7-0-8-6-3-7-3"
         in2="result3"
         in="SourceGraphic"
         operator="over"
         result="composite2" />
    </filter>
    <filter
       style="color-interpolation-filters:sRGB"
       id="filter4375-4-1-1-1-9-6-9-2-2"
       inkscape:label="deevad outline effect">
      <feFlood
         id="feFlood4377-7-9-0-8-1-0-2-2-0"
         flood-opacity="1"
         flood-color="rgb(0,0,0)"
         result="flood" />
      <feComposite
         id="feComposite4379-3-8-8-2-77-6-0-8-6"
         in2="SourceGraphic"
         in="flood"
         operator="in"
         result="composite1" />
      <feMorphology
         id="feMorphology4393-1-0-49-8-9-2-2-9-1"
         operator="dilate"
         radius="4"
         result="result3" />
      <feComposite
         id="feComposite4385-9-5-7-0-8-6-3-7-5"
         in2="result3"
         in="SourceGraphic"
         operator="over"
         result="composite2" />
    </filter>
    <filter
       style="color-interpolation-filters:sRGB"
       id="filter4375-4-1-1-1-9-6-9-2"
       inkscape:label="deevad outline effect">
      <feFlood
         id="feFlood4377-7-9-0-8-1-0-2-2"
         flood-opacity="1"
         flood-color="rgb(0,0,0)"
         result="flood" />
      <feComposite
         id="feComposite4379-3-8-8-2-77-6-0-8"
         in2="SourceGraphic"
         in="flood"
         operator="in"
         result="composite1" />
      <feMorphology
         id="feMorphology4393-1-0-49-8-9-2-2-9"
         operator="dilate"
         radius="4"
         result="result3" />
      <feComposite
         id="feComposite4385-9-5-7-0-8-6-3-7"
         in2="result3"
         in="SourceGraphic"
         operator="over"
         result="composite2" />
    </filter>
    <filter
       style="color-interpolation-filters:sRGB"
       id="filter4375-4-1-1-1-9-6-9"
       inkscape:label="deevad outline effect">
      <feFlood
         id="feFlood4377-7-9-0-8-1-0-2"
         flood-opacity="1"
         flood-color="rgb(0,0,0)"
         result="flood" />
      <feComposite
         id="feComposite4379-3-8-8-2-77-6-0"
         in2="SourceGraphic"
         in="flood"
         operator="in"
         result="composite1" />
      <feMorphology
         id="feMorphology4393-1-0-49-8-9-2-2"
         operator="dilate"
         radius="4"
         result="result3" />
      <feComposite
         id="feComposite4385-9-5-7-0-8-6-3"
         in2="result3"
         in="SourceGraphic"
         operator="over"
         result="composite2" />
    </filter>
    <filter
       style="color-interpolation-filters:sRGB"
       id="filter4375-4-1-1-1-9-3"
       inkscape:label="deevad outline effect">
      <feFlood
         id="feFlood4377-7-9-0-8-1-6"
         flood-opacity="1"
         flood-color="rgb(0,0,0)"
         result="flood" />
      <feComposite
         id="feComposite4379-3-8-8-2-77-1"
         in2="SourceGraphic"
         in="flood"
         operator="in"
         result="composite1" />
      <feMorphology
         id="feMorphology4393-1-0-49-8-9-29"
         operator="dilate"
         radius="4"
         result="result3" />
      <feComposite
         id="feComposite4385-9-5-7-0-8-3"
         in2="result3"
         in="SourceGraphic"
         operator="over"
         result="composite2" />
    </filter>
    <filter
       style="color-interpolation-filters:sRGB"
       id="filter4375-4-1-1-1-9-6-9-2-2-4"
       inkscape:label="deevad outline effect">
      <feFlood
         id="feFlood4377-7-9-0-8-1-0-2-2-0-7"
         flood-opacity="1"
         flood-color="rgb(0,0,0)"
         result="flood" />
      <feComposite
         id="feComposite4379-3-8-8-2-77-6-0-8-6-8"
         in2="SourceGraphic"
         in="flood"
         operator="in"
         result="composite1" />
      <feMorphology
         id="feMorphology4393-1-0-49-8-9-2-2-9-1-4"
         operator="dilate"
         radius="4"
         result="result3" />
      <feComposite
         id="feComposite4385-9-5-7-0-8-6-3-7-5-5"
         in2="result3"
         in="SourceGraphic"
         operator="over"
         result="composite2" />
    </filter>
    <filter
       style="color-interpolation-filters:sRGB"
       id="filter4375-4-1-1-1-9-6-9-2-1"
       inkscape:label="deevad outline effect">
      <feFlood
         id="feFlood4377-7-9-0-8-1-0-2-2-06"
         flood-opacity="1"
         flood-color="rgb(0,0,0)"
         result="flood" />
      <feComposite
         id="feComposite4379-3-8-8-2-77-6-0-8-3"
         in2="SourceGraphic"
         in="flood"
         operator="in"
         result="composite1" />
      <feMorphology
         id="feMorphology4393-1-0-49-8-9-2-2-9-2"
         operator="dilate"
         radius="4"
         result="result3" />
      <feComposite
         id="feComposite4385-9-5-7-0-8-6-3-7-0"
         in2="result3"
         in="SourceGraphic"
         operator="over"
         result="composite2" />
    </filter>
  </defs>
  <sodipodi:namedview
     pagecolor="#ffffff"
     bordercolor="#666666"
     borderopacity="1"
     objecttolerance="10"
     gridtolerance="10"
     guidetolerance="10"
     inkscape:pageopacity="0"
     inkscape:pageshadow="2"
     inkscape:window-width="1280"
     inkscape:window-height="971"
     id="namedview4"
     showgrid="false"
     inkscape:zoom="0.2799099"
     inkscape:cx="1378.1179"
     inkscape:cy="1152.399"
     inkscape:window-x="0"
     inkscape:window-y="0"
     inkscape:window-maximized="1"
     inkscape:current-layer="layer3" />
  <g
     inkscape:groupmode="layer"
     id="layer2"
     inkscape:label="artwork"
     sodipodi:insensitive="true">
    <image
       sodipodi:absref="/run/media/zveryok/Media/Work/Not Done/Translation/ep21/uk/../gfx_Pepper-and-Carrot_by-David-Revoy_E21P04.png"
       xlink:href="../gfx_Pepper-and-Carrot_by-David-Revoy_E21P04.png"
       y="0"
       x="0"
       id="image10"
       height="3503"
       width="2481" />
  </g>
  <g
     inkscape:groupmode="layer"
     id="layer4"
     inkscape:label="transla-notes"
     style="display:inline">
    <path
       style="color:#000000;clip-rule:nonzero;display:inline;overflow:visible;visibility:visible;opacity:0.481;isolation:auto;mix-blend-mode:normal;color-interpolation:sRGB;color-interpolation-filters:linearRGB;solid-color:#000000;solid-opacity:1;fill:#ffe680;fill-opacity:1;fill-rule:nonzero;stroke:#565656;stroke-width:1.20000005;stroke-linecap:butt;stroke-linejoin:miter;stroke-miterlimit:4;stroke-dasharray:none;stroke-dashoffset:0;stroke-opacity:1;marker:none;color-rendering:auto;image-rendering:auto;shape-rendering:auto;text-rendering:auto;enable-background:accumulate"
       d="m -462.00591,562.85601 0,189.0351 203.83,0 0,-90.9805 10,0 0,15.6308 30.9825,-26.9824 -30.9825,-26.9804 0,16.6171 -10,0 0,-76.3397 -203.83,0 z"
       id="rect4191-6"
       inkscape:connector-curvature="0" />
    <flowRoot
       xml:space="preserve"
       id="flowRoot4212-7"
       style="font-style:normal;font-variant:normal;font-weight:normal;font-stretch:normal;line-height:0.01%;font-family:Neucha;-inkscape-font-specification:'Neucha, Normal';text-align:center;letter-spacing:0px;word-spacing:0px;writing-mode:lr-tb;text-anchor:middle;display:inline;opacity:0.481;fill:#000000;fill-opacity:1;stroke:none;stroke-width:1px;stroke-linecap:butt;stroke-linejoin:miter;stroke-opacity:1"
       transform="translate(-232.31551,-445.38759)"><flowRegion
         id="flowRegion4214-5"><rect
           id="rect4216-3"
           width="291.95547"
           height="247.52747"
           x="-275.14545"
           y="1061.6674" /></flowRegion><flowPara
         id="flowPara4218-5"
         style="font-size:25.3241539px;line-height:1.25">Edit this one,</flowPara><flowPara
         id="flowPara4562"
         style="font-size:25.3241539px;line-height:1.25">all other one</flowPara><flowPara
         id="flowPara4564"
         style="font-size:25.3241539px;line-height:1.25">are linked</flowPara></flowRoot>    <text
       xml:space="preserve"
       style="font-style:normal;font-variant:normal;font-weight:normal;font-stretch:normal;line-height:0%;font-family:Neucha;-inkscape-font-specification:Neucha;letter-spacing:0px;word-spacing:0px;fill:#000000;fill-opacity:1;stroke:#000000;stroke-width:0.99236238;stroke-miterlimit:4;stroke-dasharray:none;stroke-opacity:1;filter:url(#filter4375-4-1-1-1-9-6-9-2-1)"
       x="787.65729"
       y="1584.5073"
       id="text4580-1-7-3-6"
       transform="matrix(0.96380061,-0.56217228,-0.1779318,1.4896521,-677.83157,-1204.7396)"><tspan
         sodipodi:role="line"
         id="tspan4582-8-5-6-1"
         x="787.65729"
         y="1584.5073"
         style="font-size:70px;line-height:1.25;fill:#ffffff">Хлоп</tspan></text>
  </g>
  <g
     inkscape:groupmode="layer"
     id="layer3"
     inkscape:label="speechbubbles"
     style="display:inline">
    <path
       style="color:#000000;display:inline;overflow:visible;visibility:visible;fill:#fff6d5;fill-opacity:1;fill-rule:nonzero;stroke:none;stroke-width:1px;marker:none;enable-background:accumulate"
       d="m 864.55676,2080.5334 c 25.50869,1.737 31.18253,8.7417 40.02393,13.7645 -3.43934,2.0064 -8.9889,9.9212 -8.9889,9.9212 0,0 32.58215,10.7061 36.22844,16.7304 3.6465,6.0243 -15.3876,18.5407 -15.3876,18.5407 0,0 -32.24975,-22.2963 -46.26108,-27.2208 2.45492,-3.7397 10.19678,-11.1438 15.66548,-16.0353 0,0 -4.48105,-14.0884 -21.28027,-15.7007 z"
       id="path4456-3-7-5"
       inkscape:connector-curvature="0"
       sodipodi:nodetypes="cccscccc" />
    <path
       style="color:#000000;display:inline;overflow:visible;visibility:visible;fill:#fff6d5;fill-opacity:1;fill-rule:nonzero;stroke:none;stroke-width:1px;marker:none;enable-background:accumulate"
       d="m 757.3144,1742.177 c -21.0588,-42.0512 -43.598,-49.8896 -59.3716,-56.8038 -3.07396,2.9972 -9.9693,7.3028 -9.9693,7.3028 0,0 -29.9225,-15.6811 -43.10282,-18.946 -13.1803,-3.265 -16.1629,8.7756 -16.1629,8.7756 0,0 57.47284,31.5265 67.97578,40.8937 7.94803,-8.5554 13.39414,-11.7166 14.44681,-15.9662 10.06068,1.7404 38.18304,19.9826 46.18403,34.7439 z"
       id="path4456"
       inkscape:connector-curvature="0" />
    <path
       style="color:#000000;display:inline;overflow:visible;visibility:visible;fill:#fff6d5;fill-opacity:1;fill-rule:nonzero;stroke:none;stroke-width:1px;marker:none;enable-background:accumulate"
       d="m 740.45265,128.34696 c -30.95877,6.73167 -61.11558,18.86595 -93.00605,19.32047 l 25.40763,15.34606 c -10.98606,6.89774 -24.70452,5.6109 -37.49528,7.10322 l 14.36808,12.34245 c -26.12482,15.91471 -54.11624,17.40357 -81.20539,25.86495 l 26.53,19.3383 c 26.33144,-12.20851 50.34404,-29.13998 79.28368,-36.036 L 661.3675,178.01215 c 9.62284,-3.96451 19.42327,-7.49852 30.01724,-9.10951 l -17.60677,-15.52618 z"
       id="path4032"
       inkscape:connector-curvature="0"
       sodipodi:nodetypes="cccccccccccc" />
    <rect
       rx="55.90086"
       style="color:#000000;clip-rule:nonzero;display:inline;overflow:visible;visibility:visible;opacity:1;isolation:auto;mix-blend-mode:normal;color-interpolation:sRGB;color-interpolation-filters:linearRGB;solid-color:#000000;solid-opacity:1;fill:#fff6d5;fill-opacity:1;fill-rule:nonzero;stroke:none;stroke-width:2.42599463;stroke-linecap:butt;stroke-linejoin:miter;stroke-miterlimit:4;stroke-dasharray:none;stroke-dashoffset:0;stroke-opacity:1;marker:none;color-rendering:auto;image-rendering:auto;shape-rendering:auto;text-rendering:auto;enable-background:accumulate"
       id="rect4632-8"
       width="414.98215"
       height="255.16484"
       x="187.13895"
       y="126.61605"
       ry="64.207458" />
    <path
       style="color:#000000;display:inline;overflow:visible;visibility:visible;fill:#fff6d5;fill-opacity:1;fill-rule:nonzero;stroke:none;stroke-width:1px;marker:none;enable-background:accumulate"
       d="m 265.84298,339.73144 c -7.76502,18.40711 -51.56066,19.95061 -67.68309,16.20911 32.49905,20.5918 31.36604,33.3858 -12.75841,35.3724 73.99744,37.1119 13.52769,31.496 1.60037,40.9065 58.10183,12.7896 32.10648,28.7065 21.76248,44.5515 66.7821,0.5443 44.92736,25.9434 47.74216,46.17215 5.66145,-9.4922 32.55778,-38.39075 34.17613,-6.2142 44.17255,-30.69815 97.37727,-50.52775 101.6019,3.1943 17.79778,-27.02615 35.5423,-38.44845 34.17627,-6.2142 44.09764,-41.92455 96.93575,-36.42575 140.57275,-5.3922 -22.55635,-23.31165 -5.29513,-41.68585 28.57675,-37.13025 -4.74921,-12.5422 6.68736,-21.1637 32.51497,-26.2835 -34.32072,-7.5763 -40.64593,-15.3912 23.08007,-23.8012 -48.49185,-0.8135 -93.71074,-2.4802 -36.81936,-31.1607 -17.84838,-0.694 -60.19557,23.2379 -40.4517,-46.7992 -30.69134,22.4213 -63.43623,34.7962 -104.50139,-12.17081 -19.43405,23.46381 -53.14202,35.07461 -67.80673,5.7665 -5.2707,12.49461 -27.12627,17.19361 -45.67977,17.76341 -7.17468,-4.9631 -14.57466,-11.7041 -22.29682,-20.53611 -12.62106,18.54471 -31.50096,31.06901 -67.80658,5.7665 z"
       id="path3549-3-7"
       inkscape:connector-curvature="0"
       sodipodi:nodetypes="cccccccccccccccccccc" />
    <path
       style="color:#000000;display:inline;overflow:visible;visibility:visible;fill:#fff6d5;fill-opacity:1;fill-rule:nonzero;stroke:none;stroke-width:1px;marker:none;enable-background:accumulate"
       d="m 1676.3297,134.01506 c 31.4146,4.10878 62.4837,13.66842 94.2998,11.444 l -24.0297,17.42495 c 11.5263,5.95106 25.0883,3.51704 37.9592,3.93024 l -13.281,13.50516 c 27.3686,13.66521 55.3862,12.79882 83.09,18.95606 l -24.8127,21.49736 c -27.2635,-9.95478 -52.6128,-24.81052 -82.0291,-29.25256 l 11.779,-14.6549 c -9.9218,-3.14265 -19.9843,-5.84138 -30.676,-6.55727 l 16.2411,-16.94954 z"
       id="path4032-3"
       inkscape:connector-curvature="0"
       sodipodi:nodetypes="cccccccccccc" />
    <rect
       style="color:#000000;clip-rule:nonzero;display:inline;overflow:visible;visibility:visible;opacity:1;isolation:auto;mix-blend-mode:normal;color-interpolation:sRGB;color-interpolation-filters:linearRGB;solid-color:#000000;solid-opacity:1;fill:#fff6d5;fill-opacity:1;fill-rule:nonzero;stroke:none;stroke-width:2.47952628;stroke-linecap:butt;stroke-linejoin:miter;stroke-miterlimit:4;stroke-dasharray:none;stroke-dashoffset:0;stroke-opacity:1;marker:none;color-rendering:auto;image-rendering:auto;shape-rendering:auto;text-rendering:auto;enable-background:accumulate"
       id="rect4632-8-6"
       width="510.19485"
       height="252.78123"
       x="1817.1331"
       y="130.67297"
       ry="51.769714"
       rx="47.083267" />
    <path
       style="color:#000000;display:inline;overflow:visible;visibility:visible;fill:#fff6d5;fill-opacity:1;fill-rule:nonzero;stroke:none;stroke-width:1px;marker:none;enable-background:accumulate"
       d="m 1944.3793,342.99864 c -7.0162,18.40711 -46.5896,19.95061 -61.1577,16.20911 29.3658,20.5918 28.3421,33.3858 -11.5284,35.3724 66.8634,37.1119 12.2235,31.496 1.4462,40.9065 52.5002,12.7896 29.0111,28.7065 19.6643,44.5515 60.3436,0.5443 40.5958,25.9434 43.1393,46.17215 5.1157,-9.4922 29.419,-38.39075 30.8813,-6.2142 39.9137,-30.69815 87.9891,-50.52775 91.8063,3.1943 16.082,-27.02615 32.1157,-38.44845 30.8814,-6.2142 39.8462,-41.92455 87.5902,-36.42575 127.0201,-5.3922 -20.3816,-23.31165 -4.7847,-41.68585 25.8218,-37.13025 -4.2915,-12.5422 6.0426,-21.1637 29.38,-26.2835 -31.0118,-7.5763 -36.7271,-15.3912 20.8551,-23.8012 -43.8169,-0.8135 -84.6761,-2.4802 -33.2696,-31.1607 -16.1277,-0.694 -54.3921,23.2379 -36.5518,-46.7992 -27.7323,22.4213 -57.3203,34.7962 -94.4265,-12.17081 -17.5603,23.46381 -48.0185,35.07461 -61.2694,5.7665 -4.7626,12.49461 -24.5111,17.19361 -41.2758,17.76341 -6.483,-4.9631 -13.1695,-11.7041 -20.1472,-20.53611 -11.4042,18.54471 -28.464,31.06901 -61.2695,5.7665 z"
       id="path3549-3-7-7"
       inkscape:connector-curvature="0"
       sodipodi:nodetypes="cccccccccccccccccccc" />
    <rect
       style="color:#000000;clip-rule:nonzero;display:inline;overflow:visible;visibility:visible;opacity:1;isolation:auto;mix-blend-mode:normal;color-interpolation:sRGB;color-interpolation-filters:linearRGB;solid-color:#000000;solid-opacity:1;fill:#fff6d5;fill-opacity:1;fill-rule:nonzero;stroke:none;stroke-width:2.5999999;stroke-linecap:butt;stroke-linejoin:miter;stroke-miterlimit:4;stroke-dasharray:none;stroke-dashoffset:0;stroke-opacity:1;marker:none;color-rendering:auto;image-rendering:auto;shape-rendering:auto;text-rendering:auto;enable-background:accumulate"
       id="rect4632-8-6-1"
       width="560.97729"
       height="271.86139"
       x="119.13635"
       y="1593.1943"
       ry="51.769714"
       rx="51.769714" />
    <rect
       style="color:#000000;clip-rule:nonzero;display:inline;overflow:visible;visibility:visible;opacity:1;isolation:auto;mix-blend-mode:normal;color-interpolation:sRGB;color-interpolation-filters:linearRGB;solid-color:#000000;solid-opacity:1;fill:#fff6d5;fill-opacity:1;fill-rule:nonzero;stroke:none;stroke-width:2.41195917;stroke-linecap:butt;stroke-linejoin:miter;stroke-miterlimit:4;stroke-dasharray:none;stroke-dashoffset:0;stroke-opacity:1;marker:none;color-rendering:auto;image-rendering:auto;shape-rendering:auto;text-rendering:auto;enable-background:accumulate"
       id="rect4632-8-6-6"
       width="477.68121"
       height="194.82132"
       x="904.58069"
       y="2094.2979"
       ry="51.769718"
       rx="48.628716" />
    <path
       style="color:#000000;display:inline;overflow:visible;visibility:visible;fill:#fff6d5;fill-opacity:1;fill-rule:nonzero;stroke:none;stroke-width:0.9698177px;marker:none;enable-background:accumulate"
       d="m 1018.0405,2251.69 c -7.1743,18.4071 -47.63909,19.9506 -62.53529,16.2091 30.02732,20.5918 28.98044,33.3858 -11.78805,35.3724 68.36954,37.1119 12.4988,31.496 1.47869,40.9065 53.68282,12.7896 29.6646,28.7065 20.10729,44.5515 61.70286,0.5443 41.51026,25.9434 44.11106,46.1721 5.2308,-9.4922 30.0816,-38.3907 31.5767,-6.2142 40.8131,-30.6981 89.971,-50.5277 93.8744,3.1943 16.4443,-27.0261 32.8391,-38.4484 31.577,-6.2142 40.7438,-41.9245 89.5631,-36.4257 129.8813,-5.3922 -20.8408,-23.3116 -4.8924,-41.6858 26.4033,-37.1302 -4.3881,-12.5422 6.1788,-21.1637 30.042,-26.2835 -31.7104,-7.5763 -37.5546,-15.3912 21.3247,-23.8012 -44.8037,-0.8135 -86.5835,-2.4802 -34.0191,-31.1607 -16.4908,-0.694 -55.6172,23.2379 -37.3748,-46.7992 -28.3572,22.4213 -58.6117,34.7962 -96.5537,-12.1708 -17.9557,23.4638 -49.1001,35.0746 -62.6493,5.7665 -4.8701,12.4946 -25.0634,17.1936 -42.2057,17.7634 -6.6291,-4.9631 -13.4661,-11.7041 -20.601,-20.5361 -11.6612,18.5447 -29.105,31.069 -62.6495,5.7665 z"
       id="path3549-3-7-7-9"
       inkscape:connector-curvature="0"
       sodipodi:nodetypes="cccccccccccccccccccc" />
    <path
       style="color:#000000;display:inline;overflow:visible;visibility:visible;fill:#ffffff;fill-opacity:1;fill-rule:nonzero;stroke:none;stroke-width:0.93956411px;marker:none;enable-background:accumulate"
       d="m 1991.198,2241.8764 c -2.8876,-33.3777 6.1153,-30.4601 10.2409,-36.0441 -5.9115,-27.8694 2.3138,-60.2411 39.2131,-73.3715 8.789,-21.8074 38.8894,-38.0064 59.757,-19.9975 14.5802,-16.9028 37.8136,-16.7272 47.3804,-3.2455 10.2669,-14.8403 24.4292,1.8611 25.7189,5.3069 12.8466,-7.9487 30.8526,-2.1134 37.9335,6.2371 17.066,-11.7717 53.4537,6.9413 52.566,31.742 19.7656,18.0845 20.8936,39.2129 14.9401,51.9906 15.1703,14.865 23.2432,83.2302 -19.5417,89.6952 -11.9068,25.5554 -44.4928,36.6231 -59.6628,21.758 -20.6538,6.7163 -33.5943,12.904 -38.7536,-0.8796 -10.2666,14.8403 -36.8055,14.8911 -29.3062,-10.3625 -12.7707,16.6762 -28.0425,12.3891 -39.9733,2.0923 -19.8227,19.5442 -45.5061,12.2103 -45.2673,-7.0029 -28.0276,7.9819 -32.7896,-22.0028 -31.4905,-33.2056 -4.5177,-1.7115 -15.3354,-2.9909 -23.7545,-24.7129 z"
       id="path4043"
       inkscape:connector-curvature="0" />
    <path
       style="color:#000000;display:inline;overflow:visible;visibility:visible;fill:#ffffff;fill-opacity:1;fill-rule:nonzero;stroke:none;stroke-width:1px;marker:none;enable-background:accumulate"
       d="m 2094.2953,2350.6077 c 17.15,-17.4058 44.9166,-16.6147 42.4665,7.1205 12.25,10.2853 6.5333,39.5587 -41.6499,22.1529 -18.7831,-8.703 -25.3164,-26.1088 -0.8166,-29.2734 z"
       id="path4051"
       inkscape:connector-curvature="0" />
    <path
       style="color:#000000;display:inline;overflow:visible;visibility:visible;fill:#ffffff;fill-opacity:1;fill-rule:nonzero;stroke:none;stroke-width:1px;marker:none;enable-background:accumulate"
       d="m 2149.4946,2396.8348 c 4.5827,-1.0212 8.3975,1.1598 11.3791,4.1414 7.7521,-4.1742 29.8159,11.3301 -0.5963,19.6785 -11.33,2.9816 -22.6601,-9.5411 -14.3116,-14.9079 -3.2186,-3.2186 -1.0539,-7.8909 3.5288,-8.912 z"
       id="path4059"
       inkscape:connector-curvature="0"
       sodipodi:nodetypes="zcccz" />
  </g>
  <g
     inkscape:groupmode="layer"
     id="layer1"
     inkscape:label="txt"
     style="display:inline">
    <g
       id="g3474"
       transform="translate(13.604375,-5.7032813)">
      <text
         id="text4246-2-3-1-3-9-3-7-6"
         y="188.64041"
         x="383.40439"
         style="font-style:normal;font-variant:normal;font-weight:normal;font-stretch:normal;line-height:0%;font-family:Neucha;-inkscape-font-specification:Neucha;text-align:center;letter-spacing:0px;word-spacing:0px;text-anchor:middle;fill:#000000;fill-opacity:1;stroke:none;stroke-width:2.4000001;stroke-miterlimit:4;stroke-dasharray:none"
         xml:space="preserve"><tspan
           y="188.64041"
           x="383.40439"
           style="font-size:45px;line-height:1.25;stroke-width:2.4000001;stroke-miterlimit:4;stroke-dasharray:none"
           sodipodi:role="line"
           id="tspan3480">Ми маємо честь</tspan><tspan
           y="244.89041"
           x="383.40439"
           style="font-size:45px;line-height:1.25;stroke-width:2.4000001;stroke-miterlimit:4;stroke-dasharray:none"
           sodipodi:role="line"
           id="tspan4781">вітати адепта</tspan><tspan
           y="301.14041"
           x="383.40439"
           style="font-size:45px;line-height:1.25;stroke-width:2.4000001;stroke-miterlimit:4;stroke-dasharray:none"
           sodipodi:role="line"
           id="tspan4783">магії оживлення</tspan><tspan
           y="357.39041"
           x="383.40439"
           style="font-size:45px;line-height:1.25;stroke-width:2.4000001;stroke-miterlimit:4;stroke-dasharray:none"
           sodipodi:role="line"
           id="tspan4785">мертвих Зомбії ...</tspan></text>
    </g>
    <text
       xml:space="preserve"
       style="font-style:normal;font-variant:normal;font-weight:normal;font-stretch:normal;line-height:0%;font-family:Neucha;-inkscape-font-specification:Neucha;text-align:center;letter-spacing:0px;word-spacing:0px;text-anchor:middle;fill:#000000;fill-opacity:1;stroke:#000000;stroke-width:3.5321846;stroke-miterlimit:4;stroke-dasharray:none;stroke-opacity:1"
       x="480.07257"
       y="423.47269"
       id="text4246-2-3-1-3-9-3-7-9"
       transform="matrix(0.93835319,0,-0.12334078,1.0656968,0,0)"><tspan
         sodipodi:role="line"
         style="font-size:61.13397217px;line-height:1.25;stroke:#000000;stroke-width:3.5321846;stroke-miterlimit:4;stroke-dasharray:none;stroke-opacity:1"
         x="480.07257"
         y="423.47269"
         id="tspan4814-3">КОРІАНДРУ !</tspan></text>
    <use
       x="0"
       y="0"
       xlink:href="#use4531"
       id="use4615"
       transform="translate(-829.209,-2105.655)"
       width="100%"
       height="100%" />
    <use
       x="0"
       y="0"
       xlink:href="#use4533"
       id="use4617"
       transform="matrix(0.79456111,0,0,0.79456111,-670.68416,-1393.5251)"
       width="100%"
       height="100%" />
    <use
       x="0"
       y="0"
       xlink:href="#use4537"
       id="use4619"
       transform="matrix(0.79814913,-0.08198379,0.08198379,0.79814913,-1042.2306,-1204.8637)"
       width="100%"
       height="100%" />
    <use
       x="0"
       y="0"
       xlink:href="#use4541"
       id="use4621"
       transform="matrix(0.90154637,-0.0150643,0.01480904,0.88627,115.16869,-1447.5773)"
       width="100%"
       height="100%" />
    <use
       x="0"
       y="0"
       xlink:href="#use4623"
       id="use4625"
       transform="translate(-142.54958,64.037643)"
       width="100%"
       height="100%" />
    <use
       x="0"
       y="0"
       xlink:href="#use4543"
       id="use4623"
       transform="translate(221.06107,-1746.1536)"
       width="100%"
       height="100%" />
    <text
       xml:space="preserve"
       style="font-style:normal;font-variant:normal;font-weight:normal;font-stretch:normal;line-height:0%;font-family:Neucha;-inkscape-font-specification:Neucha;text-align:center;letter-spacing:0px;word-spacing:0px;text-anchor:middle;fill:#000000;fill-opacity:1;stroke:none;stroke-width:2.4000001;stroke-miterlimit:4;stroke-dasharray:none"
       x="2070.6387"
       y="189.82233"
       id="text4246-2-3-1-3-9-3-7-6-5"><tspan
         sodipodi:role="line"
         style="font-size:45px;line-height:1.25;stroke-width:2.4000001;stroke-miterlimit:4;stroke-dasharray:none"
         x="2070.6387"
         y="189.82233"
         id="tspan4199">У світу тварин та рослин</tspan><tspan
         sodipodi:role="line"
         style="font-size:45px;line-height:1.25;stroke-width:2.4000001;stroke-miterlimit:4;stroke-dasharray:none"
         x="2070.6387"
         y="246.07233"
         id="tspan4792">нема секретів від</tspan><tspan
         sodipodi:role="line"
         style="font-size:45px;line-height:1.25;stroke-width:2.4000001;stroke-miterlimit:4;stroke-dasharray:none"
         x="2070.6387"
         y="302.32233"
         id="tspan4794">відьми Хіппії!</tspan><tspan
         sodipodi:role="line"
         style="font-size:45px;line-height:1.25;stroke-width:2.4000001;stroke-miterlimit:4;stroke-dasharray:none"
         x="2070.6387"
         y="358.57233"
         id="tspan4201">Ласкаво просимо,</tspan></text>
    <text
       xml:space="preserve"
       style="font-style:normal;font-variant:normal;font-weight:normal;font-stretch:normal;line-height:0%;font-family:Neucha;-inkscape-font-specification:Neucha;text-align:center;letter-spacing:0px;word-spacing:0px;text-anchor:middle;fill:#000000;fill-opacity:1;stroke:#000000;stroke-width:3.5321846;stroke-miterlimit:4;stroke-dasharray:none;stroke-opacity:1"
       x="2267.2683"
       y="436.77911"
       id="text4246-2-3-1-3-9-3-7-9-5"
       transform="matrix(0.93835319,0,-0.12334078,1.0656968,0,0)"><tspan
         sodipodi:role="line"
         style="font-size:61.13397217px;line-height:1.25;stroke:#000000;stroke-width:3.5321846;stroke-miterlimit:4;stroke-dasharray:none;stroke-opacity:1"
         x="2267.2683"
         y="436.77911"
         id="tspan4814-3-3">РОМАШКА !</tspan></text>
    <use
       x="0"
       y="0"
       xlink:href="#use4617"
       id="use4633"
       transform="matrix(0.99489199,-0.10094516,0.10094516,0.99489199,1011.3205,86.175619)"
       width="100%"
       height="100%" />
    <use
       x="0"
       y="0"
       xlink:href="#use4615"
       id="use4635"
       transform="matrix(1.1838394,0,0,1.3004419,1240.6281,-150.25014)"
       width="100%"
       height="100%" />
    <use
       x="0"
       y="0"
       xlink:href="#use4617"
       id="use4637"
       transform="matrix(0.88647762,-0.08530562,0.08668772,0.90084017,1023.0424,331.39163)"
       width="100%"
       height="100%" />
    <use
       x="0"
       y="0"
       xlink:href="#use4623"
       id="use4627"
       transform="translate(906.97551,-112.68376)"
       width="100%"
       height="100%" />
    <use
       x="0"
       y="0"
       xlink:href="#use4621"
       id="use4631"
       transform="translate(1145.7141,60.482662)"
       width="100%"
       height="100%" />
    <use
       x="0"
       y="0"
       xlink:href="#use4625"
       id="use4629"
       transform="translate(1229.7934,-12.446269)"
       width="100%"
       height="100%" />
    <text
       xml:space="preserve"
       style="font-style:normal;font-variant:normal;font-weight:normal;font-stretch:normal;line-height:0%;font-family:Neucha;-inkscape-font-specification:Neucha;text-align:center;letter-spacing:0px;word-spacing:0px;text-anchor:middle;fill:#000000;fill-opacity:1;stroke:none;stroke-width:2.4000001;stroke-miterlimit:4;stroke-dasharray:none"
       x="398.0332"
       y="1652.3436"
       id="text4246-2-3-1-3-9-3-7-6-5-2"><tspan
         sodipodi:role="line"
         style="font-size:45px;line-height:1.25;stroke-width:2.4000001;stroke-miterlimit:4;stroke-dasharray:none"
         x="398.0332"
         y="1652.3436"
         id="tspan4250">А зараз завдяки нашим</tspan><tspan
         sodipodi:role="line"
         style="font-size:45px;line-height:1.25;stroke-width:2.4000001;stroke-miterlimit:4;stroke-dasharray:none"
         x="398.0332"
         y="1708.5936"
         id="tspan4796">техничним досягненням ми</tspan><tspan
         sodipodi:role="line"
         style="font-size:45px;line-height:1.25;stroke-width:2.4000001;stroke-miterlimit:4;stroke-dasharray:none"
         x="398.0332"
         y="1764.8436"
         id="tspan3495">маємо можливість вперше</tspan><tspan
         sodipodi:role="line"
         style="font-size:45px;line-height:1.25;stroke-width:2.4000001;stroke-miterlimit:4;stroke-dasharray:none"
         x="398.0332"
         y="1821.0936"
         id="tspan4809">представити в Комоні</tspan></text>
    <text
       xml:space="preserve"
       style="font-style:normal;font-variant:normal;font-weight:normal;font-stretch:normal;line-height:0%;font-family:Neucha;-inkscape-font-specification:Neucha;letter-spacing:0px;word-spacing:0px;fill:#000000;fill-opacity:1;stroke:#000000;stroke-width:0.99236238;stroke-miterlimit:4;stroke-dasharray:none;stroke-opacity:1;filter:url(#filter4375-4-1-1-1-9)"
       x="787.65729"
       y="1584.5073"
       id="text4580"
       transform="matrix(0.99081884,-0.60215222,-0.18291976,1.5955915,41.733769,1095.3675)"><tspan
         sodipodi:role="line"
         id="tspan4582"
         x="787.65729"
         y="1584.5073"
         style="font-size:70px;line-height:1.25;fill:#ffffff">шльоп!</tspan></text>
    <text
       xml:space="preserve"
       style="font-style:normal;font-variant:normal;font-weight:normal;font-stretch:normal;line-height:0%;font-family:Neucha;-inkscape-font-specification:Neucha;text-align:center;letter-spacing:0px;word-spacing:0px;text-anchor:middle;fill:#000000;fill-opacity:1;stroke:none;stroke-width:2.4000001;stroke-miterlimit:4;stroke-dasharray:none"
       x="1140.7861"
       y="2150.2944"
       id="text4246-2-3-1-3-9-3-7-6-5-4"><tspan
         sodipodi:role="line"
         style="font-size:45px;line-height:1.25;stroke-width:2.4000001;stroke-miterlimit:4;stroke-dasharray:none"
         x="1140.7861"
         y="2150.2944"
         id="tspan4689">... відьму морского дна,</tspan><tspan
         sodipodi:role="line"
         style="font-size:45px;line-height:1.25;stroke-width:2.4000001;stroke-miterlimit:4;stroke-dasharray:none"
         x="1140.7861"
         y="2206.5444"
         id="tspan4821">майстра</tspan><tspan
         sodipodi:role="line"
         style="font-size:45px;line-height:1.25;stroke-width:2.4000001;stroke-miterlimit:4;stroke-dasharray:none"
         x="1140.7861"
         y="2262.7944"
         id="tspan3499">незвичайної магії Акви</tspan><tspan
         sodipodi:role="line"
         style="font-size:45px;line-height:1.25;stroke-width:2.4000001;stroke-miterlimit:4;stroke-dasharray:none"
         x="1140.7861"
         y="2283.3499"
         id="tspan4691" /></text>
    <text
       xml:space="preserve"
       style="font-style:normal;font-variant:normal;font-weight:normal;font-stretch:normal;line-height:0%;font-family:Neucha;-inkscape-font-specification:Neucha;text-align:center;letter-spacing:0px;word-spacing:0px;text-anchor:middle;fill:#000000;fill-opacity:1;stroke:#000000;stroke-width:3.5321846;stroke-miterlimit:4;stroke-dasharray:none;stroke-opacity:1"
       x="1511.2008"
       y="2218.3601"
       id="text4246-2-3-1-3-9-3-7-9-5-3"
       transform="matrix(0.93835319,0,-0.12334078,1.0656968,0,0)"><tspan
         sodipodi:role="line"
         style="font-size:61.13397217px;line-height:1.25;stroke:#000000;stroke-width:3.5321846;stroke-miterlimit:4;stroke-dasharray:none;stroke-opacity:1"
         x="1511.2008"
         y="2218.3601"
         id="tspan4814-3-3-7">СПІРУЛІНУ !</tspan></text>
    <use
       x="0"
       y="0"
       xlink:href="#use4531"
       id="use4539"
       transform="matrix(0.99766312,0.06832494,-0.06832494,0.99766312,106.48716,20.35635)"
       width="100%"
       height="100%" />
    <use
       x="0"
       y="0"
       xlink:href="#use4531"
       id="use4543"
       transform="matrix(0.88115496,0.04946838,-0.05305626,0.82156758,195.75521,389.14199)"
       width="100%"
       height="100%" />
    <use
       x="0"
       y="0"
       xlink:href="#text4580-1-7-3-6"
       id="use4531"
       transform="matrix(0.77520109,0,0,0.77350724,1118.6134,2753.0811)"
       width="100%"
       height="100%" />
    <use
       x="0"
       y="0"
       xlink:href="#use4531"
       id="use4533"
       transform="matrix(1.3943222,0.02342648,-0.0210694,1.2540314,-214.21371,-797.72227)"
       width="100%"
       height="100%" />
    <use
       x="0"
       y="0"
       xlink:href="#use4533"
       id="use4535"
       transform="matrix(0.80574379,0.02924242,-0.03634386,0.7290677,517.27449,771.15955)"
       width="100%"
       height="100%" />
    <use
       x="0"
       y="0"
       xlink:href="#use4535"
       id="use4537"
       transform="matrix(1.3677664,-0.00784959,0.05996307,1.2741545,-671.4788,-781.424)"
       width="100%"
       height="100%" />
    <use
       x="0"
       y="0"
       xlink:href="#text4580-1-7-3-6"
       id="use4560"
       transform="matrix(0.99863528,0.05222618,-0.05222618,0.99863528,1332.977,2552.5961)"
       width="100%"
       height="100%" />
    <use
       x="0"
       y="0"
       xlink:href="#text4580-1-7-3-6"
       id="use4541"
       transform="matrix(0.74452441,0.02853948,-0.03939499,0.64274603,1208.3008,2659.8563)"
       width="100%"
       height="100%" />
    <text
       xml:space="preserve"
       style="font-style:normal;font-variant:normal;font-weight:normal;font-stretch:normal;line-height:0%;font-family:Neucha;-inkscape-font-specification:Neucha;text-align:center;letter-spacing:0px;word-spacing:0px;text-anchor:middle;fill:#000000;fill-opacity:1;stroke:none;stroke-width:2.4000001;stroke-miterlimit:4;stroke-dasharray:none"
       x="2145.2688"
       y="2163.6802"
       id="text4246-2-3-1-3-9-3-7-6-5-4-7"><tspan
         sodipodi:role="line"
         style="font-size:45px;line-height:1.25;stroke-width:2.4000001;stroke-miterlimit:4;stroke-dasharray:none"
         x="2151.553"
         y="2163.6802"
         id="tspan3501">Аква ?! </tspan><tspan
         sodipodi:role="line"
         style="font-size:45px;line-height:1.25;stroke-width:2.4000001;stroke-miterlimit:4;stroke-dasharray:none"
         x="2145.2688"
         y="2219.9302"
         id="tspan3505">Тут ?!</tspan><tspan
         sodipodi:role="line"
         style="font-size:45px;line-height:1.25;stroke-width:2.4000001;stroke-miterlimit:4;stroke-dasharray:none"
         x="2151.553"
         y="2276.1802"
         id="tspan4755">Неймовірно ! </tspan><tspan
         sodipodi:role="line"
         style="font-size:45px;line-height:1.25;stroke-width:2.4000001;stroke-miterlimit:4;stroke-dasharray:none"
         x="2151.553"
         y="2332.4302"
         id="tspan4749"> </tspan></text>
  </g>
</svg>
