<?xml version="1.0" encoding="UTF-8" standalone="no"?>
<!-- Created with Inkscape (http://www.inkscape.org/) -->

<svg
   xmlns:dc="http://purl.org/dc/elements/1.1/"
   xmlns:cc="http://creativecommons.org/ns#"
   xmlns:rdf="http://www.w3.org/1999/02/22-rdf-syntax-ns#"
   xmlns:svg="http://www.w3.org/2000/svg"
   xmlns="http://www.w3.org/2000/svg"
   xmlns:xlink="http://www.w3.org/1999/xlink"
   xmlns:sodipodi="http://sodipodi.sourceforge.net/DTD/sodipodi-0.dtd"
   xmlns:inkscape="http://www.inkscape.org/namespaces/inkscape"
   id="svg2"
   version="1.1"
   inkscape:version="0.92.4 5da689c313, 2019-01-14"
   width="2481"
   height="3503"
   sodipodi:docname="E28P08.svg">
  <metadata
     id="metadata8">
    <rdf:RDF>
      <cc:Work
         rdf:about="">
        <dc:format>image/svg+xml</dc:format>
        <dc:type
           rdf:resource="http://purl.org/dc/dcmitype/StillImage" />
        <dc:title />
      </cc:Work>
    </rdf:RDF>
  </metadata>
  <defs
     id="defs6" />
  <sodipodi:namedview
     pagecolor="#ffffff"
     bordercolor="#666666"
     borderopacity="1"
     objecttolerance="10"
     gridtolerance="10"
     guidetolerance="10"
     inkscape:pageopacity="0"
     inkscape:pageshadow="2"
     inkscape:window-width="1366"
     inkscape:window-height="713"
     id="namedview4"
     showgrid="false"
     inkscape:zoom="0.36415091"
     inkscape:cx="1230.3798"
     inkscape:cy="576.1699"
     inkscape:window-x="0"
     inkscape:window-y="27"
     inkscape:window-maximized="1"
     inkscape:current-layer="layer1" />
  <g
     inkscape:groupmode="layer"
     id="layer2"
     inkscape:label="artwork"
     sodipodi:insensitive="true">
    <image
       sodipodi:absref="/home/midgard/git/peppercarrot/comics/ep28_The-Festivities/lang/es/../gfx_Pepper-and-Carrot_by-David-Revoy_E28P08.png"
       xlink:href="../gfx_Pepper-and-Carrot_by-David-Revoy_E28P08.png"
       width="2481"
       height="3503"
       id="image10"
       x="0"
       y="0" />
  </g>
  <g
     inkscape:groupmode="layer"
     id="layer3"
     inkscape:label="speechbubbles">
    <path
       style="fill:#ffffff;fill-rule:evenodd;stroke:none;stroke-width:1.00988102px;stroke-linecap:butt;stroke-linejoin:miter;stroke-opacity:1"
       d="m 142.11152,1293.7385 c 19.84132,-36.1924 60.69107,-51.3273 73.52956,-55.2755 12.83849,-3.9483 69.69757,-18.0521 88.37175,-18.0521 18.67419,0 183.24032,-3.2902 215.92015,1.3161 32.67978,4.6063 93.37086,18.4252 112.04501,37.5084 18.67418,19.0832 51.29834,59.8916 49.55844,93.4676 -1.36338,26.31 3.25719,43.4897 -49.75556,59.2547 -53.01273,15.7649 -251.45325,20.114 -299.64665,19.0267 -48.19339,-1.0873 -129.49245,-2.7181 -169.25199,-15.765 -39.75957,-13.0469 -46.41349,-41.8588 -45.20866,-60.342 1.20483,-18.483 24.43795,-61.1389 24.43795,-61.1389 z"
       id="path1079"
       inkscape:connector-curvature="0"
       sodipodi:nodetypes="ccssssssssc" />
    <path
       style="fill:#ffffff;fill-rule:evenodd;stroke:none;stroke-width:1px;stroke-linecap:butt;stroke-linejoin:miter;stroke-opacity:1"
       d="m 227.53576,1416.2623 c -20.60902,44.7713 -22.74099,55.4311 -24.1623,72.4869 -1.42132,17.0557 14.92377,43.35 35.5328,50.4565 20.60902,7.1066 33.40083,29.8476 24.1623,45.482 -9.23853,15.6345 -46.19264,77.4615 23.45165,96.6493 -66.80167,-29.1369 -24.16231,-76.7509 -17.05575,-87.4107 7.10656,-10.6599 19.89837,-34.8222 -8.52787,-60.4058 -28.42624,-25.5836 -38.37542,-39.7967 0,-89.5427 38.37542,-49.7459 -33.40083,-27.7155 -33.40083,-27.7155 z"
       id="path1081"
       inkscape:connector-curvature="0"
       sodipodi:nodetypes="ccccccssc" />
    <path
       style="fill:#ffffff;fill-rule:evenodd;stroke:none;stroke-width:0.95624369px;stroke-linecap:butt;stroke-linejoin:miter;stroke-opacity:1"
       d="m 371.64971,2090.3614 c 17.85701,-33.5164 47.93197,-45.5479 76.12725,-44.6885 28.19528,0.8594 94.9241,7.7345 110.90143,7.7345 15.97732,0 87.40536,-4.297 120.29985,-2.5782 32.89449,1.7188 54.51086,13.7503 63.90929,29.2195 9.39843,15.469 15.97732,34.3757 12.21795,59.2981 -3.75937,24.9224 -26.31559,55.8607 -60.14992,63.5951 -33.83433,7.7346 -127.81859,7.7346 -176.69041,8.594 -48.87181,0.8594 -109.02173,-12.0315 -130.63811,-30.0788 -21.61638,-18.0472 -38.53355,-45.5479 -15.97733,-91.0957 z"
       id="path1083"
       inkscape:connector-curvature="0" />
    <path
       style="fill:#ffffff;fill-rule:evenodd;stroke:none;stroke-width:1px;stroke-linecap:butt;stroke-linejoin:miter;stroke-opacity:1"
       d="m 521.52769,2076.2416 c -21.62867,-11.7413 -40.78548,-28.4263 -40.78548,-37.6957 0,-9.2694 14.83108,-37.0777 -11.74127,-37.6957 -26.57236,-0.6179 -37.69567,6.1796 -37.07771,-3.7077 0.61796,-9.8874 8.03351,-25.9544 21.62866,-30.2802 -31.51605,12.3593 -34.60585,34.6059 -27.19031,40.7855 7.41554,6.1796 10.67283,9.5522 36.18391,8.6549 20.28805,2.4824 -29.05118,18.071 7.69137,66.7364 32.13401,21.6287 51.29083,-6.7975 51.29083,-6.7975 z"
       id="path1085"
       inkscape:connector-curvature="0"
       sodipodi:nodetypes="cscscsccc" />
    <path
       style="fill:#ffffff;fill-rule:evenodd;stroke:none;stroke-width:0.99999994px;stroke-linecap:butt;stroke-linejoin:miter;stroke-opacity:1"
       d="m 1196.7567,1374.4067 c -2.0612,-17.5917 -18.7863,-50.2645 -51.4246,-16.1368 13.4861,-40.6864 -2.0483,-45.8436 -20.2475,-47.7381 14.3275,-14.6662 26.8461,-29.914 8.3492,-55.134 24.1301,-8.2443 29.8524,-28.7456 21.6847,-58.496 24.2775,23.2401 46.106,36.0759 52.4648,-16.8093 7.8988,41.4017 36.9104,48.8809 51.4071,4.7067 -2.1364,34.4681 6.0078,43.2805 21.8243,32.946 -9.212,21.6913 -6.6421,38.149 8.3629,49.0828 -25.8737,22.9443 -22.3046,36.8913 4.6106,43.7038 -43.282,5.9825 -37.4678,34.4558 -39.319,55.8065 -20.9277,-33.2159 -62.9528,-0.075 -57.7125,8.0684 z"
       id="path1087"
       inkscape:connector-curvature="0"
       sodipodi:nodetypes="cccccccccccc" />
    <path
       style="fill:#ffffff;fill-rule:evenodd;stroke:none;stroke-width:1px;stroke-linecap:butt;stroke-linejoin:miter;stroke-opacity:1"
       d="m 1191.0392,1352.1713 c -8.4109,39.2505 -9.8127,49.5304 -9.8127,58.8758 0,9.3453 7.2361,5.602 12.611,1.6262 3.5164,-2.5819 16.3596,-20.7842 5.6125,8.1864 -10.7472,28.9706 -24.2979,69.1557 -28.0361,81.7719 10.2799,-22.4289 27.5688,-57.474 32.7088,-68.6884 5.1399,-11.2144 13.3039,-31.7117 15.4198,-37.8487 2.574,-7.4657 2.2967,-14.9288 -5.6521,-13.2604 -12.5951,3.9915 -24.253,31.4839 -4.6278,-16.1775 19.6253,-47.6613 11.2144,-117.2842 11.2144,-117.2842 z"
       id="path1089"
       inkscape:connector-curvature="0"
       sodipodi:nodetypes="csccccscccc" />
    <path
       style="fill:#ffffff;fill-rule:evenodd;stroke:none;stroke-width:0.96909076px;stroke-linecap:butt;stroke-linejoin:miter;stroke-opacity:1"
       d="m 1333.8656,1200.1939 c 1.2616,-32.2368 -10.0929,-33.2137 11.3545,-34.1905 21.4472,-0.9769 249.7988,-0.9769 291.432,-0.9769 41.6332,0 74.4351,18.5606 89.5744,44.9362 15.1394,26.3755 39.8268,77.0157 -10.6377,106.3218 -50.4644,29.3063 -198.7897,16.7643 -255.5622,14.8106 -56.7724,-1.9539 -118.5914,-7.8258 -133.7307,-35.1783 -15.1393,-27.3524 7.5697,-95.7229 7.5697,-95.7229 z"
       id="path1109"
       inkscape:connector-curvature="0"
       sodipodi:nodetypes="ccsccccc" />
    <path
       style="fill:#ffffff;fill-rule:evenodd;stroke:none;stroke-width:1px;stroke-linecap:butt;stroke-linejoin:miter;stroke-opacity:1"
       d="m 1639.998,1307.0864 c 41.353,7.5187 60.1499,15.9773 68.6085,23.4961 8.4586,7.5187 44.1726,33.8343 14.0976,68.6085 46.9921,-37.5937 7.5188,-93.0445 -46.0522,-115.6007 -15.0375,-3.7593 -36.6539,23.4961 -36.6539,23.4961 z"
       id="path1111"
       inkscape:connector-curvature="0"
       sodipodi:nodetypes="ccccc" />
    <path
       style="fill:#ffffff;fill-rule:evenodd;stroke:none;stroke-width:1.02643478px;stroke-linecap:butt;stroke-linejoin:miter;stroke-opacity:1"
       d="m 1994.6592,2029.8824 c -4.0866,-20.7063 2.2035,-43.7634 18.9017,-59.0129 23.3136,-21.6058 57.0834,-29.674 88.5246,-29.892 14.9504,-0.1185 29.7514,2.2265 43.8643,6.3156 46.8835,6.9884 95.5908,-6.3986 141.9829,4.2362 19.5062,4.6142 38.0598,15.4836 47.8772,32.1004 17.2119,37.3095 16.1508,79.391 14.3849,119.721 -0.7778,11.4361 -0.5076,22.9404 -1.7867,34.3318 -4.908,27.7236 -24.8992,52.4824 -51.3605,65.8899 -26.4817,13.8235 -57.5198,18.5033 -86.9671,15.5081 -46.5567,2.5519 -94.7106,5.5455 -139.1709,-8.2579 -28.5612,-9.0902 -55.5764,-26.7126 -68.0212,-53.099 -15.2183,-30.8918 -12.9664,-66.3485 -10.3008,-99.8921 0.7431,-9.3144 1.5487,-18.6275 2.0716,-27.9491 z"
       id="path1113"
       inkscape:connector-curvature="0" />
    <path
       style="fill:#ffffff;fill-rule:evenodd;stroke:none;stroke-width:1px;stroke-linecap:butt;stroke-linejoin:miter;stroke-opacity:1"
       d="m 1888.6765,2156.0399 c 42.1519,38.9095 103.7586,57.2834 162.1228,3.2424 58.3643,-54.0409 82.1423,-58.3642 82.1423,-58.3642 0,0 -3.2425,50.7985 -58.3642,83.2231 -55.1218,32.4245 -125.375,41.0711 -185.9009,-28.1013 z"
       id="path1128"
       inkscape:connector-curvature="0" />
  </g>
  <g
     inkscape:groupmode="layer"
     id="layer1"
     inkscape:label="txt">
    <text
       xml:space="preserve"
       style="font-style:normal;font-variant:normal;font-weight:normal;font-stretch:normal;line-height:0%;font-family:Lavi;-inkscape-font-specification:Lavi;text-align:center;letter-spacing:0px;word-spacing:0px;text-anchor:middle;fill:#000000;fill-opacity:1;stroke:none"
       x="398.51514"
       y="1276.4037"
       id="text4246"><tspan
         sodipodi:role="line"
         style="font-size:45px;line-height:1.20000005"
         x="398.51514"
         y="1276.4037"
         id="tspan823">Por cierto,</tspan><tspan
         sodipodi:role="line"
         style="font-size:45px;line-height:1.20000005"
         x="398.51514"
         y="1330.4037"
         id="tspan825">Pepper, al fin he</tspan><tspan
         sodipodi:role="line"
         style="font-size:45px;line-height:1.20000005"
         x="398.51514"
         y="1384.4037"
         id="tspan827">conocido a tus madrinas.</tspan></text>
    <text
       xml:space="preserve"
       style="font-style:normal;font-variant:normal;font-weight:normal;font-stretch:normal;line-height:0%;font-family:Lavi;-inkscape-font-specification:Lavi;text-align:center;letter-spacing:0px;word-spacing:0px;text-anchor:middle;fill:#000000;fill-opacity:1;stroke:none"
       x="559.51831"
       y="2120.9434"
       id="text4246-3"><tspan
         sodipodi:role="line"
         style="font-size:45px;line-height:1.20000005"
         x="559.51831"
         y="2120.9434"
         id="tspan827-3">Es cierto que son</tspan><tspan
         sodipodi:role="line"
         style="font-size:45px;line-height:1.20000005"
         x="559.51831"
         y="2174.9434"
         id="tspan872">«especiales».</tspan></text>
    <text
       xml:space="preserve"
       style="font-style:normal;font-variant:normal;font-weight:normal;font-stretch:normal;font-size:24.34302139px;line-height:0%;font-family:Lavi;-inkscape-font-specification:Lavi;text-align:center;letter-spacing:0px;word-spacing:0px;text-anchor:middle;fill:#000000;fill-opacity:1;stroke:none;stroke-width:0.99999994"
       x="1522.0032"
       y="1199.5613"
       id="text4246-3-5"
       transform="matrix(0.91106211,0,-0.15422983,1.09762,0,0)"><tspan
         sodipodi:role="line"
         style="font-size:91.28633118px;line-height:1.20000005;stroke-width:0.99999994"
         x="1522.0032"
         y="1199.5613"
         id="tspan872-2">!!!</tspan></text>
    <text
       xml:space="preserve"
       style="font-style:normal;font-variant:normal;font-weight:normal;font-stretch:normal;line-height:0%;font-family:Lavi;-inkscape-font-specification:Lavi;text-align:center;letter-spacing:0px;word-spacing:0px;text-anchor:middle;fill:#000000;fill-opacity:1;stroke:none"
       x="1538.0366"
       y="1231.6084"
       id="text4246-3-9"><tspan
         sodipodi:role="line"
         style="font-size:45px;line-height:1.20000005"
         x="1538.0366"
         y="1231.6084"
         id="tspan872-27">Quiero decir...</tspan><tspan
         sodipodi:role="line"
         style="font-size:45px;line-height:1.20000005"
         x="1538.0366"
         y="1285.6084"
         id="tspan920">que tienes suerte.</tspan></text>
    <text
       xml:space="preserve"
       style="font-style:normal;font-variant:normal;font-weight:normal;font-stretch:normal;line-height:0%;font-family:Lavi;-inkscape-font-specification:Lavi;text-align:center;letter-spacing:0px;word-spacing:0px;text-anchor:middle;fill:#000000;fill-opacity:1;stroke:none"
       x="2175.0884"
       y="2009.5469"
       id="text4246-3-9-0"><tspan
         sodipodi:role="line"
         style="font-size:45px;line-height:1.20000005"
         x="2175.0884"
         y="2009.5469"
         id="tspan920-3">Estoy segura</tspan><tspan
         sodipodi:role="line"
         style="font-size:45px;line-height:1.20000005"
         x="2182.1196"
         y="2063.5469"
         id="tspan64">de que te dejan </tspan><tspan
         sodipodi:role="line"
         style="font-size:45px;line-height:1.20000005"
         x="2175.0884"
         y="2117.5469"
         id="tspan66">hacer todo</tspan><tspan
         sodipodi:role="line"
         style="font-size:45px;line-height:1.20000005"
         x="2175.0884"
         y="2171.5469"
         id="tspan949">lo que quieras.</tspan></text>
    <text
       xml:space="preserve"
       style="font-style:normal;font-variant:normal;font-weight:normal;font-stretch:normal;line-height:0%;font-family:Lavi;-inkscape-font-specification:Lavi;text-align:center;letter-spacing:0px;word-spacing:0px;text-anchor:middle;fill:#000000;fill-opacity:1;stroke:none"
       x="607.23407"
       y="2372.322"
       id="text4246-3-9-0-6"><tspan
         sodipodi:role="line"
         style="font-size:45px;line-height:1.20000005"
         x="607.23407"
         y="2372.322"
         id="tspan6825">Como dejar de lado</tspan><tspan
         sodipodi:role="line"
         style="font-size:45px;line-height:1.20000005"
         x="607.23407"
         y="2426.322"
         id="tspan78">los protocolos</tspan><tspan
         sodipodi:role="line"
         style="font-size:45px;line-height:1.20000005"
         x="607.23407"
         y="2480.322"
         id="tspan82">y poses oficiales</tspan><tspan
         sodipodi:role="line"
         style="font-size:45px;line-height:1.20000005"
         x="607.23407"
         y="2534.322"
         id="tspan84">sin preocuparte</tspan><tspan
         sodipodi:role="line"
         style="font-size:45px;line-height:1.20000005"
         x="607.23407"
         y="2588.322"
         id="tspan6870">por la diplomacia.</tspan></text>
    <text
       xml:space="preserve"
       style="font-style:normal;font-variant:normal;font-weight:normal;font-stretch:normal;line-height:0%;font-family:Lavi;-inkscape-font-specification:Lavi;text-align:center;letter-spacing:0px;word-spacing:0px;text-anchor:middle;fill:#000000;fill-opacity:1;stroke:none"
       x="1362.5385"
       y="2357.7888"
       id="text4246-3-9-0-6-1"><tspan
         sodipodi:role="line"
         style="font-size:45px;line-height:1.20000005"
         x="1362.5385"
         y="2357.7888"
         id="tspan865">O bailar y divertirte</tspan><tspan
         sodipodi:role="line"
         style="font-size:45px;line-height:1.20000005"
         x="1362.5385"
         y="2411.7888"
         id="tspan100">sin importar</tspan><tspan
         sodipodi:role="line"
         style="font-size:45px;line-height:1.20000005"
         x="1362.5385"
         y="2465.7888"
         id="tspan102">lo que la gente</tspan><tspan
         sodipodi:role="line"
         style="font-size:45px;line-height:1.20000005"
         x="1362.5385"
         y="2519.7888"
         id="tspan869">pueda pensar.</tspan></text>
    <text
       xml:space="preserve"
       style="font-style:normal;font-variant:normal;font-weight:normal;font-stretch:normal;line-height:0%;font-family:Lavi;-inkscape-font-specification:Lavi;text-align:center;letter-spacing:0px;word-spacing:0px;text-anchor:middle;fill:#000000;fill-opacity:1;stroke:none"
       x="1873.4949"
       y="2360.502"
       id="text4246-3-9-0-6-1-0"><tspan
         sodipodi:role="line"
         style="font-size:45px;line-height:1.20000005"
         x="1880.5261"
         y="2360.502"
         id="tspan1075">¡O saborear </tspan><tspan
         sodipodi:role="line"
         style="font-size:45px;line-height:1.20000005"
         x="1880.5261"
         y="2414.502"
         id="tspan116">toda la comida </tspan><tspan
         sodipodi:role="line"
         style="font-size:45px;line-height:1.20000005"
         x="1880.5261"
         y="2468.502"
         id="tspan118">del buffet sin </tspan><tspan
         sodipodi:role="line"
         style="font-size:45px;line-height:1.20000005"
         x="1880.5261"
         y="2522.502"
         id="tspan134">temor de que </tspan><tspan
         sodipodi:role="line"
         style="font-size:45px;line-height:1.20000005"
         x="1873.4949"
         y="2576.502"
         id="tspan881">te vean!</tspan></text>
  </g>
</svg>